{
    "pagination": {
        "page": 84,
        "from": 1660,
        "to": 1680,
        "pageSize": 20,
        "lastPage": 358,
        "totalRecords": 7149
    },
    "list": [
        {
            "id": 2174,
            "name": "Coelho Jiu-Jitsu",
            "federationAbbr": "CBJJ",
            "country": "Brasil",
            "countryAbbr": "BR",
            "city": "Florianópolis",
            "responsible": "Isaky Anderson Coelho",
            "address": "Rua Professor Esidio Ferreira - 1119, Monte Cristo, Florianópolis, SC, Brasil",
            "website": null
        },
        {
            "id": 7048,
            "name": "Coelho Jiu-Jitsu International",
            "federationAbbr": "IBJJF",
            "country": "Chile",
            "countryAbbr": "CL",
            "city": "Valavia",
            "responsible": "Isaky Anderson Coelho",
            "address": "Av Matta, 225 Las Animas, Valavia, --, Chile",
            "website": null
        },
        {
            "id": 8370,
            "name": "Coelhobros Jiu-Jitsu",
            "federationAbbr": "CBJJ",
            "country": "Brasil",
            "countryAbbr": "BR",
            "city": "Palhoça ",
            "responsible": "Marcos José Coelho",
            "address": "Rua Inocêncio Chaves De Souza, 302 , Casa , Palhoça , Santa Catarina , Brasil",
            "website": null
        },
        {
            "id": 4121,
            "name": "Cohab Chile",
            "federationAbbr": "IBJJF",
            "country": "Chile",
            "countryAbbr": "CL",
            "city": "Vina Del Mar",
            "responsible": "Andres Perez Belmar",
            "address": "Los Mirlos 220, Renaca, Vina Del Mar, --, Chile",
            "website": "www.cohab.cl"
        },
        {
            "id": 8547,
            "name": "Cohab Team Brazilian Jiu-Jitsu",
            "federationAbbr": "CBJJ",
            "country": "Brasil",
            "countryAbbr": "BR",
            "city": "São Paulo",
            "responsible": "Edevair Roni da Silva",
            "address": "Rua Professor Francisco Pinheiro, 1043, São Paulo, São Paulo, Brasil",
            "website": "São Paulo "
        },
        {
            "id": 7160,
            "name": "Cohen BJJ Team",
            "federationAbbr": "CBJJ",
            "country": "Brasil",
            "countryAbbr": "BR",
            "city": "Manaus",
            "responsible": "Alessandro Cohen Melo",
            "address": "Avenida Nhamundá, 2332 - Praça 14 De Janeiro, Praça 14 de Janeiro, Manaus, Am, Brasil",
            "website": null
        },
        {
            "id": 2446,
            "name": "Coimbra MMA",
            "federationAbbr": "FPJJB",
            "country": "Portugal",
            "countryAbbr": "PT",
            "city": "Coimbra",
            "responsible": "Rafael Sampaio de Oliveira Queiroz Silveira",
            "address": "Rua Anteno Quental, 263/612, Coimbra, --, Portugal",
            "website": "www.coimbramma.com"
        },
        {
            "id": 3624,
            "name": "Colantuono Brazilian Jiu Jitsu Academy",
            "federationAbbr": "USBJJF",
            "country": "United States of America",
            "countryAbbr": "US",
            "city": "Levittown",
            "responsible": "Anthony Vincent Colantuono",
            "address": "5909 Bristol-Emilie Road  , , Levittown, PA, United States of America",
            "website": "www.revolutionacademy.net"
        },
        {
            "id": 9226,
            "name": "Colectivo Jiu-Jitsu",
            "federationAbbr": "IBJJF",
            "country": "Dominican Republic",
            "countryAbbr": "DO",
            "city": "Santo Domingo",
            "responsible": "Javier Enrique Custodio Munoz",
            "address": "Leonor Feltz, 38, Mirador Sur, Santo Domingo, Distrito Nacional, Dominican Republic",
            "website": "www.colectivojj.com"
        },
        {
            "id": 7497,
            "name": "Colhado Brazilian Jiu-Jitsu Academy",
            "federationAbbr": "USBJJF",
            "country": "United States of America",
            "countryAbbr": "US",
            "city": "San Francisco",
            "responsible": "Matheus Gomes Colhado",
            "address": "603 Taraval Street, San Francisco, CA, United States of America",
            "website": "colhadobrazilianjiujitsu.com"
        },
        {
            "id": 2172,
            "name": "Colisão Jiu-Jitsu",
            "federationAbbr": "CBJJ",
            "country": "Brasil",
            "countryAbbr": "BR",
            "city": "São Paulo",
            "responsible": "Carlos Alexandre de Souza",
            "address": "Rua Henry Charles Potel, 37, Jd. Elisio, São Paulo, SP, Brasil",
            "website": "www.academiacolisao.com.br"
        },
        {
            "id": 10085,
            "name": "Colisão Jiu-Jitsu USA",
            "federationAbbr": "USBJJF",
            "country": "United States of America",
            "countryAbbr": "US",
            "city": "Grand Terrace",
            "responsible": "Everlando Aparecido Aureliano",
            "address": "22780 Robin Way, Grand Terrace, CA, United States of America",
            "website": null
        },
        {
            "id": 7852,
            "name": "Collective Martial Arts",
            "federationAbbr": "IBJJF",
            "country": "Australia",
            "countryAbbr": "AU",
            "city": "Tweed Hwads West ",
            "responsible": "Alexandre Marciano Ricardo",
            "address": "54-58 Gollan Drive , Tweed Hwads West , Nsw, Australia",
            "website": " http://www.collectivemartialarts.com/"
        },
        {
            "id": 8722,
            "name": "College Park Mixed Martial Arts",
            "federationAbbr": "USBJJF",
            "country": "United States of America",
            "countryAbbr": "US",
            "city": "Beltsville",
            "responsible": "Joshua Daniel Peters",
            "address": "11890 Old Baltimore Pike, E, Beltsville, Md, United States of America",
            "website": null
        },
        {
            "id": 5483,
            "name": "Colorado BJJ",
            "federationAbbr": "USBJJF",
            "country": "United States of America",
            "countryAbbr": "US",
            "city": "Denver",
            "responsible": "Sean Christopher Stewart",
            "address": "4605 Quebec St., Unit B5, Denver, CO, United States of America",
            "website": "www.jiujitsucolorado.com"
        },
        {
            "id": 8723,
            "name": "Colorado Victory MMA",
            "federationAbbr": "USBJJF",
            "country": "United States of America",
            "countryAbbr": "US",
            "city": "Colorado Springs",
            "responsible": "Gilbert Smith jr",
            "address": "254 S. Academy Blvd, Suite B, Colorado Springs, Co, United States of America",
            "website": null
        },
        {
            "id": 10429,
            "name": "Columbia Combat Club",
            "federationAbbr": "USBJJF",
            "country": "United States of America",
            "countryAbbr": "US",
            "city": "Ellicott City",
            "responsible": "Jesse Henry Ingram",
            "address": "10740 Md-108, Ellicott City, Maryland, United States of America",
            "website": null
        },
        {
            "id": 5015,
            "name": "Combat Arts Strength and Conditioning",
            "federationAbbr": "USBJJF",
            "country": "United States of America",
            "countryAbbr": "US",
            "city": "Salt Lake City",
            "responsible": "John Thomas McKean",
            "address": "370 South 300 East  #BSMT, Salt Lake City, UT, United States of America",
            "website": "combatartssc.com"
        },
        {
            "id": 2294,
            "name": "Combat Base",
            "federationAbbr": "USBJJF",
            "country": "United States of America",
            "countryAbbr": "US",
            "city": "Redondo Beach",
            "responsible": "Christopher Bard Haueter",
            "address": "1041 Avenue D  , , Redondo Beach, CA, United States of America",
            "website": "www.combatebase.om"
        },
        {
            "id": 8494,
            "name": "Combat Base Kalamazoo",
            "federationAbbr": "USBJJF",
            "country": "United States of America",
            "countryAbbr": "US",
            "city": "Kalamazoo",
            "responsible": "Ronald E Blake III",
            "address": "1348 King Hwy, Kalamazoo, Mi, United States of America",
            "website": null
        }
    ]
}