{
    "pagination": {
        "page": 187,
        "from": 3720,
        "to": 3740,
        "pageSize": 20,
        "lastPage": 358,
        "totalRecords": 7149
    },
    "list": [
        {
            "id": 8897,
            "name": "Horizont Jiu Jitsu",
            "federationAbbr": "CBJJ",
            "country": "Brasil",
            "countryAbbr": "BR",
            "city": "Rio De Janeiro",
            "responsible": "Pedro Buarque Bisaglia",
            "address": "Rua Nascimento Silva 4, Bloco A Apto 1103, Rio De Janeiro, Rio De Janeiro, Brasil",
            "website": "www.horizont.com.br"
        },
        {
            "id": 7413,
            "name": "Horto Jiu-Jitsu",
            "federationAbbr": "CBJJ",
            "country": "Brasil",
            "countryAbbr": "BR",
            "city": "Rio de Janeiro",
            "responsible": "Edmilson de Souza Messias",
            "address": "Rua Modesto Brocos n: 9, Quadra Poliesportiva - Horto-Jardim Botânico, Rio de Janeiro, Rio de Janeiro, Brasil",
            "website": null
        },
        {
            "id": 9321,
            "name": "HOTTIS JIU JITSU",
            "federationAbbr": "CBJJ",
            "country": "Brasil",
            "countryAbbr": "BR",
            "city": "Rio De Janeiro",
            "responsible": "Raphael Hottis P. de Vasconcelos",
            "address": "Rua Itapiru, 1504, Rio De Janeiro, Rio De Janeiro (rj), Brasil",
            "website": null
        },
        {
            "id": 6067,
            "name": "House Of Jiu-Jitsu",
            "federationAbbr": "CBJJ",
            "country": "Brasil",
            "countryAbbr": "BR",
            "city": "Barueri",
            "responsible": "Francisco Santana Souza Junior",
            "address": "Rua Vicente de Carvalho n: 187, 2 andar - Melville, Barueri, São Paulo, Brasil",
            "website": null
        },
        {
            "id": 3613,
            "name": "House Open Fight",
            "federationAbbr": "CBJJ",
            "country": "Brasil",
            "countryAbbr": "BR",
            "city": "Rio De Janeiro",
            "responsible": "Silvio Renato da Silva Cunha",
            "address": "Rua Cosmorama 900, Edson Passos /mesquita Condominio Beija Flor 1 Rua Sabia 52, Rio De Janeiro, Rj, Brasil",
            "website": null
        },
        {
            "id": 8013,
            "name": "House Piracicaba Jiu-Jitsu",
            "federationAbbr": "CBJJ",
            "country": "Brasil",
            "countryAbbr": "BR",
            "city": "Piracicaba",
            "responsible": "Marcio Luis Guadagnini",
            "address": "Rua Benjamin Constant, 2485, Piracicaba, Sp, Brasil",
            "website": null
        },
        {
            "id": 10441,
            "name": "House Santa Terezinha Jiu-Jitsu",
            "federationAbbr": "CBJJ",
            "country": "Brasil",
            "countryAbbr": "BR",
            "city": "Piracicaba",
            "responsible": "Marcio Luis Guadagnini",
            "address": "Rua Corcovado 1183  Jardim Taiguara, Piso Superior, Piracicaba, São Paulo, Brasil",
            "website": null
        },
        {
            "id": 6807,
            "name": "Houston Elite Mixed Martial Arts",
            "federationAbbr": "USBJJF",
            "country": "United States of America",
            "countryAbbr": "US",
            "city": "Houston",
            "responsible": "Robert Jon Yamashita",
            "address": "11380 Westheimer, Houston, TX, United States of America",
            "website": "www.elite-mma.com"
        },
        {
            "id": 7693,
            "name": "Houzn Jiu-Jitsu Academy",
            "federationAbbr": "USBJJF",
            "country": "United States of America",
            "countryAbbr": "US",
            "city": "Mount pleasant ",
            "responsible": "Rafaello Oliveira Cavalcanti Ferreira",
            "address": "483 long point road , Mount pleasant , SC, United States of America",
            "website": "houznjiujitsu.academy"
        },
        {
            "id": 9327,
            "name": "Hoyokutensho Jiu-Jitsu",
            "federationAbbr": "IBJJF",
            "country": "Italy",
            "countryAbbr": "IT",
            "city": "Rome",
            "responsible": "Julio Alejandro Gonzales",
            "address": "Via Gallese 28, Rome, Rm, Italy",
            "website": null
        },
        {
            "id": 10485,
            "name": "HST Jiu Jitsu",
            "federationAbbr": "CBJJ",
            "country": "Brasil",
            "countryAbbr": "BR",
            "city": "São Paulo",
            "responsible": "Hernandes Pereira da Silva",
            "address": "Av Nordestina, 4529, São Paulo, Sp, Brasil",
            "website": null
        },
        {
            "id": 8476,
            "name": "Hugo Mayer BJJ",
            "federationAbbr": "CBJJ",
            "country": "Brasil",
            "countryAbbr": "BR",
            "city": "Rio De Janeiro",
            "responsible": "Hugo Mayer Lima",
            "address": "Rua Conde De Bonfim Número 716 Apto 1002, Rio De Janeiro, Rio De Janeiro, Brasil",
            "website": null
        },
        {
            "id": 9849,
            "name": "Hulksports",
            "federationAbbr": "IBJJF",
            "country": "Ecuador",
            "countryAbbr": "EC",
            "city": "Quito",
            "responsible": "Fernando Dario Cardenas",
            "address": "Jose Andrade Y Joaquin Mancheno, Quito, Ecuador",
            "website": null
        },
        {
            "id": 10731,
            "name": "Human Chess Combat Club",
            "federationAbbr": "USBJJF",
            "country": "United States of America",
            "countryAbbr": "US",
            "city": "York",
            "responsible": "Kham Kone Francisco de Jasso Ngondara",
            "address": "1515 Angel Dr, York, Pa, United States of America",
            "website": "York, Pennsylvania, USA"
        },
        {
            "id": 5731,
            "name": "Hunos Jiu-Jitsu",
            "federationAbbr": "IBJJF",
            "country": "Mexico",
            "countryAbbr": "MX",
            "city": "Guadalajara",
            "responsible": "Jose Luis Alvarez Albor",
            "address": "Xochilt 4203 Prados Tepeyac, Guadalajara, Jalisco, Mexico",
            "website": "www.hunosjiujitsu.com"
        },
        {
            "id": 10333,
            "name": "HUNTERS BJJ BELÉM/PA",
            "federationAbbr": "CBJJ",
            "country": "Brasil",
            "countryAbbr": "BR",
            "city": "Belém",
            "responsible": "Ivan Martins Leal",
            "address": "Av: João Paulo Segundo, 802, Belém, Pará, Brasil",
            "website": null
        },
        {
            "id": 5166,
            "name": "Hurricane Jiu-Jitsu",
            "federationAbbr": "USBJJF",
            "country": "United States of America",
            "countryAbbr": "US",
            "city": "Cleveland",
            "responsible": "John Jason Lawrence",
            "address": "3328 Warren Road, Cleveland, OH, United States of America",
            "website": "www.hurricanejj.com"
        },
        {
            "id": 7896,
            "name": "Hwarang Academia De Artes Marciais Mixtas",
            "federationAbbr": "CBJJ",
            "country": "Brasil",
            "countryAbbr": "BR",
            "city": "Boa Vista",
            "responsible": "Oswaldo José González Tenías",
            "address": "Rua Das Azaleias, 75- Pricumã, Galpão, Boa Vista, Roraima, Brasil",
            "website": null
        },
        {
            "id": 7858,
            "name": "HY Brazilian Jiu-Jitsu",
            "federationAbbr": "JBJJF",
            "country": "Japan",
            "countryAbbr": "JP",
            "city": "Owariasahi-shi",
            "responsible": "Yoshihiro Hirama",
            "address": "2849-5 Araicho Kaminota, Owariasahi-shi, Aichi, Japan",
            "website": "https://www.hy-jiujitsu.com/"
        },
        {
            "id": 5147,
            "name": "Hygor Camara Jiu-Jitsu",
            "federationAbbr": "CBJJ",
            "country": "Brasil",
            "countryAbbr": "BR",
            "city": "São Gonçalo",
            "responsible": "Hygor Camara Tavares",
            "address": "Rua Carlos Paschoal  164 , Jardim Alcântara, São Gonçalo, RJ, Brasil",
            "website": ""
        }
    ]
}