{
    "pagination": {
        "page": 140,
        "from": 2780,
        "to": 2800,
        "pageSize": 20,
        "lastPage": 358,
        "totalRecords": 7149
    },
    "list": [
        {
            "id": 5055,
            "name": "GF Team Italia",
            "federationAbbr": "UIJJ",
            "country": "Italy",
            "countryAbbr": "IT",
            "city": "Canicatti",
            "responsible": "Julio Cesar Pereira",
            "address": "Via Thomas Edison  , , Canicatti, AG, Italy",
            "website": "www.gfteamitalia.it"
        },
        {
            "id": 4464,
            "name": "GF Team Kuwait",
            "federationAbbr": "IBJJF",
            "country": "Kuwait",
            "countryAbbr": "KW",
            "city": "Kuwait",
            "responsible": "Abdulrahman Al Hamdan",
            "address": "Sabah al Salem / blk 2 / body rock gym  , , Kuwait, Kuwait",
            "website": ""
        },
        {
            "id": 6330,
            "name": "GF Team Leão de Judá",
            "federationAbbr": "CBJJ",
            "country": "Brasil",
            "countryAbbr": "BR",
            "city": "Porto Velho",
            "responsible": "Chaise Olimpio Ivo C. Albuquerque ",
            "address": "Av. Calama n: 1118, 4 Andar - Bairro: Olaria, Porto Velho, Rondonia, Brasil",
            "website": null
        },
        {
            "id": 5739,
            "name": "GF Team Londrina",
            "federationAbbr": "CBJJ",
            "country": "Brasil",
            "countryAbbr": "BR",
            "city": "Londrina",
            "responsible": "Julio Cesar Pereira",
            "address": "Avenida Guilherme de Almeida numero: 1547, PQ. Ouro Branco, Londrina, Parana, Brasil",
            "website": null
        },
        {
            "id": 6978,
            "name": "GF Team Manaus",
            "federationAbbr": "CBJJ",
            "country": "Brasil",
            "countryAbbr": "BR",
            "city": "Manaus",
            "responsible": "Raimundo Otavio de Souza Carneiro",
            "address": "Rua Rogério Magalhaes n: 746, Cidade Nova, Manaus, AM, Brasil",
            "website": null
        },
        {
            "id": 5685,
            "name": "GF Team Mandurah",
            "federationAbbr": "IBJJF",
            "country": "Australia",
            "countryAbbr": "AU",
            "city": "Mandurah",
            "responsible": "Mario Leonardo Bobadilla Alarcon",
            "address": "3/68 Reserve Drive, Mandurah, WA, Australia",
            "website": "gftmandurah.com"
        },
        {
            "id": 3988,
            "name": "GF Team Maryland",
            "federationAbbr": "USBJJF",
            "country": "United States of America",
            "countryAbbr": "US",
            "city": "Catonsville",
            "responsible": "Gary Ross Berger",
            "address": "6565 Baltimore National Pike  , Catonsville, MD, United States of America",
            "website": "baltimoremartialarts.com"
        },
        {
            "id": 5296,
            "name": "GF Team Massachusetts",
            "federationAbbr": "USBJJF",
            "country": "United States of America",
            "countryAbbr": "US",
            "city": "Medford",
            "responsible": "Robson de Lima Rodrigues",
            "address": "468 Salem st Medford, Medford, MA, United States of America",
            "website": "maumaubjj.com"
        },
        {
            "id": 5219,
            "name": "GF Team Moemacrew",
            "federationAbbr": "CBJJ",
            "country": "Brasil",
            "countryAbbr": "BR",
            "city": "São Paulo",
            "responsible": "Julio Cesar Pereira",
            "address": "Avenida Jamaris 319 , Moema, São Paulo, SP, Brasil",
            "website": "www.fightacademy.com.br"
        },
        {
            "id": 4240,
            "name": "GF Team Munchen",
            "federationAbbr": "IBJJF",
            "country": "Germany",
            "countryAbbr": "DE",
            "city": "Muchen",
            "responsible": "Julio Cesar Pereira",
            "address": "Gartnerstr 62c  , , Muchen, --, Germany",
            "website": ""
        },
        {
            "id": 4511,
            "name": "GF Team New Caledonia",
            "federationAbbr": "IBJJF",
            "country": "Nouvelle Calédonie",
            "countryAbbr": "NC",
            "city": "Dumbea",
            "responsible": "Fabrice Frederic Girot",
            "address": "Bp 455, Dumbea, Nouvelle Calédonie",
            "website": "www.coringabjjnc.com"
        },
        {
            "id": 2959,
            "name": "GF Team Ohio",
            "federationAbbr": "USBJJF",
            "country": "United States of America",
            "countryAbbr": "US",
            "city": "Columbus",
            "responsible": null,
            "address": "1464 Delashmunt ave  , , Columbus, GA, United States of America",
            "website": ""
        },
        {
            "id": 4553,
            "name": "GF Team Paraiba",
            "federationAbbr": "CBJJ",
            "country": "Brasil",
            "countryAbbr": "BR",
            "city": "João Pessoa",
            "responsible": "Tayrone da Silva Damasceno",
            "address": "Avenida Manoel Deodato n: 37 casa, Bairro: Torre, João Pessoa, PB, Brasil",
            "website": null
        },
        {
            "id": 6510,
            "name": "GF Team Passo Fundo RS",
            "federationAbbr": "CBJJ",
            "country": "Brasil",
            "countryAbbr": "BR",
            "city": "Passo Fundo",
            "responsible": "Mauricio Kaross",
            "address": "Rua Cap. Araujo, 971, Sala 202, Centro, Passo Fundo, RS, Brasil",
            "website": null
        },
        {
            "id": 8796,
            "name": "GF Team Potengy",
            "federationAbbr": "CBJJ",
            "country": "Brasil",
            "countryAbbr": "BR",
            "city": "Nilópolis",
            "responsible": "João Paulo Potengy de Carvalho Leal",
            "address": "Rua Dr Manoel Reis, 876, 876, Nilópolis, Rio De Janeiro, Brasil",
            "website": null
        },
        {
            "id": 4112,
            "name": "GF Team Recreio",
            "federationAbbr": "CBJJ",
            "country": "Brasil",
            "countryAbbr": "BR",
            "city": "Rio de Janeiro",
            "responsible": "Theodoro Gabriel Canal Almeida",
            "address": "Avenida Canal Dois, 3001, Recreio, Rio de Janeiro, RJ, Brasil",
            "website": "theodorobjj.com"
        },
        {
            "id": 6585,
            "name": "GF Team Região dos Lagos",
            "federationAbbr": "CBJJ",
            "country": "Brasil",
            "countryAbbr": "BR",
            "city": "Casimiro de Abreu",
            "responsible": "Thiago dos Santos Rabello",
            "address": "Avenida Maricá n: 1263, Barra de São João, Casimiro de Abreu, Rio de Janeiro, Brasil",
            "website": null
        },
        {
            "id": 3640,
            "name": "GF Team Rondônia",
            "federationAbbr": "CBJJ",
            "country": "Brasil",
            "countryAbbr": "BR",
            "city": "Porto Velho",
            "responsible": "Julio Cesar Pereira",
            "address": "Av. Calama 1118 , Olaria, Porto Velho, RO, Brasil",
            "website": ""
        },
        {
            "id": 5492,
            "name": "GF Team Russia",
            "federationAbbr": "IBJJF",
            "country": "Russia",
            "countryAbbr": "RU",
            "city": "Voronezh",
            "responsible": "Rodrigo Gonçalves Martins Teixeira",
            "address": "St. Leningradskay 104-1, Voronezh, Russia",
            "website": "gfteamrussia.ru"
        },
        {
            "id": 8087,
            "name": "Gf Team San Antonio",
            "federationAbbr": "USBJJF",
            "country": "United States of America",
            "countryAbbr": "US",
            "city": "San Antonio",
            "responsible": "Bruno Jose Correia Alves",
            "address": "8749 Grissom Rd, San Antonio, Texas, United States of America",
            "website": null
        }
    ]
}