{
    "pagination": {
        "page": 354,
        "from": 7060,
        "to": 7080,
        "pageSize": 20,
        "lastPage": 358,
        "totalRecords": 7149
    },
    "list": [
        {
            "id": 10518,
            "name": "Yvone Duarte Jiu-Jitsu",
            "federationAbbr": "CBJJ",
            "country": "Brasil",
            "countryAbbr": "BR",
            "city": "Brasília",
            "responsible": "Yvone Magalhães Duarte",
            "address": "Sqs 311 Bloco K Ap. 101, Asa Sul, Brasília, Distrito Federal, Brasil",
            "website": null
        },
        {
            "id": 9448,
            "name": "Z Fight Academy",
            "federationAbbr": "IBJJF",
            "country": "Spain",
            "countryAbbr": "ES",
            "city": "Palmera",
            "responsible": "Iñigo Zarrabeitia Aristondo",
            "address": "Carrer Beniteixir 16, Palmera, Valencia, Spain",
            "website": "Http://www.zfightacademy.com"
        },
        {
            "id": 10642,
            "name": "Z M Grappling Academy",
            "federationAbbr": "USBJJF",
            "country": "United States of America",
            "countryAbbr": "US",
            "city": "Castro Valley",
            "responsible": "Aaron Joseph Zaballos",
            "address": "20461 Redwood Road, Castro Valley, Ca, United States of America",
            "website": "https://www.zmatacadmey.com"
        },
        {
            "id": 2949,
            "name": "Z1 Angola",
            "federationAbbr": "IBJJF",
            "country": "Angola",
            "countryAbbr": "AO",
            "city": "Luanda",
            "responsible": "Sergio Areias Vieira Lopes",
            "address": "Rua dos Coqueiros N.º 14, Coqueiros, Luanda - Angola  , , Luanda, an, Angola",
            "website": "www.gb-maianga.com`"
        },
        {
            "id": 9582,
            "name": "Z11 Jiu-Jitsu Team",
            "federationAbbr": "CBJJ",
            "country": "Brasil",
            "countryAbbr": "BR",
            "city": "Florianópolis",
            "responsible": "Sandro Irdo Vicente",
            "address": "Rua Travessa Valmor Luis Flores, N 40, Florianópolis, Santa Catarina, Brasil",
            "website": null
        },
        {
            "id": 10631,
            "name": "Z9 Arte Jiu-jitsu",
            "federationAbbr": "CBJJ",
            "country": "Brasil",
            "countryAbbr": "BR",
            "city": "Aquiraz",
            "responsible": "Alexandre Soares da Silva",
            "address": "Rua Milton Dias Número 70, Chácara Da Prainha, Aquiraz, Ceará, Brasil",
            "website": null
        },
        {
            "id": 2151,
            "name": "Zaganelli Jiu-Jitsu",
            "federationAbbr": "CBJJ",
            "country": "Brasil",
            "countryAbbr": "BR",
            "city": "Vitória",
            "responsible": "Frederico Luiz Zaganelli",
            "address": "Rua Constante Sodré  332 , Santa Lúcia, Vitória, ES, Brasil",
            "website": null
        },
        {
            "id": 2345,
            "name": "Zaneti Fight Team",
            "federationAbbr": "CBJJ",
            "country": "Brasil",
            "countryAbbr": "BR",
            "city": "Ribeirão Preto",
            "responsible": "Alexandre Zaneti Arantes",
            "address": "Antonio Da Costa Lima 665, Quintino 1, Ribeirão Preto, SP, Brasil",
            "website": ""
        },
        {
            "id": 10043,
            "name": "Zangado Team",
            "federationAbbr": "CBJJ",
            "country": "Brasil",
            "countryAbbr": "BR",
            "city": "Lindoia",
            "responsible": "Alexys Henrique dos Santos",
            "address": "Rua Romeu Barboza 171, Casa, Lindoia, Sp, Brasil",
            "website": null
        },
        {
            "id": 6992,
            "name": "Zangief Jiu-Jitsu",
            "federationAbbr": "USBJJF",
            "country": "United States of America",
            "countryAbbr": "US",
            "city": "Las Vegas",
            "responsible": "Gabriel Barbosa Checco",
            "address": "7380 S. Eastern Ave. #109A , Las Vegas, NV, United States of America",
            "website": null
        },
        {
            "id": 8326,
            "name": "Zani BJJ",
            "federationAbbr": "USBJJF",
            "country": "United States of America",
            "countryAbbr": "US",
            "city": "Houston",
            "responsible": "Vinicius Borba Zani",
            "address": "Usa Fight Company, 8369 Almeda Rd # N, Houston, Tx 77054, Houston, Tx, United States of America",
            "website": "Usafightcompany.com"
        },
        {
            "id": 4975,
            "name": "Zanon Pro Fighers",
            "federationAbbr": "CBJJ",
            "country": "Brasil",
            "countryAbbr": "BR",
            "city": "Curitiba",
            "responsible": "Rodrigo Augusto Zanon",
            "address": "Atílio Brunetti 771 , Capão Raso, Curitiba, PR, Brasil",
            "website": ""
        },
        {
            "id": 5958,
            "name": "Zarate Fight - Zarate Team",
            "federationAbbr": "CBJJ",
            "country": "Brasil",
            "countryAbbr": "BR",
            "city": "Morungaba",
            "responsible": "Luiz Rodrigues Neto",
            "address": "Rua Araujo Campos n: 2529, Centro, Morungaba, SP, Brasil",
            "website": null
        },
        {
            "id": 2899,
            "name": "Zarate Team",
            "federationAbbr": "IBJJF",
            "country": "Spain",
            "countryAbbr": "ES",
            "city": "Granada",
            "responsible": "Luiz Rodrigues Neto",
            "address": "Calle Dali , 19,  Churriana De La Vega, Churriana De La Vega, Granada, SP, Spain",
            "website": "www.dojozarate.blogspot.com"
        },
        {
            "id": 6826,
            "name": "Zazawa",
            "federationAbbr": "IBJJF",
            "country": "Jordan",
            "countryAbbr": "JO",
            "city": "Amman",
            "responsible": "Zaid Musa Khurma",
            "address": "Shmeissani Al Thaqafeh St., Khurma Bldg #1, 3rd Floor, Amman, Jordan",
            "website": "www.zazawa.com"
        },
        {
            "id": 8921,
            "name": "ZC Academy - Kansas City",
            "federationAbbr": "USBJJF",
            "country": "United States of America",
            "countryAbbr": "US",
            "city": "Gladstone",
            "responsible": "Zachary Michael Cummings",
            "address": "7275 N Oak Trafficway, Gladstone, Mo, United States of America",
            "website": "www.glorykc.com"
        },
        {
            "id": 10127,
            "name": "ZD Team Hamburg",
            "federationAbbr": "IBJJF",
            "country": "Germany",
            "countryAbbr": "DE",
            "city": "Hamburg",
            "responsible": "Samuel Sanvicente Garcia",
            "address": "Zanshin Dojo Gmbh \u0026 Co Kg, Mendelssohnstrasse 15 B, Hamburg, Hamburg, Germany",
            "website": "www.zanshin-dojo.de"
        },
        {
            "id": 10090,
            "name": "ZDC TOP TEAM",
            "federationAbbr": "CBJJ",
            "country": "Brasil",
            "countryAbbr": "BR",
            "city": "Campo Grande",
            "responsible": "Douglas Muriel Cunha Valverde",
            "address": "Rua Flórida 265, Casa, Campo Grande, Ms, Brasil",
            "website": null
        },
        {
            "id": 978,
            "name": "Ze Marcelo JJ",
            "federationAbbr": "CBJJ",
            "country": null,
            "countryAbbr": null,
            "city": null,
            "responsible": null,
            "address": "",
            "website": null
        },
        {
            "id": 9798,
            "name": "Ze Radiola Poland",
            "federationAbbr": "IBJJF",
            "country": "Poland",
            "countryAbbr": "PL",
            "city": "Warsaw",
            "responsible": "Krzysztof Tomasz Lukaszewicz",
            "address": "Bobrowiecka 9, Warsaw, Mazowieckie, Poland",
            "website": "dragonsden.com.pl"
        }
    ]
}