{
    "pagination": {
        "page": 11,
        "from": 200,
        "to": 220,
        "pageSize": 20,
        "lastPage": 358,
        "totalRecords": 7149
    },
    "list": [
        {
            "id": 3378,
            "name": "Academie Pythagore",
            "federationAbbr": "IBJJF",
            "country": "France",
            "countryAbbr": "FR",
            "city": "Cognac",
            "responsible": null,
            "address": "40 Rue du Colembard  , , Cognac, France",
            "website": "www.pythagorejiujitsu.com"
        },
        {
            "id": 9889,
            "name": "Academy 411",
            "federationAbbr": "IBJJF",
            "country": "Australia",
            "countryAbbr": "AU",
            "city": "Sydney",
            "responsible": "Christopher Addison - Collis",
            "address": "6/65 Carrington Road Waverly, Sydney, Nsw, Australia",
            "website": "waverly"
        },
        {
            "id": 6139,
            "name": "Academy Capital Jiu-Jitsu",
            "federationAbbr": "USBJJF",
            "country": "United States of America",
            "countryAbbr": "US",
            "city": "Coconut Creek ",
            "responsible": "Antonio Carlos Moreira Santos Pedrotti",
            "address": "5449 Wiles Road , 6-304, Coconut Creek , FL, United States of America",
            "website": "www.capitaljiujitsu.co"
        },
        {
            "id": 7612,
            "name": "Academy Conttagion Brazilian Jiu-Jitsu",
            "federationAbbr": "IBJJF",
            "country": "Russia",
            "countryAbbr": "RU",
            "city": "Saint-peterburg",
            "responsible": "Ginaldo Gomes de Souza",
            "address": "Savushkina 131, Apartment 123, Saint-peterburg, Russia, Russia",
            "website": null
        },
        {
            "id": 6782,
            "name": "Academy Jackson Sousa",
            "federationAbbr": "IBJJF",
            "country": "United Kingdom",
            "countryAbbr": "GB",
            "city": "London",
            "responsible": "Jackson Sousa dos Santos",
            "address": "19 Birkdale close, London, United Kingdom",
            "website": "www.jacksousabjj.com"
        },
        {
            "id": 8134,
            "name": "Academy Of Martial Arts Freiberg",
            "federationAbbr": "IBJJF",
            "country": "Germany",
            "countryAbbr": "DE",
            "city": "Freiberg",
            "responsible": "Oliver Fischer",
            "address": "Frauenstreiner Straße 23b, Freiberg, Saxony, Germany",
            "website": "www.academy-of-martial-arts.de"
        },
        {
            "id": 3512,
            "name": "Academy Palmdale",
            "federationAbbr": "USBJJF",
            "country": "United States of America",
            "countryAbbr": "US",
            "city": "Palmdale",
            "responsible": "Caio Silveira Malta",
            "address": "360 Grand Cypress Ave, #301  , , Palmdale, CA, United States of America",
            "website": "www.maltabjj.com"
        },
        {
            "id": 4566,
            "name": "ACADEPOL - Polícia Civil RJ",
            "federationAbbr": "CBJJ",
            "country": "Brasil",
            "countryAbbr": "BR",
            "city": "Rio de Janeiro",
            "responsible": "Sérgio Ignacio",
            "address": "Rua Frei Caneca, 162 Acadepol, Centro, Rio de Janeiro, RJ, Brasil",
            "website": ""
        },
        {
            "id": 10334,
            "name": "Acadepol Jiu-Jitsu - PC/PI",
            "federationAbbr": "CBJJ",
            "country": "Brasil",
            "countryAbbr": "BR",
            "city": "Teresina",
            "responsible": "Carlson Maia Queiroz",
            "address": "Rua Joel Da Cunha Mendes, N 1066, Bairro Monte Castelo., Bloco C, Apto 302., Teresina, Piauí, Brasil",
            "website": null
        },
        {
            "id": 7393,
            "name": "Açao e Reação Jiu-Jitsu",
            "federationAbbr": "USBJJF",
            "country": "United States of America",
            "countryAbbr": "US",
            "city": "Richmond",
            "responsible": "Flavio da Silva Kenup",
            "address": "807 Chimborazo Blvd. , Richmond, VA, United States of America",
            "website": null
        },
        {
            "id": 5246,
            "name": "ACB - De La Riva Paris",
            "federationAbbr": "IBJJF",
            "country": "France",
            "countryAbbr": "FR",
            "city": "Bobigny",
            "responsible": "Ricardo De La Riva Goded",
            "address": "11 rue du 8 mal 1945  , , Bobigny, France",
            "website": ""
        },
        {
            "id": 4280,
            "name": "ACBJJ",
            "federationAbbr": "CBJJ",
            "country": "Brasil",
            "countryAbbr": "BR",
            "city": "Bento Gonçalves",
            "responsible": "André Cristofoli",
            "address": "Av. Nelson Cararro 1021 Sala, Santo Antão, Bento Gonçalves, RS, Brasil",
            "website": "www.acbjj.com.br"
        },
        {
            "id": 2505,
            "name": "Accademia Kama",
            "federationAbbr": "UIJJ",
            "country": "Italy",
            "countryAbbr": "IT",
            "city": "Seregno",
            "responsible": "Octavio Henrique Couto da Silva Jr.",
            "address": "Corso Mattesotti  50 , , Seregno, IT, Italy",
            "website": "www.accademiakama.com"
        },
        {
            "id": 5427,
            "name": "Accademia Torino",
            "federationAbbr": "IBJJF",
            "country": "Italy",
            "countryAbbr": "IT",
            "city": "Torino",
            "responsible": "Marco Caudana",
            "address": "Piazza Giovanni Dalle Bande Nere N 20, Torino, Italy",
            "website": "www.torino.com"
        },
        {
            "id": 5333,
            "name": "Ace MMA BJJ Italy",
            "federationAbbr": "UIJJ",
            "country": "Italy",
            "countryAbbr": "IT",
            "city": "Milan",
            "responsible": "Thiago Morbin Domingues",
            "address": "Piazza Velasca n. 8, Milan, Italy",
            "website": null
        },
        {
            "id": 10633,
            "name": "Acemat",
            "federationAbbr": "IBJJF",
            "country": "France",
            "countryAbbr": "FR",
            "city": "Toulouse",
            "responsible": "Laurence Cousin Fouillat",
            "address": "1 Impasse De Lisieux, Toulouse, Occitanie, France",
            "website": "www.acemat.fr"
        },
        {
            "id": 4967,
            "name": "Aces",
            "federationAbbr": "CBJJ",
            "country": "Brasil",
            "countryAbbr": "BR",
            "city": "Catanduva",
            "responsible": "Willian Lima Martins de Oliveira",
            "address": "Rua Aparecida Do Taboado 261, Jardim Sales, Catanduva, SP, Brasil",
            "website": "www.alliancecatanduva.com.br"
        },
        {
            "id": 9643,
            "name": "ACJJ HQ",
            "federationAbbr": "USBJJF",
            "country": "United States of America",
            "countryAbbr": "US",
            "city": "Dallas",
            "responsible": "Maricy Ricardi Fagundes ",
            "address": "14225 Inwood Rd #225, Dallas, Tx, United States of America",
            "website": "Acjjteam.com"
        },
        {
            "id": 6388,
            "name": "ACJJ International",
            "federationAbbr": "USBJJF",
            "country": "United States of America",
            "countryAbbr": "US",
            "city": "Dallas",
            "responsible": "Antônio Carlos Fagundes Cicconi",
            "address": "14350 Dallas Pkwy, Dallas, TX, United States of America",
            "website": null
        },
        {
            "id": 6705,
            "name": "ACJJ Team Brasil",
            "federationAbbr": "CBJJ",
            "country": "Brasil",
            "countryAbbr": "BR",
            "city": "Grarujá",
            "responsible": "Antônio Carlos Fagundes Cicconi",
            "address": "Rua Santos n: 287/162, Barra Funda, Grarujá, São Paulo, Brasil",
            "website": null
        }
    ]
}