{
    "pagination": {
        "page": 172,
        "from": 3420,
        "to": 3440,
        "pageSize": 20,
        "lastPage": 358,
        "totalRecords": 7149
    },
    "list": [
        {
            "id": 6201,
            "name": "Gracie Barra Thousand Oaks",
            "federationAbbr": "USBJJF",
            "country": "United States of America",
            "countryAbbr": "US",
            "city": "Newbury Park",
            "responsible": "Gabriel Arges de Sousa",
            "address": "1011 Rancho Conejo Blvd, Newbury Park, CA, United States of America",
            "website": "gbthousandoaks.com"
        },
        {
            "id": 9333,
            "name": "Gracie Barra Thurrock",
            "federationAbbr": "IBJJF",
            "country": "United Kingdom",
            "countryAbbr": "GB",
            "city": "South Ockendon",
            "responsible": "Simon Lee Riley",
            "address": "Gracie Barra Thurrock, South Ockendon, United Kingdom",
            "website": null
        },
        {
            "id": 5581,
            "name": "Gracie Barra Tijucas - SC",
            "federationAbbr": "CBJJ",
            "country": "Brasil",
            "countryAbbr": "BR",
            "city": "Tijucas",
            "responsible": "Luiz Ricardo Flôres",
            "address": "Rua Pará, 368, Centro, Tijucas, SC, Brasil",
            "website": "www.bjjfacil.com"
        },
        {
            "id": 3996,
            "name": "Gracie Barra Todos os Santos",
            "federationAbbr": "CBJJ",
            "country": "Brasil",
            "countryAbbr": "BR",
            "city": "Montes Claros",
            "responsible": "Rodrigo Martins de Oliveira Campos",
            "address": "Rua Santa Maria n: 286 - 1 andar, Todos os Santos, Montes Claros, MG, Brasil",
            "website": "www.graciebarra.com.br"
        },
        {
            "id": 4388,
            "name": "Gracie Barra Tokushima",
            "federationAbbr": "JBJJF",
            "country": "Japan",
            "countryAbbr": "JP",
            "city": "Tokushima",
            "responsible": "Ryo Ominami",
            "address": "145 Toiyamachi  , , Tokushima, Tokushima, Japan",
            "website": "graciebarratokushima.jp"
        },
        {
            "id": 7130,
            "name": "Gracie Barra Toronto",
            "federationAbbr": "IBJJF",
            "country": "Canada",
            "countryAbbr": "CA",
            "city": "Toronto",
            "responsible": "Vinicius Magalhães",
            "address": "521 Adelaide Street West, Toronto, ON, Canada",
            "website": "www.graciebarra.com/toronto-canada"
        },
        {
            "id": 9614,
            "name": "Gracie Barra Torres",
            "federationAbbr": "CBJJ",
            "country": "Brasil",
            "countryAbbr": "BR",
            "city": "Torres",
            "responsible": "Giacomo Raupp Zanini",
            "address": "Avenida Beira Mar 1114, Torres, Rs, Brasil",
            "website": "www.gbtorres.com.br"
        },
        {
            "id": 2760,
            "name": "Gracie Barra Trindade Florianópolis SC",
            "federationAbbr": "CBJJ",
            "country": "Brasil",
            "countryAbbr": "BR",
            "city": "Florianópolis",
            "responsible": "Anderson Rodrigues",
            "address": "Rua Lauro Linhares n: 1250, Trindade, Florianópolis, SC, Brasil",
            "website": null
        },
        {
            "id": 6434,
            "name": "Gracie Barra Trinity",
            "federationAbbr": "USBJJF",
            "country": "United States of America",
            "countryAbbr": "US",
            "city": "New Port Richey",
            "responsible": "Jason D'Agata",
            "address": "8515 Old Country Rd 54, New Port Richey, FL, United States of America",
            "website": "https://graciebarra.com/trinity-fl/"
        },
        {
            "id": 8865,
            "name": "Gracie Barra Tupaciguara MG",
            "federationAbbr": "CBJJ",
            "country": "Brasil",
            "countryAbbr": "BR",
            "city": "Tupaciguara",
            "responsible": "Marlon Leandro de Oliveira Campos",
            "address": "Rua Bertoldo Ferreira De Araújo, 15, Parques Dos Bem Ti Vis, Casa, Tupaciguara, Mg, Brasil",
            "website": null
        },
        {
            "id": 6135,
            "name": "Gracie Barra Tyler",
            "federationAbbr": "USBJJF",
            "country": "United States of America",
            "countryAbbr": "US",
            "city": "Tyler",
            "responsible": "Valerio Mori Ubaldini",
            "address": "6371 Elkton Trail, Tyler, TX, United States of America",
            "website": "www.GBTyler.com"
        },
        {
            "id": 10137,
            "name": "Gracie Barra Ubaitaba",
            "federationAbbr": "CBJJ",
            "country": "Brasil",
            "countryAbbr": "BR",
            "city": "Ubaitaba",
            "responsible": "Sterven Ekson Silva",
            "address": "Rua Alvaro Silva, S/n., Ubaitaba, Bahia, Brasil",
            "website": "www.instagram.com/gbubaitaba"
        },
        {
            "id": 5170,
            "name": "Gracie Barra Ubiratã - PR",
            "federationAbbr": "CBJJ",
            "country": "Brasil",
            "countryAbbr": "BR",
            "city": "Ubiratã",
            "responsible": "Sergio Camilo Saito",
            "address": "Av. Yolanda Loureiro Carvalho 1150 , Centro, Ubiratã, PR, Brasil",
            "website": ""
        },
        {
            "id": 2999,
            "name": "Gracie Barra Upland",
            "federationAbbr": "USBJJF",
            "country": "United States of America",
            "countryAbbr": "US",
            "city": "Upland",
            "responsible": "Rafael Oliveira Novais Pinto",
            "address": "1235 W. Foothill Blvd  , , Upland, CA, United States of America",
            "website": "www.gbupland.com"
        },
        {
            "id": 4616,
            "name": "Gracie Barra Uruguaiana/RS",
            "federationAbbr": "CBJJ",
            "country": "Brasil",
            "countryAbbr": "BR",
            "city": "Uruguaiana",
            "responsible": "Carlos Eduardo Izaguirre da Silva",
            "address": "Rua Julio de Castilhos  2222 , Nova Esperança, Uruguaiana, RS, Brasil",
            "website": ""
        },
        {
            "id": 7474,
            "name": "Gracie Barra Valencia",
            "federationAbbr": "USBJJF",
            "country": "United States of America",
            "countryAbbr": "US",
            "city": "Newhall",
            "responsible": "Otavio Ferreira de Sousa",
            "address": "25067 Peachland Ave, Newhall, CA, United States of America",
            "website": "www.gbvalencia.com"
        },
        {
            "id": 5524,
            "name": "Gracie Barra Valparaiso GO/Entorno",
            "federationAbbr": "CBJJ",
            "country": "Brasil",
            "countryAbbr": "BR",
            "city": "Valparaiso",
            "responsible": "Eliezer Dutra Ribeiro Junior",
            "address": "Quadra 18 Valparaiso 1 Etapa C - Casa 1, Etapa C, Valparaiso, GO, Brasil",
            "website": null
        },
        {
            "id": 2114,
            "name": "Gracie Barra Vancouver",
            "federationAbbr": "IBJJF",
            "country": "Canada",
            "countryAbbr": "CA",
            "city": "Vancouver",
            "responsible": null,
            "address": "244 E. Broadway St.  , , Vancouver, BC, Canada",
            "website": "www.graciebarra.ca"
        },
        {
            "id": 6072,
            "name": "Gracie Barra Vargem Grande",
            "federationAbbr": "CBJJ",
            "country": "Brasil",
            "countryAbbr": "BR",
            "city": "Vargem Grande",
            "responsible": "Seidler Rodrigo S. Ziser",
            "address": "Estrada dos Bandeirantes n: 24331 lt 22, Vargem Grande, Rio de Janeiro, Brasil",
            "website": "facebook.com/gbvargemrj"
        },
        {
            "id": 4208,
            "name": "Gracie Barra Viamão",
            "federationAbbr": "CBJJ",
            "country": "Brasil",
            "countryAbbr": "BR",
            "city": "Viamão",
            "responsible": "André Luis Fonseca da Silva",
            "address": "Av Senador Salgado Filho 1960 , Santa Cecilia, Viamão, RS, Brasil",
            "website": "www.gbviamao.com.br"
        }
    ]
}