{
    "pagination": {
        "page": 27,
        "from": 520,
        "to": 540,
        "pageSize": 20,
        "lastPage": 358,
        "totalRecords": 7149
    },
    "list": [
        {
            "id": 9839,
            "name": "Aos Studio",
            "federationAbbr": "IBJJF",
            "country": "Malaysia",
            "countryAbbr": "MY",
            "city": "Kuala Lumpur",
            "responsible": null,
            "address": "7, Jalan Robson, Taman Persiaran Desa,, Kuala Lumpur, Wilayah Persekutuan, Malaysia",
            "website": "Aosbjj.com"
        },
        {
            "id": 10149,
            "name": "Aota Jiu-Jitsu",
            "federationAbbr": "CBJJ",
            "country": "Brasil",
            "countryAbbr": "BR",
            "city": "São Bernardo Do Campo",
            "responsible": "Andre Silva Santos Aota",
            "address": "Rua Osasco Numero 15, Bairro Alves Dias, São Bernardo Do Campo, Sp, Brasil",
            "website": null
        },
        {
            "id": 9371,
            "name": "Apex Ludus",
            "federationAbbr": "FPJJB",
            "country": "Portugal",
            "countryAbbr": "PT",
            "city": "Braga",
            "responsible": "José Alberto Machado Lima",
            "address": "Rua Dos Congregados, 50, Braga, Portugal",
            "website": null
        },
        {
            "id": 2916,
            "name": "Apex Martial Arts",
            "federationAbbr": "IBJJF",
            "country": "Canada",
            "countryAbbr": "CA",
            "city": "Richmond",
            "responsible": "Milo Hilario",
            "address": "140-3571 Verdun Place, Richmond, BC, Canada",
            "website": "www.apexma.ca"
        },
        {
            "id": 9836,
            "name": "Apollo Brazilian Jiu-Jitsu Rhode Island",
            "federationAbbr": "USBJJF",
            "country": "United States of America",
            "countryAbbr": "US",
            "city": "Providence",
            "responsible": "Patrick E Bruen",
            "address": "55 Porter Street, Providence, Rhode Island, United States of America",
            "website": "TimBurrill.com"
        },
        {
            "id": 7362,
            "name": "Aprove Jiu-Jitsu Team",
            "federationAbbr": "CBJJ",
            "country": "Brasil",
            "countryAbbr": "BR",
            "city": "Marechal Candido Rondon",
            "responsible": "Angelo Antonio Fonte dos Reis",
            "address": "Rua Pará n: 389, Bairro: Espigão, Marechal Candido Rondon, PR, Brasil",
            "website": null
        },
        {
            "id": 7944,
            "name": "AQ Jiu-jitsu",
            "federationAbbr": "CBJJ",
            "country": "Brasil",
            "countryAbbr": "BR",
            "city": "Timbó",
            "responsible": "Adriano Jose Butzke Quintana",
            "address": "Rodovia Ralf Knaesel, Galpão, Timbó, Sc, Brasil",
            "website": null
        },
        {
            "id": 5241,
            "name": "Aquilis Jiu-Jitsu",
            "federationAbbr": "CBJJ",
            "country": "Brasil",
            "countryAbbr": "BR",
            "city": "Foz do Iguaçu",
            "responsible": "Elison Isidoro Nunes Cavalheiro Yen",
            "address": "Rua Jorge Sanwais 891 Academia, Centro, Foz do Iguaçu, PR, Brasil",
            "website": ""
        },
        {
            "id": 7199,
            "name": "Aquino`s Warriors BJJ",
            "federationAbbr": "CBJJ",
            "country": "Brasil",
            "countryAbbr": "BR",
            "city": "Celândia Norte",
            "responsible": "Josiel Guilherme Aquino de Almeida",
            "address": "Setor Habitacional Sol Nascente, Chácara 02 Conj, N Lote 23/27, Bairro: P.Norte, Celândia Norte, Brasilia, Brasil",
            "website": null
        },
        {
            "id": 8058,
            "name": "AR Alexandre Russo BJJ",
            "federationAbbr": "CBJJ",
            "country": "Brasil",
            "countryAbbr": "BR",
            "city": "Itápolis",
            "responsible": "Alexandre Ricardo Mapeli",
            "address": "Rua Padre Manoel Da Nóbrega 134, Itápolis, Sp, Brasil",
            "website": null
        },
        {
            "id": 7271,
            "name": "AR Team Jiu-Jitsu",
            "federationAbbr": "CBJJ",
            "country": "Brasil",
            "countryAbbr": "BR",
            "city": "Iguatu",
            "responsible": "André Ribeiro da Mota",
            "address": "Rua Deocliano Bezerra n: 333, Vizinho Posto de Saúde - Bairro: Brasilia, Iguatu, Ceará , Brasil",
            "website": null
        },
        {
            "id": 10368,
            "name": "Araguaína Boka BJJ",
            "federationAbbr": "CBJJ",
            "country": "Brasil",
            "countryAbbr": "BR",
            "city": "Araguaína",
            "responsible": "Jefferson Costa Pinto",
            "address": "Rua Inhumas Número 23, Setor Senador, Araguaína, Tocantins, Brasil",
            "website": null
        },
        {
            "id": 4752,
            "name": "Araido",
            "federationAbbr": "CBJJ",
            "country": "Brasil",
            "countryAbbr": "BR",
            "city": "São João Del Rei",
            "responsible": "João Alberto Rosa Lage",
            "address": "Rua Felipe Marchetti Nº 49 , Vila Marchetti, São João Del Rei, MG, Brasil",
            "website": ""
        },
        {
            "id": 4212,
            "name": "Arashi Do Behring Jiu-Jitsu",
            "federationAbbr": "IBJJF",
            "country": "Canada",
            "countryAbbr": "CA",
            "city": "Edmonton",
            "responsible": "Sylvio da Matta Behring",
            "address": "12730 St. Albert Trail  , , Edmonton, AB, Canada",
            "website": "http://www.arashido.com"
        },
        {
            "id": 5578,
            "name": "Arashiro Team",
            "federationAbbr": "USBJJF",
            "country": "United States of America",
            "countryAbbr": "US",
            "city": "Miami Shores",
            "responsible": "Guilherme Augusto Pontes Arashiro",
            "address": "9301 NE 6th Ave, 1, Miami Shores, FL, United States of America",
            "website": "arashirobjj.com"
        },
        {
            "id": 7333,
            "name": "Araújo Fight Team",
            "federationAbbr": "CBJJ",
            "country": "Brasil",
            "countryAbbr": "BR",
            "city": "Nossa Senhora do Socorro",
            "responsible": "Allan Araújo Cardoso",
            "address": "Rua Vinte e Três n: 14, Conjunto João Alves Filho, Nossa Senhora do Socorro, Sergipe, Brasil",
            "website": "www.coalizaojiujitsu.com.br"
        },
        {
            "id": 10178,
            "name": "ARBJJ",
            "federationAbbr": "CBJJ",
            "country": "Brasil",
            "countryAbbr": "BR",
            "city": "Belo Horizonte",
            "responsible": "Alex Ribeiro Gravino",
            "address": "Rua Vereador Geraldo Pereira, Belo Horizonte, Minas Gerais, Brasil",
            "website": null
        },
        {
            "id": 10366,
            "name": "Arcanjo BJJ",
            "federationAbbr": "CBJJ",
            "country": "Brasil",
            "countryAbbr": "BR",
            "city": "Duque De Caxias",
            "responsible": "Pablo de Oliveira Flor",
            "address": "Rua Olegário Mariano Número 994 Vila São Luiz, Duque De Caxias, Río De Janeiro, Brasil",
            "website": null
        },
        {
            "id": 10528,
            "name": "Arctic Training Center",
            "federationAbbr": "USBJJF",
            "country": "United States of America",
            "countryAbbr": "US",
            "city": "Palos Heights",
            "responsible": "Alexander F. Seaver",
            "address": "7214 W College Drive, Palos Heights, Il, United States of America",
            "website": null
        },
        {
            "id": 10283,
            "name": "Area 502 Mixed Martial Arts",
            "federationAbbr": "USBJJF",
            "country": "United States of America",
            "countryAbbr": "US",
            "city": "Louisville",
            "responsible": "Phillip Perkins",
            "address": "444 Downes Terrace, Louisville, Kentucky, United States of America",
            "website": "area502mma.com"
        }
    ]
}