{
    "pagination": {
        "page": 247,
        "from": 4920,
        "to": 4940,
        "pageSize": 20,
        "lastPage": 358,
        "totalRecords": 7149
    },
    "list": [
        {
            "id": 6247,
            "name": "Nova Uniao Atlanta",
            "federationAbbr": "USBJJF",
            "country": "United States of America",
            "countryAbbr": "US",
            "city": "Norcross",
            "responsible": "Diego de Araujo Saraiva",
            "address": "6290 McDonough Dr. Suite H, Norcross, GA, United States of America",
            "website": "www.saraivabjj.com"
        },
        {
            "id": 3722,
            "name": "Nova União Australia",
            "federationAbbr": "IBJJF",
            "country": "Australia",
            "countryAbbr": "AU",
            "city": "Caringbah",
            "responsible": "Marcelino Bernardo de Freitas",
            "address": "Unit 1A Resolution Drive  , , Caringbah, NSW, Australia",
            "website": "www.novauniao.com.au"
        },
        {
            "id": 4884,
            "name": "Nova União Azul",
            "federationAbbr": "CBJJ",
            "country": "Brasil",
            "countryAbbr": "BR",
            "city": "Rio de Janeiro",
            "responsible": "Mauricio do Nascimento",
            "address": "Rua Paulo VI 62 , Flamengo, Rio de Janeiro, RJ, Brasil",
            "website": ""
        },
        {
            "id": 4273,
            "name": "Nova Uniao Bahia",
            "federationAbbr": "CBJJ",
            "country": "Brasil",
            "countryAbbr": "BR",
            "city": "Itaberaba",
            "responsible": "Andre Luiz Candido da Silva",
            "address": "Loteamento Bahia n: 740, Itaberaba, BA, Brasil",
            "website": null
        },
        {
            "id": 8317,
            "name": "Nova Uniao California - MBJJ",
            "federationAbbr": "USBJJF",
            "country": "United States of America",
            "countryAbbr": "US",
            "city": "Redwood City",
            "responsible": "Pedro Minc Baumfeld Andre",
            "address": "707 Leahy Street Apt 238, Redwood City, Ca, United States of America",
            "website": null
        },
        {
            "id": 6455,
            "name": "Nova Uniao Canada",
            "federationAbbr": "IBJJF",
            "country": "Canada",
            "countryAbbr": "CA",
            "city": "Toronto",
            "responsible": "Leonardo Silva dos Santos",
            "address": "700 Kipling Ave, Toronto, ON, Canada",
            "website": "www.novauniao.ca"
        },
        {
            "id": 752,
            "name": "Nova União CE",
            "federationAbbr": "CBJJ",
            "country": "Brasil",
            "countryAbbr": "BR",
            "city": "Fortaleza",
            "responsible": "Carlos Andre Pederneiras de Castro",
            "address": "  , , Fortaleza, CE, Brasil",
            "website": ""
        },
        {
            "id": 10239,
            "name": "Nova Uniao Connecticut",
            "federationAbbr": "USBJJF",
            "country": "United States of America",
            "countryAbbr": "US",
            "city": "Wallingford",
            "responsible": "Oswaldo Dias Jurema",
            "address": "600 N Colony Rd Ste 8, Wallingford, Ct, United States of America",
            "website": null
        },
        {
            "id": 10545,
            "name": "Nova União Florida",
            "federationAbbr": "USBJJF",
            "country": "United States of America",
            "countryAbbr": "US",
            "city": "Palm Coast",
            "responsible": "Damian John Malon",
            "address": "217 Saint Joe Plaza Dr, Palm Coast, Fl, United States of America",
            "website": null
        },
        {
            "id": 7063,
            "name": "Nova União Galo Preto",
            "federationAbbr": "CBJJ",
            "country": "Brasil",
            "countryAbbr": "BR",
            "city": "Foz do Iguaçu",
            "responsible": "Andre Luiz Candido da Silva",
            "address": "Av. Arrucária n: 716 - Asemib, Vila - A, Foz do Iguaçu, Paraná, Brasil",
            "website": null
        },
        {
            "id": 8735,
            "name": "Nova Uniao Guarulhos",
            "federationAbbr": "CBJJ",
            "country": "Brasil",
            "countryAbbr": "BR",
            "city": "Guarulhos",
            "responsible": "Claudio dos Santos Iwaki",
            "address": "Rua-gabriela Teixeira N44, Guarulhos, São Paulo, Brasil",
            "website": "Novauniaoguarulhos"
        },
        {
            "id": 755,
            "name": "Nova União Hawaii",
            "federationAbbr": "USBJJF",
            "country": "United States of America",
            "countryAbbr": "US",
            "city": "Hilo",
            "responsible": "Renato Verissimo de Oliveira",
            "address": "P.O. Box 7460  , , Hilo, HI, United States of America",
            "website": "www.novauniaohawaii.com"
        },
        {
            "id": 2255,
            "name": "Nova União International",
            "federationAbbr": "IBJJF",
            "country": "Korea, Democratic People's Republic of",
            "countryAbbr": "KP",
            "city": "International",
            "responsible": "Carlos Andre Pederneiras de Castro",
            "address": "  , International, IB, Korea, Democratic People's Republic of",
            "website": null
        },
        {
            "id": 3252,
            "name": "Nova Uniao Japan",
            "federationAbbr": "JBJJF",
            "country": "Japan",
            "countryAbbr": "JP",
            "city": "Toshima",
            "responsible": "Osamu Abe",
            "address": "102, 2-15-6, Sugamo  , , Toshima, Tokyo, Japan",
            "website": "http://www.novauniao.jp"
        },
        {
            "id": 3095,
            "name": "Nova União Jiu Jitsu Mississauga",
            "federationAbbr": "IBJJF",
            "country": "Canada",
            "countryAbbr": "CA",
            "city": "Mississauga",
            "responsible": "Scott Henrick Lewis",
            "address": "1655 Queensway  , , Mississauga, ON, Canada",
            "website": "www.novauniaobjj.com"
        },
        {
            "id": 10371,
            "name": "Nova União Jonson Rodrigues",
            "federationAbbr": "CBJJ",
            "country": "Brasil",
            "countryAbbr": "BR",
            "city": "Natal",
            "responsible": "Edjonson Rodrigues de Andrade",
            "address": "Rua Jacarandá, 7798, Natal, Rio Grande Do Norte, Brasil",
            "website": "Ctjonsonrodrigues"
        },
        {
            "id": 7033,
            "name": "Nova União LRJ",
            "federationAbbr": "CBJJ",
            "country": "Brasil",
            "countryAbbr": "BR",
            "city": "Rio de Janeiro",
            "responsible": "Carlos Andre Pederneiras de Castro",
            "address": "Rua Alice n: 160, Bairro: Laranjeiras, Rio de Janeiro, Rio de Janeiro, Brasil",
            "website": null
        },
        {
            "id": 5981,
            "name": "Nova União Niterói",
            "federationAbbr": "CBJJ",
            "country": "Brasil",
            "countryAbbr": "BR",
            "city": "Niteroi",
            "responsible": "Thales Leites Lourenço",
            "address": "Rua Lemos Cunha n: 355, Icarai, Niteroi, Rio de Janeiro, Brasil",
            "website": null
        },
        {
            "id": 3633,
            "name": "Nova União Ohio",
            "federationAbbr": "USBJJF",
            "country": "United States of America",
            "countryAbbr": "US",
            "city": "Akron",
            "responsible": "Christopher M. Kriebel",
            "address": "2611 Brice Road, , Akron, Ohio, United States of America",
            "website": "https://www.tkobjj.com/"
        },
        {
            "id": 10523,
            "name": "Nova União Pequim",
            "federationAbbr": "IBJJF",
            "country": "China",
            "countryAbbr": "CN",
            "city": "Beijing",
            "responsible": "Carlos Andre Pederneiras de Castro",
            "address": "Block B, Chaowai Soho Building, N. 6, Chaowai Street, Chaoyang District, Beijing, China",
            "website": null
        }
    ]
}