{
    "pagination": {
        "page": 81,
        "from": 1600,
        "to": 1620,
        "pageSize": 20,
        "lastPage": 358,
        "totalRecords": 7149
    },
    "list": [
        {
            "id": 10253,
            "name": "ClanBJJ",
            "federationAbbr": "CBJJ",
            "country": "Brasil",
            "countryAbbr": "BR",
            "city": "João Monlevade",
            "responsible": "John Maycon dos Santos",
            "address": "Avenida Getúlio Vargas 4841, Centro, João Monlevade, Minas Gerais, Brasil",
            "website": "https://instagram.com/clan_destinobjj?igshid=NDk5N2NlZjQ="
        },
        {
            "id": 6457,
            "name": "Clark Gracie Corpus Christi, TX",
            "federationAbbr": "USBJJF",
            "country": "United States of America",
            "countryAbbr": "US",
            "city": "Corpus Christi",
            "responsible": "Thomas L. Montoya",
            "address": "5822 S. Staples, Corpus Christi, TX, United States of America",
            "website": "www.academiadejiujitsuTX.com"
        },
        {
            "id": 3399,
            "name": "Clark Gracie Team International",
            "federationAbbr": "IBJJF",
            "country": "Zimbabwe",
            "countryAbbr": "ZW",
            "city": "La Jolla",
            "responsible": "Clark Rouson Gracie",
            "address": "7825, Fay Ave 160   , La Jolla, CA, Zimbabwe",
            "website": "www.clarkgracie.com"
        },
        {
            "id": 2995,
            "name": "Clark's University of Martial Arts",
            "federationAbbr": "USBJJF",
            "country": "United States of America",
            "countryAbbr": "US",
            "city": "Bend",
            "responsible": "Ryan Christopher Clark",
            "address": "555 NW Arizona Suite 30  , , Bend, OR, United States of America",
            "website": "www.clarksuniversityofma.com"
        },
        {
            "id": 8256,
            "name": "Classic Brazilian Jiu-Jitsu",
            "federationAbbr": "USBJJF",
            "country": "United States of America",
            "countryAbbr": "US",
            "city": "Lynden ",
            "responsible": "Mauro Felipe de Oliveira Soares",
            "address": "2285 James Cir Unit B , Lynden , Washington , United States of America",
            "website": "classicjiujitsu.com"
        },
        {
            "id": 2046,
            "name": "Claudio Franca",
            "federationAbbr": "USBJJF",
            "country": "United States of America",
            "countryAbbr": "US",
            "city": "Santa Cruz",
            "responsible": "Claudio Franca",
            "address": "2-1507 East Cliff Dr  , , Santa Cruz, CA, United States of America",
            "website": null
        },
        {
            "id": 5250,
            "name": "ClaudioNon JJ",
            "federationAbbr": "CBJJ",
            "country": "Brasil",
            "countryAbbr": "BR",
            "city": "Paulo Afonso",
            "responsible": "Claudio José Barbosa da Silva",
            "address": "Rua da Gangorra 624 Clube Copa, CHESF, Paulo Afonso, BA, Brasil",
            "website": null
        },
        {
            "id": 8191,
            "name": "Claudir Jiu-Jitsu",
            "federationAbbr": "CBJJ",
            "country": "Brasil",
            "countryAbbr": "BR",
            "city": "São Miguel Do Oeste",
            "responsible": "Claudir José dos Santos",
            "address": "Rua Cristóvão Colombo 169, Casa, São Miguel Do Oeste, Sc, Brasil",
            "website": null
        },
        {
            "id": 6698,
            "name": "CLDJJ Ireland",
            "federationAbbr": "IBJJF",
            "country": "Ireland",
            "countryAbbr": "IE",
            "city": "North City",
            "responsible": "Adriano Francisco dos Santos",
            "address": "27 North Lotts, North City, Dublin 1, Ireland",
            "website": "www.vieiramartialarts.com"
        },
        {
            "id": 2743,
            "name": "Cleber Jiu Jitsu",
            "federationAbbr": "USBJJF",
            "country": "United States of America",
            "countryAbbr": "US",
            "city": "Huntington Beach",
            "responsible": null,
            "address": "6070 Warner Ave  , , Huntington Beach, CA, United States of America",
            "website": "www.cleberjiujitsu.com"
        },
        {
            "id": 9210,
            "name": "Cleber Jiu-Jitsu Austin",
            "federationAbbr": "USBJJF",
            "country": "United States of America",
            "countryAbbr": "US",
            "city": "Austin",
            "responsible": "Adrian Joel Trevino",
            "address": "11425 Arbor Downs Rd, Austin, Tx, United States of America",
            "website": "www.atomicjiujitsu.com"
        },
        {
            "id": 3097,
            "name": "Cleber Jiu-Jitsu Visalia",
            "federationAbbr": "USBJJF",
            "country": "United States of America",
            "countryAbbr": "US",
            "city": "Visalia",
            "responsible": "Tom D. Knox",
            "address": "760 E. Center Ave , , Visalia, CA, United States of America",
            "website": ""
        },
        {
            "id": 4358,
            "name": "Cleito Soares Jiu-Jitsu",
            "federationAbbr": "CBJJ",
            "country": "Brasil",
            "countryAbbr": "BR",
            "city": "Barbacena",
            "responsible": "Cleito Soares de Resende",
            "address": "Rua Ernane Rabelo 51 3º andar, Centro, Barbacena, MG, Brasil",
            "website": null
        },
        {
            "id": 7790,
            "name": "Cleudo Caldas Brazilian Jiu-Jitsu",
            "federationAbbr": "CBJJ",
            "country": "Brasil",
            "countryAbbr": "BR",
            "city": "Manaus",
            "responsible": "Cleudo Lima Caldas",
            "address": "Rua Professor Lázaro Gonçalves - Bloco I - Apt 401, Residencial Eliza Miranda - 2 Etapa, Manaus, Amazonas, Brasil",
            "website": null
        },
        {
            "id": 8173,
            "name": "Clever Combat",
            "federationAbbr": "USBJJF",
            "country": "United States of America",
            "countryAbbr": "US",
            "city": "Latham",
            "responsible": "William J. Schwartz",
            "address": "239 Old Maxwell Road, Building C, Latham, Ny, United States of America",
            "website": "Www.clevercombat.com"
        },
        {
            "id": 2535,
            "name": "Climent Club",
            "federationAbbr": "IBJJF",
            "country": "Spain",
            "countryAbbr": "ES",
            "city": "Alicante",
            "responsible": "Agustin Climent Tommasi",
            "address": "Calle Burgos 8  , , Alicante, AL, Spain",
            "website": "www.climentclub.es"
        },
        {
            "id": 2810,
            "name": "Clinch Academy",
            "federationAbbr": "USBJJF",
            "country": "United States of America",
            "countryAbbr": "US",
            "city": "Frederick",
            "responsible": "Luke Edward Rinehart",
            "address": "561, E Chrunch st apt B  , , Frederick, MD, United States of America",
            "website": "www.clinchacademy.com"
        },
        {
            "id": 3955,
            "name": "CLJJ",
            "federationAbbr": "CBJJ",
            "country": "Brasil",
            "countryAbbr": "BR",
            "city": "Belo Horizonte",
            "responsible": "Cleber de Souza Lopes",
            "address": "Avenida Tancredo Neves 2510 , Castelo, Belo Horizonte, MG, Brasil",
            "website": null
        },
        {
            "id": 2665,
            "name": "Clockwork Jiu-Jitsu",
            "federationAbbr": "USBJJF",
            "country": "United States of America",
            "countryAbbr": "US",
            "city": "New York",
            "responsible": "Joshua  Scott Griffiths",
            "address": "39, w 14th st #203  , , New York, NY, United States of America",
            "website": "www.clockworkbjj.com"
        },
        {
            "id": 4452,
            "name": "Clone BJJ",
            "federationAbbr": "FPJJB",
            "country": "Portugal",
            "countryAbbr": "PT",
            "city": "Setubal",
            "responsible": "Sérgio Ferreira dos Anjos",
            "address": "Travessa Das Especiarias, 4, 1d, ., Setubal, 0, Portugal",
            "website": "https://idojo.com.br/s/clonebjj/"
        }
    ]
}