{
    "pagination": {
        "page": 184,
        "from": 3660,
        "to": 3680,
        "pageSize": 20,
        "lastPage": 358,
        "totalRecords": 7149
    },
    "list": [
        {
            "id": 10466,
            "name": "Helton Silva Brazilian Jiu-Jitsu",
            "federationAbbr": "USBJJF",
            "country": "United States of America",
            "countryAbbr": "US",
            "city": "Wellington",
            "responsible": "Helton Henrique Afonso da Silva",
            "address": "13889 Wellington Trace A22/a23, Wellington Fl, Wellington, Florida, United States of America",
            "website": "Www.heltonsilvabjj.com"
        },
        {
            "id": 10009,
            "name": "Helvecio Penna Chihuahua",
            "federationAbbr": "IBJJF",
            "country": "Mexico",
            "countryAbbr": "MX",
            "city": "Chihuahua",
            "responsible": "Helvecio Augusto Moreira Penna Neto",
            "address": "Ave Tecnológico 2906, Chihuahua, Chihuahua, Mexico",
            "website": "www.helveciobjj.com.br"
        },
        {
            "id": 9348,
            "name": "Helvecio Penna Jiu-Jitsu Team",
            "federationAbbr": "CBJJ",
            "country": "Brasil",
            "countryAbbr": "BR",
            "city": "Rio De Janeiro",
            "responsible": "Helvecio Augusto Moreira Penna Neto",
            "address": "Rua Siqueira Campos 228 Sl 103, Copacabana, Rio De Janeiro, Rio De Janeiro, Brasil",
            "website": "www.helveciobjj.com.br"
        },
        {
            "id": 8683,
            "name": "Hemerson Tigrinho N. U. Jiu Jitsu",
            "federationAbbr": "CBJJ",
            "country": "Brasil",
            "countryAbbr": "BR",
            "city": "Rio De Janeiro",
            "responsible": "Hemerson Hubaldo da Silva",
            "address": "R. Pereira De Siqueira, 45 - Tijuca, Rio De Janeiro, Rj, Brasil",
            "website": null
        },
        {
            "id": 4379,
            "name": "Hendrickson BJJ",
            "federationAbbr": "USBJJF",
            "country": "United States of America",
            "countryAbbr": "US",
            "city": "Braselton",
            "responsible": "Todd David Hendrickson",
            "address": "691 Walnut Woods Drive  , , Braselton, GA, United States of America",
            "website": ""
        },
        {
            "id": 7533,
            "name": "Henelito Nobre Jiu-Jitsu",
            "federationAbbr": "CBJJ",
            "country": "Brasil",
            "countryAbbr": "BR",
            "city": "Manaus",
            "responsible": "Raimundo Henelito Nobre M. Junior",
            "address": "Av. Nilton Lins n: 45 - Parque das Palmeiras, Bairro: Flores, Manaus, AM, Brasil",
            "website": null
        },
        {
            "id": 9056,
            "name": "Henrique Coqueiro Brazilian Jiu Jitsu",
            "federationAbbr": "CBJJ",
            "country": "Brasil",
            "countryAbbr": "BR",
            "city": "Palmas",
            "responsible": "Jose Henrique da Conceição Coqueiro ",
            "address": "1103 Sul Avenida Lo27, Plano Diretor Sul, Palmas, Tocantins, Brasil",
            "website": null
        },
        {
            "id": 8998,
            "name": "Henrique Moreira Brazilian Jiu-Jitsu",
            "federationAbbr": "CBJJ",
            "country": "Brasil",
            "countryAbbr": "BR",
            "city": "Paulista",
            "responsible": "Carlos Henrique Moreira da Silva",
            "address": "Rua Aristóteles Paes De Azevedo, 837, Paulista, Pernambuco, Brasil",
            "website": null
        },
        {
            "id": 7572,
            "name": "Henrique Nascimento BJJ",
            "federationAbbr": "IBJJF",
            "country": "Switzerland",
            "countryAbbr": "CH",
            "city": "Yverdon",
            "responsible": "Henrique Nascimento Ferreira",
            "address": "Pres Du lac 30a, Yverdon, Vaud, Switzerland",
            "website": null
        },
        {
            "id": 8823,
            "name": "Herbyty BJJ Team - Belém Do Pará",
            "federationAbbr": "CBJJ",
            "country": "Brasil",
            "countryAbbr": "BR",
            "city": "Belém",
            "responsible": "Herbyty Azevedo da Silva",
            "address": "Rua Nova 1, Condor, Belém, Pa, Brasil",
            "website": null
        },
        {
            "id": 8568,
            "name": "Heritage Jiu-Jitsu",
            "federationAbbr": "USBJJF",
            "country": "United States of America",
            "countryAbbr": "US",
            "city": "Chula Vista",
            "responsible": "Anthony Jerome Anderson",
            "address": "1407 Laytonville Pl, Chula Vista, California, United States of America",
            "website": "http://www.heritagejj.com"
        },
        {
            "id": 2761,
            "name": "Heroes Martial Arts",
            "federationAbbr": "USBJJF",
            "country": "United States of America",
            "countryAbbr": "US",
            "city": "San Jose",
            "responsible": "Alan Robert Marques",
            "address": "460 South Market St  , , San Jose, CA, United States of America",
            "website": "www.heroesma.com"
        },
        {
            "id": 6315,
            "name": "Herrera Classic Jiu-Jitsu",
            "federationAbbr": "CBJJ",
            "country": "Brasil",
            "countryAbbr": "BR",
            "city": "Catanduva",
            "responsible": "Julio Cesar Herrera",
            "address": "Rua Guariba, N: 685, Gloria 1, Catanduva, São Paulo, Brasil",
            "website": null
        },
        {
            "id": 6658,
            "name": "HGJJ USA",
            "federationAbbr": "USBJJF",
            "country": "United States of America",
            "countryAbbr": "US",
            "city": "Delmont",
            "responsible": "Thomas Michael Costa",
            "address": "100 Center Ice Drive, Delmont, PA, United States of America",
            "website": "www.highgroundbjj.com"
        },
        {
            "id": 6285,
            "name": "Hicks MMA",
            "federationAbbr": "USBJJF",
            "country": "United States of America",
            "countryAbbr": "US",
            "city": "Carrollton",
            "responsible": "Marcus Hicks",
            "address": "1400 W. Hebron Pkwy, Carrollton, TX, United States of America",
            "website": "www.HicksMMA.com"
        },
        {
            "id": 8602,
            "name": "HICS MMA",
            "federationAbbr": "USBJJF",
            "country": "United States of America",
            "countryAbbr": "US",
            "city": "Bowling Green",
            "responsible": "Donald Gordon Wallace III",
            "address": "150 Dishman Lane Bldg D, Bowling Green, KY, United States of America",
            "website": "www.HICSMMA.com"
        },
        {
            "id": 3898,
            "name": "Higa Jiu-Jitsu Clube",
            "federationAbbr": "CBJJ",
            "country": "Brasil",
            "countryAbbr": "BR",
            "city": "Campo Grande",
            "responsible": "Adilson Higa Dorval",
            "address": "Travessa Unaí 74 , Jardim Samambaia, Campo Grande, MS, Brasil",
            "website": "higajiujitsuclube.workapress.com"
        },
        {
            "id": 7637,
            "name": "Higashi Jiu Jitsu Brasil",
            "federationAbbr": "CBJJ",
            "country": "Brasil",
            "countryAbbr": "BR",
            "city": "NATAL",
            "responsible": "Ana Beatriz de Lima Félix",
            "address": "RUA PRAIA DO COTOVELO 2186 - PONTA NEGRA, NATAL, RN, Brasil",
            "website": null
        },
        {
            "id": 7639,
            "name": "Higashi Jiu Jitsu Canada",
            "federationAbbr": "IBJJF",
            "country": "Canada",
            "countryAbbr": "CA",
            "city": "Toronto",
            "responsible": "Ana Beatriz de Lima Félix",
            "address": "1 Belsize Dr, Unit 822, Toronto, Ontario, Canada",
            "website": null
        },
        {
            "id": 9624,
            "name": "High Altitude Martial Arts",
            "federationAbbr": "USBJJF",
            "country": "United States of America",
            "countryAbbr": "US",
            "city": "Aurora",
            "responsible": "Cody Scott Donovan",
            "address": "2832 S Havana St #zz, Aurora, Co, United States of America",
            "website": null
        }
    ]
}