{
    "pagination": {
        "page": 352,
        "from": 7020,
        "to": 7040,
        "pageSize": 20,
        "lastPage": 358,
        "totalRecords": 7149
    },
    "list": [
        {
            "id": 2383,
            "name": "X3 Sports BJJ",
            "federationAbbr": "USBJJF",
            "country": "United States of America",
            "countryAbbr": "US",
            "city": "Atlanta",
            "responsible": "Bruno Frazatto X. C. Barbosa",
            "address": "1092 Huff Road NW, Atlanta, GA, United States of America",
            "website": "dprice@x3sports.com"
        },
        {
            "id": 3002,
            "name": "Xande Jiu Jitsu",
            "federationAbbr": "USBJJF",
            "country": "United States of America",
            "countryAbbr": "US",
            "city": "Los Angeles",
            "responsible": "Alexandre Couceiro Ribeiro",
            "address": "633 N. La Brea Ave - #A  , , Los Angeles, CA, United States of America",
            "website": "www.jiujitsudojo.com"
        },
        {
            "id": 5053,
            "name": "Xcell Jiu-Jitsu Academy",
            "federationAbbr": "USBJJF",
            "country": "United States of America",
            "countryAbbr": "US",
            "city": "Boynton Beach",
            "responsible": "Jorge Luiz Santiago Rodrigues",
            "address": "975 Gateway Blvd, Suite 101-012, Boynton Beach, FL, United States of America",
            "website": "www.xcellbjj.com"
        },
        {
            "id": 10505,
            "name": "XCMMA",
            "federationAbbr": "USBJJF",
            "country": "United States of America",
            "countryAbbr": "US",
            "city": "Las Vegas",
            "responsible": "Jamie Reza Homampour",
            "address": "4055 W Sunset Rd, Las Vegas, Nv, United States of America",
            "website": "xcmma.com"
        },
        {
            "id": 6078,
            "name": "XCoach",
            "federationAbbr": "CBJJ",
            "country": "Brasil",
            "countryAbbr": "BR",
            "city": "São Paulo",
            "responsible": "Celso Venicius Alves Pinho Júnior",
            "address": "Rua Ministro Jesuino Cardoso 49, Vila Nova Conceição, São Paulo, SP, Brasil",
            "website": null
        },
        {
            "id": 5405,
            "name": "Xeleco Brazilian Jiu-Jitsu",
            "federationAbbr": "CBJJ",
            "country": "Brasil",
            "countryAbbr": "BR",
            "city": "Recife",
            "responsible": "Alexandre Candido de Souza Junior",
            "address": "Avenida João de Barros 1716, Espinheiro, Recife, PE, Brasil",
            "website": null
        },
        {
            "id": 5664,
            "name": "XFC Australian Top Team MMA",
            "federationAbbr": "IBJJF",
            "country": "Australia",
            "countryAbbr": "AU",
            "city": "Narre Warren",
            "responsible": "Bernard Thomas Jenkins",
            "address": "10 Deblin Drive, Narre Warren, VIC, Australia",
            "website": "www.xtreme-fc.com"
        },
        {
            "id": 6939,
            "name": "X-Fighting Jiu-Jitsu Submission Team",
            "federationAbbr": "CBJJ",
            "country": "Brasil",
            "countryAbbr": "BR",
            "city": "Rio de Janeiro",
            "responsible": "Ricardo de Azevedo Martins",
            "address": "Av. Dom Helder Camara n: 3840 - Galpão 1, Bairro: Del Castilho, Rio de Janeiro, Rio de Janeiro, Brasil",
            "website": "instagram:xfightingjiujitsu"
        },
        {
            "id": 6999,
            "name": "Xion Gym",
            "federationAbbr": "IBJJF",
            "country": "United Kingdom",
            "countryAbbr": "GB",
            "city": "Andovor",
            "responsible": "Amaury Tovar Bitetti",
            "address": "Unit 126/127 The Commercial Centre, Andovor, United Kingdom",
            "website": "xiongym.com"
        },
        {
            "id": 4731,
            "name": "X-Road",
            "federationAbbr": "IBJJF",
            "country": "France",
            "countryAbbr": "FR",
            "city": "Saint-Georges-lès-Baillargeaux",
            "responsible": "Damien Thibaud Charles-Aristide",
            "address": "17 route de la Jalaiserie  , Saint-Georges-lès-Baillargeaux, France",
            "website": null
        },
        {
            "id": 3772,
            "name": "X-Team Sports",
            "federationAbbr": "CBJJ",
            "country": "Brasil",
            "countryAbbr": "BR",
            "city": "Rio de Janeiro",
            "responsible": "Alexandre Abrahão da Silva",
            "address": "Rua Santa Cristina 98 Térreo, Santa Tereza, Rio de Janeiro, RJ, Brasil",
            "website": "www.xteamsports.com.br"
        },
        {
            "id": 9739,
            "name": "Xtreme Couture Toronto",
            "federationAbbr": "IBJJF",
            "country": "Canada",
            "countryAbbr": "CA",
            "city": "Toronto",
            "responsible": "Paul T Mcgrath",
            "address": "700 Kipling Ave., Toronto, Ontario, Canada",
            "website": "xtremecouture.ca"
        },
        {
            "id": 4061,
            "name": "X-Treme Ebina",
            "federationAbbr": "JBJJF",
            "country": "Japan",
            "countryAbbr": "JP",
            "city": "Ebinashi",
            "responsible": "Tetsuhiro Yanagisawa",
            "address": "1f Fukawa Building 3-8-13 Nakashinden, , Ebinashi, Kanagawa, Japan",
            "website": "http://x-ebina.com"
        },
        {
            "id": 2881,
            "name": "X-Treme Jiu-Jitsu Academy",
            "federationAbbr": "JBJJF",
            "country": "Japan",
            "countryAbbr": "JP",
            "city": "Kanagawa",
            "responsible": "Masashi Takeuchi",
            "address": "3-6-201 Yokohamashi Kanagawaku, Kanagawa, --, Japan",
            "website": "http://www.geocities.jp/xtremejiujitsu/"
        },
        {
            "id": 3345,
            "name": "Yamada Dojo",
            "federationAbbr": "JBJJF",
            "country": "Japan",
            "countryAbbr": "JP",
            "city": "Tochigi",
            "responsible": "Masanori Ito",
            "address": "564-8 Kamiatsusaki Nasushiobara  , Tochigi, --, Japan",
            "website": null
        },
        {
            "id": 2942,
            "name": "Yamane Championship Mixed Martial Arts",
            "federationAbbr": "USBJJF",
            "country": "United States of America",
            "countryAbbr": "US",
            "city": "Daphne",
            "responsible": "Niall Gordon Yamane",
            "address": "1410 US Highway 98, Daphne, AL, United States of America",
            "website": "www.ycmma.com"
        },
        {
            "id": 2039,
            "name": "Yamasaki Academy",
            "federationAbbr": "USBJJF",
            "country": "United States of America",
            "countryAbbr": "US",
            "city": "Rockville",
            "responsible": "Fernando Yamasaki",
            "address": "12712 rock creek mill rd, Suite 6a/7a, Rockville, Maryland, United States of America",
            "website": "www.grappling.com"
        },
        {
            "id": 2286,
            "name": "Yamasaki Academy Sweden",
            "federationAbbr": "IBJJF",
            "country": "Sweden",
            "countryAbbr": "SE",
            "city": "Gothenburg",
            "responsible": null,
            "address": "Vaderkvansgatan 18  , , Gothenburg, Sweden",
            "website": "www.grappling.se"
        },
        {
            "id": 6007,
            "name": "Yamasaki Canarias",
            "federationAbbr": "IBJJF",
            "country": "Spain",
            "countryAbbr": "ES",
            "city": "Las Palmas",
            "responsible": "Jose Julio Santana Delgado",
            "address": "L/ Fuente Del Sao N4/piso 9a. Telde, Las Palmas, --, Spain",
            "website": null
        },
        {
            "id": 10318,
            "name": "Yamasaki Europe",
            "federationAbbr": "IBJJF",
            "country": "Belarus",
            "countryAbbr": "BY",
            "city": "Rockville",
            "responsible": "Fernando Yamasaki",
            "address": "12712 Rock Creek Mill Rd, Suite 6a/7a, Rockville, Md, Belarus",
            "website": "www.grappling.com"
        }
    ]
}