{
    "pagination": {
        "page": 202,
        "from": 4020,
        "to": 4040,
        "pageSize": 20,
        "lastPage": 358,
        "totalRecords": 7149
    },
    "list": [
        {
            "id": 3622,
            "name": "John Frankl Jiu-Jitsu",
            "federationAbbr": "IBJJF",
            "country": "Korea, South",
            "countryAbbr": "KR",
            "city": "Seoul",
            "responsible": "John Mark Frankl",
            "address": "50 Yonseiro, Seodaemun-gu, Seoul, --, Korea, South",
            "website": "www.johnfranklbjj.com"
        },
        {
            "id": 4360,
            "name": "John's Gym",
            "federationAbbr": "USBJJF",
            "country": "United States of America",
            "countryAbbr": "US",
            "city": "Austin",
            "responsible": "Darrin Courtney Lillian",
            "address": "11416 N Fm 620 #a, Austin, TX, United States of America",
            "website": "johnsgymatx.com"
        },
        {
            "id": 8141,
            "name": "Jonas Marins Jiu-Jitsu Club",
            "federationAbbr": "CBJJ",
            "country": "Brasil",
            "countryAbbr": "BR",
            "city": "Duque De Caxias",
            "responsible": "Jonas Gabriel Marins Santos",
            "address": "Rua Vinte, Lote 09, Quadra 312, Duque De Caxias, Rj, Brasil",
            "website": null
        },
        {
            "id": 8715,
            "name": "Jonildo Massaroca Jiu-Jitsu",
            "federationAbbr": "CBJJ",
            "country": "Brasil",
            "countryAbbr": "BR",
            "city": "Boa Vista",
            "responsible": "Jonildo Rodrigues da Silva",
            "address": "Rua Manoel Pereira De Castro, 65 - Joquei Clube, Casa, Boa Vista, Roraima, Brasil",
            "website": null
        },
        {
            "id": 7721,
            "name": "Jonni Quest BJJ",
            "federationAbbr": "CBJJ",
            "country": "Brasil",
            "countryAbbr": "BR",
            "city": "Vila Velha",
            "responsible": "Walter Jonni Gonçalves",
            "address": "Rua 9, 10, Vila Velha, Espírito Santo, Brasil",
            "website": null
        },
        {
            "id": 7322,
            "name": "Jorge Passos Team",
            "federationAbbr": "CBJJ",
            "country": "Brasil",
            "countryAbbr": "BR",
            "city": "Salvador ",
            "responsible": "Evandro Alves Nascimento",
            "address": "Rua Gomes Costa (Térreo) número: 31, true Bairro: São Gonçalo do Retiro , Salvador , Bahia , Brasil",
            "website": null
        },
        {
            "id": 2103,
            "name": "Jorge Pereira Jiu-Jitsu Club",
            "federationAbbr": "USBJJF",
            "country": "United States of America",
            "countryAbbr": "US",
            "city": "hialeia ",
            "responsible": "Jorge Pereira Pinto",
            "address": "1647 w 40 st  , , hialeia , fl, United States of America",
            "website": ""
        },
        {
            "id": 4645,
            "name": "Jory Malone Jiu-Jitsu",
            "federationAbbr": "USBJJF",
            "country": "United States of America",
            "countryAbbr": "US",
            "city": "Benton",
            "responsible": "Abby Brooke Malone",
            "address": "17724 I-30 Ste 1, , Benton, Ar, United States of America",
            "website": "www.revolutionmma.com"
        },
        {
            "id": 4196,
            "name": "Jose Andrade Brazilian Jiu-Jitsu",
            "federationAbbr": "USBJJF",
            "country": "United States of America",
            "countryAbbr": "US",
            "city": "Bellflower",
            "responsible": "Jose Andrade",
            "address": "9718 Artesia Blvd  , , Bellflower, CA, United States of America",
            "website": "www.andradebjj.com"
        },
        {
            "id": 8976,
            "name": "José Filho Jiu-jitsu",
            "federationAbbr": "CBJJ",
            "country": "Brasil",
            "countryAbbr": "BR",
            "city": "Itaituba",
            "responsible": "José Pereira dos Santos",
            "address": "1123 B Passagem Antônio De Oliveira, Itaituba, Pa, Brasil",
            "website": null
        },
        {
            "id": 3598,
            "name": "Joslin's Mixed Martial Arts",
            "federationAbbr": "IBJJF",
            "country": "Canada",
            "countryAbbr": "CA",
            "city": "Hamilton",
            "responsible": "Jeffrey Lee Joslin",
            "address": "436 Concession Street, , Hamilton, ON, Canada",
            "website": "www.joslinsmma.com"
        },
        {
            "id": 4259,
            "name": "Jovany Varela Competition Team",
            "federationAbbr": "USBJJF",
            "country": "United States of America",
            "countryAbbr": "US",
            "city": "Gardena",
            "responsible": "E. Jovany Varela",
            "address": "821 W. Gardena Blvd.  , Gardena, CA, United States of America",
            "website": "www.jovany.com"
        },
        {
            "id": 5069,
            "name": "Jovany Varela Honduras",
            "federationAbbr": "IBJJF",
            "country": "Honduras",
            "countryAbbr": "HN",
            "city": "Tegucigalpa",
            "responsible": "E. Jovany Varela",
            "address": "Col. Ciudad Nueva 2 Etapa, Casa C-15, Tegucigalpa, Honduras",
            "website": "www.jovany.com"
        },
        {
            "id": 4696,
            "name": "JP - BJJ - Elizondo",
            "federationAbbr": "USBJJF",
            "country": "United States of America",
            "countryAbbr": "US",
            "city": "Doral",
            "responsible": "Jorge Rafael Elizondo",
            "address": "7220 NW 114 Ave  , , Doral, FL, United States of America",
            "website": ""
        },
        {
            "id": 10483,
            "name": "JP Brazilian Jiu-Jitsu Candói",
            "federationAbbr": "CBJJ",
            "country": "Brasil",
            "countryAbbr": "BR",
            "city": "Candoi",
            "responsible": "Jean da Costa Pereira",
            "address": "Rua Gervásio Hitoshi Doi, Sala, Candoi, Paraná, Brasil",
            "website": "https://instagram.com/barbosajj_candoi?igshid=NTA5ZTk1NTc="
        },
        {
            "id": 10091,
            "name": "JP Camargo Itacaré Jiu-Jitsu Club",
            "federationAbbr": "CBJJ",
            "country": "Brasil",
            "countryAbbr": "BR",
            "city": "Itacaré",
            "responsible": "João Paulo Rodrigues de Camargo",
            "address": "Rua Edgar Reis, 25, Ribeirinha, Itacaré, Bahia, Brasil",
            "website": null
        },
        {
            "id": 9748,
            "name": "JP-BJJ San Juan",
            "federationAbbr": "IBJJF",
            "country": "Argentina",
            "countryAbbr": "AR",
            "city": "Pocito",
            "responsible": "Jorge Rafael Elizondo",
            "address": "Barrio Upcn Manzana A Casa 3, Pocito, San Juan, Argentina",
            "website": null
        },
        {
            "id": 6754,
            "name": "JPJJ Team",
            "federationAbbr": "CBJJ",
            "country": "Brasil",
            "countryAbbr": "BR",
            "city": "Caxambu",
            "responsible": "Jonh Paul Jones Figueiredo de Moraes",
            "address": "Av. Henrique Monet n: 525 Loja, Bairro: Federal, Caxambu, Minas Gerais, Brasil",
            "website": null
        },
        {
            "id": 8971,
            "name": "Jr Abreu BJJ",
            "federationAbbr": "CBJJ",
            "country": "Brasil",
            "countryAbbr": "BR",
            "city": "Porto Alegre",
            "responsible": "Valdemir Dias Abreu Junior",
            "address": "Avenida Aparicio Borges 2730, Segundo Andar, Porto Alegre, Rio Grande Do Sul, Brasil",
            "website": "https://www.instagram.com/jrabreujiujitsu/"
        },
        {
            "id": 3092,
            "name": "JR Academy",
            "federationAbbr": "IBJJF",
            "country": "Canada",
            "countryAbbr": "CA",
            "city": "Calgary",
            "responsible": "Joshua Stanton Russell",
            "address": "20 Hager Pl Sw, , Calgary, AB, Canada",
            "website": ""
        }
    ]
}