{
    "pagination": {
        "page": 217,
        "from": 4320,
        "to": 4340,
        "pageSize": 20,
        "lastPage": 358,
        "totalRecords": 7149
    },
    "list": [
        {
            "id": 9607,
            "name": "Lions Academy",
            "federationAbbr": "CBJJ",
            "country": "Brasil",
            "countryAbbr": "BR",
            "city": "Macaé",
            "responsible": "Paulo Vinicius Azevedo Rangel",
            "address": "Rua Aurora N53, Parque Aeroporto, Macaé, Rj, Brasil",
            "website": null
        },
        {
            "id": 10685,
            "name": "Lion's Den Brazilian Jiu-Jitsu",
            "federationAbbr": "USBJJF",
            "country": "United States of America",
            "countryAbbr": "US",
            "city": "Orland Park",
            "responsible": "Adrian R Sandoval",
            "address": "10512 Stonehill Dr, Orland Park, Il, United States of America",
            "website": "lionsdenjiujitsu.com"
        },
        {
            "id": 4459,
            "name": "Lions Team Jiu-Jitsu",
            "federationAbbr": "CBJJ",
            "country": "Brasil",
            "countryAbbr": "BR",
            "city": "São Francisco De Itabapoana",
            "responsible": "Genilson Barreto de Sá Júnior",
            "address": "Avenida Campista, S/n - Praia Clube Guaxindiba - Guaxindiba, Salão, São Francisco De Itabapoana, RJ, Brasil",
            "website": ""
        },
        {
            "id": 6462,
            "name": "Liquid Jiu-Jitsu",
            "federationAbbr": "USBJJF",
            "country": "United States of America",
            "countryAbbr": "US",
            "city": "Queens",
            "responsible": "Christopher Ryan Quinn",
            "address": "22-55 31st st, Queens, NY, United States of America",
            "website": "www.itcnewyork.com/"
        },
        {
            "id": 9696,
            "name": "Litoral Grappling",
            "federationAbbr": "CBJJ",
            "country": "Brasil",
            "countryAbbr": "BR",
            "city": "Santos",
            "responsible": "Raul Silva Faconti",
            "address": "Siqueira Campos  800, Loja 8, Santos, Sp, Brasil",
            "website": null
        },
        {
            "id": 9435,
            "name": "Live Well Martial Arts",
            "federationAbbr": "IBJJF",
            "country": "Australia",
            "countryAbbr": "AU",
            "city": "Sydney",
            "responsible": "Richard Gonçalves",
            "address": "Tenancy 2/4-6 Commercial Rd, Rouse Hill Nsw 2155, Sydney, Nsw, Australia",
            "website": "www.livewellhealthclubs.com.au"
        },
        {
            "id": 9967,
            "name": "Livermore Arena Jiu-Jitsu",
            "federationAbbr": "USBJJF",
            "country": "United States of America",
            "countryAbbr": "US",
            "city": "Livermore",
            "responsible": "Onsomu Tengeri",
            "address": "4555 Las Positas Rd Unit E, Livermore, Ca, United States of America",
            "website": "www.arenastrong.com"
        },
        {
            "id": 10129,
            "name": "LJS Jiu-Jitsu",
            "federationAbbr": "IBJJF",
            "country": "United Kingdom",
            "countryAbbr": "GB",
            "city": "Essex",
            "responsible": "Luke James Spencer",
            "address": "263b Church Road, Benfleet, Essex, Essex, United Kingdom",
            "website": "Essex"
        },
        {
            "id": 7710,
            "name": "LKJJ",
            "federationAbbr": "IBJJF",
            "country": "Australia",
            "countryAbbr": "AU",
            "city": "Broadbeach",
            "responsible": "Mikio Oga",
            "address": "19 Albert avenue, U203, Broadbeach, QLD, Australia",
            "website": "www.lkjjisnowhere.com"
        },
        {
            "id": 9702,
            "name": "LMNUBJJ",
            "federationAbbr": "IBJJF",
            "country": "Italy",
            "countryAbbr": "IT",
            "city": "Sinnai",
            "responsible": "Carlos Andre Pederneiras de Castro",
            "address": "Vila Soleminis 29, Sinnai, Italy",
            "website": null
        },
        {
            "id": 9285,
            "name": "Lobo BJJ",
            "federationAbbr": "IBJJF",
            "country": "United Kingdom",
            "countryAbbr": "GB",
            "city": "Barrow In Furness",
            "responsible": "Michael Reay",
            "address": "80 Crelin Street, Barrow In Furness, Cumbria, United Kingdom",
            "website": null
        },
        {
            "id": 10076,
            "name": "Lobo Carrasco BJJ Academy",
            "federationAbbr": "IBJJF",
            "country": "Honduras",
            "countryAbbr": "HN",
            "city": "El Progreso",
            "responsible": "Raul Orlando Henriquez Carrasco",
            "address": "Barrio El Centro, 1 Calle 2 Avenida, Edificio Odef, 3er Piso, El Progreso, Yoro, Honduras",
            "website": null
        },
        {
            "id": 10164,
            "name": "Lobo International Jiu Jitsu",
            "federationAbbr": "CBJJ",
            "country": "Brasil",
            "countryAbbr": "BR",
            "city": "Belo Horizonte",
            "responsible": "David Andrade De Souza",
            "address": "Avenida Amintas Jacques De Moraes 1151, Belo Horizonte, Mg, Brasil",
            "website": null
        },
        {
            "id": 7222,
            "name": "LockDown BJJ",
            "federationAbbr": "USBJJF",
            "country": "United States of America",
            "countryAbbr": "US",
            "city": "Lake Ronkonkoma",
            "responsible": "Joseph Thompson",
            "address": "733 Hawkins Ave., Lake Ronkonkoma, NY, United States of America",
            "website": "www.lockdownbjj.com"
        },
        {
            "id": 10418,
            "name": "Loft 351 Grappling Academy",
            "federationAbbr": "FPJJB",
            "country": "Portugal",
            "countryAbbr": "PT",
            "city": "Aveiro",
            "responsible": "Luis Filipe Mota",
            "address": "Rua Da Fonte Do Rio De Neto, Centro Desportivo São Bernardo,, Aveiro, Portugal",
            "website": null
        },
        {
            "id": 6850,
            "name": "Logic",
            "federationAbbr": "USBJJF",
            "country": "United States of America",
            "countryAbbr": "US",
            "city": "Philadelphia",
            "responsible": "Kristian R. Woodmansee",
            "address": "1360 N American St, Philadelphia, PA, United States of America",
            "website": "www.LogicPhilly.com"
        },
        {
            "id": 6912,
            "name": "Logic Europe",
            "federationAbbr": "IBJJF",
            "country": "United Kingdom",
            "countryAbbr": "GB",
            "city": "Belfast",
            "responsible": "Kristian R. Woodmansee",
            "address": "A17 Harbour View Heron Road, Belfast, Ireland, United Kingdom",
            "website": "www.logicphilly.com"
        },
        {
            "id": 7680,
            "name": "Logos JJ",
            "federationAbbr": "USBJJF",
            "country": "United States of America",
            "countryAbbr": "US",
            "city": "Denver",
            "responsible": "Michael Remigio Liera Jr.",
            "address": "3440 Brighton Blvd, Denver, CA, United States of America",
            "website": "logosjiujitsu.com"
        },
        {
            "id": 7308,
            "name": "Lokahi Academy",
            "federationAbbr": "USBJJF",
            "country": "United States of America",
            "countryAbbr": "US",
            "city": "Hudson",
            "responsible": "Juliana Remigio Fontoura",
            "address": "312 Main St. , Hudson, MA, United States of America",
            "website": "www.lokahiacademy.com"
        },
        {
            "id": 8727,
            "name": "London Fight Factory",
            "federationAbbr": "IBJJF",
            "country": "United Kingdom",
            "countryAbbr": "GB",
            "city": "London",
            "responsible": "Luiz Osvaldo Ribeiro Duo",
            "address": "19, Ebenezer Street, Basement, London, United Kingdom",
            "website": null
        }
    ]
}