{
    "pagination": {
        "page": 49,
        "from": 960,
        "to": 980,
        "pageSize": 20,
        "lastPage": 358,
        "totalRecords": 7149
    },
    "list": [
        {
            "id": 8724,
            "name": "Blue Wave Brazilian Jiu-Jitsu",
            "federationAbbr": "USBJJF",
            "country": "United States of America",
            "countryAbbr": "US",
            "city": "Nashua",
            "responsible": "James M Quinlan",
            "address": "433 Amherst Street #5, Nashua, Nh, United States of America",
            "website": "www.bluewavebjj.com"
        },
        {
            "id": 8566,
            "name": "Bluehouse",
            "federationAbbr": "JBJJF",
            "country": "Japan",
            "countryAbbr": "JP",
            "city": "Toyama Shi",
            "responsible": "Koji Shimasaki",
            "address": "228,kamidaki, Toyama Shi, Toyama Ken, Japan",
            "website": "https://bluehouse-mmagym.jimdofree.com/"
        },
        {
            "id": 7305,
            "name": "Bluestarr Grappling",
            "federationAbbr": "USBJJF",
            "country": "United States of America",
            "countryAbbr": "US",
            "city": "Surprise ",
            "responsible": "Walter Daniels Jr.",
            "address": "13059 W. Grant Ave. STE #10 , Surprise , AZ, United States of America",
            "website": "bluestarrgappling.com"
        },
        {
            "id": 10004,
            "name": "Blvckout Grappling",
            "federationAbbr": "CBJJ",
            "country": "Brasil",
            "countryAbbr": "BR",
            "city": "Rio De Janeiro",
            "responsible": "Matheus Vetoraci de Menezes",
            "address": "Praia Do Recôncavo 1226, Rio De Janeiro, Rio De Janeiro, Brasil",
            "website": "https://www.instagram.com/blvckoutgym/"
        },
        {
            "id": 3912,
            "name": "BMA France",
            "federationAbbr": "IBJJF",
            "country": "France",
            "countryAbbr": "FR",
            "city": "Aix-en-Provence",
            "responsible": "Jean Marc Noblot",
            "address": "Maison des Association 75, Route des Milles  , , Aix-en-Provence, --, France",
            "website": "www.ecdebase.com"
        },
        {
            "id": 3045,
            "name": "BMAC / GFTeam Boston",
            "federationAbbr": "USBJJF",
            "country": "United States of America",
            "countryAbbr": "US",
            "city": "Somerville",
            "responsible": "Marcelo Antonio Siqueira",
            "address": "700 Mystic Ave  , Somerville, MA, United States of America",
            "website": "www.bmacboston.com"
        },
        {
            "id": 4641,
            "name": "BMB BJJ Academy",
            "federationAbbr": "IBJJF",
            "country": "United Kingdom",
            "countryAbbr": "GB",
            "city": "Norfolk",
            "responsible": "Baruc Martin Barrios",
            "address": "39, Old Market Street, Thetford, Norfolk, United Kingdom",
            "website": null
        },
        {
            "id": 4361,
            "name": "Boasorte Jiu-Jitsu Academy",
            "federationAbbr": "JBJJF",
            "country": "Japan",
            "countryAbbr": "JP",
            "city": "Wakayama",
            "responsible": "Yuu Takebayashi",
            "address": "14-31, Kuinose  , Wakayama, Wakayama, Japan",
            "website": null
        },
        {
            "id": 8956,
            "name": "Boattini BJJ",
            "federationAbbr": "USBJJF",
            "country": "United States of America",
            "countryAbbr": "US",
            "city": "Sneads Ferry",
            "responsible": "Osni Boattini Filho",
            "address": "115 Old Dock Landing Rd, Sneads Ferry, Nc, United States of America",
            "website": null
        },
        {
            "id": 6838,
            "name": "Boavista FC Jiu-Jitsu",
            "federationAbbr": "FPJJB",
            "country": "Portugal",
            "countryAbbr": "PT",
            "city": "Porto",
            "responsible": "José Alberto Machado Lima",
            "address": "Eltadio do Bema, Suculo xx1, Porto, --, Portugal",
            "website": null
        },
        {
            "id": 3621,
            "name": "Boca De La Riva",
            "federationAbbr": "USBJJF",
            "country": "United States of America",
            "countryAbbr": "US",
            "city": "Miami",
            "responsible": "Moacir Omena de Oliveira Junior",
            "address": "9131 S.W. 18 Terr.  , , Miami, FL, United States of America",
            "website": ""
        },
        {
            "id": 3024,
            "name": "Boca Team",
            "federationAbbr": "CBJJ",
            "country": "Brasil",
            "countryAbbr": "BR",
            "city": "João Pessoa",
            "responsible": "Vagner Luiz Guimarães da Cruz",
            "address": "Rua Manoel Firmino do Nascimento 202 , Bancários, João Pessoa, PB, Brasil",
            "website": ""
        },
        {
            "id": 10452,
            "name": "Boca Team USA",
            "federationAbbr": "USBJJF",
            "country": "United States of America",
            "countryAbbr": "US",
            "city": "Oviedo",
            "responsible": "Vagner Luiz Guimarães da Cruz",
            "address": "1065 E Broadway Street, Oviedo, Flórida, United States of America",
            "website": "www.bocateamusa.com"
        },
        {
            "id": 10443,
            "name": "Body In Action",
            "federationAbbr": "CBJJ",
            "country": "Brasil",
            "countryAbbr": "BR",
            "city": "Brasilia",
            "responsible": "Felipe de Aquino",
            "address": "Sgas 603 Lote 19, Igreja Batista Central De Brasilia, Brasilia, Distrito Federal, Brasil",
            "website": null
        },
        {
            "id": 5172,
            "name": "Body Limits",
            "federationAbbr": "CBJJ",
            "country": "Brasil",
            "countryAbbr": "BR",
            "city": "Rio de Janeiro",
            "responsible": "Luis Flavio de Britto Nobre",
            "address": "Heiro Beltrão 134 , Tijuca, Rio de Janeiro, RJ, Brasil",
            "website": ""
        },
        {
            "id": 2778,
            "name": "Body Of Four Team",
            "federationAbbr": "IBJJF",
            "country": "Canada",
            "countryAbbr": "CA",
            "city": "Toronto",
            "responsible": "Marco Paulo M. Costa",
            "address": "62 Clarkson Avenue, , Toronto, ON, Canada",
            "website": "www.yorkdalemartialarts.com"
        },
        {
            "id": 4347,
            "name": "Bogado Team",
            "federationAbbr": "CBJJ",
            "country": "Brasil",
            "countryAbbr": "BR",
            "city": "Palmas",
            "responsible": "Alessandro Brandão Bogado",
            "address": "110 Sul A. JK Lote 4 Sala 3, Centro, Palmas, TO, Brasil",
            "website": ""
        },
        {
            "id": 4220,
            "name": "Bohemians",
            "federationAbbr": "JBJJF",
            "country": "Japan",
            "countryAbbr": "JP",
            "city": "Shimotomino",
            "responsible": "Kouhei Ebashi",
            "address": "2-1-32 Shimotominokouminkan 2F  , Kokurakita, Shimotomino, Fukuoka, Japan",
            "website": "www.bohemians-bjj.com"
        },
        {
            "id": 4313,
            "name": "Boi Branco Team",
            "federationAbbr": "CBJJ",
            "country": "Brasil",
            "countryAbbr": "BR",
            "city": "Pitangui",
            "responsible": "José Felix",
            "address": "Rua Monsenhor Arthur de Oliveira n: 342, Gameleira, Pitangui, MG, Brasil",
            "website": "www.dwsportes.com"
        },
        {
            "id": 4435,
            "name": "Boi Team - Jiu-Jitsu da Serra",
            "federationAbbr": "CBJJ",
            "country": "Brasil",
            "countryAbbr": "BR",
            "city": "Nova Friburgo",
            "responsible": "Henrique dos Santos  Mendonça",
            "address": "Avenida Conselheiro Julios ARP 10 3º andar, Centro, Nova Friburgo, RJ, Brasil",
            "website": ""
        }
    ]
}