{
    "pagination": {
        "page": 163,
        "from": 3240,
        "to": 3260,
        "pageSize": 20,
        "lastPage": 358,
        "totalRecords": 7149
    },
    "list": [
        {
            "id": 8263,
            "name": "Gracie Barra Luís Eduardo Magalhães - Bahia",
            "federationAbbr": "CBJJ",
            "country": "Brasil",
            "countryAbbr": "BR",
            "city": "Luís Eduardo Magalhães",
            "responsible": "Reinê Alves Teixeira",
            "address": "Rua Paraíba, Qd 87, Número 959, Sala 04, Luís Eduardo Magalhães, Bahia, Brasil",
            "website": null
        },
        {
            "id": 10404,
            "name": "Gracie Barra Luz",
            "federationAbbr": "CBJJ",
            "country": "Brasil",
            "countryAbbr": "BR",
            "city": "Luz",
            "responsible": "Raimundo Ferreira Júnior",
            "address": "Rua Doze De Outubro, 69, Segundo Piso, Luz, Minas Gerais, Brasil",
            "website": null
        },
        {
            "id": 7034,
            "name": "Gracie Barra Luziania Centro",
            "federationAbbr": "CBJJ",
            "country": "Brasil",
            "countryAbbr": "BR",
            "city": "Luziania",
            "responsible": "Paulo Roriz Coutinho",
            "address": "Avenida Descoberto, Qd. 56, Lt. 11 S/n, Diogo De Araújo Machado, Luziania, Goiáis, Brasil",
            "website": null
        },
        {
            "id": 4356,
            "name": "Gracie Barra Luziânia GO",
            "federationAbbr": "CBJJ",
            "country": "Brasil",
            "countryAbbr": "BR",
            "city": "Luziania",
            "responsible": "Adielson Meireles Espindola",
            "address": "Av. Miguel Real Q - 21 / Lote 14 S/N , Setor Mandu II, Luziania, GO, Brasil",
            "website": ""
        },
        {
            "id": 5902,
            "name": "Gracie Barra Maastricht",
            "federationAbbr": "IBJJF",
            "country": "Netherlands",
            "countryAbbr": "NL",
            "city": "Maastricht",
            "responsible": "Jordy Anna Jean Antoon Peute",
            "address": "Laan in den Drink 2A, Maastricht, --, Netherlands",
            "website": "www.bjjmaastricht.nl"
        },
        {
            "id": 7494,
            "name": "Gracie Barra Madison",
            "federationAbbr": "USBJJF",
            "country": "United States of America",
            "countryAbbr": "US",
            "city": "Madison",
            "responsible": "Cristiano Ribeiro da Costa",
            "address": "3224 University Ave. , Madison, WI, United States of America",
            "website": "graciebarramadison.com"
        },
        {
            "id": 9502,
            "name": "Gracie Barra Mandaqui",
            "federationAbbr": "CBJJ",
            "country": "Brasil",
            "countryAbbr": "BR",
            "city": "São Paulo",
            "responsible": "Alexandre  Luiz Barbosa",
            "address": "Av. Santa Inês, 06, Sobreloja, São Paulo, Sp, Brasil",
            "website": "www.graciebarramandaqui.com.br"
        },
        {
            "id": 8106,
            "name": "Gracie Barra Mangabeira",
            "federationAbbr": "CBJJ",
            "country": "Brasil",
            "countryAbbr": "BR",
            "city": "João Pessoa",
            "responsible": "Fabiano Pereira da Silva",
            "address": "Rua: Professora Alice Eliza De Mello, N416, João Pessoa, Paraíba, Brasil",
            "website": null
        },
        {
            "id": 5833,
            "name": "Gracie Barra Mansfield",
            "federationAbbr": "USBJJF",
            "country": "United States of America",
            "countryAbbr": "US",
            "city": "Mansfield",
            "responsible": "Herman Troy Young",
            "address": "780 W. Debbie Ln. Suite 300, Mansfield, TX, United States of America",
            "website": "www.gbmansfield.com"
        },
        {
            "id": 3625,
            "name": "Gracie Barra Marabá",
            "federationAbbr": "CBJJ",
            "country": "Brasil",
            "countryAbbr": "BR",
            "city": "Marabá",
            "responsible": "Henzo dos Reis Pontes",
            "address": "VP 03 FOLHA 16, Quadra 28, Lote 14, Nova Marabá, Marabá, PA, Brasil",
            "website": null
        },
        {
            "id": 10336,
            "name": "Gracie Barra Maracaipe - Ipojuca - Pe",
            "federationAbbr": "CBJJ",
            "country": "Brasil",
            "countryAbbr": "BR",
            "city": "Ipojuca",
            "responsible": "Bruno Rodrigues de Oliveira",
            "address": "Avenida Beira Mar, Ipojuca, Pe, Brasil",
            "website": null
        },
        {
            "id": 5340,
            "name": "Gracie Barra Marajoara",
            "federationAbbr": "CBJJ",
            "country": "Brasil",
            "countryAbbr": "BR",
            "city": "São Paulo",
            "responsible": "Gabriel Pedreira Mei",
            "address": "Rua Frei Canísio 123, Jardim Marajoara, São Paulo, SP, Brasil",
            "website": "www.gbmarajoara.com"
        },
        {
            "id": 8319,
            "name": "Gracie Barra Marcos Freire",
            "federationAbbr": "CBJJ",
            "country": "Brasil",
            "countryAbbr": "BR",
            "city": "Jaboatão Dos Guararapes",
            "responsible": "Willams de Souza Barbosa",
            "address": "8199806602anandes Vieira, 171, Jaboatão Dos Guararapes, Pernambuco, Brasil",
            "website": null
        },
        {
            "id": 5343,
            "name": "Gracie Barra Marseille",
            "federationAbbr": "IBJJF",
            "country": "France",
            "countryAbbr": "FR",
            "city": "Marseille",
            "responsible": "Sebastien William Arnaud Garnier",
            "address": "35 rue du Dr. Fiolle, Marseille, France",
            "website": null
        },
        {
            "id": 6441,
            "name": "Gracie Barra Massaranduba SC",
            "federationAbbr": "CBJJ",
            "country": "Brasil",
            "countryAbbr": "BR",
            "city": "Massaranduba",
            "responsible": "João Alberto Matos Fadul Filho",
            "address": "Av. 7 de Setembro n: 919, sala 04, Massaranduba, Santa Catarina, Brasil",
            "website": "www.graciebarramassaranduba.com.br"
        },
        {
            "id": 10660,
            "name": "Gracie Barra Mata Grande - Sete Lagoas, Mg",
            "federationAbbr": "CBJJ",
            "country": "Brasil",
            "countryAbbr": "BR",
            "city": "Sete Lagoas",
            "responsible": "Francisco Libério Braga Júnior",
            "address": "Rua Joaquim Murtinho, 455, Prédio Anexo Ao Ginásio Farnetti, Sete Lagoas, Minas Gerais, Brasil",
            "website": null
        },
        {
            "id": 6242,
            "name": "Gracie Barra Mateus Leme",
            "federationAbbr": "CBJJ",
            "country": "Brasil",
            "countryAbbr": "BR",
            "city": "Curitiba",
            "responsible": "Éricka Wannessa Almeida",
            "address": "Rua Mateus Leme n: 3041 sala 03, São Lourenço, Curitiba, Paraná, Brasil",
            "website": null
        },
        {
            "id": 6623,
            "name": "Gracie Barra Mcallen",
            "federationAbbr": "USBJJF",
            "country": "United States of America",
            "countryAbbr": "US",
            "city": "McAllen",
            "responsible": "Joshua Adam Sharpless",
            "address": "1701 W Dove Ave Suite F \u0026 G, McAllen, TX, United States of America",
            "website": "www.gbmcallen.com"
        },
        {
            "id": 8900,
            "name": "Gracie Barra Mckinney",
            "federationAbbr": "USBJJF",
            "country": "United States of America",
            "countryAbbr": "US",
            "city": "Mckinney",
            "responsible": "Inacio Ferreira Gomes Neto",
            "address": "7901 Eldorado Pkwy, Suite 120, Mckinney, Texas, United States of America",
            "website": "https://www.gbmckinney.com"
        },
        {
            "id": 3113,
            "name": "Gracie Barra Medellin",
            "federationAbbr": "IBJJF",
            "country": "Colombia",
            "countryAbbr": "CO",
            "city": "Medellin",
            "responsible": "Carlos Franklin B. Gonzalez",
            "address": "Carrera 43 No. 25A 185  , , Medellin, Colombia",
            "website": "www.graciebarracolumbia.com"
        }
    ]
}