{
    "pagination": {
        "page": 274,
        "from": 5460,
        "to": 5480,
        "pageSize": 20,
        "lastPage": 358,
        "totalRecords": 7149
    },
    "list": [
        {
            "id": 833,
            "name": "Renzo Gracie",
            "federationAbbr": "CBJJ",
            "country": null,
            "countryAbbr": null,
            "city": null,
            "responsible": null,
            "address": "",
            "website": null
        },
        {
            "id": 2019,
            "name": "Renzo Gracie Academy",
            "federationAbbr": "USBJJF",
            "country": "United States of America",
            "countryAbbr": "US",
            "city": "New York",
            "responsible": null,
            "address": "224 W. 30th Street - Ste 100  , , New York, NY, United States of America",
            "website": ""
        },
        {
            "id": 9276,
            "name": "Renzo Gracie Academy Azerbaijan",
            "federationAbbr": "IBJJF",
            "country": "Azerbaijan",
            "countryAbbr": "AZ",
            "city": "Baku",
            "responsible": "Ayaz Suleymanov",
            "address": "Azerbaijan, Baku, Ahmed Jamil Str., Baku, Baku, Azerbaijan",
            "website": "https://instagram.com/renzogracieaz?utm_medium=copy_link"
        },
        {
            "id": 4097,
            "name": "Renzo Gracie Academy Portland",
            "federationAbbr": "USBJJF",
            "country": "United States of America",
            "countryAbbr": "US",
            "city": "Portland",
            "responsible": "Aaron Michael Milam",
            "address": "615 SE Alder St Suite #300 , , Portland, OR, United States of America",
            "website": "renzogracieportland.com"
        },
        {
            "id": 9027,
            "name": "Renzo Gracie Austin",
            "federationAbbr": "USBJJF",
            "country": "United States of America",
            "countryAbbr": "US",
            "city": "Austin",
            "responsible": "Jason Everett Rebsch",
            "address": "4301 Guadalupe, Austin, Texas, United States of America",
            "website": "renzogracieaustin.com"
        },
        {
            "id": 9468,
            "name": "Renzo Gracie Barra",
            "federationAbbr": "CBJJ",
            "country": "Brasil",
            "countryAbbr": "BR",
            "city": "Rio De Janeiro",
            "responsible": "Mito Carlos Pontual Bova",
            "address": "Avenida Olégario Maciel 570, 201, Rio De Janeiro, Rio De Janeiro, Brasil",
            "website": null
        },
        {
            "id": 6205,
            "name": "Renzo Gracie Boca Raton",
            "federationAbbr": "USBJJF",
            "country": "United States of America",
            "countryAbbr": "US",
            "city": "Boca Raton",
            "responsible": "Marcus Vinicius Nesse",
            "address": "9045 La Fontana Blvd. #116, Boca Raton, FL, United States of America",
            "website": "www.rgaboca.com"
        },
        {
            "id": 3421,
            "name": "Renzo Gracie Brooklyn",
            "federationAbbr": "USBJJF",
            "country": "United States of America",
            "countryAbbr": "US",
            "city": "Brooklyn",
            "responsible": "Peter A. Lawson",
            "address": "289 Livingston Street 2nd Floor  , , Brooklyn, NY, United States of America",
            "website": "www.brooklynmartialarts.com"
        },
        {
            "id": 10111,
            "name": "Renzo Gracie Clarksville",
            "federationAbbr": "USBJJF",
            "country": "United States of America",
            "countryAbbr": "US",
            "city": "Clarksville",
            "responsible": "Andrew Lee Hansen",
            "address": "327 B Warfield Blvd, Clarksville, Tennesee, United States of America",
            "website": null
        },
        {
            "id": 9239,
            "name": "Renzo Gracie Colorado",
            "federationAbbr": "USBJJF",
            "country": "United States of America",
            "countryAbbr": "US",
            "city": "Colorado Springs",
            "responsible": "Avi Kashub",
            "address": "3639 Star Ranch Rd, Colorado Springs, Colorado, United States of America",
            "website": "Renzograciecolorado.com"
        },
        {
            "id": 8605,
            "name": "Renzo Gracie Colorado",
            "federationAbbr": "USBJJF",
            "country": "United States of America",
            "countryAbbr": "US",
            "city": "Colorado Springs",
            "responsible": "Avi Kashub",
            "address": "3639 Star Ranch Rd, Colorado Springs, Colorado, United States of America",
            "website": "Renzograciecolorado.com"
        },
        {
            "id": 9494,
            "name": "Renzo Gracie Garwood",
            "federationAbbr": "USBJJF",
            "country": "United States of America",
            "countryAbbr": "US",
            "city": "Garwood",
            "responsible": "Carlos Bastos de Oliveira",
            "address": "155 South Ave, Garwood, Nj, United States of America",
            "website": "www: renzograciegarwood.com"
        },
        {
            "id": 4863,
            "name": "Renzo Gracie Holland",
            "federationAbbr": "IBJJF",
            "country": "Netherlands",
            "countryAbbr": "NL",
            "city": "Breda",
            "responsible": "Kemail Verhoeven",
            "address": "Slingerweg 118, , Breda, Netherlands",
            "website": "www.renzogracieholland.com"
        },
        {
            "id": 6309,
            "name": "Renzo Gracie Houston",
            "federationAbbr": "USBJJF",
            "country": "United States of America",
            "countryAbbr": "US",
            "city": "Sugar Land",
            "responsible": "Brian Allen Marvin",
            "address": "3527 Hwy 6 Suite 240, Sugar Land, TX, United States of America",
            "website": "www.RenzoGracieHouston.com"
        },
        {
            "id": 2769,
            "name": "Renzo Gracie International",
            "federationAbbr": "IBJJF",
            "country": "United Arab Emirates",
            "countryAbbr": "AE",
            "city": "International",
            "responsible": null,
            "address": ", International, IT, United Arab Emirates",
            "website": ""
        },
        {
            "id": 7544,
            "name": "Renzo Gracie Ipanema",
            "federationAbbr": "CBJJ",
            "country": "Brasil",
            "countryAbbr": "BR",
            "city": "Rio de Janeiro",
            "responsible": "Áureo Trotte Couto",
            "address": "Rua Farme de Amoedo n: 75 loja 204, Ipanema, Rio de Janeiro, Rio de Janeiro, Brasil",
            "website": null
        },
        {
            "id": 2929,
            "name": "Renzo Gracie Israel",
            "federationAbbr": "IBJJF",
            "country": "Israel",
            "countryAbbr": "IL",
            "city": "Bat-Yam",
            "responsible": "Haim Gozali",
            "address": "5 Kinor David, , Bat-Yam, IS, Israel",
            "website": ""
        },
        {
            "id": 7263,
            "name": "Renzo Gracie Jiu-Jitsu - Upper West Side",
            "federationAbbr": "USBJJF",
            "country": "United States of America",
            "countryAbbr": "US",
            "city": "New York",
            "responsible": "Luca Atalla",
            "address": "246 Columbus Ave., Subcellar, New York, NY, United States of America",
            "website": "renzogracieuws.com"
        },
        {
            "id": 2324,
            "name": "Renzo Gracie LA",
            "federationAbbr": "USBJJF",
            "country": "United States of America",
            "countryAbbr": "US",
            "city": "Los Angeles",
            "responsible": "Shawn Michael Williams",
            "address": "4201 Wilshire Blvd #105  , , Los Angeles, CA, United States of America",
            "website": ""
        },
        {
            "id": 5832,
            "name": "Renzo Gracie Latham",
            "federationAbbr": "USBJJF",
            "country": "United States of America",
            "countryAbbr": "US",
            "city": "Latham",
            "responsible": "Bruno C Tostes",
            "address": "836 New Loudon Rd, Latham, NY, United States of America",
            "website": "renzogracielatham.com"
        }
    ]
}