{
    "pagination": {
        "page": 190,
        "from": 3780,
        "to": 3800,
        "pageSize": 20,
        "lastPage": 358,
        "totalRecords": 7149
    },
    "list": [
        {
            "id": 9709,
            "name": "Ifes Vila Velha",
            "federationAbbr": "CBJJ",
            "country": "Brasil",
            "countryAbbr": "BR",
            "city": "Vila Velha",
            "responsible": "Sergio Nicolau Serafim Martins",
            "address": "Av. Ministro Salgado Filho 1000, Vila Velha, Es, Brasil",
            "website": "vilavelha.ifes.edu.br"
        },
        {
            "id": 4077,
            "name": "IFT",
            "federationAbbr": "IBJJF",
            "country": "France",
            "countryAbbr": "FR",
            "city": "Nanterre",
            "responsible": "David Joseph Pierre-Louis",
            "address": "SUAPS Paris X Nanterre Université  200 avenue de la république, Nanterre, Les hauts de Seine, France",
            "website": "www.infinitycombat.fr"
        },
        {
            "id": 6011,
            "name": "Igloo",
            "federationAbbr": "JBJJF",
            "country": "Japan",
            "countryAbbr": "JP",
            "city": "Tokyo",
            "responsible": "Yusuke Homma",
            "address": "3F 6-2-17 Fukasawa Setagaya-ku, Tokyo, Japan",
            "website": "http://igloobjj.com/"
        },
        {
            "id": 9485,
            "name": "IGM Jiu-Jitsu",
            "federationAbbr": "USBJJF",
            "country": "United States of America",
            "countryAbbr": "US",
            "city": "Raleigh",
            "responsible": "Glayton Luiz do Passos Melo",
            "address": "731 W Hargett St, Raleigh, North Carolina, United States of America",
            "website": "irongripjiujitsu.com"
        },
        {
            "id": 7103,
            "name": "Igor Araujo Italia",
            "federationAbbr": "UIJJ",
            "country": "Italy",
            "countryAbbr": "IT",
            "city": "Messina",
            "responsible": "Igor Araújo Ferreira de Castro",
            "address": "Via Piemonte is. 43, Messina, Italy",
            "website": null
        },
        {
            "id": 3455,
            "name": "Igor Araujo Team",
            "federationAbbr": "IBJJF",
            "country": "Switzerland",
            "countryAbbr": "CH",
            "city": "Geneve",
            "responsible": "Igor Araújo Ferreira de Castro",
            "address": "69, rue de Vollandes, Geneve, --, Switzerland",
            "website": "www.igoraraujo.com"
        },
        {
            "id": 8368,
            "name": "Igor Cavallo Bjj School",
            "federationAbbr": "CBJJ",
            "country": "Brasil",
            "countryAbbr": "BR",
            "city": "São Paulo",
            "responsible": "Igor da Silva Cavallo",
            "address": "Rua Marcelino Simões 761, São Paulo, São Paulo, Brasil",
            "website": null
        },
        {
            "id": 5102,
            "name": "Igor Silva BJJ",
            "federationAbbr": "CBJJ",
            "country": "Brasil",
            "countryAbbr": "BR",
            "city": "Rio de Janeiro",
            "responsible": "Igor Silva",
            "address": "Rua Pacheco Leão 226 Casa 6D, Jardim Botânico, Rio de Janeiro, RJ, Brasil",
            "website": ""
        },
        {
            "id": 5888,
            "name": "Igor Silva International",
            "federationAbbr": "IBJJF",
            "country": "United Arab Emirates",
            "countryAbbr": "AE",
            "city": "Abu Dhabi",
            "responsible": "Igor Silva",
            "address": "Abu Dhabi, Abu Dhabi, --, United Arab Emirates",
            "website": "www.IgorSilvaBJJ.com"
        },
        {
            "id": 10071,
            "name": "Ijc Martial Arts",
            "federationAbbr": "USBJJF",
            "country": "United States of America",
            "countryAbbr": "US",
            "city": "Queens",
            "responsible": "Charles W. Liu",
            "address": "28-20 120th St, 2nd Floor, Queens, Ny, United States of America",
            "website": "https://ijcnyc.com/"
        },
        {
            "id": 9284,
            "name": "Ikehara Academy",
            "federationAbbr": "IBJJF",
            "country": "United Arab Emirates",
            "countryAbbr": "AE",
            "city": "Dubai",
            "responsible": "Cezar Takeyoshi Ikehara",
            "address": "Daytona House, Detroid Rd, Motor City, Ub3, Dubai, Dubai, United Arab Emirates",
            "website": "ikehara.co"
        },
        {
            "id": 9403,
            "name": "Ikehara Austin",
            "federationAbbr": "USBJJF",
            "country": "United States of America",
            "countryAbbr": "US",
            "city": "Austin",
            "responsible": "Benjamin William Stirlen",
            "address": "9013 Winter Haven Road, Austin, Tx, United States of America",
            "website": null
        },
        {
            "id": 10509,
            "name": "Ikigai Brazilian Jiu-Jitsu",
            "federationAbbr": "CBJJ",
            "country": "Brasil",
            "countryAbbr": "BR",
            "city": "São Bernardo Do Campo",
            "responsible": "Lucas Ramos da Silva",
            "address": "Rua Tiete 430 Rudge Ramos, São Bernardo Do Campo, São Paulo, Brasil",
            "website": "Ikigaibjj.com"
        },
        {
            "id": 8564,
            "name": "Ikuno JJ",
            "federationAbbr": "JBJJF",
            "country": "Japan",
            "countryAbbr": "JP",
            "city": "Osaka",
            "responsible": "Motoaki Hirokura",
            "address": "Ikunohigashi3-8-18 Ikunoku, Osaka, Osaka, Japan",
            "website": "https://www.ikuno-jj.com"
        },
        {
            "id": 10117,
            "name": "Ilimitadas Brazilian Jiu-Jitsu",
            "federationAbbr": "USBJJF",
            "country": "United States of America",
            "countryAbbr": "US",
            "city": "Dayton",
            "responsible": "Kevin Allen Rhinehart",
            "address": "500 East Main St, Dayton, Oh, United States of America",
            "website": null
        },
        {
            "id": 4376,
            "name": "Illuminati Jiu-Jitsu",
            "federationAbbr": "CBJJ",
            "country": "Brasil",
            "countryAbbr": "BR",
            "city": "Santo André",
            "responsible": "Ricardo Dembowski Bento Silva",
            "address": "Rua Catequese 215 apt 61, Jardim, Santo André, SP, Brasil",
            "website": ""
        },
        {
            "id": 9528,
            "name": "IMA",
            "federationAbbr": "IBJJF",
            "country": "United Kingdom",
            "countryAbbr": "GB",
            "city": "Leeds",
            "responsible": "Liam Barrie Cann",
            "address": "30 Quarry Street, Quarry Street, Leeds, West Yorkshire, United Kingdom",
            "website": "Limewood Centre, Limewood Approach, Leeds, United Kingdom, LS14 1NG"
        },
        {
            "id": 5758,
            "name": "Imanari Jiu-Jitsu",
            "federationAbbr": "JBJJF",
            "country": "Japan",
            "countryAbbr": "JP",
            "city": "Shinjyuku",
            "responsible": "Masakazu Imanari",
            "address": "Funamachi8-4 Ykb B1, Shinjyuku, Tokyo, Japan",
            "website": null
        },
        {
            "id": 7842,
            "name": "Imanari Jiu-Jitsu Switzerland",
            "federationAbbr": "IBJJF",
            "country": "Switzerland",
            "countryAbbr": "CH",
            "city": "Glattbrugg",
            "responsible": "Masakazu Imanari",
            "address": "Schaffhauserstrasse 131, Glattbrugg, Zurich, Switzerland",
            "website": "www.imanari-jiujitsu.ch"
        },
        {
            "id": 8024,
            "name": "Imanari Jiu-Jitsu Wizard",
            "federationAbbr": "JBJJF",
            "country": "Japan",
            "countryAbbr": "JP",
            "city": "Tukuba",
            "responsible": "Masakazu Imanari",
            "address": "Ibarakiken Tukubasi Takura 5192-22, Tukuba, Ibaraki, Japan",
            "website": "https://wizardmmagym.web.fc2.com/"
        }
    ]
}