{
    "pagination": {
        "page": 332,
        "from": 6620,
        "to": 6640,
        "pageSize": 20,
        "lastPage": 358,
        "totalRecords": 7149
    },
    "list": [
        {
            "id": 6106,
            "name": "Top Brother Deutschland",
            "federationAbbr": "IBJJF",
            "country": "Germany",
            "countryAbbr": "DE",
            "city": "Essem",
            "responsible": "Cezar Guimarães",
            "address": "Nietzscheweg Queivoz Da Silva 1, Essem, MRW, Germany",
            "website": null
        },
        {
            "id": 7164,
            "name": "Top Brother Düsseldorf",
            "federationAbbr": "IBJJF",
            "country": "Germany",
            "countryAbbr": "DE",
            "city": "Dusseldorf",
            "responsible": "Alex Sandro Malheiro",
            "address": "Sterntalerweg 68, Dusseldorf, Nrw, Germany",
            "website": "topbrother.de"
        },
        {
            "id": 2358,
            "name": "Top Brother Mexico",
            "federationAbbr": "IBJJF",
            "country": "Mexico",
            "countryAbbr": "MX",
            "city": "Delegación Cuauhtemoc",
            "responsible": "Cezar Guimarães",
            "address": "Insurgentes Sur  171 Int 201, Col Roma, Delegación Cuauhtemoc, DF, Mexico",
            "website": "www.topbrother.com.mx"
        },
        {
            "id": 9777,
            "name": "Top Brother Sul",
            "federationAbbr": "CBJJ",
            "country": "Brasil",
            "countryAbbr": "BR",
            "city": "Florianópolis",
            "responsible": "Matheus Zimmermann Costa da Silva",
            "address": "Servidão Revoar Das Perdizes, 71, Florianópolis, Santa Catarina, Brasil",
            "website": "www.topbrothersul.com"
        },
        {
            "id": 9132,
            "name": "Top Dawg BJJ",
            "federationAbbr": "USBJJF",
            "country": "United States of America",
            "countryAbbr": "US",
            "city": "Oklahoma City",
            "responsible": "Dayvon G Mccarrell",
            "address": "4330 Se 29th St, Suite 3013, Oklahoma City, Ok, United States of America",
            "website": "www.topdawgbjj.com"
        },
        {
            "id": 9017,
            "name": "Tornado Jiu-Jitsu Academy",
            "federationAbbr": "IBJJF",
            "country": "Taiwan",
            "countryAbbr": "TW",
            "city": "Taoyuan City",
            "responsible": "Yu Lin",
            "address": "2f., No. 315, Sec. 1, Zhuangjing Rd., Taoyuan Dist., Taoyuan City, Taiwan",
            "website": "https://m.facebook.com/pages/category/Martial-Arts-School/\u000fË¨ôÔSxb-Tornado-Jiujitsu-Academy-398466057436605/"
        },
        {
            "id": 2679,
            "name": "Toronto BJJ",
            "federationAbbr": "IBJJF",
            "country": "Canada",
            "countryAbbr": "CA",
            "city": "Toronto",
            "responsible": "Jorge Britto Lima Filho",
            "address": "813, Bloor st. West  , Toronto, ON, Canada",
            "website": "www.torontobjj.com"
        },
        {
            "id": 8291,
            "name": "Toronto Top Team",
            "federationAbbr": "IBJJF",
            "country": "Canada",
            "countryAbbr": "CA",
            "city": "Scarborough",
            "responsible": "Igor Mocaiber Peralva de Mello",
            "address": "1-777 Warden Avenue, Scarborough, Ontario, Canada",
            "website": "Toronto"
        },
        {
            "id": 8003,
            "name": "Torque International",
            "federationAbbr": "IBJJF",
            "country": "New Zealand",
            "countryAbbr": "NZ",
            "city": "Auckland",
            "responsible": "Fábio Vieira Machado",
            "address": "87 Victory Road, Laingholm, Auckland, Auckland, New Zealand",
            "website": "https://torquebjj.business.site/?utm_source=gmb\u0026utm_medium=referral"
        },
        {
            "id": 10080,
            "name": "Torrent Brazilian Jiu-Jitsu",
            "federationAbbr": "USBJJF",
            "country": "United States of America",
            "countryAbbr": "US",
            "city": "Hanover",
            "responsible": "Michael L. Downes",
            "address": "228 Columbia Road, Unit D3, Hanover, Ma, United States of America",
            "website": "torrentbjj.com"
        },
        {
            "id": 3982,
            "name": "Torres Martial Arts Academy",
            "federationAbbr": "USBJJF",
            "country": "United States of America",
            "countryAbbr": "US",
            "city": "Griffith",
            "responsible": "Miguel Angel Torres",
            "address": "511 E. Glen Park Ave.  , , Griffith, IN, United States of America",
            "website": "http://torresmartialarts.com/"
        },
        {
            "id": 7675,
            "name": "Total Center Lahti",
            "federationAbbr": "IBJJF",
            "country": "Finland",
            "countryAbbr": "FI",
            "city": "Lahti",
            "responsible": "Ville Tapio Saari",
            "address": "Askonkatu 11, Lahti, Finland",
            "website": null
        },
        {
            "id": 9877,
            "name": "Total Fight Team",
            "federationAbbr": "USBJJF",
            "country": "United States of America",
            "countryAbbr": "US",
            "city": "Las Vegas",
            "responsible": "Jovan Zerjal",
            "address": "679 North Nellis Boulevard, Las Vegas, Nevada, United States of America",
            "website": "www.totalfightteam.com"
        },
        {
            "id": 3787,
            "name": "Total MMA Studio (BTT Orange County)",
            "federationAbbr": "USBJJF",
            "country": "United States of America",
            "countryAbbr": "US",
            "city": "Tustin",
            "responsible": "Juliano Aparecido Prado",
            "address": "632 El Camino Real  , , Tustin, CA, United States of America",
            "website": "http://www.totalmmastudios.com"
        },
        {
            "id": 9802,
            "name": "Toukon",
            "federationAbbr": "IBJJF",
            "country": "Germany",
            "countryAbbr": "DE",
            "city": "Elmshorn",
            "responsible": "Attila Suat Goezler",
            "address": "Ramskamp 51, Elmshorn, Schleswig-holstein, Germany",
            "website": "Toukon"
        },
        {
            "id": 932,
            "name": "Towanda JJ",
            "federationAbbr": "CBJJ",
            "country": null,
            "countryAbbr": null,
            "city": null,
            "responsible": null,
            "address": "",
            "website": null
        },
        {
            "id": 8338,
            "name": "Toy Factory BJJ",
            "federationAbbr": "IBJJF",
            "country": "United Kingdom",
            "countryAbbr": "GB",
            "city": "Christchurch",
            "responsible": "Nabil Azzouz",
            "address": "Groveley Rd, Christchurch, Dorset, United Kingdom",
            "website": null
        },
        {
            "id": 10619,
            "name": "Toyama Braves Brazilian Jiu-Jitsu",
            "federationAbbr": "JBJJF",
            "country": "Japan",
            "countryAbbr": "JP",
            "city": "Imizu-shi",
            "responsible": "Alan Tokio Yamashita de Souza",
            "address": "ZenkMji 31-1, Braves Cultural Center, Imizu-shi, Toyama, Japan",
            "website": null
        },
        {
            "id": 10234,
            "name": "Toyama Jiu-Jitsu",
            "federationAbbr": "IBJJF",
            "country": "Australia",
            "countryAbbr": "AU",
            "city": "Glynde",
            "responsible": "Michael Miljan Toyama",
            "address": "Unit 1 18/22 Provident Ave, Glynde, South Australia, Australia",
            "website": "sabjj.com.au"
        },
        {
            "id": 6182,
            "name": "Toyatt",
            "federationAbbr": "JBJJF",
            "country": "Japan",
            "countryAbbr": "JP",
            "city": "Tokyo",
            "responsible": "Osamu Abe",
            "address": "3-9-2-901 Hikarigaoka, Nerima-ku, Tokyo, --, Japan",
            "website": "toyatt.blog.jp"
        }
    ]
}