{
    "pagination": {
        "page": 174,
        "from": 3460,
        "to": 3480,
        "pageSize": 20,
        "lastPage": 358,
        "totalRecords": 7149
    },
    "list": [
        {
            "id": 3656,
            "name": "Gracie Brasil",
            "federationAbbr": "CBJJ",
            "country": "Brasil",
            "countryAbbr": "BR",
            "city": "Quatro Irmãos",
            "responsible": "Reyson Gracie",
            "address": "Rua Leão Kwitko 357, Icaraí, Quatro Irmãos, Rs, Brasil",
            "website": ""
        },
        {
            "id": 9698,
            "name": "Gracie Elite Aclimação - Rilion Gracie",
            "federationAbbr": "CBJJ",
            "country": "Brasil",
            "countryAbbr": "BR",
            "city": "São Paulo",
            "responsible": "João Carvalho de Oliveira",
            "address": "Avenida Lacerda Franco, 1465, São Paulo, São Paulo, Brasil",
            "website": "https://gracie-koma-dojo.negocio.site/?utm_source=gmb\u0026utm_medium=referral"
        },
        {
            "id": 2289,
            "name": "Gracie Fighter",
            "federationAbbr": "USBJJF",
            "country": "United States of America",
            "countryAbbr": "US",
            "city": "Pleasent Hill",
            "responsible": "Cesar Gracie",
            "address": "150 Long Brook Way  , , Pleasent Hill, CA, United States of America",
            "website": "www.graciefighter.com"
        },
        {
            "id": 5848,
            "name": "Gracie Gym New Zealand",
            "federationAbbr": "IBJJF",
            "country": "New Zealand",
            "countryAbbr": "NZ",
            "city": "Wellington",
            "responsible": "Crolin Gracie",
            "address": "129 Adelaide Road, Newton, Wellington, --, New Zealand",
            "website": null
        },
        {
            "id": 483,
            "name": "Gracie Humaita",
            "federationAbbr": "CBJJ",
            "country": "Brasil",
            "countryAbbr": "BR",
            "city": "Rio de Janeiro",
            "responsible": "Royler Gracie",
            "address": "Humaita, Rio de Janeiro, RJ, Brasil",
            "website": null
        },
        {
            "id": 9473,
            "name": "Gracie Humaita - Bolton",
            "federationAbbr": "IBJJF",
            "country": "Canada",
            "countryAbbr": "CA",
            "city": "Caledon",
            "responsible": "Jason Carmello-Lorenzo Figliano",
            "address": "19 Mcewan Dr West, Unit 7, Caledon, Ontario, Canada",
            "website": "www.boltonjiujitsu.com"
        },
        {
            "id": 8515,
            "name": "Gracie Humaitá - Rio Das Ostras",
            "federationAbbr": "CBJJ",
            "country": "Brasil",
            "countryAbbr": "BR",
            "city": "Rio Das Ostras",
            "responsible": "Rodolfo Ribeiro Bragança",
            "address": "Rua Bangu, Nº1540, Liberdade, Rio Das Ostras - Rj, Pousada, Rio Das Ostras, Rj, Brasil",
            "website": null
        },
        {
            "id": 9474,
            "name": "Gracie Humaita - Tottenham",
            "federationAbbr": "IBJJF",
            "country": "Canada",
            "countryAbbr": "CA",
            "city": "Tottenham",
            "responsible": "Jason Carmello-Lorenzo Figliano",
            "address": "15 Queen Street North, Tottenham, Ontario, Canada",
            "website": "www.simcoejiujitsu.com"
        },
        {
            "id": 10625,
            "name": "Gracie Humaitá - Willis, Tx",
            "federationAbbr": "USBJJF",
            "country": "United States of America",
            "countryAbbr": "US",
            "city": "Willis",
            "responsible": "Vincent Alfonse Anzelone",
            "address": "12335 Fm 1097, Suite 103, Willis, Texas, United States of America",
            "website": "https://www.graciehumaitawillis.com/"
        },
        {
            "id": 2246,
            "name": "Gracie Humaita Argentina",
            "federationAbbr": "IBJJF",
            "country": "Argentina",
            "countryAbbr": "AR",
            "city": "Buenos Aires",
            "responsible": "Rolker Gracie",
            "address": "  , , Buenos Aires, BA, Argentina",
            "website": ""
        },
        {
            "id": 9733,
            "name": "Gracie Humaita Artarmon",
            "federationAbbr": "IBJJF",
            "country": "Australia",
            "countryAbbr": "AU",
            "city": "Sydney",
            "responsible": "Lucas Branco Sachs",
            "address": "1/43 Herbert St. Artarmon, Sydney, Nsw, Australia",
            "website": "www.gracieartarmon.com.au"
        },
        {
            "id": 3075,
            "name": "Gracie Humaita Austin",
            "federationAbbr": "USBJJF",
            "country": "United States of America",
            "countryAbbr": "US",
            "city": "Austin",
            "responsible": "Paulo Eduardo G. Brandão",
            "address": "1701 W Ben White Blvd.  Suite 163 , , Austin, TX, United States of America",
            "website": "www.gracielegacy.com"
        },
        {
            "id": 4308,
            "name": "Gracie Humaita Australia",
            "federationAbbr": "IBJJF",
            "country": "Australia",
            "countryAbbr": "AU",
            "city": "Sydney",
            "responsible": "Royler Gracie",
            "address": "3/576 Botany Road  , , Sydney, NSW, Australia",
            "website": "www.graciesydney.com.au"
        },
        {
            "id": 5950,
            "name": "Gracie Humaita Beaumont",
            "federationAbbr": "USBJJF",
            "country": "United States of America",
            "countryAbbr": "US",
            "city": "Beaumont",
            "responsible": "Isaac J. Morales",
            "address": "770 E. 6th St. Ste D, Beaumont, CA, United States of America",
            "website": "www.graciebeaumont.com"
        },
        {
            "id": 10525,
            "name": "Gracie Humaita Botany",
            "federationAbbr": "IBJJF",
            "country": "Australia",
            "countryAbbr": "AU",
            "city": "Botany",
            "responsible": "Royler Gracie",
            "address": "1 A Building B, 11-13 Lord Street, Botany, Nsw, Australia",
            "website": "www.graciebotany"
        },
        {
            "id": 3650,
            "name": "Gracie Humaita Brownsville",
            "federationAbbr": "USBJJF",
            "country": "United States of America",
            "countryAbbr": "US",
            "city": "Brownsville",
            "responsible": "Emmanuel Jose Galvan",
            "address": "2310 N. Expressway 83 Suite A-1  , Brownsville, TX, United States of America",
            "website": "www.GHBrownsville.com"
        },
        {
            "id": 2985,
            "name": "Gracie Humaita Carlsbad",
            "federationAbbr": "USBJJF",
            "country": "United States of America",
            "countryAbbr": "US",
            "city": "Carlsbad",
            "responsible": "Nicholas Alexander Stefan",
            "address": "6108 Avenida Encinas - #C  , , Carlsbad, CA, United States of America",
            "website": "www.graciecarlsbad.com"
        },
        {
            "id": 10655,
            "name": "Gracie Humaita Cedar Crest",
            "federationAbbr": "USBJJF",
            "country": "United States of America",
            "countryAbbr": "US",
            "city": "Cedar Crest",
            "responsible": "Kati Irene Gibler",
            "address": "12165 N Highway 14, Unit B5, Cedar Crest, Nm, United States of America",
            "website": "Cedar Crest, New Mexico"
        },
        {
            "id": 9746,
            "name": "Gracie Humaita Columbia",
            "federationAbbr": "USBJJF",
            "country": "United States of America",
            "countryAbbr": "US",
            "city": "Columbia",
            "responsible": "Shawn Earon Woods",
            "address": "2010 Chape Plaza Ct, Columbia, Mo, United States of America",
            "website": "Graciehumaitacolumbia.com"
        },
        {
            "id": 7699,
            "name": "Gracie Humaita Conroe",
            "federationAbbr": "USBJJF",
            "country": "United States of America",
            "countryAbbr": "US",
            "city": "Conroe",
            "responsible": "Andrew Douglas Yount",
            "address": "2064 N Farm to Market 3083 Rd W C, Conroe, TX 77304, Conroe, Texas, United States of America",
            "website": "www.graciehumaitaconroe.com"
        }
    ]
}