{
    "pagination": {
        "page": 180,
        "from": 3580,
        "to": 3600,
        "pageSize": 20,
        "lastPage": 358,
        "totalRecords": 7149
    },
    "list": [
        {
            "id": 7959,
            "name": "Guararapes Jiu-Jitsu",
            "federationAbbr": "CBJJ",
            "country": "Brasil",
            "countryAbbr": "BR",
            "city": "Jaboatão Dos Guararapes",
            "responsible": "Flávio Cosme dos Santos Neto",
            "address": "Rua Manoel Carneiro Leão N 130b, B, Jaboatão Dos Guararapes, Pernambuco, Brasil",
            "website": null
        },
        {
            "id": 8665,
            "name": "Guardeiros / Loughan Team",
            "federationAbbr": "CBJJ",
            "country": "Brasil",
            "countryAbbr": "BR",
            "city": "Pirapora",
            "responsible": "Thalles Loughan Moreira",
            "address": "Governador Valadares, 60, Pirapora, Minas Gerais (mg), Brasil",
            "website": null
        },
        {
            "id": 6584,
            "name": "Guedes Jiu-Jitsu",
            "federationAbbr": "CBJJ",
            "country": "Brasil",
            "countryAbbr": "BR",
            "city": "Lambari",
            "responsible": "Carlos Eduardo da Silva Guedes",
            "address": "Av. Vital Brasil n: 104, 2 andar Bairro: Campinho, Lambari, Minas Gerais, Brasil",
            "website": null
        },
        {
            "id": 5247,
            "name": "Guego Jiu-Jitsu Team",
            "federationAbbr": "CBJJ",
            "country": "Brasil",
            "countryAbbr": "BR",
            "city": "Sorocaba",
            "responsible": "Gustavo Falciroli",
            "address": "Rua Luiza Lopes de Mello  Vila São Jorge, , Sorocaba, SP, Brasil",
            "website": "guegojjteam.blogspot.com"
        },
        {
            "id": 6068,
            "name": "Guerra Team",
            "federationAbbr": "CBJJ",
            "country": "Brasil",
            "countryAbbr": "BR",
            "city": "Natal",
            "responsible": "Wagner de Oliveira Guerra",
            "address": "Travessa Mirim n: 361 E, Bairro: Felipe Camarão, Natal, RN, Brasil",
            "website": null
        },
        {
            "id": 10179,
            "name": "Guerreiro Samurai",
            "federationAbbr": "CBJJ",
            "country": "Brasil",
            "countryAbbr": "BR",
            "city": "Formiga",
            "responsible": "Dênis Rezende Lopes",
            "address": "Rua Rosalina Georgina De Oliveira, 510, Casa, Formiga, Minas Gerais, Brasil",
            "website": null
        },
        {
            "id": 10042,
            "name": "Guerreiros Da Fé Jiu Jitsu",
            "federationAbbr": "CBJJ",
            "country": "Brasil",
            "countryAbbr": "BR",
            "city": "Brasília",
            "responsible": "Rafael Hermogenes da Silva Souza",
            "address": "Rodovia Df 140 Km 2.5 Condomínio Prive Do Lago Sul, Conj D Casa 7, Brasília, Df, Brasil",
            "website": null
        },
        {
            "id": 9541,
            "name": "Guerreiros De Sião Team",
            "federationAbbr": "CBJJ",
            "country": "Brasil",
            "countryAbbr": "BR",
            "city": "Vertentes",
            "responsible": "Felipe de Araújo Gomes",
            "address": "Rua Almirante Barroso, 452, Povoado Livramento, Vertentes, Pernambuco, Brasil",
            "website": null
        },
        {
            "id": 6516,
            "name": "Guerreiros Team GT",
            "federationAbbr": "CBJJ",
            "country": "Brasil",
            "countryAbbr": "BR",
            "city": "Contagem",
            "responsible": "Flavio Teixeira Dias Neto",
            "address": "Rua Aipim n: 384, Novo Progresso, Contagem, MG, Brasil",
            "website": null
        },
        {
            "id": 2774,
            "name": "Guerrilla Jiu Jitsu",
            "federationAbbr": "USBJJF",
            "country": "United States of America",
            "countryAbbr": "US",
            "city": "Pleasanton",
            "responsible": "David Scott Camarillo",
            "address": "4464 Willow Road, Suite 102  , , Pleasanton, CA, United States of America",
            "website": "www.davecamarillo.com"
        },
        {
            "id": 3965,
            "name": "Guerrilla Jiu-Jitsu of Houma",
            "federationAbbr": "USBJJF",
            "country": "United States of America",
            "countryAbbr": "US",
            "city": "Houma",
            "responsible": "Ernest Christopher Ellender",
            "address": "407 N. Hollywood Road, Suite B  , , Houma, LA, United States of America",
            "website": "evolutiontraining.org"
        },
        {
            "id": 2075,
            "name": "Guetho Jiu-Jitsu",
            "federationAbbr": "CBJJ",
            "country": "Brasil",
            "countryAbbr": "BR",
            "city": "Porto Alegre",
            "responsible": "Gustavo Ramos Campos",
            "address": "Rua Schiller 71 Casa, Rio Branco, Porto Alegre, RS, Brasil",
            "website": "www.gutocampos.kg.com.br"
        },
        {
            "id": 4200,
            "name": "Guetho Texas BJJ",
            "federationAbbr": "USBJJF",
            "country": "United States of America",
            "countryAbbr": "US",
            "city": "Amarillo",
            "responsible": "Chadrick Paul Smith",
            "address": "8910 SW 34th Ave. ste 500, Amarillo, TX, United States of America",
            "website": "www.amarillobjj.com"
        },
        {
            "id": 10554,
            "name": "Guethospartan",
            "federationAbbr": "CBJJ",
            "country": "Brasil",
            "countryAbbr": "BR",
            "city": "Santana Do Livramento",
            "responsible": "Juliano Nunes Lesama",
            "address": "Av 24 De Maio, 341, Santana Do Livramento, Rs, Brasil",
            "website": null
        },
        {
            "id": 527,
            "name": "Guigo JJ",
            "federationAbbr": "CBJJ",
            "country": "Brasil",
            "countryAbbr": "BR",
            "city": "São Paulo",
            "responsible": "Luiz Guilherme Fernandes de Jesus",
            "address": "Rua João Moura 1178, Pinhiros, São Paulo, SP, Brasil",
            "website": ""
        },
        {
            "id": 3497,
            "name": "Guigo JJ International",
            "federationAbbr": "IBJJF",
            "country": "Netherlands",
            "countryAbbr": "NL",
            "city": "--",
            "responsible": "Luiz Guilherme Fernandes de Jesus",
            "address": "  , --, --, Netherlands",
            "website": "www.guigojiujitsu.com.br"
        },
        {
            "id": 10396,
            "name": "Guild Of Fighters",
            "federationAbbr": "IBJJF",
            "country": "United Kingdom",
            "countryAbbr": "GB",
            "city": "Wandsworth",
            "responsible": "Inder Singh Biant",
            "address": "63 Wandsworth High Street, Wandsworth, London, United Kingdom",
            "website": "www.guildbjj.com"
        },
        {
            "id": 9466,
            "name": "Guilhotina Brazilian Jiu-jitsu",
            "federationAbbr": "CBJJ",
            "country": "Brasil",
            "countryAbbr": "BR",
            "city": "Criciúma",
            "responsible": "Junior Forgiarini",
            "address": "Avenida Universitária Nº 2554 Bairro Santa Luzia, Criciúma, Santa Catarina, Brasil",
            "website": null
        },
        {
            "id": 2344,
            "name": "Guillobel Brazilian Jiu-Jitsu",
            "federationAbbr": "USBJJF",
            "country": "United States of America",
            "countryAbbr": "US",
            "city": "San Clemente",
            "responsible": "Paulo Guillobel",
            "address": "621 N. El Camino Real - Ste A  , , San Clemente, CA, United States of America",
            "website": "www.guillobelbjj.com"
        },
        {
            "id": 3832,
            "name": "Guimarães Jiu-Jitsu Team",
            "federationAbbr": "CBJJ",
            "country": "Brasil",
            "countryAbbr": "BR",
            "city": "Campos dos Goytacazes",
            "responsible": "Carlos Alberto Gonçalves Guimaraes Filho",
            "address": "Rua Benta Pereira 28 , Centro, Campos dos Goytacazes, RJ, Brasil",
            "website": ""
        }
    ]
}