{
    "pagination": {
        "page": 196,
        "from": 3900,
        "to": 3920,
        "pageSize": 20,
        "lastPage": 358,
        "totalRecords": 7149
    },
    "list": [
        {
            "id": 5432,
            "name": "J W Brazilian Jiu-Jitsu",
            "federationAbbr": "USBJJF",
            "country": "United States of America",
            "countryAbbr": "US",
            "city": "Ravenna",
            "responsible": "Jason Michael Williard",
            "address": "4948 S. Prospect St., Ravenna, OH, United States of America",
            "website": "facebook.com/jwbrazilianjiujitsu"
        },
        {
            "id": 5657,
            "name": "J. Extremo",
            "federationAbbr": "CBJJ",
            "country": "Brasil",
            "countryAbbr": "BR",
            "city": "Rio Das Ostras",
            "responsible": "Nilson Ricardo Silva Braga",
            "address": "Rua Rego Barros Número 53 Praia Mar, Costazul, Rio Das Ostras, RJ, Brasil",
            "website": null
        },
        {
            "id": 6717,
            "name": "J. R. Lopes Jiu-Jitsu",
            "federationAbbr": "CBJJ",
            "country": "Brasil",
            "countryAbbr": "BR",
            "city": "Petropolis",
            "responsible": "Jose Roberto Lopes",
            "address": "Estrada Manoel Walter Bechtlufft n: 333, Castelo São Manoel Bairro: Correas, Petropolis, Rio de Janeiro, Brasil",
            "website": " "
        },
        {
            "id": 8992,
            "name": "J.A Defesa Pessoal E Jiu-jitsu",
            "federationAbbr": "CBJJ",
            "country": "Brasil",
            "countryAbbr": "BR",
            "city": "Salvador",
            "responsible": "Jou Alexandre de Jesus Oliveira",
            "address": "Rua Doutor Deraldo Dias De Morais, 53, Salvador, Bahia, Brasil",
            "website": "RUA DERALDO DIAS DE MORIAS, A 53 . AVENIDA CENTENÁRIO, CHAME-CHAME."
        },
        {
            "id": 10580,
            "name": "J.L. Samuray BJJ Academy",
            "federationAbbr": "IBJJF",
            "country": "Argentina",
            "countryAbbr": "AR",
            "city": "Buenos Aires",
            "responsible": "Jorge Omar Ledesma",
            "address": "Av Rivadavia 5040 Galería Cavour 2 Piso, Buenos Aires, Argentina, Argentina",
            "website": "Sukatabjj.com"
        },
        {
            "id": 5315,
            "name": "J.O Team Jiu-Jitsu",
            "federationAbbr": "CBJJ",
            "country": "Brasil",
            "countryAbbr": "BR",
            "city": "Cruz Alta",
            "responsible": "Jeferson de Oliveira",
            "address": "Rua Guilherme Bilibio, 53, Bairro Emílio Droppa, Cruz Alta, RS, Brasil",
            "website": "Cruz Alta"
        },
        {
            "id": 4828,
            "name": "JA Jiu-Jitsu",
            "federationAbbr": "CBJJ",
            "country": "Brasil",
            "countryAbbr": "BR",
            "city": "Caxias do Sul",
            "responsible": "Mateus Bernardi Rizzon",
            "address": "Jose Tovasi  N: 1654, Cruzeiro, Caxias do Sul, RS, Brasil",
            "website": "www.jajiujitsu.com.br"
        },
        {
            "id": 6558,
            "name": "JA Jiu-Jitsu International",
            "federationAbbr": "IBJJF",
            "country": "Spain",
            "countryAbbr": "ES",
            "city": "Murcia",
            "responsible": "Mateus Bernardi Rizzon",
            "address": "Avenida Indante Juan Manuel, 11 Bajo A, B., Murcia, MU, Spain",
            "website": "www.MurciaJiuJitsu.com"
        },
        {
            "id": 6601,
            "name": "JAB L.U.T.A.S",
            "federationAbbr": "CBJJ",
            "country": "Brasil",
            "countryAbbr": "BR",
            "city": "Sao Caetano do Sul",
            "responsible": "Luis Gustavo Fratti",
            "address": "Rua General Osório n: 415, Bairro: Santa Paula, Sao Caetano do Sul, São Paulo, Brasil",
            "website": null
        },
        {
            "id": 4437,
            "name": "Jabbar Team",
            "federationAbbr": "CBJJ",
            "country": "Brasil",
            "countryAbbr": "BR",
            "city": "Campos do Jordão",
            "responsible": "Otávio de Almeida Júnior",
            "address": "R. Antônio Simões dos Reis 971, Vila Sodipe, Campos do Jordão, SP, Brasil",
            "website": null
        },
        {
            "id": 7327,
            "name": "Jaca Team Jiu-Jitsu",
            "federationAbbr": "CBJJ",
            "country": "Brasil",
            "countryAbbr": "BR",
            "city": "Porto Alegre",
            "responsible": "Alexandre Moura da Rosa",
            "address": "Av Bento Gonçalves 3723, Partenon, Porto Alegre, Rio Grande do Sul, Brasil",
            "website": null
        },
        {
            "id": 10607,
            "name": "Jacaré Artes Marciais",
            "federationAbbr": "CBJJ",
            "country": "Brasil",
            "countryAbbr": "BR",
            "city": "Aurora Do Pará",
            "responsible": "Eduardo da Silva Conceição",
            "address": "Rua: Manoel Nilo, N188, Bairro: Vila Nova, Aurora Do Pará, Pará, Brasil",
            "website": null
        },
        {
            "id": 7115,
            "name": "Jacare Team - Italia",
            "federationAbbr": "UIJJ",
            "country": "Italy",
            "countryAbbr": "IT",
            "city": "Cattolica",
            "responsible": "Luiz Carlos G. Matheus Dias",
            "address": "via Piemonte 280, Cattolica, IT, Italy",
            "website": null
        },
        {
            "id": 7216,
            "name": "Jack Dantotsu BJJ",
            "federationAbbr": "CBJJ",
            "country": "Brasil",
            "countryAbbr": "BR",
            "city": "Fortaleza",
            "responsible": "Evandro da Silva Evangelista",
            "address": "Rua 926 Casa 25a Conjunto Ceara, 4etapa, Fortaleza, Ce, Brasil",
            "website": null
        },
        {
            "id": 3208,
            "name": "Jacks",
            "federationAbbr": "JBJJF",
            "country": "Japan",
            "countryAbbr": "JP",
            "city": "Wakayama",
            "responsible": "Kentaro Sato",
            "address": "3-2-11 Ohashitori Sningu-shi, Wakayama, --, Japan",
            "website": null
        },
        {
            "id": 9728,
            "name": "Jackson Hole MMA",
            "federationAbbr": "USBJJF",
            "country": "United States of America",
            "countryAbbr": "US",
            "city": "Jackson",
            "responsible": "Michael Pellegrino",
            "address": "3580 South Park Drive,, Jackson, Wy, United States of America",
            "website": "https://jacksonholemma.com/"
        },
        {
            "id": 6988,
            "name": "Jackson Junior BJJ Team",
            "federationAbbr": "CBJJ",
            "country": "Brasil",
            "countryAbbr": "BR",
            "city": "Freguesia",
            "responsible": "Jackson Figueiredo Lage Junior",
            "address": "Rua Francisco Júlia n: 173 casa, Bairro: Anil, Freguesia, Rio de Janeiro, Brasil",
            "website": "www.studioprimefitnesslife.com.br"
        },
        {
            "id": 5725,
            "name": "Jackson Moura Team",
            "federationAbbr": "CBJJ",
            "country": "Brasil",
            "countryAbbr": "BR",
            "city": "Governador Valadares",
            "responsible": "Jackson Firmo de Moura",
            "address": "Avenida Rio Doce número 975 casa, Bairro: lha, Governador Valadares, Minas Gerais, Brasil",
            "website": null
        },
        {
            "id": 3904,
            "name": "Jackson Paulo Team",
            "federationAbbr": "IBJJF",
            "country": "France",
            "countryAbbr": "FR",
            "city": "Wattignies",
            "responsible": "Jackson Paulo Jacinto",
            "address": "45 Rue Jean Jaurès  , , Wattignies, --, France",
            "website": "www.jacksonpaulo.com"
        },
        {
            "id": 4204,
            "name": "Jailson Nobrega Jiu Jitsu",
            "federationAbbr": "CBJJ",
            "country": "Brasil",
            "countryAbbr": "BR",
            "city": "Lagoa Santa",
            "responsible": "Jailson Dantas Nobrega",
            "address": "Rua José Barbosa De Faria  260 , Lapinha , Lagoa Santa, MG, Brasil",
            "website": ""
        }
    ]
}