{
    "pagination": {
        "page": 197,
        "from": 3920,
        "to": 3940,
        "pageSize": 20,
        "lastPage": 358,
        "totalRecords": 7149
    },
    "list": [
        {
            "id": 7512,
            "name": "Jakson Almeida",
            "federationAbbr": "CBJJ",
            "country": "Brasil",
            "countryAbbr": "BR",
            "city": "Macapá",
            "responsible": "Jakson Mufarrej de Almeida",
            "address": "Rua Janari Gentil Nunes 1244, Bairro Infraero 1, Macapá, Amapá, Brasil",
            "website": null
        },
        {
            "id": 4725,
            "name": "Jales Top Team",
            "federationAbbr": "CBJJ",
            "country": "Brasil",
            "countryAbbr": "BR",
            "city": "Brasília ",
            "responsible": "Daniel Jales Cunha de Souza",
            "address": "CND 04 Lote 13 Loja 01, Taguatinga Norte, Brasília , DF, Brasil",
            "website": "www.facebook.com/djales1"
        },
        {
            "id": 9091,
            "name": "James Mcgar's Martial Arts",
            "federationAbbr": "USBJJF",
            "country": "United States of America",
            "countryAbbr": "US",
            "city": "Valley View",
            "responsible": "James Harold McGar",
            "address": "11949 S I-35 Frontage Road, Suite C, Valley View, Texas, United States of America",
            "website": "www.jamesmcgar.com"
        },
        {
            "id": 4580,
            "name": "James Shook Brazilian Jiu-Jitsu",
            "federationAbbr": "USBJJF",
            "country": "United States of America",
            "countryAbbr": "US",
            "city": "Powder Springs",
            "responsible": "James K. Shook",
            "address": "5780 C.H. James PKWY Ste 130  , , Powder Springs, GA, United States of America",
            "website": "www.tekniquesbjj.com"
        },
        {
            "id": 4791,
            "name": "Jander Team Croatia",
            "federationAbbr": "IBJJF",
            "country": "Croatia",
            "countryAbbr": "HR",
            "city": "Velika Gorica",
            "responsible": "Jander Pereira Gomes",
            "address": "Matije Slatinskog, 4   , Velika Gorica, Croatia",
            "website": null
        },
        {
            "id": 6681,
            "name": "Japão Team Jiu-Jitsu",
            "federationAbbr": "CBJJ",
            "country": "Brasil",
            "countryAbbr": "BR",
            "city": "Uberlandia",
            "responsible": "José Eduardo de Oliveira",
            "address": "Av. Segismundo Pereira N: 2045, Bairro: Santa Monica, Uberlandia, Minas Gerais, Brasil",
            "website": null
        },
        {
            "id": 5060,
            "name": "Japeri Fight",
            "federationAbbr": "CBJJ",
            "country": "Brasil",
            "countryAbbr": "BR",
            "city": "Japeri",
            "responsible": "Vinicius dos Santos Fonseca",
            "address": "Av. Trancredo Neves 47 Loja B e C, Eng. Pedreira , Japeri, RJ, Brasil",
            "website": ""
        },
        {
            "id": 4084,
            "name": "Jaraguá BJJ",
            "federationAbbr": "CBJJ",
            "country": "Brasil",
            "countryAbbr": "BR",
            "city": "Jaraguá do Sul",
            "responsible": "Andre Luiz Candido da Silva",
            "address": "Rua Gustado Lesmam 81 , Vieiras, Jaraguá do Sul, SC, Brasil",
            "website": ""
        },
        {
            "id": 8346,
            "name": "Jav  Jiu-Jitsu Alto Vale",
            "federationAbbr": "CBJJ",
            "country": "Brasil",
            "countryAbbr": "BR",
            "city": "Rio Do Sul",
            "responsible": "Daniel Francisco Tognolli",
            "address": "Estrada Da Madeira, 1115, Rio Do Sul, Santa Catarina, Brasil",
            "website": null
        },
        {
            "id": 6189,
            "name": "Jaws Jiu-Jitsu Academy",
            "federationAbbr": "JBJJF",
            "country": "Japan",
            "countryAbbr": "JP",
            "city": "Hamamatsu-shi",
            "responsible": "Ozeias  Barbosa Bueno",
            "address": "1245 Sasagase-cho Higashi-ku, Hamamatsu-shi, Shizuoka, Japan",
            "website": null
        },
        {
            "id": 3035,
            "name": "Jay Pages Jiu Jitsu Academy",
            "federationAbbr": "USBJJF",
            "country": "United States of America",
            "countryAbbr": "US",
            "city": "Tempe",
            "responsible": "Jeston John Pages",
            "address": "6745 S. Harl Ave., Suite 101, Tempe, AZ, United States of America",
            "website": "www.jpjiujitsu.com"
        },
        {
            "id": 8341,
            "name": "Jaypee Gym",
            "federationAbbr": "IBJJF",
            "country": "France",
            "countryAbbr": "FR",
            "city": "Annemasse ",
            "responsible": "Jean-Philippe Guitton",
            "address": "8 Rue Du 18 Août 1944, Annemasse , Haute-savoie, France",
            "website": "http://jaypeegym.com/"
        },
        {
            "id": 8438,
            "name": "Jaysen Baxter Jiu-Jitsu",
            "federationAbbr": "USBJJF",
            "country": "United States of America",
            "countryAbbr": "US",
            "city": "Fullerton",
            "responsible": "Jaysen Jose Baxter",
            "address": "400 E Commonwealth Ave, Suite 7, Fullerton, California, United States of America",
            "website": "bttfullerton.com"
        },
        {
            "id": 1029,
            "name": "JB Jiu-Jitsu Team",
            "federationAbbr": "CBJJ",
            "country": "Brasil",
            "countryAbbr": "BR",
            "city": "Brasilia",
            "responsible": "José Carlos Mendonça Mendes Júnior",
            "address": "SHCGN 716 Bloco 8 Loja 36 36 , Asa Norte, Brasilia, DF, Brasil",
            "website": "academialibra.com.br"
        },
        {
            "id": 2418,
            "name": "JBM BJJ Academy",
            "federationAbbr": "USBJJF",
            "country": "United States of America",
            "countryAbbr": "US",
            "city": "Mount Holly",
            "responsible": "Brian McPherson",
            "address": "Fairgrounds Shopping Plaza 519 Hight Street  , , Mount Holly, NJ, United States of America",
            "website": "www.jbmbjj.com"
        },
        {
            "id": 10035,
            "name": "JC Eagle Academy of Brazilian Jiu-Jitsu",
            "federationAbbr": "IBJJF",
            "country": "Spain",
            "countryAbbr": "ES",
            "city": "Zaragoza",
            "responsible": "Jonas De Jesus Correa",
            "address": "Calle Jeronimo Borao 5, 2a, Zaragoza, Spain",
            "website": null
        },
        {
            "id": 3910,
            "name": "JC Melun",
            "federationAbbr": "IBJJF",
            "country": "France",
            "countryAbbr": "FR",
            "city": "Melun",
            "responsible": "David Joseph Pierre-Louis",
            "address": "2 Rue Dajot, , Melun, --, France",
            "website": "www.judomelun.com"
        },
        {
            "id": 2834,
            "name": "JCBJJ",
            "federationAbbr": "USBJJF",
            "country": "United States of America",
            "countryAbbr": "US",
            "city": "Phoenix",
            "responsible": "John Winthrop Crouch Jr",
            "address": "2710 W Bell Rd. Ste 1150, , Phoenix, AZ, United States of America",
            "website": "www.mmalab.com"
        },
        {
            "id": 10665,
            "name": "Jcs Jiu-jitsu",
            "federationAbbr": "CBJJ",
            "country": "Brasil",
            "countryAbbr": "BR",
            "city": "São Paulo",
            "responsible": "José Carlos Silva dos Santos",
            "address": "Rua Mateus Mendes 59, Parque São Rafael, São Paulo, São Paulo, Brasil",
            "website": null
        },
        {
            "id": 4225,
            "name": "Jean Jacques Machado Australia",
            "federationAbbr": "IBJJF",
            "country": "Australia",
            "countryAbbr": "AU",
            "city": "Huntly",
            "responsible": null,
            "address": "P.O. Box 73  , , Huntly, VIC, Australia",
            "website": ""
        }
    ]
}