{
    "pagination": {
        "page": 308,
        "from": 6140,
        "to": 6160,
        "pageSize": 20,
        "lastPage": 358,
        "totalRecords": 7149
    },
    "list": [
        {
            "id": 7145,
            "name": "Strong Inside Jiu-Jitsu Studio",
            "federationAbbr": "CBJJ",
            "country": "Brasil",
            "countryAbbr": "BR",
            "city": "Ribeirão Preto",
            "responsible": "Willian Von Sohsten Pereira Rezende",
            "address": "Rua Adolfo Serra n: 1312, Alto da Boa Vista, Ribeirão Preto, São Paulo, Brasil",
            "website": "www.stronginside.com.br"
        },
        {
            "id": 8775,
            "name": "Strong Team BJJ - Itaguaí",
            "federationAbbr": "CBJJ",
            "country": "Brasil",
            "countryAbbr": "BR",
            "city": "Rio De Janeiro",
            "responsible": "Marcos Antonio da Silva Benicio",
            "address": "Rua G - Qd 7 - Lt 6, Res Pq Tropical, Rio De Janeiro, Rj, Brasil",
            "website": null
        },
        {
            "id": 5019,
            "name": "Stronger BJJ",
            "federationAbbr": "IBJJF",
            "country": "United Kingdom",
            "countryAbbr": "GB",
            "city": "London",
            "responsible": "Oliver Leys Geddes",
            "address": "2nd Floor, 17 Lyon Road  , London, United Kingdom",
            "website": "www.strongerfitness.co.uk"
        },
        {
            "id": 6480,
            "name": "Stronghold Jiu-Jitsu",
            "federationAbbr": "USBJJF",
            "country": "United States of America",
            "countryAbbr": "US",
            "city": "San Diego",
            "responsible": "Michael Estuart Cusi",
            "address": "2176 Chatsworth Blvd, San Diego, CA, United States of America",
            "website": "thestrongholdsd.com"
        },
        {
            "id": 7628,
            "name": "Sttag",
            "federationAbbr": "JBJJF",
            "country": "Japan",
            "countryAbbr": "JP",
            "city": "Setagaya-ku",
            "responsible": "Nobuhiro Doshida",
            "address": "3-8-5 Iida AnnexVIII BF, Yoga, Setagaya-ku, Tokyo, Japan",
            "website": null
        },
        {
            "id": 4070,
            "name": "Studio 33",
            "federationAbbr": "USBJJF",
            "country": "United States of America",
            "countryAbbr": "US",
            "city": "Bonita",
            "responsible": "Dustin Peek",
            "address": "5080 Bonita Road Suite C, Bonita, CA, United States of America",
            "website": "www.studiobjjsd.com"
        },
        {
            "id": 4222,
            "name": "Studio 540",
            "federationAbbr": "USBJJF",
            "country": "United States of America",
            "countryAbbr": "US",
            "city": "Solana Beach",
            "responsible": "Jacob Kyle Buracker",
            "address": "540 Stevens Ave, Solana Beach, CA, United States of America",
            "website": "www.studio540.com"
        },
        {
            "id": 5868,
            "name": "Studio BJJ Gera C",
            "federationAbbr": "CBJJ",
            "country": "Brasil",
            "countryAbbr": "BR",
            "city": "Vitória da Conquista",
            "responsible": "Gerenaldo Costa Santos",
            "address": "Rua Poty n: 480, Alto Maron, Vitória da Conquista, Bahia, Brasil",
            "website": null
        },
        {
            "id": 5714,
            "name": "Studio Creative",
            "federationAbbr": "CBJJ",
            "country": "Brasil",
            "countryAbbr": "BR",
            "city": "Petrópolis",
            "responsible": "Victor Miguez Monteiro da Silva",
            "address": "Rua Terra número: 147, Bairro: Alto da Serra, Petrópolis, Rio de Janeiro, Brasil",
            "website": null
        },
        {
            "id": 7111,
            "name": "Studio De Lutas BJJ School João Claudio",
            "federationAbbr": "CBJJ",
            "country": "Brasil",
            "countryAbbr": "BR",
            "city": "Rio de Janeiro",
            "responsible": "João Claudio Lima Soares",
            "address": "Rua Cirne Maia 117, Bairro: Cachambi, Rio de Janeiro, Rio de Janeiro, Brasil",
            "website": null
        },
        {
            "id": 10522,
            "name": "Studio G ´n´ Roll",
            "federationAbbr": "IBJJF",
            "country": "Germany",
            "countryAbbr": "DE",
            "city": "Braunschweig",
            "responsible": "Gleidson Lanko Pereira",
            "address": "Sackring 41, Braunschweig, Niedersachsen, Germany",
            "website": "www.ginganroll.com"
        },
        {
            "id": 8234,
            "name": "Studio HR Jiu-Jitsu",
            "federationAbbr": "CBJJ",
            "country": "Brasil",
            "countryAbbr": "BR",
            "city": "Manaus",
            "responsible": "Helio Rezende da Silva Lima",
            "address": "Av Parintins 683, Bairro Cachoeirinha, Manaus, Amazonas, Brasil",
            "website": null
        },
        {
            "id": 10748,
            "name": "Studio Jonatas Lopes Jiu-Jitsu",
            "federationAbbr": "CBJJ",
            "country": "Brasil",
            "countryAbbr": "BR",
            "city": "Rio De Janeiro",
            "responsible": "Jonatas Rodrigues da Silva Lopes",
            "address": "Estr Barro Vermelho 1729, C2a Sobrado, Rio De Janeiro, Rio De Janeiro, Brasil",
            "website": null
        },
        {
            "id": 8861,
            "name": "Studio NW2 - BJJ",
            "federationAbbr": "IBJJF",
            "country": "United Kingdom",
            "countryAbbr": "GB",
            "city": "London",
            "responsible": "Enrique de Jesus Villasenor Sarvide",
            "address": "3 Oaklands Road, London, United Kingdom",
            "website": "www.studionw2.com"
        },
        {
            "id": 8250,
            "name": "Studio Three Sixty BJJ",
            "federationAbbr": "USBJJF",
            "country": "United States of America",
            "countryAbbr": "US",
            "city": "Williamsburg",
            "responsible": "Joseph Michael Neurauter",
            "address": "113 Palace Lane Suite A, Williamsburg, Va, United States of America",
            "website": "studio360bjj.com"
        },
        {
            "id": 9633,
            "name": "Studio Tree - Salto",
            "federationAbbr": "CBJJ",
            "country": "Brasil",
            "countryAbbr": "BR",
            "city": "Salto",
            "responsible": "Valter Hideki Ueno",
            "address": "Avenida Dos Trabalhadores N.1555, Jardim Marília, Salto, São Paulo, Brasil",
            "website": "@Uenobjj_kids"
        },
        {
            "id": 10282,
            "name": "Studio.2366 Jiu-Jitsu",
            "federationAbbr": "USBJJF",
            "country": "United States of America",
            "countryAbbr": "US",
            "city": "Walnut Creek",
            "responsible": "Eric Eugenio Abesames",
            "address": "2029 Mt. Diablo Blvd., Walnut Creek, Ca, United States of America",
            "website": null
        },
        {
            "id": 7714,
            "name": "Studio76 Jiu Jitsu Ecuador",
            "federationAbbr": "IBJJF",
            "country": "Ecuador",
            "countryAbbr": "EC",
            "city": "Guayaquil",
            "responsible": "Raul Francisco Jimenez Trivino",
            "address": "Kennedy Norte, entre la calle Maria Piedad Castillo de Levi y Km 1.5 de la Av. Juan Tanca Marengo, Guayaquil, Guayas, Ecuador",
            "website": null
        },
        {
            "id": 7569,
            "name": "Studio76 Jiu-Jitsu Las Vegas",
            "federationAbbr": "USBJJF",
            "country": "United States of America",
            "countryAbbr": "US",
            "city": "Las Vegas",
            "responsible": "Raul Francisco Jimenez Trivino",
            "address": "4555 S. Fort Apache Rd. Suite #100, Las Vegas, NV, United States of America",
            "website": "studio76jiujitsu.com"
        },
        {
            "id": 7462,
            "name": "Studio86 Jiu-Jitsu",
            "federationAbbr": "USBJJF",
            "country": "United States of America",
            "countryAbbr": "US",
            "city": "San Francisco ",
            "responsible": "Yukito Robert Isoda",
            "address": "1204 Pacific Ave. , San Francisco , CA, United States of America",
            "website": "studio86bjj.com"
        }
    ]
}