{
    "pagination": {
        "page": 283,
        "from": 5640,
        "to": 5660,
        "pageSize": 20,
        "lastPage": 358,
        "totalRecords": 7149
    },
    "list": [
        {
            "id": 2025,
            "name": "Roberto Traven BJJ",
            "federationAbbr": "USBJJF",
            "country": "United States of America",
            "countryAbbr": "US",
            "city": "Lilburn",
            "responsible": "Roberto Traven",
            "address": "4184 Bent Willow Drive, , Lilburn, Georgia, United States of America",
            "website": "www.travenjiujitsu.com"
        },
        {
            "id": 4434,
            "name": "Roberto Zapata Team",
            "federationAbbr": "IBJJF",
            "country": "Mexico",
            "countryAbbr": "MX",
            "city": "Acapulco",
            "responsible": "Roberto Zapata Radilla",
            "address": "Pedro Andres de Urdaneta 10  , , Acapulco, GRO, Mexico",
            "website": "--"
        },
        {
            "id": 9175,
            "name": "Robson Araújo Brazilian Jiu-jitsu",
            "federationAbbr": "CBJJ",
            "country": "Brasil",
            "countryAbbr": "BR",
            "city": "Cruz Das Almas",
            "responsible": "Robson Sampaio de Araújo",
            "address": "Praça Senador Temístocles, Centro, Cruz Das Almas, Bahia, Brasil",
            "website": null
        },
        {
            "id": 5973,
            "name": "Robson Freitas Brazilian Jiu-Jitsu Team",
            "federationAbbr": "CBJJ",
            "country": "Brasil",
            "countryAbbr": "BR",
            "city": "Rio de Janeiro",
            "responsible": "Robson Silva de Freitas",
            "address": "Avenida Brasil numero: 62001, Lote 30 quadra 11, Rio de Janeiro, Rio de Janeiro, Brasil",
            "website": "www.rfbjjteam.com.br"
        },
        {
            "id": 9914,
            "name": "Robson Pit Medeiros",
            "federationAbbr": "CBJJ",
            "country": "Brasil",
            "countryAbbr": "BR",
            "city": "São Paulo",
            "responsible": "Robson Medeiros Escaleira",
            "address": "Av Bosque Da Saude, 1242, São Paulo, Sp, Brasil",
            "website": null
        },
        {
            "id": 6710,
            "name": "Robur Jiu-Jitsu",
            "federationAbbr": "CBJJ",
            "country": "Brasil",
            "countryAbbr": "BR",
            "city": "Salvador",
            "responsible": "Diego Lopez Martinez",
            "address": "Rua Bernardo Spector n: 9 E Apt 201, Bairro: Vila Laura, Salvador, Bahia, Brasil",
            "website": "www.roburjiujitsu.com"
        },
        {
            "id": 9214,
            "name": "Robust Jiu-Jitsu",
            "federationAbbr": "JBJJF",
            "country": "Japan",
            "countryAbbr": "JP",
            "city": "Itabashiku",
            "responsible": "Toshikatsu Takadama",
            "address": "Phil Park Itabashi Akatsuka 3f, 2-9-14 Akatsuka, Itabashiku, Tokyo, Japan",
            "website": null
        },
        {
            "id": 5916,
            "name": "Rocha e Moraes  Brazilian Jiu-Jitsu",
            "federationAbbr": "CBJJ",
            "country": "Brasil",
            "countryAbbr": "BR",
            "city": "Manaus",
            "responsible": "Alexsander Alceu Laranjeira Rocha",
            "address": "Rua Lirio das Pedras n: 162, Biarro: Gustavo Nascimento, Manaus, AM, Brasil",
            "website": "Academia Rocha e Moraes Brazilian jiu-jitsu"
        },
        {
            "id": 8519,
            "name": "Rocian Gracie Jr. New York",
            "federationAbbr": "USBJJF",
            "country": "United States of America",
            "countryAbbr": "US",
            "city": "Lic",
            "responsible": "Marlon Colorado",
            "address": "47-10 32nd Place, Lic, Ny, United States of America",
            "website": "Marloncoloradobjjnyc.com"
        },
        {
            "id": 855,
            "name": "Rocian Gracie Junior de Jiu-Jitsu",
            "federationAbbr": "CBJJ",
            "country": "Brasil",
            "countryAbbr": "BR",
            "city": "São Paulo",
            "responsible": "Rocian Gracie Junior",
            "address": "av bosque da saúde 898, Bosque da Saude, São Paulo, SP, Brasil",
            "website": "www.rociangracie.com.br"
        },
        {
            "id": 9373,
            "name": "Rocinha Elite Group",
            "federationAbbr": "CBJJ",
            "country": "Brasil",
            "countryAbbr": "BR",
            "city": "Rio De Janeiro",
            "responsible": "Rodrigo Antunes Guimarães",
            "address": "Via Apia Da Rocinha. Número: 20, Rocinha, Rio De Janeiro, Brasil",
            "website": null
        },
        {
            "id": 8501,
            "name": "Rocinha Jiu Jitsu - Belgium",
            "federationAbbr": "IBJJF",
            "country": "Belgium",
            "countryAbbr": "BE",
            "city": "Limal",
            "responsible": "Lenio Fortunato da Silva Filho",
            "address": "Résidence Neptune, 1, Limal, State / Province..., Belgium",
            "website": "rjj.be"
        },
        {
            "id": 4646,
            "name": "Rocinha Jiu-Jitsu",
            "federationAbbr": "CBJJ",
            "country": "Brasil",
            "countryAbbr": "BR",
            "city": "Rio de Janeiro",
            "responsible": "Lenio Fortunato da Silva Filho",
            "address": "travessa esperança numero 19, rocinha, Rocinha - Gávea, Rio de Janeiro, Rio de Janeiro, Brasil",
            "website": "rocinha.rjj.5@facebook.com"
        },
        {
            "id": 6804,
            "name": "Rock the Mat",
            "federationAbbr": "IBJJF",
            "country": "France",
            "countryAbbr": "FR",
            "city": "Morangis",
            "responsible": "Karim Berbedj",
            "address": "85 Avenue Maurice Barres, Morangis, France",
            "website": "www.rockthemat.com"
        },
        {
            "id": 10000,
            "name": "Rockys Jiu-Jitsu",
            "federationAbbr": "CBJJ",
            "country": "Brasil",
            "countryAbbr": "BR",
            "city": "Juiz De Fora",
            "responsible": "Valdiney de Souza Silva",
            "address": "Rua José Calil Ahougi , Bairro Centro, Número 332, Juiz De Fora, Minas Gerais, Brasil",
            "website": null
        },
        {
            "id": 8119,
            "name": "Rodolfo Mainardi Sharks Martial University",
            "federationAbbr": "CBJJ",
            "country": "Brasil",
            "countryAbbr": "BR",
            "city": "Belo Horizonte",
            "responsible": "Rodolfo Mainardi",
            "address": "Adolfo Radice 320 Comiteco, Belo Horizonte, Minas Gerais, Brasil",
            "website": null
        },
        {
            "id": 2269,
            "name": "Rodrigo Aleixo Jiu-Jitsu",
            "federationAbbr": "CBJJ",
            "country": "Brasil",
            "countryAbbr": "BR",
            "city": "Belém",
            "responsible": "Rodrigo da Silva Aleixo",
            "address": "Conj. Resd. Tenoné II Quadra G 01 Anexo Academia, Tenoné, Belém, PA, Brasil",
            "website": "http://www.rodrigoaleixo.com.br"
        },
        {
            "id": 5591,
            "name": "Rodrigo Bravo Jiu-Jitsu",
            "federationAbbr": "IBJJF",
            "country": "Chile",
            "countryAbbr": "CL",
            "city": "Talca",
            "responsible": "Rodrigo Alberto Bravo Abarca",
            "address": "2 Norte #1310 Depto 102 A, Talca, VII, Chile",
            "website": "rodrigaobjj@gmail.com"
        },
        {
            "id": 7500,
            "name": "Rodrigo Cardoso BJJ Association",
            "federationAbbr": "USBJJF",
            "country": "United States of America",
            "countryAbbr": "US",
            "city": "Vacaville",
            "responsible": "Rodrigo Lopes Cardoso",
            "address": "270 Bel Air Dr. , Vacaville, CA, United States of America",
            "website": "www.rodrigocardosoacademy.com"
        },
        {
            "id": 8322,
            "name": "Rodrigo De Paula BJJ",
            "federationAbbr": "CBJJ",
            "country": "Brasil",
            "countryAbbr": "BR",
            "city": "Rio De Janeiro ",
            "responsible": "Rodrigo de Paula Oliveira",
            "address": "Rua Lino Teixeira 69, Sobrado , Rio De Janeiro , Rio De Janeiro , Brasil",
            "website": null
        }
    ]
}