{
    "pagination": {
        "page": 323,
        "from": 6440,
        "to": 6460,
        "pageSize": 20,
        "lastPage": 358,
        "totalRecords": 7149
    },
    "list": [
        {
            "id": 2373,
            "name": "Team Royce Gracie",
            "federationAbbr": "USBJJF",
            "country": "United States of America",
            "countryAbbr": "US",
            "city": "xx",
            "responsible": null,
            "address": "  , , xx, xx, United States of America",
            "website": ""
        },
        {
            "id": 6058,
            "name": "Team Royce Gracie, Washington",
            "federationAbbr": "USBJJF",
            "country": "United States of America",
            "countryAbbr": "US",
            "city": "Lacey",
            "responsible": "Jason Jerome Rivera Palacios",
            "address": "8569 Litt Drive SE Apt 105, Lacey, WA, United States of America",
            "website": "www.roycegracie.com"
        },
        {
            "id": 8266,
            "name": "Team Ryano",
            "federationAbbr": "IBJJF",
            "country": "Ireland",
            "countryAbbr": "IE",
            "city": "Dublin",
            "responsible": "Andrew Ryan",
            "address": "64a Ardara Ave The Donahis, Donaghmede, Dublin, Dublin, Ireland",
            "website": null
        },
        {
            "id": 9456,
            "name": "Team Sabaoth Do Distrito Federal",
            "federationAbbr": "CBJJ",
            "country": "Brasil",
            "countryAbbr": "BR",
            "city": "Samambaia Norte",
            "responsible": "Auro Otaviano Souza",
            "address": "Qn 410 Conjunto E Lote 03, Samambaia Norte, Distrito Federal, Brasil",
            "website": null
        },
        {
            "id": 9632,
            "name": "Team Sacramento",
            "federationAbbr": "CBJJ",
            "country": "Brasil",
            "countryAbbr": "BR",
            "city": "Salvador",
            "responsible": "Deise Sacramento Santos",
            "address": "Estr. Da Liberdade, 218 - Liberdade, Centro Comercial Jose Firmino De Oliveira, Sala 103, Salvador, Bahia, Brasil",
            "website": null
        },
        {
            "id": 4236,
            "name": "Team Shark, Daniel Pinheiro BJJ",
            "federationAbbr": "USBJJF",
            "country": "United States of America",
            "countryAbbr": "US",
            "city": "San Antonio",
            "responsible": "Daniel Pinheiro Breves",
            "address": "2211 NW Military HWY , #126, San Antonio, TX, United States of America",
            "website": "teamsharkbjj.com"
        },
        {
            "id": 3046,
            "name": "Team Shawn Hammonds",
            "federationAbbr": "USBJJF",
            "country": "United States of America",
            "countryAbbr": "US",
            "city": "Smyrna",
            "responsible": "Shawn Michael Hammonds",
            "address": "3108 Melissa Court, Smyrna, TN, United States of America",
            "website": "www.teamshawnhammonds.com"
        },
        {
            "id": 3317,
            "name": "Team Shinnihon",
            "federationAbbr": "JBJJF",
            "country": "Japan",
            "countryAbbr": "JP",
            "city": "Tokyo",
            "responsible": "Hiroyuki Kimura",
            "address": "Shinnihon Bill 3F Nerim Nerimak 1-5-2  , , Tokyo, --, Japan",
            "website": ""
        },
        {
            "id": 5050,
            "name": "Team Sidney Lima",
            "federationAbbr": "CBJJ",
            "country": "Brasil",
            "countryAbbr": "BR",
            "city": "Manaus",
            "responsible": "Sidney Lima e Silva",
            "address": "Rua Japurá, 642, Cachoeirinha, Manaus, AM, Brasil",
            "website": null
        },
        {
            "id": 5161,
            "name": "Team Six BJJ",
            "federationAbbr": "CBJJ",
            "country": "Brasil",
            "countryAbbr": "BR",
            "city": "Campinas",
            "responsible": "Gustavo Eugenio Silva Trasse",
            "address": "Rua Martinopolis 465  BLOCO 06 APT 403, Vila Pompeia, Campinas, SP, Brasil",
            "website": null
        },
        {
            "id": 8912,
            "name": "Team Spirit Kampsportsenter",
            "federationAbbr": "IBJJF",
            "country": "Norway",
            "countryAbbr": "NO",
            "city": "Tonsberg",
            "responsible": "Julian Storsletten",
            "address": "Bullsgate 2b, Tonsberg, Vestfold, Norway",
            "website": "tskampsport.no"
        },
        {
            "id": 1098,
            "name": "Team Supreme",
            "federationAbbr": "CBJJ",
            "country": "Brasil",
            "countryAbbr": "BR",
            "city": "Rio de Janeiro",
            "responsible": "Julio Cesar Pereira",
            "address": "Rua Imuta  362 Casa 05, Pechincha, Rio de Janeiro, RJ, Brasil",
            "website": ""
        },
        {
            "id": 2563,
            "name": "Team Tatame",
            "federationAbbr": "IBJJF",
            "country": "France",
            "countryAbbr": "FR",
            "city": "sainte anne d' evenos ",
            "responsible": "Jean-Philippe Walter",
            "address": "100 Route de Toulon \"Le dos du Four\"  , , sainte anne d' evenos , FR, France",
            "website": "www.team-tatame.com"
        },
        {
            "id": 7665,
            "name": "Team Thiago Oliveira Guardian Angel JJ",
            "federationAbbr": "CBJJ",
            "country": "Brasil",
            "countryAbbr": "BR",
            "city": "CARAPICUIBA",
            "responsible": "Thiago Santos de Oliveira",
            "address": "RUA BOM JARDIM DE MINAS, 57, CARAPICUIBA, São Paulo, Brasil",
            "website": null
        },
        {
            "id": 3437,
            "name": "Team Third Law",
            "federationAbbr": "USBJJF",
            "country": "United States of America",
            "countryAbbr": "US",
            "city": "Naples",
            "responsible": "Lloyd Irvin",
            "address": "5707 Shirley Street  , , Naples, FL, United States of America",
            "website": "www.teamthirdlaw.com"
        },
        {
            "id": 8299,
            "name": "Team Thomé Jiu-Jitsu",
            "federationAbbr": "CBJJ",
            "country": "Brasil",
            "countryAbbr": "BR",
            "city": "São Paulo",
            "responsible": "Filipe Thome Martins Ferreira",
            "address": "Rua Maria Do Carmo, 504, São Paulo, Sao Paulo, Brasil",
            "website": null
        },
        {
            "id": 4739,
            "name": "Team Thurin JJB",
            "federationAbbr": "IBJJF",
            "country": "France",
            "countryAbbr": "FR",
            "city": "Magagnosc",
            "responsible": "Christian Andre Paul Thurin",
            "address": "101 Avenue Auguste Renoir  , , Magagnosc, France",
            "website": ""
        },
        {
            "id": 2791,
            "name": "Team Tooke Mixed Martial Arts",
            "federationAbbr": "USBJJF",
            "country": "United States of America",
            "countryAbbr": "US",
            "city": "Houston",
            "responsible": "Travis Lee Tooke",
            "address": "10111 Grant Rd Suite R, , Houston, TX, United States of America",
            "website": "www.teamtooke.com"
        },
        {
            "id": 6737,
            "name": "Team Tooke Mixed Martial Arts Cypress",
            "federationAbbr": "USBJJF",
            "country": "United States of America",
            "countryAbbr": "US",
            "city": "Cypress",
            "responsible": "Miguel Angel Castro",
            "address": "16718 House Hahl Rd. Suite L, Cypress, TX, United States of America",
            "website": "www.Teamtookecypress.com"
        },
        {
            "id": 2937,
            "name": "Team Trondheim BJJ",
            "federationAbbr": "IBJJF",
            "country": "Norway",
            "countryAbbr": "NO",
            "city": "Trondheim",
            "responsible": "Per Christian Andresen",
            "address": "Batsmannsgate 6  , , Trondheim, Norway",
            "website": "www.trondheim-bjj.no"
        }
    ]
}