{
    "pagination": {
        "page": 157,
        "from": 3120,
        "to": 3140,
        "pageSize": 20,
        "lastPage": 358,
        "totalRecords": 7149
    },
    "list": [
        {
            "id": 2045,
            "name": "Gracie Barra Encinitas",
            "federationAbbr": "USBJJF",
            "country": "United States of America",
            "countryAbbr": "US",
            "city": "Encinitas",
            "responsible": "Rafael Ramos",
            "address": "613 Westlake St.  , , Encinitas, CA, United States of America",
            "website": ""
        },
        {
            "id": 2092,
            "name": "Gracie Barra Escondido",
            "federationAbbr": "USBJJF",
            "country": "United States of America",
            "countryAbbr": "US",
            "city": "oceanside",
            "responsible": "Magid Hage Junior",
            "address": "4063 johnson dr  , , oceanside, ca, United States of America",
            "website": "www.graciebarraescondido.com"
        },
        {
            "id": 9896,
            "name": "Gracie Barra Española, NM",
            "federationAbbr": "USBJJF",
            "country": "United States of America",
            "countryAbbr": "US",
            "city": "Espanola",
            "responsible": "Robert James Romero",
            "address": "1227 N. Railroad Ave. Suite A-5, Espanola, Nm, United States of America",
            "website": "https://graciebarra.com/espanola-nm/"
        },
        {
            "id": 5558,
            "name": "Gracie Barra Estados",
            "federationAbbr": "CBJJ",
            "country": "Brasil",
            "countryAbbr": "BR",
            "city": "João Pessoa",
            "responsible": "Eddy Raul da Cunha Pinto Junior",
            "address": "Av. Pernambuco, 172, Dos Estados, João Pessoa, PB, Brasil",
            "website": "www.graciebarra.com"
        },
        {
            "id": 7811,
            "name": "Gracie Barra Federal Way",
            "federationAbbr": "USBJJF",
            "country": "United States of America",
            "countryAbbr": "US",
            "city": "Federal Way",
            "responsible": "Jeff Macatangay",
            "address": "2016 So 320th St, Suite C, Federal Way, Wa, United States of America",
            "website": "www.graciebarra.com/federal-way-wa"
        },
        {
            "id": 4290,
            "name": "Gracie Barra Finland",
            "federationAbbr": "IBJJF",
            "country": "Finland",
            "countryAbbr": "FI",
            "city": "Kouvola",
            "responsible": "Carlos Lemos Junior",
            "address": "Juholankatu 8  , , Kouvola, --, Finland",
            "website": "graciebarra.fi"
        },
        {
            "id": 9036,
            "name": "Gracie Barra Flatirons",
            "federationAbbr": "USBJJF",
            "country": "United States of America",
            "countryAbbr": "US",
            "city": "Broomfield",
            "responsible": "Jefferson Moura C. e S. Junior",
            "address": "11640 Teller St Suite C, Broomfield, Colorado, United States of America",
            "website": null
        },
        {
            "id": 9490,
            "name": "Gracie Barra Fleming Island",
            "federationAbbr": "USBJJF",
            "country": "United States of America",
            "countryAbbr": "US",
            "city": "Fleming Island",
            "responsible": "Maximiliano Paulino de Freitas",
            "address": "3555 Highway 17, Suite 4, Fleming Island, Fl, United States of America",
            "website": "https://gbflemingisland.com/"
        },
        {
            "id": 4796,
            "name": "Gracie Barra Flodoaldo Pontes Pinto",
            "federationAbbr": "CBJJ",
            "country": "Brasil",
            "countryAbbr": "BR",
            "city": "Porto Velho",
            "responsible": "Ivan Alves de Souza Filho",
            "address": "Rua Paulo Freire 4767 , Flodoaldo Pontes Pinto, Porto Velho, RO, Brasil",
            "website": ""
        },
        {
            "id": 6280,
            "name": "Gracie Barra Floresta",
            "federationAbbr": "CBJJ",
            "country": "Brasil",
            "countryAbbr": "BR",
            "city": "Belo Horizonte",
            "responsible": "Diogo Alves Ferreira",
            "address": "Rua Aristides Ferreira n: 27, 3 andar - Colégio Batista, Belo Horizonte, Minas Gerais, Brasil",
            "website": null
        },
        {
            "id": 2669,
            "name": "Gracie Barra Florianópolis - SC",
            "federationAbbr": "CBJJ",
            "country": "Brasil",
            "countryAbbr": "BR",
            "city": "Florianópolis",
            "responsible": "Carlos Gracie Junior",
            "address": "Rua Vera Linhares De Andrade 2662, Corrego Grande, Florianópolis, SC, Brasil",
            "website": "gbheadquartersfloripa.com.br"
        },
        {
            "id": 7812,
            "name": "Gracie Barra Fort Bend",
            "federationAbbr": "USBJJF",
            "country": "United States of America",
            "countryAbbr": "US",
            "city": "Sugarland",
            "responsible": "Pedro Lucas Aguiar Araujo",
            "address": "350 Promenade Way, Suite 700, Sugarland, Tx, United States of America",
            "website": "www.gbfortbend.com"
        },
        {
            "id": 9037,
            "name": "Gracie Barra Fort Collins",
            "federationAbbr": "USBJJF",
            "country": "United States of America",
            "countryAbbr": "US",
            "city": "Fort Collins",
            "responsible": "Jefferson Moura C. e S. Junior",
            "address": "921 E Harmony Rd Suites #101-102, Fort Collins, Colorado, United States of America",
            "website": null
        },
        {
            "id": 6284,
            "name": "Gracie Barra Fort Lauderdale",
            "federationAbbr": "USBJJF",
            "country": "United States of America",
            "countryAbbr": "US",
            "city": "Fort Lauderdale",
            "responsible": "Alexandre Fernandes Dantas",
            "address": "5439 N Federal Hwy, Fort Lauderdale, FL, United States of America",
            "website": "www.graciebarra.com/fort-lauderdale-fl/"
        },
        {
            "id": 4394,
            "name": "Gracie Barra Fortaleza",
            "federationAbbr": "CBJJ",
            "country": "Brasil",
            "countryAbbr": "BR",
            "city": "Fortaleza",
            "responsible": "Ricardo Pinho Soares",
            "address": "R. Professor Morais Correia 720 , Parquelândia, Fortaleza, CE, Brasil",
            "website": null
        },
        {
            "id": 2857,
            "name": "Gracie Barra Foz do Iguaçu",
            "federationAbbr": "CBJJ",
            "country": "Brasil",
            "countryAbbr": "BR",
            "city": "Foz do Iguaçu",
            "responsible": "Alvaro Gabriel Durante Sosa",
            "address": "Av. Republica Argentina n: 4060, 1 andar Jd. São Paulo, Foz do Iguaçu, PR, Brasil",
            "website": "www.graciebarrafoz.com.br"
        },
        {
            "id": 5940,
            "name": "Gracie Barra Francisco Beltrão",
            "federationAbbr": "CBJJ",
            "country": "Brasil",
            "countryAbbr": "BR",
            "city": "Francisco Beltrão",
            "responsible": "Alvaro Alexandre Francescon",
            "address": "Travessa Frei Deodato, 77, Centro, Francisco Beltrão, PR, Brasil",
            "website": "www.graciebarrabeltrao.com.br"
        },
        {
            "id": 6185,
            "name": "Gracie Barra Francisco Sá",
            "federationAbbr": "CBJJ",
            "country": "Brasil",
            "countryAbbr": "BR",
            "city": "Francisco Sá",
            "responsible": "Rodrigo Soares Figueiredo",
            "address": "Av. Juscelino Kubitschek n: 696, Osmane Barbosa, Francisco Sá, Minas Gerais, Brasil",
            "website": null
        },
        {
            "id": 2698,
            "name": "Gracie Barra Franklin",
            "federationAbbr": "USBJJF",
            "country": "United States of America",
            "countryAbbr": "US",
            "city": "Franklin",
            "responsible": "Brian Andrew Cooley",
            "address": "4115 Mallory Lane #206  , Franklin, TN , United States of America",
            "website": "www.graciebarrafranklin.com"
        },
        {
            "id": 6257,
            "name": "Gracie Barra Freguesia",
            "federationAbbr": "CBJJ",
            "country": "Brasil",
            "countryAbbr": "BR",
            "city": "Rio de Janeiro",
            "responsible": "Joelson Souza Venancio",
            "address": "Rua Tirol n: 407, Freguesia, Rio de Janeiro, Rio de Janeiro, Brasil",
            "website": null
        }
    ]
}