{
    "pagination": {
        "page": 166,
        "from": 3300,
        "to": 3320,
        "pageSize": 20,
        "lastPage": 358,
        "totalRecords": 7149
    },
    "list": [
        {
            "id": 8116,
            "name": "Gracie Barra Ozerki",
            "federationAbbr": "IBJJF",
            "country": "Russia",
            "countryAbbr": "RU",
            "city": "Saint Petersburg",
            "responsible": "Jose Arari de Carvalho Junior",
            "address": "Ulitsa Yesenina, Corpus 1, Saint Petersburg, Russia",
            "website": "graciebarraspb.ru"
        },
        {
            "id": 2214,
            "name": "Gracie Barra Paço de Arcos",
            "federationAbbr": "FPJJB",
            "country": "Portugal",
            "countryAbbr": "PT",
            "city": "Paço de Arcos, Oeiras",
            "responsible": "Diogo Manuel A. S. Costa Valença",
            "address": "Rua Cândido Dos Reis,   N.º 1 2770-025 Paço De Arcos, , Paço de Arcos, Oeiras, PA, Portugal",
            "website": "www.graciebarra-pa.com"
        },
        {
            "id": 10735,
            "name": "Gracie Barra Palm Desert",
            "federationAbbr": "USBJJF",
            "country": "United States of America",
            "countryAbbr": "US",
            "city": "Palm Desert",
            "responsible": "Elias Ramirez III",
            "address": "39615 Washington Street, Suite F, Palm Desert, Ca, United States of America",
            "website": "https://graciebarra.com/palm-desert-ca/"
        },
        {
            "id": 7247,
            "name": "Gracie Barra Palmetto Bay",
            "federationAbbr": "USBJJF",
            "country": "United States of America",
            "countryAbbr": "US",
            "city": "Palmetto Bay",
            "responsible": "Julio Guerra Tavares",
            "address": "17377 S. Dixie Hwy, Palmetto Bay, Florida, United States of America",
            "website": "https://graciebarra.com/palmetto-bay-fl/"
        },
        {
            "id": 4596,
            "name": "Gracie Barra Pantanal Campo Grande - MS",
            "federationAbbr": "CBJJ",
            "country": "Brasil",
            "countryAbbr": "BR",
            "city": "Campo Grande",
            "responsible": "Miguel Aristides Contis Filho",
            "address": "Rua Mario de Andrade  336, Vila do Polones, Campo Grande, MS, Brasil",
            "website": null
        },
        {
            "id": 452,
            "name": "Gracie Barra Paris",
            "federationAbbr": "IBJJF",
            "country": "France",
            "countryAbbr": "FR",
            "city": "Paris",
            "responsible": "Julien Cazier",
            "address": "96 rue Saint Dominique, bat C, Paris, PR, France",
            "website": "www.graciebarra75.com"
        },
        {
            "id": 8457,
            "name": "Gracie Barra Park City",
            "federationAbbr": "USBJJF",
            "country": "United States of America",
            "countryAbbr": "US",
            "city": "Park City",
            "responsible": "Ancelmo dos Santos Silva Sobrinho",
            "address": "8178 Gorgoza Pines Rd, Ste G, Park City, Ut, United States of America",
            "website": "www.gbparkcity.com"
        },
        {
            "id": 6840,
            "name": "Gracie Barra Parque Olímpico",
            "federationAbbr": "CBJJ",
            "country": "Brasil",
            "countryAbbr": "BR",
            "city": "Barra da Tijuca",
            "responsible": "Kleber de Oliveira Paulino",
            "address": "Av. Embaixador Abelardo Bueno n: 3500, Loja 201, Barra da Tijuca, Rio de Janeiro, Brasil",
            "website": "gbparqueolimpico.com.br"
        },
        {
            "id": 7911,
            "name": "Gracie Barra Parque Tropical - Santa Cruz",
            "federationAbbr": "CBJJ",
            "country": "Brasil",
            "countryAbbr": "BR",
            "city": "Rio De Janeiro",
            "responsible": "Marcos Antonio da Silva Benicio",
            "address": "Rua D - Quadra 6 - Lote 2 - Res. Pq Tropical, Residencial Pq Tropical, Rio De Janeiro, Rj, Brasil",
            "website": null
        },
        {
            "id": 2370,
            "name": "Gracie Barra Pasadena",
            "federationAbbr": "USBJJF",
            "country": "United States of America",
            "countryAbbr": "US",
            "city": "Pasadena",
            "responsible": "Orlando Mario Sanchez",
            "address": "2560 E. Colorado Blvd.  , , Pasadena, CA, United States of America",
            "website": "www.gbpasadena.com"
        },
        {
            "id": 8316,
            "name": "Gracie Barra Paso Robles",
            "federationAbbr": "USBJJF",
            "country": "United States of America",
            "countryAbbr": "US",
            "city": "Paso Robles",
            "responsible": "Garrett Johnson Glava",
            "address": "2200 Golden Hill Rd, Paso Robles, Ca, United States of America",
            "website": "Paso Robles, CA"
        },
        {
            "id": 9180,
            "name": "Gracie Barra Pelotas",
            "federationAbbr": "CBJJ",
            "country": "Brasil",
            "countryAbbr": "BR",
            "city": "Pelotas",
            "responsible": "Max Jonas Lacerda da Silva",
            "address": "Endereço: R. Marcílio Dias, 1600, Centro, Pelotas, Rio Grande Do Sul, Brasil",
            "website": "https://graciebarra.com.br/sobre/"
        },
        {
            "id": 5313,
            "name": "Gracie Barra Pequena Ponte - Nova Brasília",
            "federationAbbr": "CBJJ",
            "country": "Brasil",
            "countryAbbr": "BR",
            "city": "Nova Brasília",
            "responsible": "Joselito Mendes Barbosa",
            "address": "Av. Aliomar Baleeiro Km 8, 10A, Nova Brasília, Salvador/ BA, Brasil",
            "website": null
        },
        {
            "id": 7472,
            "name": "Gracie Barra Perdizes",
            "federationAbbr": "CBJJ",
            "country": "Brasil",
            "countryAbbr": "BR",
            "city": "São Paulo",
            "responsible": "Giancarlo Gaeta",
            "address": "Rua Caetes n: 283, bairro: perdizes, São Paulo, São Paulo, Brasil",
            "website": "www.gianfightclub@hotmail.com"
        },
        {
            "id": 10541,
            "name": "Gracie Barra Piedade - PE",
            "federationAbbr": "CBJJ",
            "country": "Brasil",
            "countryAbbr": "BR",
            "city": "Jaboatão Dos Guararapes",
            "responsible": "Leeds Francisco P. Esteves de Morais",
            "address": "Rua Chimarrão, 39, Jaboatão Dos Guararapes, Pernambuco, Brasil",
            "website": "https://www.gbpiedade.com.br"
        },
        {
            "id": 10044,
            "name": "Gracie Barra Planaltina",
            "federationAbbr": "CBJJ",
            "country": "Brasil",
            "countryAbbr": "BR",
            "city": "Planaltina",
            "responsible": "Felipe Dutra da Silva",
            "address": "Quadra 04 Conjunto B Lote 20 Loja 02, Vila Buritis, Planaltina, Df, Brasil",
            "website": null
        },
        {
            "id": 5859,
            "name": "Gracie Barra Plano Diretor Norte Palmas",
            "federationAbbr": "CBJJ",
            "country": "Brasil",
            "countryAbbr": "BR",
            "city": "Palmas ",
            "responsible": "Wesley Vicuña Santos das Neves",
            "address": "QD 305 Norte Av. LO 08 N: 15, Em frente a pista de Motocross, Palmas , Tocantis, Brasil",
            "website": null
        },
        {
            "id": 8507,
            "name": "Gracie Barra Plano Sul Palmas",
            "federationAbbr": "CBJJ",
            "country": "Brasil",
            "countryAbbr": "BR",
            "city": "Palmas",
            "responsible": "Igor Vieira de Castro",
            "address": "104 Sul, Se 03 Lote 01, Palmas, Tocantins, Brasil",
            "website": null
        },
        {
            "id": 7841,
            "name": "Gracie Barra Playa Del Carmen",
            "federationAbbr": "IBJJF",
            "country": "Mexico",
            "countryAbbr": "MX",
            "city": "Playa Del Carmen ",
            "responsible": "Salvador Gibran Alvarez Sosa",
            "address": "Av Constituyentes Between 90 \u0026 95av , Playa Del Carmen , Mexico",
            "website": null
        },
        {
            "id": 8946,
            "name": "Gracie Barra Plaza Cedro",
            "federationAbbr": "IBJJF",
            "country": "Spain",
            "countryAbbr": "ES",
            "city": "Valencia",
            "responsible": "António Pereira de Araújo Júnior",
            "address": "Carrer De L'explorador Andrés, N. 7, Valencia, Valencia, Spain",
            "website": "https://graciebarravalencia.es"
        }
    ]
}