{
    "pagination": {
        "page": 249,
        "from": 4960,
        "to": 4980,
        "pageSize": 20,
        "lastPage": 358,
        "totalRecords": 7149
    },
    "list": [
        {
            "id": 6020,
            "name": "NS Brotherhood Paraná",
            "federationAbbr": "CBJJ",
            "country": "Brasil",
            "countryAbbr": "BR",
            "city": "Inacio Martins",
            "responsible": "José Eduardo Gonçalves",
            "address": "Rua Antônio Jacinto De Campos,número 353, Centro, Inacio Martins, PR, Brasil",
            "website": null
        },
        {
            "id": 6357,
            "name": "NS Loyal Brothers BJJ",
            "federationAbbr": "CBJJ",
            "country": "Brasil",
            "countryAbbr": "BR",
            "city": "Palhoça",
            "responsible": "Leonardo Augusto Martins Loureiro",
            "address": "Rua Ermeline Mc Scheidt n: 220 sala, Centro, Palhoça, Santa Catarina, Brasil",
            "website": null
        },
        {
            "id": 8527,
            "name": "NS Loyal Brothers BJJ Internacional",
            "federationAbbr": "CBJJ",
            "country": "Brasil",
            "countryAbbr": "BR",
            "city": "Palhoça ",
            "responsible": "Leonardo Augusto Martins Loureiro",
            "address": "Rua Ermeline M C Sheidt N 220 , Palhoça , Santa Catarina , Brasil",
            "website": null
        },
        {
            "id": 4390,
            "name": "NU Era Jiu-Jitsu",
            "federationAbbr": "USBJJF",
            "country": "United States of America",
            "countryAbbr": "US",
            "city": "Hilo",
            "responsible": "Gabriel Igawa-Silva",
            "address": "1561 Kaunala Place, , Hilo, HI, United States of America",
            "website": ""
        },
        {
            "id": 10029,
            "name": "Nu Wave Jiu-Jitsu Academy",
            "federationAbbr": "IBJJF",
            "country": "Canada",
            "countryAbbr": "CA",
            "city": "Etobicoke",
            "responsible": "Christian Pesavento",
            "address": "851 Royal York Rd,, Etobicoke, Ontario, Canada",
            "website": "www.nuwavejiujitsu.com"
        },
        {
            "id": 5325,
            "name": "Núcleo de Artes Marciais Heraldo Costa",
            "federationAbbr": "CBJJ",
            "country": "Brasil",
            "countryAbbr": "BR",
            "city": "Ananindeua",
            "responsible": "Heraldo Antonio Andrade da Costa",
            "address": "Br 316 Km 08 Rua Manoel Oliveira, 504, Águas Brancas, Ananindeua, PA, Brasil",
            "website": null
        },
        {
            "id": 1034,
            "name": "Núcleo JJ",
            "federationAbbr": "CBJJ",
            "country": "Brasil",
            "countryAbbr": "BR",
            "city": "Ribeirão Preto",
            "responsible": "Antonio Marcio Della Motta",
            "address": "Rua Heitor Chiarello n: 105, apt 112 - Bairro: Santa Cruz, Ribeirão Preto, SP, Brasil",
            "website": "www.nucleoacademia.com.br"
        },
        {
            "id": 7140,
            "name": "Nucleo JJ International",
            "federationAbbr": "IBJJF",
            "country": "Spain",
            "countryAbbr": "ES",
            "city": "Villagarcia de Arousa",
            "responsible": "Antonio Marcio Della Motta",
            "address": "Florida Street 6, 3 F Villagarcia de Arousa, Pontevedra, Villagarcia de Arousa, Galicia, Spain",
            "website": null
        },
        {
            "id": 8441,
            "name": "Nupa Hawaii Jiu-Jitsu",
            "federationAbbr": "USBJJF",
            "country": "United States of America",
            "countryAbbr": "US",
            "city": "Keaau",
            "responsible": "Kaynan Tetsuo Kaku",
            "address": "Hcr 2 Box 6850, Keaau, Hi, United States of America",
            "website": null
        },
        {
            "id": 3635,
            "name": "NW Jiu Jitsu Academy",
            "federationAbbr": "USBJJF",
            "country": "United States of America",
            "countryAbbr": "US",
            "city": "Seattle",
            "responsible": null,
            "address": "942 N. 95th St.  , , Seattle, WA, United States of America",
            "website": "www.nwjja.com"
        },
        {
            "id": 10192,
            "name": "NWMA Coos Bay",
            "federationAbbr": "USBJJF",
            "country": "United States of America",
            "countryAbbr": "US",
            "city": "North Bend",
            "responsible": "David Andrew Sigler",
            "address": "1955 Union Ave, North Bend, Oregon, United States of America",
            "website": "nwmacoosbay@gmail.com"
        },
        {
            "id": 9799,
            "name": "NXT W4R BJJ",
            "federationAbbr": "USBJJF",
            "country": "United States of America",
            "countryAbbr": "US",
            "city": "Tomball",
            "responsible": "Anthony Lamont Fitzgerald Jr.",
            "address": "26910 Tomball Pkwy, Tomball, Tx, United States of America",
            "website": null
        },
        {
            "id": 10682,
            "name": "NY ECMMA",
            "federationAbbr": "USBJJF",
            "country": "United States of America",
            "countryAbbr": "US",
            "city": "Hicksville",
            "responsible": "Nicholas Giles Wolz",
            "address": "120 Broadway, Hicksville, Ny, United States of America",
            "website": "www.ecmmaandfitness.com"
        },
        {
            "id": 8958,
            "name": "NY United BJJ",
            "federationAbbr": "USBJJF",
            "country": "United States of America",
            "countryAbbr": "US",
            "city": "Airmont",
            "responsible": "Khyl T. Farrison",
            "address": "9 North Airmont Road Suite 220, Airmont, Ny, United States of America",
            "website": "NYUNITEDBJJ.org"
        },
        {
            "id": 4327,
            "name": "Nybro Kampsport Center NKC",
            "federationAbbr": "IBJJF",
            "country": "Sweden",
            "countryAbbr": "SE",
            "city": "Nybro",
            "responsible": "Marcelo Galvão Santiago",
            "address": "C/O Gustafsson Abborrvagen 11  , , Nybro, Sweden",
            "website": "nkc.nu"
        },
        {
            "id": 2780,
            "name": "NYC Lifestyle BJJ - Fabricio Medici",
            "federationAbbr": "USBJJF",
            "country": "United States of America",
            "countryAbbr": "US",
            "city": "Astoria",
            "responsible": "Fabricio Medici de Aquino Lopes",
            "address": "  30-89 38th Street, Astoria, NY, United States of America",
            "website": "lifestyle-mma.com"
        },
        {
            "id": 10363,
            "name": "NY-TX Peak Jiu-Jitsu",
            "federationAbbr": "USBJJF",
            "country": "United States of America",
            "countryAbbr": "US",
            "city": "East Patchogue",
            "responsible": "Jonathan T. Satava",
            "address": "176 W Main Street, East Patchogue, Ny, United States of America",
            "website": null
        },
        {
            "id": 6037,
            "name": "Nyx Brazilian Jiu-Jitsu",
            "federationAbbr": "CBJJ",
            "country": "Brasil",
            "countryAbbr": "BR",
            "city": "Porto Alegre",
            "responsible": "Henrique Marcos",
            "address": "BR 280 N: 3345, KM 30, Porto Alegre, Araquari, Brasil",
            "website": null
        },
        {
            "id": 5233,
            "name": "O Athletik Brazilian Jiu-Jitsu",
            "federationAbbr": "USBJJF",
            "country": "United States of America",
            "countryAbbr": "US",
            "city": "Houston",
            "responsible": "Jonatas Eliaquim da Silva",
            "address": "767 N. Shepherd Dr.  , , Houston, TX, United States of America",
            "website": "www.OAthletik.com"
        },
        {
            "id": 2677,
            "name": "O.C. Carlson Gracie Academy",
            "federationAbbr": "USBJJF",
            "country": "United States of America",
            "countryAbbr": "US",
            "city": "Orange",
            "responsible": "Troy Allen Acker",
            "address": "3702 E. Chapman Ave. St. E  , , Orange, CA, United States of America",
            "website": "www.occarlsongracie.com"
        }
    ]
}