{
    "pagination": {
        "page": 62,
        "from": 1220,
        "to": 1240,
        "pageSize": 20,
        "lastPage": 358,
        "totalRecords": 7149
    },
    "list": [
        {
            "id": 8949,
            "name": "Cantagalo Jiu-Jitsu London",
            "federationAbbr": "IBJJF",
            "country": "United Kingdom",
            "countryAbbr": "GB",
            "city": "London",
            "responsible": "Jackson Sousa dos Santos",
            "address": "10 Maltings Lodge, Corney Reach Way, London, England, United Kingdom",
            "website": null
        },
        {
            "id": 7779,
            "name": "Cantagalo Paris",
            "federationAbbr": "IBJJF",
            "country": "France",
            "countryAbbr": "FR",
            "city": "Mantes La Jolie",
            "responsible": "Félicien Matoko",
            "address": "6 Rue Arsène D'arsonval, Mantes La Jolie, Yvelines , France",
            "website": "www sportattitude78.com"
        },
        {
            "id": 5871,
            "name": "Cantagalo Team",
            "federationAbbr": "CBJJ",
            "country": "Brasil",
            "countryAbbr": "BR",
            "city": "Rio de Janeiro",
            "responsible": "Douglas Rufino da Silva",
            "address": "Estrada do Cantagalo n: 12, Ipanema, Rio de Janeiro, Rio de Janeiro, Brasil",
            "website": null
        },
        {
            "id": 3557,
            "name": "Capital MMA",
            "federationAbbr": "USBJJF",
            "country": "United States of America",
            "countryAbbr": "US",
            "city": "Dallas",
            "responsible": "Jeremiah D. Lafreniere",
            "address": "23520 Overland Drive  , , Dallas, VA, United States of America",
            "website": "www.capitalmma.com"
        },
        {
            "id": 7207,
            "name": "Captain Lion",
            "federationAbbr": "IBJJF",
            "country": "Korea, South",
            "countryAbbr": "KR",
            "city": "Incheon",
            "responsible": "Seung-Jae Lee",
            "address": "#402, 4f, 261, Annam-ro, Bupyeong-gu, Incheon, Incheon, Korea, South",
            "website": null
        },
        {
            "id": 5327,
            "name": "Capy Brazil Team",
            "federationAbbr": "CBJJ",
            "country": "Brasil",
            "countryAbbr": "BR",
            "city": "Ponta Grossa",
            "responsible": "Carlos Pylypiec",
            "address": "Rua Enfermeira Adelaide Pareta, 352, Vila Deize - Uvaranas, Ponta Grossa, PR, Brasil",
            "website": null
        },
        {
            "id": 6312,
            "name": "Carceglia Team International",
            "federationAbbr": "IBJJF",
            "country": "Argentina",
            "countryAbbr": "AR",
            "city": "Cordoba",
            "responsible": "Cesar Adrian Carceglia",
            "address": "Boulevard Los Alemanes No. 5225, Cordoba, --, Argentina",
            "website": "www.carcegliateam.com.ar"
        },
        {
            "id": 4556,
            "name": "Cardonas BJJ",
            "federationAbbr": "USBJJF",
            "country": "United States of America",
            "countryAbbr": "US",
            "city": "Lake Worth",
            "responsible": "Oscar Alejandro Cardona",
            "address": "1930 7th Ave N, Lake Worth, Florida, United States of America",
            "website": "cardonasbjj.com"
        },
        {
            "id": 9705,
            "name": "Cardonas BJJ Colombia",
            "federationAbbr": "IBJJF",
            "country": "Colombia",
            "countryAbbr": "CO",
            "city": "Pereira",
            "responsible": "Oscar Alejandro Cardona",
            "address": "Avenida Sur, #19-05, Pereira, Risaralda, Colombia",
            "website": "Pereira"
        },
        {
            "id": 9275,
            "name": "Careca Jiu-Jitsu Australia",
            "federationAbbr": "IBJJF",
            "country": "Australia",
            "countryAbbr": "AU",
            "city": "Labrador / Gold Coast",
            "responsible": "Rafael Rodrigues",
            "address": "26 Brisbane Road, Unit 1, Labrador / Gold Coast, Qld, Australia",
            "website": null
        },
        {
            "id": 6366,
            "name": "Careca Jiu-Jitsu Izumo",
            "federationAbbr": "JBJJF",
            "country": "Japan",
            "countryAbbr": "JP",
            "city": "Izumo",
            "responsible": "Yoshinori Nakayama",
            "address": "2223-2 Nakaaraki Taisha-cho, Izumo, Shimane, Japan",
            "website": "https://www.facebook.com/izumobjj/"
        },
        {
            "id": 3934,
            "name": "Caresto Jiu-Jitsu",
            "federationAbbr": "CBJJ",
            "country": "Brasil",
            "countryAbbr": "BR",
            "city": "Manaus",
            "responsible": "Marcelo Augusto Rocha Caresto",
            "address": "Rua Helio Leião, Q4 2 Conj. Galileia, Cidade Nova, Manaus, AM, Brasil",
            "website": ""
        },
        {
            "id": 6227,
            "name": "Cariaso Rise Combat Sports",
            "federationAbbr": "USBJJF",
            "country": "United States of America",
            "countryAbbr": "US",
            "city": "Tucson",
            "responsible": "Christopher Vincent Cariaso",
            "address": "7640 E. Hampton Pl., Tucson, AZ, United States of America",
            "website": "RiseCombatSports.com"
        },
        {
            "id": 190,
            "name": "Carioca Brazilian Jiu-Jitsu",
            "federationAbbr": "CBJJ",
            "country": "Brasil",
            "countryAbbr": "BR",
            "city": "Itaguaí",
            "responsible": "Mauro Tani",
            "address": "Rua Antônio Mauricio Nº 09 Loja-b, Centro, Itaguaí, RJ, Brasil",
            "website": null
        },
        {
            "id": 1064,
            "name": "Carioca Team",
            "federationAbbr": "CBJJ",
            "country": "Brasil",
            "countryAbbr": "BR",
            "city": "Manaus",
            "responsible": "Angelo Marcio Bezerra Carioca",
            "address": "Rua Marcelo P. Guimarães Conjunto  Ajuricaba N303, Alvorada, Manaus, AM, Brasil",
            "website": "www.carioca.com.br"
        },
        {
            "id": 2220,
            "name": "Carlão Jiu-Jitsu Team",
            "federationAbbr": "CBJJ",
            "country": "Brasil",
            "countryAbbr": "BR",
            "city": "Itaúna",
            "responsible": "Carlos Alberto Justino Pereira",
            "address": "Rua Zé do Gode n: 287, Três Marias, Itaúna, MG, Brasil",
            "website": null
        },
        {
            "id": 8853,
            "name": "CARLOS BATISTA TEAM BJJ",
            "federationAbbr": "CBJJ",
            "country": "Brasil",
            "countryAbbr": "BR",
            "city": "Balneario Arroio Do Silva",
            "responsible": "Carlos de Oliveira Batista",
            "address": "Avenida Cantuária Pavilhão, Sn, Balneario Arroio Do Silva, Santa Catarina, Brasil",
            "website": "@carlosacjj"
        },
        {
            "id": 9049,
            "name": "Carlos Catania BJJ Association",
            "federationAbbr": "USBJJF",
            "country": "United States of America",
            "countryAbbr": "US",
            "city": "Millersville",
            "responsible": "Carlos Catania",
            "address": "301 Najoles Rd, Millersville, Md, United States of America",
            "website": "https://carloscataniabjj.com"
        },
        {
            "id": 5071,
            "name": "Carlos Farias Brazilian Jiu-Jitsu",
            "federationAbbr": "USBJJF",
            "country": "United States of America",
            "countryAbbr": "US",
            "city": "Mesa",
            "responsible": "Carlos Eduardo de Araujo Farias",
            "address": "5606 E. McKellips Rd. #103-105  , , Mesa, AZ, United States of America",
            "website": "fariasjiujitsu.com"
        },
        {
            "id": 5545,
            "name": "Carlos Ferro BJJ",
            "federationAbbr": "CBJJ",
            "country": "Brasil",
            "countryAbbr": "BR",
            "city": "Estância Velha",
            "responsible": "Carlos Vinícius Motta",
            "address": "Av. Boqueirão n: 2861, loja 2, Estância Velha, RS, Brasil",
            "website": null
        }
    ]
}