{
    "pagination": {
        "page": 342,
        "from": 6820,
        "to": 6840,
        "pageSize": 20,
        "lastPage": 358,
        "totalRecords": 7149
    },
    "list": [
        {
            "id": 5747,
            "name": "Ushirobira JJ Greece",
            "federationAbbr": "IBJJF",
            "country": "Greece",
            "countryAbbr": "GR",
            "city": "HALASTRA-THESSALONIKIS",
            "responsible": "André Luis Monroy Ushirobira",
            "address": "Pavlou Mela 48, HALASTRA-THESSALONIKIS, Greece",
            "website": null
        },
        {
            "id": 8147,
            "name": "Usina De Campeões",
            "federationAbbr": "CBJJ",
            "country": "Brasil",
            "countryAbbr": "BR",
            "city": "Rio Bonito",
            "responsible": "Uanderson Maia de Brito",
            "address": "Rua Doutor Mattos Nº572 - Centro, Academia De Lutas, Rio Bonito, Rj, Brasil",
            "website": null
        },
        {
            "id": 3001,
            "name": "USK",
            "federationAbbr": "IBJJF",
            "country": "United Arab Emirates",
            "countryAbbr": "AE",
            "city": "Al Ain",
            "responsible": null,
            "address": "PO Box 66015  , , Al Ain, AD, United Arab Emirates",
            "website": ""
        },
        {
            "id": 4179,
            "name": "USK Brazil",
            "federationAbbr": "CBJJ",
            "country": "Brasil",
            "countryAbbr": "BR",
            "city": "Varginha",
            "responsible": "Erik Anderson Cardoso",
            "address": "Rua Bela Vista 185, Vila Paiva, Varginha, MG, Brasil",
            "website": ""
        },
        {
            "id": 10115,
            "name": "Uzbekistan Top Team",
            "federationAbbr": "IBJJF",
            "country": "Uzbekistan",
            "countryAbbr": "UZ",
            "city": "Tashkent",
            "responsible": "Riza Safarov",
            "address": "Sharaf Rashidov 94a, Sharaf Rashidov 94a, Tashkent, Tashkent, Uzbekistan",
            "website": "topteam.uz"
        },
        {
            "id": 6162,
            "name": "Uzcategui Brazilian Jiu-Jitsu",
            "federationAbbr": "USBJJF",
            "country": "United States of America",
            "countryAbbr": "US",
            "city": "Wilmington",
            "responsible": "Jonathan Bladimir Uzcategui",
            "address": "5424 Oleander Drive, Wilmington, NC, United States of America",
            "website": "www.alliancebjjnc.com"
        },
        {
            "id": 8936,
            "name": "V \u0026 M Family Jiu-Jitsu Dojo",
            "federationAbbr": "IBJJF",
            "country": "Spain",
            "countryAbbr": "ES",
            "city": "San Fernando (cádiz)",
            "responsible": "José M. Vélez Miraut",
            "address": "C/ Pastor Miguel Blanco Ferrer N° 1-22, San Fernando (cádiz), España, Spain",
            "website": null
        },
        {
            "id": 7917,
            "name": "V. A. Brazilian Jiu-Jitsu",
            "federationAbbr": "CBJJ",
            "country": "Brasil",
            "countryAbbr": "BR",
            "city": "Cabo Frio",
            "responsible": "Bruno Pinheiro de Souza",
            "address": "Rua Jose De Dome Nº 245 Palmeiras, Cabo Frio, Rj, Brasil",
            "website": null
        },
        {
            "id": 6674,
            "name": "V3X Brazilian Jiu-Jitsu",
            "federationAbbr": "CBJJ",
            "country": "Brasil",
            "countryAbbr": "BR",
            "city": "Barreiras",
            "responsible": "Bruno Luiz Carneiro de Carvalho",
            "address": "Rua Floriano Peixoto: 738, Loteamento São Paulo, Barreiras, Bahia, Brasil",
            "website": null
        },
        {
            "id": 5130,
            "name": "V7 Martial Arts",
            "federationAbbr": "USBJJF",
            "country": "United States of America",
            "countryAbbr": "US",
            "city": "Moscow",
            "responsible": "Nicolae Sinicio Abud Cury",
            "address": "872 Troy Road  #180, Moscow, ID, United States of America",
            "website": "www.v7martialarts.com"
        },
        {
            "id": 2885,
            "name": "Vacirca Brothers Jiu-Jitsu",
            "federationAbbr": "IBJJF",
            "country": "Switzerland",
            "countryAbbr": "CH",
            "city": "Zurich",
            "responsible": "Franco Vacirca",
            "address": "Ackersteinstrasse 190, One Dojo - Gracie Zuerich, Zurich, ZH, Switzerland",
            "website": "www.graciezuerich.ch"
        },
        {
            "id": 10752,
            "name": "Vagner Carvalho BJJ",
            "federationAbbr": "CBJJ",
            "country": "Brasil",
            "countryAbbr": "BR",
            "city": "Itabaorai",
            "responsible": "Vagner da Silva Carvalho",
            "address": "Rua J, 449 Qd21, Retiro São Joaquim, Itabaorai, Rio De Janeiro, Brasil",
            "website": null
        },
        {
            "id": 4341,
            "name": "Vagner Rocha Martial Arts",
            "federationAbbr": "USBJJF",
            "country": "United States of America",
            "countryAbbr": "US",
            "city": "Pembroke Pines",
            "responsible": "Vagner S Rocha",
            "address": "8904 Taft St.  , , Pembroke Pines, FL, United States of America",
            "website": "www.vagnerrochamartialarts.com"
        },
        {
            "id": 951,
            "name": "Valdemar Abraão",
            "federationAbbr": "CBJJ",
            "country": "Brasil",
            "countryAbbr": "BR",
            "city": "Rio de Janeiro",
            "responsible": "Valdemar dos Santos Abraão",
            "address": "Marechal José Bevilaqua Nº 447, Taquara, Rio de Janeiro, RJ, Brasil",
            "website": null
        },
        {
            "id": 8301,
            "name": "Valdénio Jiu-Jitsu",
            "federationAbbr": "CBJJ",
            "country": "Brasil",
            "countryAbbr": "BR",
            "city": "João Pessoa",
            "responsible": "Valdénio Mendes Duarte",
            "address": "Av. Cruz Das Armas 26 , Cruz Das Armas , João Pessoa, Paraíba , Brasil",
            "website": null
        },
        {
            "id": 10440,
            "name": "Valdo Rivelino Jiu-Jitsu",
            "federationAbbr": "CBJJ",
            "country": "Brasil",
            "countryAbbr": "BR",
            "city": "Lavras",
            "responsible": "Valdo Rivelino Tadeu Gonçalves",
            "address": "Rua Carlos Drumont Andrade 285, Alto Dos Ipês, Casa, Lavras, Minas Gerais, Brasil",
            "website": null
        },
        {
            "id": 9310,
            "name": "Vale Fight",
            "federationAbbr": "CBJJ",
            "country": "Brasil",
            "countryAbbr": "BR",
            "city": "Belém",
            "responsible": "Roberto de França Paiva",
            "address": "Pass. Olinto Meiras, 226 -guanabara, Guanabara, Belém, Pa, Brasil",
            "website": null
        },
        {
            "id": 7657,
            "name": "Valentim Grappling",
            "federationAbbr": "CBJJ",
            "country": "Brasil",
            "countryAbbr": "BR",
            "city": "JUNDIAÍ",
            "responsible": "Roberto do Espirito Santo Valentim Júnior ",
            "address": "Rua Geraldo Gomes De Paula - 239, JUNDIAÍ, SP, Brasil",
            "website": "bit.ly/grapplingvalentim"
        },
        {
            "id": 2713,
            "name": "Valhalla Grappling Academy",
            "federationAbbr": "USBJJF",
            "country": "United States of America",
            "countryAbbr": "US",
            "city": "Frankfort",
            "responsible": "Nathaniel Brian Jones",
            "address": "193 Versailles Rd - Ste 1  , , Frankfort, KY, United States of America",
            "website": "www.valhallaacademy.com"
        },
        {
            "id": 2731,
            "name": "Valko BJJ Academy",
            "federationAbbr": "USBJJF",
            "country": "United States of America",
            "countryAbbr": "US",
            "city": "Chicago",
            "responsible": "James Joseph Valko",
            "address": "2139 N. Bissell - Garden Apt  , , Chicago, IL, United States of America",
            "website": "www.valkobjj.com"
        }
    ]
}