{
    "pagination": {
        "page": 220,
        "from": 4380,
        "to": 4400,
        "pageSize": 20,
        "lastPage": 358,
        "totalRecords": 7149
    },
    "list": [
        {
            "id": 4049,
            "name": "Luis Azeredo Jiu-Jitsu",
            "federationAbbr": "USBJJF",
            "country": "United States of America",
            "countryAbbr": "US",
            "city": "Union",
            "responsible": "Luis Gustavo Lombardi P. Azeredo",
            "address": "1720 Burnet Ave.  , , Union, NJ, United States of America",
            "website": "--"
        },
        {
            "id": 5076,
            "name": "Luis Brito BJJ",
            "federationAbbr": "CBJJ",
            "country": "Brasil",
            "countryAbbr": "BR",
            "city": "Porto Alegre",
            "responsible": "Luis Orlando Maia de Brito",
            "address": "Av Silva Só, N° 355., Rio Branco, Porto Alegre, RS, Brasil",
            "website": "luisbritofightschool.com.br"
        },
        {
            "id": 9406,
            "name": "Luis Mota Jiu-Jitsu",
            "federationAbbr": "FPJJB",
            "country": "Portugal",
            "countryAbbr": "PT",
            "city": "Porto",
            "responsible": "Luis Filipe Mota",
            "address": "Rua Do Cunha 191, Porto, Porto, Portugal",
            "website": null
        },
        {
            "id": 6467,
            "name": "Luis Neto Brazilian Jiu-Jitsu",
            "federationAbbr": "CBJJ",
            "country": "Brasil",
            "countryAbbr": "BR",
            "city": "Manaus",
            "responsible": "Juarez Harles Martins Nunes",
            "address": "Rua 44 n: 03 - Conjunto Castelo Branco 2, Parque 10, Manaus, Manaus, Brasil",
            "website": null
        },
        {
            "id": 665,
            "name": "Luis Neto Brazilian Jiu-Jitsu Ireland",
            "federationAbbr": "IBJJF",
            "country": "Ireland",
            "countryAbbr": "IE",
            "city": "Waterford",
            "responsible": "Juarez Harles Martins Nunes",
            "address": "Unit 35, Tycor Business Centre, Tycor Avenue, Waterford, --, Ireland",
            "website": null
        },
        {
            "id": 6235,
            "name": "Luis Rubalcava",
            "federationAbbr": "USBJJF",
            "country": "United States of America",
            "countryAbbr": "US",
            "city": "Bentonville",
            "responsible": "Luis Rubalcava",
            "address": "503 SE 12th street, Bentonville, AR, United States of America",
            "website": "rubalcavajiujitsu.com"
        },
        {
            "id": 10444,
            "name": "Luiz Cesar Brazilian Jiu-Jitsu",
            "federationAbbr": "CBJJ",
            "country": "Brasil",
            "countryAbbr": "BR",
            "city": "Manaus",
            "responsible": "Luiz Cesar Bezerra dos Santos",
            "address": "R. Gusmânia N° 882, Manaus, Am, Brasil",
            "website": null
        },
        {
            "id": 7598,
            "name": "Luiz Cláudio Team Brazilian Jiu-Jitsu",
            "federationAbbr": "CBJJ",
            "country": "Brasil",
            "countryAbbr": "BR",
            "city": "Salvador",
            "responsible": "Luiz Claudio Conceição Torres",
            "address": "Rua Antonio Carlos Magalh\u0001es N°:22, Casa, Salvador, Bahia, Brasil",
            "website": null
        },
        {
            "id": 4373,
            "name": "Luiz Fernando Team",
            "federationAbbr": "CBJJ",
            "country": "Brasil",
            "countryAbbr": "BR",
            "city": "Brasília",
            "responsible": "Luiz Fernando da Silva Mendonça",
            "address": "Rua 5 Sul, Lote 07, Bloco B, Av. das Araucárias SN , Águas Claras, Brasília, DF, Brasil",
            "website": "www.facebook.com/luizfernandoteam"
        },
        {
            "id": 2543,
            "name": "Luiz Filho Academy",
            "federationAbbr": "USBJJF",
            "country": "United States of America",
            "countryAbbr": "US",
            "city": "Elkhart ",
            "responsible": "Luiz Geraldo Leao Filho",
            "address": "1632, East Bristol St.   , Elkhart , IN, United States of America",
            "website": "elkhartjiujitsu.com"
        },
        {
            "id": 2231,
            "name": "Luiz Palhares Jiu-Jitsu",
            "federationAbbr": "USBJJF",
            "country": "United States of America",
            "countryAbbr": "US",
            "city": "Jacksonville",
            "responsible": "Luiz E. de Mello Palhares",
            "address": "9759 San Jose Blvd Suite 3, Jacksonville, FL, United States of America",
            "website": "www.luizpalharesjiujitsu.com"
        },
        {
            "id": 5256,
            "name": "Luiz Palhares Jiu-Jitsu Europe",
            "federationAbbr": "IBJJF",
            "country": "Germany",
            "countryAbbr": "DE",
            "city": "Kempten",
            "responsible": "Luiz E. de Mello Palhares",
            "address": "Zeppelin Strasse 9, , Kempten, Germany",
            "website": "facebook.com/luizpalharesjiujitsugermany"
        },
        {
            "id": 7894,
            "name": "Luiz Paulo Jiu-Jitsu Matriz",
            "federationAbbr": "CBJJ",
            "country": "Brasil",
            "countryAbbr": "BR",
            "city": "Niteroi",
            "responsible": "Luiz Paulo B. de Oliveira",
            "address": "Rua Coronel Moreira César, 403, Primeiro Andar, Niteroi, Rio De Janeiro, Brasil",
            "website": "www.luizpaulojiujitsu.com"
        },
        {
            "id": 672,
            "name": "Luiz Paulo Jiu-Jitsu USA",
            "federationAbbr": "USBJJF",
            "country": "United States of America",
            "countryAbbr": "US",
            "city": "Norwood",
            "responsible": "Luiz Paulo B. de Oliveira",
            "address": "884 J Washington St , Norwood, Massachusetts, United States of America",
            "website": "www.luizpaulojiujitsu.com"
        },
        {
            "id": 3394,
            "name": "Luizão Jiu-Jitsu Team",
            "federationAbbr": "CBJJ",
            "country": "Brasil",
            "countryAbbr": "BR",
            "city": "Brasília",
            "responsible": "Luiz Marcio Pereira Gomes",
            "address": "Via Eptg Colonia Agrícola Samambaia Rua 4C , Vicente Pires - Faculdade Mauá DF, Brasília, DF, Brasil",
            "website": ""
        },
        {
            "id": 6376,
            "name": "Lula Family Brazilian Jiu-Jitsu",
            "federationAbbr": "USBJJF",
            "country": "United States of America",
            "countryAbbr": "US",
            "city": "Neptune Beach",
            "responsible": "Kelly Beech",
            "address": "110 Penman Road, Neptune Beach, FL, United States of America",
            "website": "www.blackbeltstudiobjj.com"
        },
        {
            "id": 9905,
            "name": "Lula Pitbull Fight",
            "federationAbbr": "CBJJ",
            "country": "Brasil",
            "countryAbbr": "BR",
            "city": "Monte Alegre",
            "responsible": "Luiz dos Santos Alves",
            "address": "Avenida Enfermeira Symone Lea Nogueira Chagas, N 379, Bairro Novo Monte, Monte Alegre, Rn, Brasil",
            "website": null
        },
        {
            "id": 10070,
            "name": "Lumber City Combat Sports",
            "federationAbbr": "USBJJF",
            "country": "United States of America",
            "countryAbbr": "US",
            "city": "North Tonawanda",
            "responsible": "Richard Wade Rogers III",
            "address": "27 Main Street, North Tonawanda, Ny, United States of America",
            "website": null
        },
        {
            "id": 5688,
            "name": "Luminous",
            "federationAbbr": "JBJJF",
            "country": "Japan",
            "countryAbbr": "JP",
            "city": "Sagamihara-shi",
            "responsible": "Yoshinao Shitabayashi",
            "address": "6-14 Hashimoto, Midoriku, Sagamihara-shi, Kanagawa, Japan",
            "website": "luminous-gym.com"
        },
        {
            "id": 7251,
            "name": "Luta CAIC",
            "federationAbbr": "CBJJ",
            "country": "Brasil",
            "countryAbbr": "BR",
            "city": "Brasilia",
            "responsible": "Paulo Eduardo Narcizo de Souza",
            "address": "SQN 205 Bloco H Apt: 505, Brasilia, Distrito Federal, Brasil",
            "website": null
        }
    ]
}