{
    "pagination": {
        "page": 199,
        "from": 3960,
        "to": 3980,
        "pageSize": 20,
        "lastPage": 358,
        "totalRecords": 7149
    },
    "list": [
        {
            "id": 4363,
            "name": "Jiu Jitsu Academy Worblental",
            "federationAbbr": "IBJJF",
            "country": "Switzerland",
            "countryAbbr": "CH",
            "city": "Stettlen",
            "responsible": "Giuliano Haldimann",
            "address": "Bleichestrasse 1  , , Stettlen, Switzerland",
            "website": "www.bjjbern.com"
        },
        {
            "id": 10538,
            "name": "JIU JITSU AM 047",
            "federationAbbr": "CBJJ",
            "country": "Brasil",
            "countryAbbr": "BR",
            "city": "Itatiba",
            "responsible": "Diego Nascimento Costa",
            "address": "Rua Jovino Antonio Santana 251, São Francisco, Itatiba, São Paulo, Brasil",
            "website": null
        },
        {
            "id": 7282,
            "name": "Jiu Jitsu by Juca / BPT",
            "federationAbbr": "FPJJB",
            "country": "Portugal",
            "countryAbbr": "PT",
            "city": "Santarem",
            "responsible": "João Carlos Pais Martins",
            "address": "Av. Antonio Maria Batista, 72, Santarem, --, Portugal",
            "website": null
        },
        {
            "id": 3950,
            "name": "Jiu Jitsu Club Verona",
            "federationAbbr": "UIJJ",
            "country": "Italy",
            "countryAbbr": "IT",
            "city": "Sommacampagna",
            "responsible": "Luca Anacoreta",
            "address": "via Campagnol 17c , , Sommacampagna, Verona, Italy",
            "website": "www.jjcvr.it"
        },
        {
            "id": 2884,
            "name": "Jiu Jitsu Factor",
            "federationAbbr": "UIJJ",
            "country": "Italy",
            "countryAbbr": "IT",
            "city": " Torino Cap",
            "responsible": "Octavio Henrique Couto da Silva Jr.",
            "address": "Corso Potenza 84    , ,  Torino Cap, IT, Italy",
            "website": "www.jiujitsufactor.com"
        },
        {
            "id": 2509,
            "name": "Jiu Jitsu Factory",
            "federationAbbr": "IBJJF",
            "country": "Netherlands",
            "countryAbbr": "NL",
            "city": "OSS",
            "responsible": null,
            "address": "Zalm 5  , , OSS, OSS, Netherlands",
            "website": "www.grapplin.nl"
        },
        {
            "id": 2797,
            "name": "Jiu Jitsu Family Traning Center",
            "federationAbbr": "USBJJF",
            "country": "United States of America",
            "countryAbbr": "US",
            "city": "Guttenberg",
            "responsible": "Marcelo T Oliveira",
            "address": "6807 Bergenline  , , Guttenberg, NJ, United States of America",
            "website": "www.jiujitsunewjersey.com"
        },
        {
            "id": 3623,
            "name": "Jiu Jitsu World",
            "federationAbbr": "IBJJF",
            "country": "Korea, South",
            "countryAbbr": "KR",
            "city": "Seoul",
            "responsible": "Deuk Young Jang",
            "address": "641-20 Y/C Bldg B2 Yeoksam Gangnam  , , Seoul, --, Korea, South",
            "website": "http://cafe.daum.net/TBJJ"
        },
        {
            "id": 2785,
            "name": "Jiu-Jitsu Academy of Health",
            "federationAbbr": "USBJJF",
            "country": "United States of America",
            "countryAbbr": "US",
            "city": "Dacula",
            "responsible": "Maajid Abdullah Al-Kush",
            "address": "2910 Evergreen Eve Crossing, Dacula, GA, United States of America",
            "website": "https://mongoosejiujitsu.com/"
        },
        {
            "id": 8677,
            "name": "Jiu-Jitsu AZcademy",
            "federationAbbr": "IBJJF",
            "country": "Spain",
            "countryAbbr": "ES",
            "city": "Santa Eulalia Del Rio",
            "responsible": "Angel Fernando Sanchez Soriano",
            "address": "Calle De La Iglesia Gym Az, Santa Eulalia Del Rio, Baleares, Spain",
            "website": null
        },
        {
            "id": 4709,
            "name": "Jiu-Jitsu Bresilien Mediterranee",
            "federationAbbr": "IBJJF",
            "country": "France",
            "countryAbbr": "FR",
            "city": "Le Barcares",
            "responsible": "David Giorsetti",
            "address": "28 Impasse de la Lagune  , Le Barcares, France",
            "website": "www.jjbmediterranee.com"
        },
        {
            "id": 3601,
            "name": "Jiu-Jitsu Brotherhood",
            "federationAbbr": "IBJJF",
            "country": "United Kingdom",
            "countryAbbr": "GB",
            "city": "Kingston Upon Thames",
            "responsible": null,
            "address": "56 Scranton Road  , , Kingston Upon Thames, --, United Kingdom",
            "website": "www.jiujitsubrotherhood.com"
        },
        {
            "id": 6931,
            "name": "Jiu-Jitsu Brotherhood Global",
            "federationAbbr": "USBJJF",
            "country": "United States of America",
            "countryAbbr": "US",
            "city": "Tucson ",
            "responsible": "Nicholas A. Gregoriades",
            "address": "1525 N. Grady Ave. , Tucson , AZ, United States of America",
            "website": "jiujitsubrotherhood.com"
        },
        {
            "id": 3209,
            "name": "Jiu-Jitsu Brothers",
            "federationAbbr": "JBJJF",
            "country": "Japan",
            "countryAbbr": "JP",
            "city": "Mie",
            "responsible": "Seita Horiuchi",
            "address": "1505 Gokatsura Takityo Takigun, Mie, --, Japan",
            "website": "www.jiujitsu-brothers.com"
        },
        {
            "id": 7467,
            "name": "Jiu-Jitsu Company FC",
            "federationAbbr": "CBJJ",
            "country": "Brasil",
            "countryAbbr": "BR",
            "city": "Ceilandia Norte",
            "responsible": "Francisco Carlos Lima da Silva",
            "address": "Qnp 15 Conjunto B N: 17, Ceilandia Norte, Ceilandia Norte, DF, Brasil",
            "website": null
        },
        {
            "id": 5683,
            "name": "Jiu-Jitsu Corcora",
            "federationAbbr": "CBJJ",
            "country": "Brasil",
            "countryAbbr": "BR",
            "city": "Rio de Janeiro",
            "responsible": "Cristiano Barbosa de Souza",
            "address": "Estrada Santa Marinha, 27, Gávea, Rio de Janeiro, RJ, Brasil",
            "website": null
        },
        {
            "id": 10743,
            "name": "Jiu-Jitsu Corpore Sano",
            "federationAbbr": "CBJJ",
            "country": "Brasil",
            "countryAbbr": "BR",
            "city": "Ribeirão Preto",
            "responsible": "Alexandre Zaneti Arantes",
            "address": "Rua Pinheiro Machado 1050, Bairro: Campos Elíseos, Ribeirão Preto, São Paulo, Brasil",
            "website": null
        },
        {
            "id": 4629,
            "name": "Jiu-Jitsu Dynamics Washington",
            "federationAbbr": "USBJJF",
            "country": "United States of America",
            "countryAbbr": "US",
            "city": "Olympia",
            "responsible": "William Earl Hagerty",
            "address": "4709 Greenwood Dr SW  , , Olympia, WA, United States of America",
            "website": "jiujitsudynamics.com"
        },
        {
            "id": 8257,
            "name": "Jiu-Jitsu Explorer",
            "federationAbbr": "IBJJF",
            "country": "Korea, South",
            "countryAbbr": "KR",
            "city": "Pyeongtaek-si",
            "responsible": "Jangwon Byeon",
            "address": "Tel : 010-3743-7585, 9-903, 20-38, Bijeon 5-ro, Pyeongtaek-si, Gyeonggi-do, Korea, South",
            "website": "https://jiujitsuexplorer.modoo.at/"
        },
        {
            "id": 5573,
            "name": "Jiu-Jitsu For Life Brasil",
            "federationAbbr": "CBJJ",
            "country": "Brasil",
            "countryAbbr": "BR",
            "city": "São Gonçalo",
            "responsible": "Jorge Britto Lima Filho",
            "address": " Rua Palmira Lima dos Santos n: 100, Pachecos, São Gonçalo, RJ, Brasil",
            "website": null
        }
    ]
}