{
    "pagination": {
        "page": 37,
        "from": 720,
        "to": 740,
        "pageSize": 20,
        "lastPage": 358,
        "totalRecords": 7149
    },
    "list": [
        {
            "id": 99,
            "name": "Axis Jiu-Jitsu Academy",
            "federationAbbr": "JBJJF",
            "country": "Japan",
            "countryAbbr": "JP",
            "city": "Tokyo",
            "responsible": null,
            "address": "1-34-16 1f Matsubara Setagaya  , , Tokyo, --, Japan",
            "website": "www.axisjj.com"
        },
        {
            "id": 5266,
            "name": "Axis Jiu-Jitsu International",
            "federationAbbr": "IBJJF",
            "country": "United Kingdom",
            "countryAbbr": "GB",
            "city": "Cambridge",
            "responsible": "Takamasa Watanabe",
            "address": "115 Cambridge Road, Norman Industrial Estate, Milton  , , Cambridge, United Kingdom",
            "website": "www.axisjj.com"
        },
        {
            "id": 9145,
            "name": "Ayjj HQ",
            "federationAbbr": "CBJJ",
            "country": "Brasil",
            "countryAbbr": "BR",
            "city": "Maraba",
            "responsible": "Alyson Alves Pereira",
            "address": "Rua Ceara 204 B, Maraba, Para, Brasil",
            "website": null
        },
        {
            "id": 10484,
            "name": "Ayres Jiu-Jitsu",
            "federationAbbr": "CBJJ",
            "country": "Brasil",
            "countryAbbr": "BR",
            "city": "Rio De Janeiro",
            "responsible": "Alexandre de Carvalho Ayres",
            "address": "Rua General Bandeira De Melo, Nº. 20, Apto 101, Rio De Janeiro, Rj, Brasil",
            "website": null
        },
        {
            "id": 6469,
            "name": "Azarkan",
            "federationAbbr": "IBJJF",
            "country": "Belgium",
            "countryAbbr": "BE",
            "city": "Bruxelles",
            "responsible": "Hassine Azarkan",
            "address": "Avenue De La Basilique 351, Bruxelles, --, Belgium",
            "website": null
        },
        {
            "id": 9000,
            "name": "Azerbaijan Brazilian Jiu-Jitsu Club - Public Union",
            "federationAbbr": "IBJJF",
            "country": "Azerbaijan",
            "countryAbbr": "AZ",
            "city": "Baku",
            "responsible": "Taleh Hasanov",
            "address": "Y/surkhany, Gol Str. 7, Baku, Surakhany, Azerbaijan",
            "website": null
        },
        {
            "id": 6788,
            "name": "Azerbaijan Top Team",
            "federationAbbr": "IBJJF",
            "country": "Azerbaijan",
            "countryAbbr": "AZ",
            "city": "Baku",
            "responsible": "Azar Beydullayev",
            "address": "Samir Jafarov St. 6-25, Baku, Azerbaijan",
            "website": null
        },
        {
            "id": 6896,
            "name": "Azimuth Brazilian Jiu-Jitsu",
            "federationAbbr": "CBJJ",
            "country": "Brasil",
            "countryAbbr": "BR",
            "city": "Lauro de Freitas",
            "responsible": "Andre Gomes Costa",
            "address": "Rua Martins de Oliveira n: 243, Bairro: Pitangueiras, Lauro de Freitas, Bahia, Brasil",
            "website": null
        },
        {
            "id": 7860,
            "name": "AZJJ Brazilian Jiu-Jitsu",
            "federationAbbr": "CBJJ",
            "country": "Brasil",
            "countryAbbr": "BR",
            "city": "Batatais",
            "responsible": "André Bueno Azevedo",
            "address": "Rua: Professor José Marques N°42, Batatais, Sp, Brasil",
            "website": null
        },
        {
            "id": 4618,
            "name": "AZO Jiu-Jitsu",
            "federationAbbr": "CBJJ",
            "country": "Brasil",
            "countryAbbr": "BR",
            "city": "Rio de Janeiro",
            "responsible": "Hércules Baptista",
            "address": "Avenida Cônego de Vasconcelos 1275 Bloco 02 Apt 307, Bangu, Rio de Janeiro, RJ, Brasil",
            "website": "www.herculesjiujitsu.com.br"
        },
        {
            "id": 10632,
            "name": "Azul Brazilian Jiu-Jitsu",
            "federationAbbr": "CBJJ",
            "country": "Brasil",
            "countryAbbr": "BR",
            "city": "Campinas",
            "responsible": "Mauricio Santos Conceição",
            "address": "Av. Dr. Eduardo Pereira De Almeida, 941 - Res. Terra Nova, Campinas, São Paulo, Brasil",
            "website": "https://www.instagram.com/azuljiujitsu/"
        },
        {
            "id": 9529,
            "name": "B Team",
            "federationAbbr": "USBJJF",
            "country": "United States of America",
            "countryAbbr": "US",
            "city": "Austin",
            "responsible": "Seth Belisle",
            "address": "1701 W. Ben White Blvd, Ste 163, Austin, Tx, United States of America",
            "website": "Http://bteamjj.com"
        },
        {
            "id": 3691,
            "name": "B\u0026V Gravity MMA",
            "federationAbbr": "USBJJF",
            "country": "United States of America",
            "countryAbbr": "US",
            "city": "Norwalk",
            "responsible": "Bibiana Dios Tan Pacini S. Silva",
            "address": "40 North Main Street, Norwalk, CT, United States of America",
            "website": "GravityMMA.com"
        },
        {
            "id": 5750,
            "name": "B.F.T Jiu-Jitsu",
            "federationAbbr": "CBJJ",
            "country": "Brasil",
            "countryAbbr": "BR",
            "city": "Fortaleza",
            "responsible": "Jefferson Teixeira do Nascimento",
            "address": "Rua Teófilo Gurgel - 458, Monte Castelo, Fortaleza, Ceará, Brasil",
            "website": null
        },
        {
            "id": 8991,
            "name": "B.R Jiu-Jitsu",
            "federationAbbr": "CBJJ",
            "country": "Brasil",
            "countryAbbr": "BR",
            "city": "São Paulo",
            "responsible": "Fernando Figueiredo da Silva",
            "address": "Av Morada Nova, 107, São Paulo, Sp, Brasil",
            "website": "@brazilianroots"
        },
        {
            "id": 3750,
            "name": "B19RNK",
            "federationAbbr": "IBJJF",
            "country": "France",
            "countryAbbr": "FR",
            "city": "Alfortville",
            "responsible": "Emmanuel Fernandez",
            "address": "1 Rue Paul Vaillant Couturier  , Alfortville, --, France",
            "website": "www.rnkparis.com"
        },
        {
            "id": 9938,
            "name": "B4 Escola De Jiu-jitsu",
            "federationAbbr": "CBJJ",
            "country": "Brasil",
            "countryAbbr": "BR",
            "city": "Criciuma",
            "responsible": "Tiago Fernandes de Paula",
            "address": "Rua Jose Rosso 199, Rua Atras Do Posto De Gasolina, Criciuma, Santa Catarina, Brasil",
            "website": null
        },
        {
            "id": 6206,
            "name": "B9 Korea",
            "federationAbbr": "IBJJF",
            "country": "Korea, South",
            "countryAbbr": "KR",
            "city": "Seoul",
            "responsible": "Sang Jun Seok",
            "address": "657-10, Sinsa-dong Gangnam-gu, Seoul, --, Korea, South",
            "website": null
        },
        {
            "id": 6096,
            "name": "B9 Miami",
            "federationAbbr": "USBJJF",
            "country": "United States of America",
            "countryAbbr": "US",
            "city": "Miami Shores",
            "responsible": "Marcelo Tomio Uemura",
            "address": "9301 NE 6th Ave, Miami Shores, FL, United States of America",
            "website": "B9Miami.com"
        },
        {
            "id": 2124,
            "name": "Babalu's Iron Gym",
            "federationAbbr": "USBJJF",
            "country": "United States of America",
            "countryAbbr": "US",
            "city": "Cerritos",
            "responsible": "Renato Sobral da Cunha",
            "address": "19112 Pioneer Blvd  , Cerritos, ca, United States of America",
            "website": "www.babalubjj.com"
        }
    ]
}