{
    "pagination": {
        "page": 79,
        "from": 1560,
        "to": 1580,
        "pageSize": 20,
        "lastPage": 358,
        "totalRecords": 7149
    },
    "list": [
        {
            "id": 5178,
            "name": "Checkmat Zadar",
            "federationAbbr": "IBJJF",
            "country": "Croatia",
            "countryAbbr": "HR",
            "city": "Zadar",
            "responsible": "Damir Salina",
            "address": "Ivana MAzuranica 32  , , Zadar, Croatia",
            "website": ""
        },
        {
            "id": 9993,
            "name": "Checkmat/ SNZ (Associação Soma Não Zero)",
            "federationAbbr": "FPJJB",
            "country": "Portugal",
            "countryAbbr": "PT",
            "city": "Lisboa",
            "responsible": "Celso Emanuel de Sousa Major",
            "address": "Rua São Francisco Xavier, Lote 178 S/c Dtº- 2775-741 Carcavelos/parede, Lisboa, Portugal",
            "website": "snz.pt"
        },
        {
            "id": 998,
            "name": "CheckMat/Equipe 1",
            "federationAbbr": "CBJJ",
            "country": "Brasil",
            "countryAbbr": "BR",
            "city": "Curitiba",
            "responsible": "Sebastian Augusto Lalli",
            "address": "Rua Santa Catarina  33 - conj. 03, Agua Verde, Curitiba, PR, Brasil",
            "website": "www.checkmatbrasil.com.br"
        },
        {
            "id": 7543,
            "name": "CheckMat/Ramos",
            "federationAbbr": "CBJJ",
            "country": "Brasil",
            "countryAbbr": "BR",
            "city": "São Leopoldo",
            "responsible": "Leandro Miguel R. dos Santos",
            "address": "Lindolfo Collor n: 1099 sala 1, Centro, São Leopoldo, RS, Brasil",
            "website": null
        },
        {
            "id": 3969,
            "name": "CheckMat/The House",
            "federationAbbr": "CBJJ",
            "country": "Brasil",
            "countryAbbr": "BR",
            "city": "Santos",
            "responsible": "Gabriel Rollo da Silva Pontes",
            "address": "Rua Vereador Henrique Soler 290 , Ponta da Praia, Santos, SP, Brasil",
            "website": "www.thehousefc.com.br"
        },
        {
            "id": 8918,
            "name": "Cheltenham Jiu-Jitsu",
            "federationAbbr": "IBJJF",
            "country": "United Kingdom",
            "countryAbbr": "GB",
            "city": "Cheltenham",
            "responsible": "Samuel Karl Schilder",
            "address": "Newlands Park Sport And Social Venue, Southam Ln , Southam, Cheltenham, Gloucestershire, United Kingdom",
            "website": null
        },
        {
            "id": 9832,
            "name": "Chess Club Jiu-Jitsu",
            "federationAbbr": "IBJJF",
            "country": "Australia",
            "countryAbbr": "AU",
            "city": "Warana",
            "responsible": "Rafael Miyashiro Semahim",
            "address": "4/1 Premier Circuit, Warana, Queensland, Australia",
            "website": null
        },
        {
            "id": 3581,
            "name": "China Jiu-Jitsu",
            "federationAbbr": "CBJJ",
            "country": "Brasil",
            "countryAbbr": "BR",
            "city": "Campo Grande",
            "responsible": "Emilio Carlos da Silva Junior",
            "address": "Av. Mascarenhas de Moraes 2.117 - Sala 4 Posto Locatelli, Monte Castelo, Campo Grande, MS, Brasil",
            "website": null
        },
        {
            "id": 9694,
            "name": "Chininha Fábrica De Campeões",
            "federationAbbr": "CBJJ",
            "country": "Brasil",
            "countryAbbr": "BR",
            "city": "Campo Grande",
            "responsible": "Antonio Carlos Pare de O. Mattoso",
            "address": "Rua Corinto 498, Jardim Noroeste, Campo Grande, Ms, Brasil",
            "website": null
        },
        {
            "id": 10069,
            "name": "Chokelab Academy",
            "federationAbbr": "USBJJF",
            "country": "United States of America",
            "countryAbbr": "US",
            "city": "Harrison",
            "responsible": "Josef Manuel Gonzalez",
            "address": "756 Harrison Ave, Harrison, Nj, United States of America",
            "website": null
        },
        {
            "id": 2586,
            "name": "Choke-U",
            "federationAbbr": "USBJJF",
            "country": "United States of America",
            "countryAbbr": "US",
            "city": "Valparaiso",
            "responsible": "Patrick L Robinson",
            "address": "307 E Lincoln way suite B  , , Valparaiso, IN, United States of America",
            "website": "www.choke-u.com"
        },
        {
            "id": 8562,
            "name": "Choque Escola De Jiu-jítsu",
            "federationAbbr": "CBJJ",
            "country": "Brasil",
            "countryAbbr": "BR",
            "city": "Tubarão",
            "responsible": "Diego Henrique Giassi",
            "address": "Rua Sílvio Burigo  N1112, Próx Mercado Econolar, Tubarão, Santa Catarina, Brasil",
            "website": null
        },
        {
            "id": 4083,
            "name": "Chris Atkins Jiu-Jitsu",
            "federationAbbr": "USBJJF",
            "country": "United States of America",
            "countryAbbr": "US",
            "city": "Keaau",
            "responsible": "Christopher R. Atkins",
            "address": "HC 1 Box 5506  , , Keaau, HI, United States of America",
            "website": ""
        },
        {
            "id": 2934,
            "name": "Christian Carvalho BJJ",
            "federationAbbr": "USBJJF",
            "country": "United States of America",
            "countryAbbr": "US",
            "city": "Green Acres",
            "responsible": "Christian Castro de Carvalho",
            "address": "2234 Jog Road, Green Acres, FL, United States of America",
            "website": "www.carvalhobjjmma.com"
        },
        {
            "id": 1062,
            "name": "Chute Boxe JJ",
            "federationAbbr": "CBJJ",
            "country": "Brasil",
            "countryAbbr": "BR",
            "city": "Curitiba",
            "responsible": "Cristiano Marcello da Silva",
            "address": "Mário Tourinho, Seminário, Curitiba, PR, Brasil",
            "website": null
        },
        {
            "id": 2098,
            "name": "Cia Amazonense de Jiu-Jitsu",
            "federationAbbr": "CBJJ",
            "country": "Brasil",
            "countryAbbr": "BR",
            "city": "Manaus",
            "responsible": "Rigoney Castro Costa Junior",
            "address": "Praça Santos Dumont 45 Altos, Centro, Manaus, AM, Brasil",
            "website": "www.ciaamazonensejj.com"
        },
        {
            "id": 4410,
            "name": "Cia Paulista",
            "federationAbbr": "CBJJ",
            "country": "Brasil",
            "countryAbbr": "BR",
            "city": "São Paulo ",
            "responsible": "Eduardo de Sá Leitão",
            "address": "Av. Rebouças  1511 123, J. America, São Paulo , SP, Brasil",
            "website": ""
        },
        {
            "id": 2460,
            "name": "Cia Paulista - International",
            "federationAbbr": "IBJJF",
            "country": "Finland",
            "countryAbbr": "FI",
            "city": "--",
            "responsible": "Eduardo de Sá Leitão",
            "address": "  , , --, --, Finland",
            "website": ""
        },
        {
            "id": 2116,
            "name": "Cia Paulista USA",
            "federationAbbr": "USBJJF",
            "country": "United States of America",
            "countryAbbr": "US",
            "city": "Sacramento",
            "responsible": "André MC Laughlin Glodzinski",
            "address": "4120 El Camino Ave, Unit C, Sacramento, ca, United States of America",
            "website": "teamciapaulista.com"
        },
        {
            "id": 4190,
            "name": "Cia Teresinense de Jiu-Jitsu",
            "federationAbbr": "CBJJ",
            "country": "Brasil",
            "countryAbbr": "BR",
            "city": "Teresina",
            "responsible": "Elias Alves de Meneses Neto",
            "address": "Avenida União 2455 bloco B APT 102, Memorare, Teresina, PI, Brasil",
            "website": null
        }
    ]
}