{
    "pagination": {
        "page": 192,
        "from": 3820,
        "to": 3840,
        "pageSize": 20,
        "lastPage": 358,
        "totalRecords": 7149
    },
    "list": [
        {
            "id": 7507,
            "name": "Infantaria de Jiu-Jitsu Brasileiro",
            "federationAbbr": "CBJJ",
            "country": "Brasil",
            "countryAbbr": "BR",
            "city": "Paraú",
            "responsible": "Elenilson Nunes da Silva",
            "address": "Rua José Leal n: 230, centro, Paraú, Rio Grande do Norte, Brasil",
            "website": null
        },
        {
            "id": 10327,
            "name": "Infight California Jiu-Jitsu",
            "federationAbbr": "USBJJF",
            "country": "United States of America",
            "countryAbbr": "US",
            "city": "Garden Grove",
            "responsible": "Victor Matheus de Lima Rodrigues",
            "address": "11512 Magnolia St #102, Garden Grove, Ca, United States of America",
            "website": null
        },
        {
            "id": 10122,
            "name": "Infight Canada",
            "federationAbbr": "IBJJF",
            "country": "Canada",
            "countryAbbr": "CA",
            "city": "Coquitlam",
            "responsible": "Rogerio Poggio de Castro",
            "address": "109-2922 Glen Drive, Coquitlam, Bc, Canada",
            "website": "www.infightbjj.com"
        },
        {
            "id": 2489,
            "name": "Infight Japan Jiu-Jitsu",
            "federationAbbr": "JBJJF",
            "country": "Japan",
            "countryAbbr": "JP",
            "city": "Gunma",
            "responsible": "Renato Silva",
            "address": "Oizumi Muchi Furugori 197  , Gunma, --, Japan",
            "website": null
        },
        {
            "id": 546,
            "name": "Infight Jiu-Jitsu",
            "federationAbbr": "CBJJ",
            "country": "Brasil",
            "countryAbbr": "BR",
            "city": "Rio de Janeiro",
            "responsible": "Rogerio Poggio de Castro",
            "address": "Rua Maestro José Siqueira, 81 Clube, Barra da Tijuca, Rio de Janeiro, RJ, Brasil",
            "website": "www.infight.com.br"
        },
        {
            "id": 547,
            "name": "Infight SP",
            "federationAbbr": "CBJJ",
            "country": "Brasil",
            "countryAbbr": "BR",
            "city": null,
            "responsible": null,
            "address": "Brasil",
            "website": null
        },
        {
            "id": 6713,
            "name": "Infight USA",
            "federationAbbr": "USBJJF",
            "country": "United States of America",
            "countryAbbr": "US",
            "city": "Colorado Springs",
            "responsible": "Rogerio Poggio de Castro",
            "address": "1710 Briargate Blvd. Suite 100, Colorado Springs, CO, United States of America",
            "website": "www.dcfightersusa.com"
        },
        {
            "id": 4783,
            "name": "Infini Jiu-Jitsu",
            "federationAbbr": "IBJJF",
            "country": "France",
            "countryAbbr": "FR",
            "city": "Strasbourg",
            "responsible": "David Giorsetti",
            "address": "19 A, rue de Lucene  , , Strasbourg, France",
            "website": "www.infini-jiujitsu.com"
        },
        {
            "id": 7370,
            "name": "Infinite Fighting Concepts Jiu-Jitsu",
            "federationAbbr": "USBJJF",
            "country": "United States of America",
            "countryAbbr": "US",
            "city": "Gaithersburg",
            "responsible": "Jeffrey S. Gordon",
            "address": "311 Muddy Branch Rd., Gaithersburg, MD, United States of America",
            "website": "www.ifcmma.com"
        },
        {
            "id": 3004,
            "name": "Infinite Jiu Jitsu",
            "federationAbbr": "USBJJF",
            "country": "United States of America",
            "countryAbbr": "US",
            "city": "Rocklin",
            "responsible": "Gustavo Guadalupe Enriquez",
            "address": "6508 Lonetree Blvd, #106  , , Rocklin, CA, United States of America",
            "website": "www.infinitejiujitsu.net"
        },
        {
            "id": 9821,
            "name": "Infinitum Jiu-Jitsu Academy",
            "federationAbbr": "USBJJF",
            "country": "United States of America",
            "countryAbbr": "US",
            "city": "Conroe",
            "responsible": "Darryl R. Lebus",
            "address": "2064 Fm 3083 W, Suite C, Conroe, Tx, United States of America",
            "website": "www.infinitumjiujitsuconroe.com"
        },
        {
            "id": 3845,
            "name": "Infinity Martial Arts",
            "federationAbbr": "IBJJF",
            "country": "Australia",
            "countryAbbr": "AU",
            "city": "Kawana",
            "responsible": "Paul Chapman",
            "address": "10-12 Capital Place, Kawana, QLD, Australia",
            "website": "http://infinitymartialarts.com.au/"
        },
        {
            "id": 4573,
            "name": "Inglorious Grapplers",
            "federationAbbr": "IBJJF",
            "country": "United Kingdom",
            "countryAbbr": "GB",
            "city": "London",
            "responsible": "Jude Samuel",
            "address": "(eight Members Club / 8 Core Gym) 1 Dysart St, London, United Kingdom",
            "website": "www.ingloriousgrapplers.com"
        },
        {
            "id": 9845,
            "name": "In-jts",
            "federationAbbr": "IBJJF",
            "country": "Morocco",
            "countryAbbr": "MA",
            "city": "Temera",
            "responsible": "Mouaad Bouzarouata",
            "address": "Residence Nassim Al Bahr M3, Temera, Rabat Sale Kenitra, Morocco",
            "website": "https://instagram.com/injiutsu?igshid=YmMyMTA2M2Y="
        },
        {
            "id": 7159,
            "name": "Inojosa Brazilian Jiu-Jitsu",
            "federationAbbr": "CBJJ",
            "country": "Brasil",
            "countryAbbr": "BR",
            "city": "Manaus",
            "responsible": "Eduardo Alves de Inojosa",
            "address": "Rua Henrique da Silva n: 722, Parque Dez, Manaus, AM, Brasil",
            "website": null
        },
        {
            "id": 9279,
            "name": "Inon Jiu-Jitsu",
            "federationAbbr": "IBJJF",
            "country": "Korea, South",
            "countryAbbr": "KR",
            "city": "Gyeonggi-do",
            "responsible": "HyeongWoo Lee",
            "address": "Namyangju-si Hopyung-dong 632-10 2f, Gyeonggi-do, Korea, South",
            "website": null
        },
        {
            "id": 6431,
            "name": "Insight Brazilian Jiu-Jitsu",
            "federationAbbr": "USBJJF",
            "country": "United States of America",
            "countryAbbr": "US",
            "city": "Bastrop",
            "responsible": "Alex Ray Henley",
            "address": "696 Hwy 71 W, Ste 3a, Bastrop, Texas, United States of America",
            "website": "www.insightbjj.com"
        },
        {
            "id": 10546,
            "name": "Insomnia Jiu-Jitsu",
            "federationAbbr": "USBJJF",
            "country": "United States of America",
            "countryAbbr": "US",
            "city": "Daytona Beach",
            "responsible": "Jessie Jane Grace",
            "address": "101 Fairview Ave., Daytona Beach, Fl, United States of America",
            "website": null
        },
        {
            "id": 8737,
            "name": "Inspire Jiu Jitsu",
            "federationAbbr": "CBJJ",
            "country": "Brasil",
            "countryAbbr": "BR",
            "city": "Rio De Janeiro",
            "responsible": "Luiz Fernando Soares",
            "address": "Rua Uruguai, 476, Tijuca, Rio De Janeiro, Rj, Brasil",
            "website": null
        },
        {
            "id": 7615,
            "name": "Inst. Cultural de Artes Marciais Kidokkyo",
            "federationAbbr": "CBJJ",
            "country": "Brasil",
            "countryAbbr": "BR",
            "city": "Cruzeiro",
            "responsible": "Carlos Eduardo de Miranda Guedes",
            "address": "Rua Capitão Neco, 59, apto 22, Cruzeiro, São Paulo, Brasil",
            "website": "https://institutokidokkyo.com.br/"
        }
    ]
}