{
    "pagination": {
        "page": 279,
        "from": 5560,
        "to": 5580,
        "pageSize": 20,
        "lastPage": 358,
        "totalRecords": 7149
    },
    "list": [
        {
            "id": 10559,
            "name": "Rilion Gracie Barra Do Garças - Mt",
            "federationAbbr": "CBJJ",
            "country": "Brasil",
            "countryAbbr": "BR",
            "city": "Barra Do  Garças",
            "responsible": "Ronan Tsutsui de Oliveira",
            "address": "Rua Simião Arraya, 898 - Centro, Barra Do  Garças, Mato Grosso, Brasil",
            "website": null
        },
        {
            "id": 8924,
            "name": "Rilion Gracie BC",
            "federationAbbr": "CBJJ",
            "country": "Brasil",
            "countryAbbr": "BR",
            "city": "Balneário Camboriú",
            "responsible": "Valdir Neves Sobrinho",
            "address": "Rua 3618, 116, Balneário Camboriú, Sc, Brasil",
            "website": null
        },
        {
            "id": 7895,
            "name": "Rilion Gracie Botafogo",
            "federationAbbr": "CBJJ",
            "country": "Brasil",
            "countryAbbr": "BR",
            "city": "Rio De Janeiro",
            "responsible": "Ricardo Alves Carmo Ribeiro",
            "address": "Rua Voluntários Da Pátria, 259, 2o Andar, Rio De Janeiro, Rj, Brasil",
            "website": "https://www.gracieelitebotafogo.com/"
        },
        {
            "id": 8018,
            "name": "Rilion Gracie Brasília",
            "federationAbbr": "CBJJ",
            "country": "Brasil",
            "countryAbbr": "BR",
            "city": "Brasília",
            "responsible": "José Marcelo Oliveira Da Cunha",
            "address": "Acampamento Rabelo Rua 1, Lote 24 Apartamento 204, Brasília, Distrito Federal, Brasil",
            "website": "www.riliongraciebrasilia.com.br"
        },
        {
            "id": 6968,
            "name": "Rilion Gracie Brusque SC",
            "federationAbbr": "CBJJ",
            "country": "Brasil",
            "countryAbbr": "BR",
            "city": "Brusque",
            "responsible": "Rilion Gracie",
            "address": "Av. Bepe Roza n: 3.300, Centro, Brusque, SC, Brasil",
            "website": null
        },
        {
            "id": 4075,
            "name": "Rilion Gracie Campos Gerais",
            "federationAbbr": "CBJJ",
            "country": "Brasil",
            "countryAbbr": "BR",
            "city": "Campos Gerais",
            "responsible": "Dangelo dos Santos Carvalho",
            "address": "Rua Odon Otho Motta 300 Academia D Fit Academia, Centro, Campos Gerais, MG, Brasil",
            "website": null
        },
        {
            "id": 8044,
            "name": "Rilion Gracie Córrego Grande",
            "federationAbbr": "CBJJ",
            "country": "Brasil",
            "countryAbbr": "BR",
            "city": "Florianópolis",
            "responsible": "Daniel Pais e Lima da Silva",
            "address": "Rua João Pio Duarte Silva, 841 Sub Solo, Florianópolis, Santa Catarina, Brasil",
            "website": "www.riliongraciefloripa.com.br"
        },
        {
            "id": 6732,
            "name": "Rilion Gracie Criciúma",
            "federationAbbr": "CBJJ",
            "country": "Brasil",
            "countryAbbr": "BR",
            "city": "Criciúma",
            "responsible": "Eduardo Milioli",
            "address": "Rua Coronel Marcos Rovaris n: 199, Bairro: Centro, Criciúma, Santa Catarina, Brasil",
            "website": null
        },
        {
            "id": 4486,
            "name": "Rilion Gracie Espana",
            "federationAbbr": "IBJJF",
            "country": "Spain",
            "countryAbbr": "ES",
            "city": "Malaga",
            "responsible": "Javier Atencia Escalante",
            "address": "C/ Fidias 56, Parque Empresarial Santa Barbara  , , Malaga, --, Spain",
            "website": "www.artesuave.es"
        },
        {
            "id": 6195,
            "name": "Rilion Gracie Estreito",
            "federationAbbr": "CBJJ",
            "country": "Brasil",
            "countryAbbr": "BR",
            "city": "Estreiro",
            "responsible": "Fernando Pereira Colombo",
            "address": "Rua José Candido da Silva n: 158, Balneario, Estreiro, Santa Catarina, Brasil",
            "website": null
        },
        {
            "id": 247,
            "name": "Rilion Gracie Florianópolis - SC",
            "federationAbbr": "CBJJ",
            "country": "Brasil",
            "countryAbbr": "BR",
            "city": "Florianópolis",
            "responsible": "Claudio Almeida Couto Arrais",
            "address": "Rua Esteves Júnior 711 Acd.TWIT nas dependências do Colégio Catarinense, Centro, Florianópolis, SC, Brasil",
            "website": "riliongracie.com"
        },
        {
            "id": 3987,
            "name": "Rilion Gracie Goiânia/Gracie Elite",
            "federationAbbr": "CBJJ",
            "country": "Brasil",
            "countryAbbr": "BR",
            "city": "Goiânia",
            "responsible": "Paulo Henrique Cysneiros do Rego Lima",
            "address": "Av. Cesar Lattos  , Conj. Cachoeira Dourada, Goiânia, GO, Brasil",
            "website": ""
        },
        {
            "id": 4014,
            "name": "Rilion Gracie Green Bay",
            "federationAbbr": "USBJJF",
            "country": "United States of America",
            "countryAbbr": "US",
            "city": "Green Bay",
            "responsible": "Rilion Gracie",
            "address": "425 S. Military Ave  , , Green Bay, WI, United States of America",
            "website": "riliongraciegreenbay.com"
        },
        {
            "id": 2129,
            "name": "Rilion Gracie HQ",
            "federationAbbr": "USBJJF",
            "country": "United States of America",
            "countryAbbr": "US",
            "city": "Miami",
            "responsible": "Rilion Gracie",
            "address": "2100, Coral Way Suite 126, Miami, FL, United States of America",
            "website": "riliongracie.com"
        },
        {
            "id": 7286,
            "name": "Rilion Gracie Inhumas",
            "federationAbbr": "CBJJ",
            "country": "Brasil",
            "countryAbbr": "BR",
            "city": "Inhumas",
            "responsible": "Leonardo Arlei Barboza Filho",
            "address": "Rua Miguel Pereira S/N Qd. 1 Lote 20, Setor Santa Kassia, Inhumas, Goiás, Brasil",
            "website": null
        },
        {
            "id": 4315,
            "name": "Rilion Gracie Ireland",
            "federationAbbr": "IBJJF",
            "country": "Ireland",
            "countryAbbr": "IE",
            "city": "Letterkenny",
            "responsible": "Brian Coyle",
            "address": "Croaghan Ramelton, Letterkenny, Ireland",
            "website": "www.riliongracieireland.com"
        },
        {
            "id": 9539,
            "name": "Rilion Gracie Itajaí",
            "federationAbbr": "CBJJ",
            "country": "Brasil",
            "countryAbbr": "BR",
            "city": "Itajaí",
            "responsible": "Rodrigo Werner de Souza",
            "address": "Rua Tijucas 442, Centro, Itajaí, Sc, Brasil",
            "website": null
        },
        {
            "id": 6863,
            "name": "Rilion Gracie Italia",
            "federationAbbr": "IBJJF",
            "country": "Italy",
            "countryAbbr": "IT",
            "city": "Santa Giustina",
            "responsible": "Rafael Torres Henrique",
            "address": "Via Roma 21 B, Santa Giustina, -belluno, Italy",
            "website": "www.riliongracieasd.com"
        },
        {
            "id": 840,
            "name": "Rilion Gracie JJ",
            "federationAbbr": "CBJJ",
            "country": "Brasil",
            "countryAbbr": "BR",
            "city": "Criciúma",
            "responsible": "Eduardo Milioli",
            "address": "Rua Palamede Milioli  330 Solo Térreo, Centro, Criciúma, SC, Brasil",
            "website": ""
        },
        {
            "id": 4637,
            "name": "Rilion Gracie JJ Nova Iguaçu",
            "federationAbbr": "CBJJ",
            "country": "Brasil",
            "countryAbbr": "BR",
            "city": "Nova Iguaçu",
            "responsible": "Luciano Ramos Monsores",
            "address": "R Manoel Augusto 216 , Andrade de Araujo, Nova Iguaçu, RJ, Brasil",
            "website": ""
        }
    ]
}