{
    "pagination": {
        "page": 103,
        "from": 2040,
        "to": 2060,
        "pageSize": 20,
        "lastPage": 358,
        "totalRecords": 7149
    },
    "list": [
        {
            "id": 8477,
            "name": "DS Deo Jiu Jitsu",
            "federationAbbr": "CBJJ",
            "country": "Brasil",
            "countryAbbr": "BR",
            "city": "Brasília",
            "responsible": "Daniel de Oliveira Bastos Saraiva",
            "address": "Av Araucárias 4400, Loja 10, Via Enseada Loja 10, Brasília, Df, Brasil",
            "website": null
        },
        {
            "id": 2357,
            "name": "DS Team Jiu-Jitsu",
            "federationAbbr": "IBJJF",
            "country": "New Zealand",
            "countryAbbr": "NZ",
            "city": "Auckland",
            "responsible": "Douglas Reginaldo dos Santos",
            "address": "111 Newton Road  , , Auckland, --, New Zealand",
            "website": "www.douglasjiujitsu.co.nz"
        },
        {
            "id": 5521,
            "name": "DSN JJ",
            "federationAbbr": "CBJJ",
            "country": "Brasil",
            "countryAbbr": "BR",
            "city": "Ubatuba",
            "responsible": "Domingos Soares  Neto",
            "address": "Baptista Oliveira 803, Silop - Academia, Ubatuba, SP, Brasil",
            "website": null
        },
        {
            "id": 9429,
            "name": "DST Academy",
            "federationAbbr": "IBJJF",
            "country": "Canada",
            "countryAbbr": "CA",
            "city": "Winnipeg",
            "responsible": "Daniel Thomas Cobb",
            "address": "181 Stradbrook Ave, Winnipeg, Manitoba, Canada",
            "website": "www.dstacademy.ca"
        },
        {
            "id": 7717,
            "name": "DTR Outsiders",
            "federationAbbr": "USBJJF",
            "country": "United States of America",
            "countryAbbr": "US",
            "city": "Pleasant Hill",
            "responsible": "Devin Allen Chasten",
            "address": "17800 South Big Creek Boulevard, Pleasant Hill, MO, United States of America",
            "website": null
        },
        {
            "id": 6695,
            "name": "Duda Castro Team",
            "federationAbbr": "CBJJ",
            "country": "Brasil",
            "countryAbbr": "BR",
            "city": "Salvador",
            "responsible": "Eduardo Santana de Castro",
            "address": "Avenida Juracy Magalhães Junior n: 462 apt 410, Bairro: Rio Vermelho, Salvador, Bahia, Brasil",
            "website": null
        },
        {
            "id": 7946,
            "name": "Duelt Team BJJ",
            "federationAbbr": "IBJJF",
            "country": "Spain",
            "countryAbbr": "ES",
            "city": "Aceuchal",
            "responsible": "Juan Antonio  Duelt Lavado",
            "address": "Plaza Extremadura 8, Aceuchal, Badajoz, Spain",
            "website": "BADAJOZ"
        },
        {
            "id": 5016,
            "name": "Dunham Jiu-Jitsu",
            "federationAbbr": "USBJJF",
            "country": "United States of America",
            "countryAbbr": "US",
            "city": "Las Vegas",
            "responsible": null,
            "address": "9674 Summer Cypress St.  , , Las Vegas, NV, United States of America",
            "website": "dunhamjiujitsu.com"
        },
        {
            "id": 10729,
            "name": "Dunn Brazilian Jiu-Jitsu",
            "federationAbbr": "USBJJF",
            "country": "United States of America",
            "countryAbbr": "US",
            "city": "Gulfport",
            "responsible": "Heather Dunn",
            "address": "1331 East Pass Road, Gulfport, Mississippi, United States of America",
            "website": null
        },
        {
            "id": 2481,
            "name": "Dustin Denes / Chop Master",
            "federationAbbr": "USBJJF",
            "country": "United States of America",
            "countryAbbr": "US",
            "city": "Plantation",
            "responsible": "Dustin Matthew Denes",
            "address": "967 N. Nob Hill Road  , , Plantation, FL, United States of America",
            "website": "www.dustindenes.com"
        },
        {
            "id": 6998,
            "name": "Dutra Jiu-Jitsu",
            "federationAbbr": "CBJJ",
            "country": "Brasil",
            "countryAbbr": "BR",
            "city": "Pato Branco ",
            "responsible": "Plábito Silva Dutra",
            "address": "Rua Duque de Caxias n: 780, Santo Antonio, Pato Branco , Paraná, Brasil",
            "website": null
        },
        {
            "id": 4485,
            "name": "DVBJJ Morocco",
            "federationAbbr": "IBJJF",
            "country": "Morocco",
            "countryAbbr": "MA",
            "city": "Casablanca",
            "responsible": "David Vieira da Silva",
            "address": "66 Avenue Moulay Hassan 1er Etage 4 Appt 7   , , Casablanca, Morocco",
            "website": ""
        },
        {
            "id": 8844,
            "name": "DW Jiu-Jitsu",
            "federationAbbr": "IBJJF",
            "country": "Indonesia",
            "countryAbbr": "ID",
            "city": "Jakarta Selatan",
            "responsible": "Deddy Wigraha",
            "address": "Jalan Wijaya 1 No 71, Kebayoran Baru, Jakarta Selatan, Dki Jakarta, Indonesia",
            "website": "www.deddywigraha.com"
        },
        {
            "id": 2482,
            "name": "Dynamix Fighting Sports",
            "federationAbbr": "IBJJF",
            "country": "Sweden",
            "countryAbbr": "SE",
            "city": "Stenungsund",
            "responsible": "Lars Martin Jansson",
            "address": "Hallerna Villavag 6  , Stenungsund, Vastra Gotaland, Sweden",
            "website": "www.dynamixfightingsports.com"
        },
        {
            "id": 7605,
            "name": "E. R. Jiu-Jitsu",
            "federationAbbr": "CBJJ",
            "country": "Brasil",
            "countryAbbr": "BR",
            "city": "Aparecida de Goiânia",
            "responsible": "Eder Rodrigues de Oliveira",
            "address": "Rua Savador - Qd 17, Lt 09, Jd. Belo Horizonte, Aparecida de Goiânia, GO, Brasil",
            "website": null
        },
        {
            "id": 9899,
            "name": "East Bay Academy Jiu-Jitsu",
            "federationAbbr": "USBJJF",
            "country": "United States of America",
            "countryAbbr": "US",
            "city": "Martinez",
            "responsible": "Glenn G. Calairo",
            "address": "817 Arnold Dr, Suite 6, Martinez, Ca, United States of America",
            "website": "www.ebajiujitsu.com"
        },
        {
            "id": 7707,
            "name": "East Coast - Ronin Jiu-Jitsu",
            "federationAbbr": "USBJJF",
            "country": "United States of America",
            "countryAbbr": "US",
            "city": "Mahopac",
            "responsible": "Richard Scott Screeton",
            "address": "654 Us 6, Mahopac, Ny, United States of America",
            "website": "Mahopacbjj.com"
        },
        {
            "id": 7139,
            "name": "East Coast Combat Club",
            "federationAbbr": "USBJJF",
            "country": "United States of America",
            "countryAbbr": "US",
            "city": "Stuart",
            "responsible": "Bruno C. Pinto Gomes",
            "address": "7974 SW Jack James Drive, Stuart, FL, United States of America",
            "website": "www.ECCombatClub.com"
        },
        {
            "id": 2734,
            "name": "East Coast United BJJ",
            "federationAbbr": "USBJJF",
            "country": "United States of America",
            "countryAbbr": "US",
            "city": "whitestone ",
            "responsible": "Robert D. Gutierrez",
            "address": "12-40 clintonville st.  , , whitestone , NY, United States of America",
            "website": "www.ecuqueensbjj.com"
        },
        {
            "id": 9844,
            "name": "East Jiu-Jitsu",
            "federationAbbr": "IBJJF",
            "country": "Saudi Arabia",
            "countryAbbr": "SA",
            "city": "Ad Dammam",
            "responsible": "Ahmed Mahrous",
            "address": "3307 Al-faisaliyah, Unit 1, Ad Dammam, Eastern Province, Saudi Arabia",
            "website": "Saudi Arabia"
        }
    ]
}