{
    "pagination": {
        "page": 1,
        "from": 0,
        "to": 20,
        "pageSize": 20,
        "lastPage": 358,
        "totalRecords": 7149
    },
    "list": [
        {
            "id": 5154,
            "name": " Rio Grande do Norte",
            "federationAbbr": "CBJJ",
            "country": "Brasil",
            "countryAbbr": "BR",
            "city": "Parnamirim ",
            "responsible": "Hugo Britto Fernandez",
            "address": "Av Abel Cabral S/N Bornat 1 Andar, Nova Parnamirim, Parnamirim , RN, Brasil",
            "website": ""
        },
        {
            "id": 9779,
            "name": "\"IRASA JIU-JITSU\" (Instituto Ratel Samurai)",
            "federationAbbr": "CBJJ",
            "country": "Brasil",
            "countryAbbr": "BR",
            "city": "Dom Pedro",
            "responsible": "Jardeson de Almeida Pereira",
            "address": "R. Senador Francisco Escorcio, Vila Ribamar I. N°20, Galpão, Dom Pedro, Ma, Brasil",
            "website": "https://instagram.com/irasajiujitsu?igshid=YmMyMTA2M2Y="
        },
        {
            "id": 2533,
            "name": "014RBJJ",
            "federationAbbr": "CBJJ",
            "country": "Brasil",
            "countryAbbr": "BR",
            "city": "Rio de Janeiro",
            "responsible": "Fabricio do Couto de Araujo",
            "address": "Rua Santa Gentillis  40, Paciência, Rio de Janeiro, RJ, Brasil",
            "website": ""
        },
        {
            "id": 9415,
            "name": "027 BJJ",
            "federationAbbr": "CBJJ",
            "country": "Brasil",
            "countryAbbr": "BR",
            "city": "Vila Velha",
            "responsible": "Thiago Ribeiro Coutinho",
            "address": "Rua Jaime Duarte Nascimento, Ed Sta Catarina 599 Ap 305, Vila Velha, Es, Brasil",
            "website": null
        },
        {
            "id": 8280,
            "name": "095bjj Nagasaki Jiu-Jitsu",
            "federationAbbr": "JBJJF",
            "country": "Japan",
            "countryAbbr": "JP",
            "city": "Nagasaki-shi",
            "responsible": "Yasuo Matsumoto",
            "address": "12-1-308, Dejima-machi, Nagasaki-shi, Nagasaki, Japan",
            "website": "https://095bjj.com"
        },
        {
            "id": 5991,
            "name": "096 School Of Jiu-Jitsu",
            "federationAbbr": "CBJJ",
            "country": "Brasil",
            "countryAbbr": "BR",
            "city": "Macapá",
            "responsible": "Johnatha Guido dos Santos Silveira",
            "address": "Rua Jovino Dinoa, 1571., Centro, Macapá, AP, Brasil",
            "website": null
        },
        {
            "id": 3639,
            "name": "1/2 Guard Brazilian Jiu-Jitsu",
            "federationAbbr": "CBJJ",
            "country": "Brasil",
            "countryAbbr": "BR",
            "city": "Lauro de Freitas",
            "responsible": "Bruno Emanoel M. de Oliveira",
            "address": "Rua Praia De Tambaú , Condomínio Jardim Do Atlântico Bloco B , Apartamento 003, Vilas Do Atlântico , Lauro de Freitas, BA, Brasil",
            "website": ""
        },
        {
            "id": 5301,
            "name": "10/50",
            "federationAbbr": "USBJJF",
            "country": "United States of America",
            "countryAbbr": "US",
            "city": "Youngsville",
            "responsible": "John Robert Jordan Jr.",
            "address": "501 Church St, Youngsville, LA, United States of America",
            "website": null
        },
        {
            "id": 8834,
            "name": "101 Jiu-Jitsu Art",
            "federationAbbr": "USBJJF",
            "country": "United States of America",
            "countryAbbr": "US",
            "city": "Framingham",
            "responsible": "Rodrigo Martins de Macedo",
            "address": "7 Everit Circle, Framingham, Ma, United States of America",
            "website": "Jiujitsuartacademy/Facebook.com"
        },
        {
            "id": 7228,
            "name": "10th Planet Denver",
            "federationAbbr": "USBJJF",
            "country": "United States of America",
            "countryAbbr": "US",
            "city": "Wheat Ridge",
            "responsible": "Conor K. Heun",
            "address": "6161 W 44th Ave Ste 150, Wheat Ridge, Colorado, United States of America",
            "website": "10thplanetdenver.com"
        },
        {
            "id": 8530,
            "name": "10th Planet Freaks",
            "federationAbbr": "USBJJF",
            "country": "United States of America",
            "countryAbbr": "US",
            "city": "La Mesa",
            "responsible": "Richard Martinez",
            "address": "4291 Harbinson Ave, La Mesa, CA, United States of America",
            "website": "https://10thplanetsandiego.com/"
        },
        {
            "id": 2385,
            "name": "10th Planet Jiu-Jitsu",
            "federationAbbr": "USBJJF",
            "country": "United States of America",
            "countryAbbr": "US",
            "city": "San Francisco",
            "responsible": "Michael Sebastian Hillebrand",
            "address": "261 S Van Ness Ave., San Francisco, CA, United States of America",
            "website": "10thplanetjj.com"
        },
        {
            "id": 8111,
            "name": "10th Planet Lombard",
            "federationAbbr": "USBJJF",
            "country": "United States of America",
            "countryAbbr": "US",
            "city": "Lombard ",
            "responsible": "Wilfredo Omar Ocasio",
            "address": "211b Eisenhower Lane S, Lombard , Il , United States of America",
            "website": "www.10thplanetjjlombard.com"
        },
        {
            "id": 9794,
            "name": "10th Planet Maribor",
            "federationAbbr": "IBJJF",
            "country": "Slovenia",
            "countryAbbr": "SI",
            "city": "Maribor",
            "responsible": "Gregor Strakl",
            "address": "`entiljska Ulica 11, Maribor, Slovenia",
            "website": "www.10thplanetmaribor.com"
        },
        {
            "id": 9534,
            "name": "10th Planet New York City",
            "federationAbbr": "USBJJF",
            "country": "United States of America",
            "countryAbbr": "US",
            "city": "New York",
            "responsible": "Reynaldo De Leon ",
            "address": "35 W. 43rd St 4th Floor, New York, New York, United States of America",
            "website": "www.10thplanetjjnyc.com"
        },
        {
            "id": 9495,
            "name": "10th Planet Newark Ohio",
            "federationAbbr": "USBJJF",
            "country": "United States of America",
            "countryAbbr": "US",
            "city": "Heath",
            "responsible": "Jonathan P. Borrows",
            "address": "409 South 22nd St., Suite 6, Heath, Ohio, United States of America",
            "website": "10thplanetnewark.com"
        },
        {
            "id": 8691,
            "name": "10th Planet San Mateo",
            "federationAbbr": "USBJJF",
            "country": "United States of America",
            "countryAbbr": "US",
            "city": "San Mateo",
            "responsible": "Adam Bruce Sachnoff",
            "address": "910 South Amphlett Blvd, San Mateo, California, United States of America",
            "website": "www.10thplanetsm.com"
        },
        {
            "id": 8433,
            "name": "123jiujitsu",
            "federationAbbr": "IBJJF",
            "country": "Venezuela",
            "countryAbbr": "VE",
            "city": "Maturin",
            "responsible": "Angel Daniel Forero",
            "address": "Av Rivas Con Cumana La Manga, Av Rivas Con Cumana La Manga, Maturin, Maturin Monagas Venezuela, Venezuela",
            "website": "Venezuela"
        },
        {
            "id": 4584,
            "name": "127 BJJ",
            "federationAbbr": "USBJJF",
            "country": "United States of America",
            "countryAbbr": "US",
            "city": "Philadelphia",
            "responsible": "Eamon Patrick Knittel",
            "address": "123 Leverington Ave, Suite P2, Philadelphia, PA, United States of America",
            "website": "www.127bjj.com"
        },
        {
            "id": 7644,
            "name": "1802 Jiu-Jitsu",
            "federationAbbr": "USBJJF",
            "country": "United States of America",
            "countryAbbr": "US",
            "city": "San Diego",
            "responsible": "Henry Iribe",
            "address": "16935 W Bernardo Dr #190, San Diego, CA, United States of America",
            "website": "1802jiujitsu.com"
        }
    ]
}