{
    "pagination": {
        "page": 95,
        "from": 1880,
        "to": 1900,
        "pageSize": 20,
        "lastPage": 358,
        "totalRecords": 7149
    },
    "list": [
        {
            "id": 6533,
            "name": "Davi Augusto BJJ",
            "federationAbbr": "CBJJ",
            "country": "Brasil",
            "countryAbbr": "BR",
            "city": "Foz do Iguaçu",
            "responsible": "Davi Augusto dos Santos",
            "address": "Rua Canindé n: 373, Comercio Bairro: Morumbi, Foz do Iguaçu, PR, Brasil",
            "website": null
        },
        {
            "id": 8533,
            "name": "Davi Ramos JJ Academy",
            "federationAbbr": "CBJJ",
            "country": "Brasil",
            "countryAbbr": "BR",
            "city": "Rio De Janeiro ",
            "responsible": "Davi Ramos Pinheiro da Silva",
            "address": "Estrada Do Pontal 6833, Rio De Janeiro , Rj, Brasil",
            "website": null
        },
        {
            "id": 4463,
            "name": "David D. Said Brazilian Jiu-Jitsu Academy",
            "federationAbbr": "IBJJF",
            "country": "Greece",
            "countryAbbr": "GR",
            "city": "Athens",
            "responsible": "David Dimopoulos Said",
            "address": "Lefkippou 21-23  , , Athens, AT, Greece",
            "website": "www.bjjhellas.com"
        },
        {
            "id": 7823,
            "name": "David Ferreira BJJ",
            "federationAbbr": "CBJJ",
            "country": "Brasil",
            "countryAbbr": "BR",
            "city": "Lencois Paulista",
            "responsible": "David Ferreira",
            "address": "Avenida Padre Salústio Rodrigues Machado Número 1063 Bairro Ubirama, 1063, Lencois Paulista, Sp, Brasil",
            "website": null
        },
        {
            "id": 7996,
            "name": "David Oka Jiu-Jitsu Team",
            "federationAbbr": "CBJJ",
            "country": "Brasil",
            "countryAbbr": "BR",
            "city": "Floriano",
            "responsible": "David Cury-Rad Oka",
            "address": "Praça Dr Sebastião Martins. Número 415, Centro, Floriano, Piauí, Brasil",
            "website": null
        },
        {
            "id": 5780,
            "name": "David Valentim BJJ",
            "federationAbbr": "CBJJ",
            "country": "Brasil",
            "countryAbbr": "BR",
            "city": "Mamamguape",
            "responsible": "David Valentim da Silva",
            "address": "Rua Coronel Luiz Inacio S/N, Vila Marinha, Mamamguape, Paraiba, Brasil",
            "website": null
        },
        {
            "id": 3655,
            "name": "David Vieira BJJ",
            "federationAbbr": "USBJJF",
            "country": "United States of America",
            "countryAbbr": "US",
            "city": "Clearwater",
            "responsible": null,
            "address": "2475 McMullen Both Road Suite A , , Clearwater, FL, United States of America",
            "website": "www.dvbjj.com"
        },
        {
            "id": 4491,
            "name": "Davis Martial Arts",
            "federationAbbr": "USBJJF",
            "country": "United States of America",
            "countryAbbr": "US",
            "city": "Humble ",
            "responsible": "Roy Lee Davis",
            "address": "19333 Hwy 59 Suite 120, , Humble , TX, United States of America",
            "website": ""
        },
        {
            "id": 4495,
            "name": "DB Tubarão Jiu-Jitsu",
            "federationAbbr": "CBJJ",
            "country": "Brasil",
            "countryAbbr": "BR",
            "city": "Esteio",
            "responsible": "Denilson Bittencourt Almeida",
            "address": "Rua Cel. Theodomiro Porto Fonseca 355 casa, Centro, Esteio, RS, Brasil",
            "website": ""
        },
        {
            "id": 7845,
            "name": "DBK International",
            "federationAbbr": "IBJJF",
            "country": "Germany",
            "countryAbbr": "DE",
            "city": "Lehre",
            "responsible": "Ricardo Costa de Souza",
            "address": "Im Unterdorf 3, Lehre, Niedersachsen, Germany",
            "website": null
        },
        {
            "id": 5792,
            "name": "DC Australia",
            "federationAbbr": "IBJJF",
            "country": "Australia",
            "countryAbbr": "AU",
            "city": "Geelong",
            "responsible": "Gustavo Falciroli",
            "address": "150 Fyans St, Geelong, VIC, Australia",
            "website": "www.dcjiujitsu.com.au"
        },
        {
            "id": 3838,
            "name": "DC Millenium Team",
            "federationAbbr": "UIJJ",
            "country": "Italy",
            "countryAbbr": "IT",
            "city": "Naples",
            "responsible": "Davide Cirelli",
            "address": "Via Pietro Castellino  141/s , , Naples, ., Italy",
            "website": "www.bjjcirelliteam.it"
        },
        {
            "id": 8820,
            "name": "D'Carla Team",
            "federationAbbr": "CBJJ",
            "country": "Brasil",
            "countryAbbr": "BR",
            "city": "Manaus",
            "responsible": "Deborah Carla Pereira da Silva",
            "address": "Avenida Desembargador João Machado, Manaus, Amazonas, Brasil",
            "website": null
        },
        {
            "id": 10062,
            "name": "Dchasers Brazilian Jiu-Jitsu",
            "federationAbbr": "IBJJF",
            "country": "Angola",
            "countryAbbr": "AO",
            "city": "Belas",
            "responsible": "Adolfo Daniel de F. Correia",
            "address": "Rua Conselheiro Vilhena, Edificio Victoria 8ºb, Largo Serpa Pinto, Belas, Luanda, Angola",
            "website": null
        },
        {
            "id": 8792,
            "name": "DD Team BJJ",
            "federationAbbr": "CBJJ",
            "country": "Brasil",
            "countryAbbr": "BR",
            "city": "Viana",
            "responsible": "Davidson Rodrigues Correa",
            "address": "Rua: Avenida Espirito Santo, Quadra 08, Viana, Espirito Santo, Brasil",
            "website": "https://www.instagram.com/ddteambjj/"
        },
        {
            "id": 2616,
            "name": "DDR Jiu Jitsu",
            "federationAbbr": "USBJJF",
            "country": "United States of America",
            "countryAbbr": "US",
            "city": "Chico",
            "responsible": "Juarez Soares da Costa",
            "address": "400 Mission Ranch Blvd  144 , , Chico, CA, United States of America",
            "website": ""
        },
        {
            "id": 6196,
            "name": "DDR Jiu-Jitsu Internacional",
            "federationAbbr": "IBJJF",
            "country": "Mexico",
            "countryAbbr": "MX",
            "city": "Mexico",
            "responsible": "Juarez Soares da Costa",
            "address": "San Francisco 1626 Local 1, Mexico, CDMX, Mexico",
            "website": "www.ddrbjjtexas.com"
        },
        {
            "id": 46,
            "name": "DDR JJ",
            "federationAbbr": "CBJJ",
            "country": "Brasil",
            "countryAbbr": "BR",
            "city": "Araruama",
            "responsible": "Juarez Soares da Costa",
            "address": "Rua Rudy Alberto  590 Casa, Vila Capri, Araruama, RJ, Brasil",
            "website": "www.ddrjj.com"
        },
        {
            "id": 2257,
            "name": "de Been 100% Jiu-Jitsu",
            "federationAbbr": "IBJJF",
            "country": "Australia",
            "countryAbbr": "AU",
            "city": "St. Kilda",
            "responsible": "Peter de Been",
            "address": "Top Floor 179 Barkly Stree  , , St. Kilda, VIC, Australia",
            "website": "www.debeenjiujitsu.com"
        },
        {
            "id": 5961,
            "name": "De La Riva - Ericeira",
            "federationAbbr": "FPJJB",
            "country": "Portugal",
            "countryAbbr": "PT",
            "city": "Eviceiva",
            "responsible": "Ricardo De La Riva Goded",
            "address": "Estad w\" Henrique Tomas Frade \"Urbanizacao da Canacha, Eviceiva, --, Portugal",
            "website": null
        }
    ]
}