{
    "pagination": {
        "page": 254,
        "from": 5060,
        "to": 5080,
        "pageSize": 20,
        "lastPage": 358,
        "totalRecords": 7149
    },
    "list": [
        {
            "id": 9729,
            "name": "Orlando Machado Brazilian Jiu-Jitsu",
            "federationAbbr": "USBJJF",
            "country": "United States of America",
            "countryAbbr": "US",
            "city": "Los Angeles",
            "responsible": "Orlando Machado da Silva Junior",
            "address": "1420 S Sycamore Ave, Los Angeles, CA, United States of America",
            "website": "Orlandomachadobjj.com"
        },
        {
            "id": 992,
            "name": "Orlando Saraiva / Carlson Gracie",
            "federationAbbr": "CBJJ",
            "country": "Brasil",
            "countryAbbr": "BR",
            "city": "Conchal",
            "responsible": "José Henrique Saraiva Nascimento",
            "address": "Rua Severido Fadel n: 68, Jd. Santa Luzia, Conchal, SP, Brasil",
            "website": null
        },
        {
            "id": 4893,
            "name": "Ornellas Team",
            "federationAbbr": "CBJJ",
            "country": "Brasil",
            "countryAbbr": "BR",
            "city": "São Paulo",
            "responsible": "Adriano Ribeiro Ornellas",
            "address": "Rua Luis Molina 149 - 93 149 Ap - 93, Jardim Vila Mariana , São Paulo, SP, Brasil",
            "website": "orbellasbtt@hotmail.com"
        },
        {
            "id": 4670,
            "name": "Ortiz Martial Arts Academy",
            "federationAbbr": "IBJJF",
            "country": "Australia",
            "countryAbbr": "AU",
            "city": "Sydney",
            "responsible": "Edson Perorck Ortiz",
            "address": "50/5 Ponderosa Pde, Warriewood, Sydney, NSW, Australia",
            "website": "www.ortizmartialarts.com.au"
        },
        {
            "id": 6857,
            "name": "Osagame Brazilian Jiu-Jitsu",
            "federationAbbr": "USBJJF",
            "country": "United States of America",
            "countryAbbr": "US",
            "city": "Philadelphia",
            "responsible": "Raymond Huxen",
            "address": "1168 S. Broad St. , Philadelphia, PA, United States of America",
            "website": "www.Osagame.com"
        },
        {
            "id": 3680,
            "name": "Osburn Brazilian Jiu-Jitsu",
            "federationAbbr": "USBJJF",
            "country": "United States of America",
            "countryAbbr": "US",
            "city": "Cottonwood",
            "responsible": "Teddy Lynn Osburn Jr.",
            "address": "423 S. 6th Street Suite A  , , Cottonwood, AZ, United States of America",
            "website": "www.sedonabjj.com"
        },
        {
            "id": 9433,
            "name": "Oshawa BJJ",
            "federationAbbr": "IBJJF",
            "country": "Canada",
            "countryAbbr": "CA",
            "city": "Oshawa",
            "responsible": "Igor Mocaiber Peralva de Mello",
            "address": "1160 Simcoe Street South, Oshawa, Ontario, Canada",
            "website": "www.oshawabjj.com"
        },
        {
            "id": 7195,
            "name": "OSJ (Open Society Jiu-Jitsu) HQ",
            "federationAbbr": "IBJJF",
            "country": "Korea, South",
            "countryAbbr": "KR",
            "city": "Seo-gu",
            "responsible": "Seung-Jae Lee",
            "address": "#201, 26, Cheongna emerald-ro 102 beon-gil, Seo-gu, Incheon, Korea, South",
            "website": null
        },
        {
            "id": 7234,
            "name": "OSJ Ilsan",
            "federationAbbr": "IBJJF",
            "country": "Korea, South",
            "countryAbbr": "KR",
            "city": "Goyang-si",
            "responsible": "Seung-Jae Lee",
            "address": "#704, 56, Jangbaek-ro, Ilsandong-gu, Goyang-si, Gyeonggi-do, Korea, South",
            "website": "-"
        },
        {
            "id": 6122,
            "name": "Oss Jiu-Jitsu Brasileiro IBF-MGT BJJ",
            "federationAbbr": "CBJJ",
            "country": "Brasil",
            "countryAbbr": "BR",
            "city": "Campinas",
            "responsible": "Emilio Carlos da Silva Junior",
            "address": "Rua Tenente Alberto Mendes Junior n: 05, Jardim Independencia , Campinas, São Paulo, Brasil",
            "website": null
        },
        {
            "id": 782,
            "name": "Osvaldo Alves",
            "federationAbbr": "CBJJ",
            "country": "Brasil",
            "countryAbbr": "BR",
            "city": "Rio de Janeiro",
            "responsible": "Osvaldo Alves de Albuquerque",
            "address": "Rua Ministro Viveiro de Castro 51 Sala 204, Copacabana, Rio de Janeiro, RJ, Brasil",
            "website": "www.osvaldoalvesbjj.com.br"
        },
        {
            "id": 2013,
            "name": "Osvaldo Alves - AM",
            "federationAbbr": "CBJJ",
            "country": null,
            "countryAbbr": null,
            "city": null,
            "responsible": null,
            "address": "",
            "website": null
        },
        {
            "id": 7817,
            "name": "Osvaldo Alves Brazilian Jiu-Jitsu USA",
            "federationAbbr": "USBJJF",
            "country": "United States of America",
            "countryAbbr": "US",
            "city": "Westlake  Village",
            "responsible": "Francisco Gomes de Sousa",
            "address": "31840 Village Center Road, Westlake  Village, California, United States of America",
            "website": "osvaldoalvesbjjsocal.com"
        },
        {
            "id": 2635,
            "name": "Osvaldo Alves Pará",
            "federationAbbr": "CBJJ",
            "country": "Brasil",
            "countryAbbr": "BR",
            "city": "Parauapebas",
            "responsible": null,
            "address": "Rua do Comércio 88 3 andar, Rio Verde, Parauapebas, PA, Brasil",
            "website": ""
        },
        {
            "id": 648,
            "name": "Osvaldo Alves SP",
            "federationAbbr": "CBJJ",
            "country": "Brasil",
            "countryAbbr": "BR",
            "city": "São José dos Campos",
            "responsible": "Sérgio Luis Almeida Lisboa",
            "address": "Rua Valdemar Raimundo da Silva 105 , Jd Colinas, São José dos Campos, SP, Brasil",
            "website": ""
        },
        {
            "id": 8483,
            "name": "Oswaldo Jurema BJJ",
            "federationAbbr": "CBJJ",
            "country": "Brasil",
            "countryAbbr": "BR",
            "city": "Rio De Janeiro",
            "responsible": "Oswaldo Dias Jurema",
            "address": "Rua Cel Paulo Malta Rezende 180 Bl 1 Ap 904, Barra Da Tijuca, Rio De Janeiro, Rj, Brasil",
            "website": null
        },
        {
            "id": 9368,
            "name": "Otaru MMA Academy Desafio",
            "federationAbbr": "JBJJF",
            "country": "Japan",
            "countryAbbr": "JP",
            "city": "Otaru",
            "responsible": "Mituru Kobayashi",
            "address": "Sumine1-4-19, Otaru, Hokkaido, Japan",
            "website": "https://mmabjj.jp/"
        },
        {
            "id": 784,
            "name": "Otávio de Almeida",
            "federationAbbr": "CBJJ",
            "country": "Brasil",
            "countryAbbr": "BR",
            "city": "São Paulo",
            "responsible": "Otávio de Almeida Júnior",
            "address": "Rua José Lira Filho 130, São Paulo, SP, Brasil",
            "website": "www.aoabjj.com.br"
        },
        {
            "id": 8101,
            "name": "Oter Sucuri Jiu-Jitsu",
            "federationAbbr": "IBJJF",
            "country": "Colombia",
            "countryAbbr": "CO",
            "city": "Medellin",
            "responsible": "Oterjader Castaño Ortiz",
            "address": "Calle 2 Sur 43c 38, Medellin, Ant, Colombia",
            "website": null
        },
        {
            "id": 8188,
            "name": "Outer Heaven",
            "federationAbbr": "USBJJF",
            "country": "United States of America",
            "countryAbbr": "US",
            "city": "Fort Lauderdale",
            "responsible": "Brian Mahecha",
            "address": "4960 Sw 30th Ter, Fort Lauderdale, Florida, United States of America",
            "website": "https://www.instagram.com/mushinbjj/"
        }
    ]
}