{
    "pagination": {
        "page": 124,
        "from": 2460,
        "to": 2480,
        "pageSize": 20,
        "lastPage": 358,
        "totalRecords": 7149
    },
    "list": [
        {
            "id": 4904,
            "name": "Fernando Braga Jiu-Jitsu",
            "federationAbbr": "CBJJ",
            "country": "Brasil",
            "countryAbbr": "BR",
            "city": "Manaus",
            "responsible": "Fernando do Nascimento Braga",
            "address": "Rua Afonso Pena 472 Casa, Centro, Manaus, AM, Brasil",
            "website": null
        },
        {
            "id": 6757,
            "name": "Fernando Camolês BJJ Team",
            "federationAbbr": "CBJJ",
            "country": "Brasil",
            "countryAbbr": "BR",
            "city": "São Caetano Do Sul",
            "responsible": "Fernando Camôles Ribas",
            "address": "Rua Maranhão, 1506 Ap 93, São Caetano Do Sul, São Paulo, Brasil",
            "website": null
        },
        {
            "id": 3636,
            "name": "Fernando Loor Vera Brazilian Jiu-Jitsu",
            "federationAbbr": "USBJJF",
            "country": "United States of America",
            "countryAbbr": "US",
            "city": "Charlotte",
            "responsible": "Luis Fernando Loor Vera",
            "address": "11108 South Tryon Street   , , Charlotte, NC, United States of America",
            "website": "www.fernandoloorvera.com"
        },
        {
            "id": 6250,
            "name": "Fernando Moya Jiu-Jitsu Academy",
            "federationAbbr": "IBJJF",
            "country": "Costa Rica",
            "countryAbbr": "CR",
            "city": "San Jose",
            "responsible": "Renzo Gracie",
            "address": "San Jose, Costa Rica, San Jose, Costa Rica",
            "website": null
        },
        {
            "id": 8170,
            "name": "Fernando Soares Escola De Lutas",
            "federationAbbr": "CBJJ",
            "country": "Brasil",
            "countryAbbr": "BR",
            "city": "Rio De Janeiro",
            "responsible": "Luiz Fernando Soares",
            "address": "Rua Jurupari, 18, Rio De Janeiro, Rj, Brasil",
            "website": null
        },
        {
            "id": 3809,
            "name": "Fernando Terere (FTBJJ)",
            "federationAbbr": "CBJJ",
            "country": "Brasil",
            "countryAbbr": "BR",
            "city": "Rio de Janeiro",
            "responsible": "Fernando Augusto da Silva",
            "address": "Rua Alberto de Campos 12 , Ipanema, Rio de Janeiro, RJ, Brasil",
            "website": ""
        },
        {
            "id": 6165,
            "name": "Fernando Terere Franca - Elite JJB",
            "federationAbbr": "IBJJF",
            "country": "France",
            "countryAbbr": "FR",
            "city": "Montgeron",
            "responsible": "Fernando Augusto da Silva",
            "address": "31 Chemin Du Dessons Du Wet, Montgeron, --, France",
            "website": null
        },
        {
            "id": 3877,
            "name": "Fernando Terere Jiu-Jitsu",
            "federationAbbr": "IBJJF",
            "country": "United Kingdom",
            "countryAbbr": "GB",
            "city": "Dorset",
            "responsible": "Fernando Augusto da Silva",
            "address": "725 Wimborne Rd. Bournemouth  , , Dorset, --, United Kingdom",
            "website": "www.phoenixmmauk.co.uk"
        },
        {
            "id": 6625,
            "name": "Fernando Terere Jiu-Jitsu - Switzerland",
            "federationAbbr": "IBJJF",
            "country": "Switzerland",
            "countryAbbr": "CH",
            "city": "Geneva",
            "responsible": "Thomas Hernan Oyarzun",
            "address": "Studio Soham, Rue du Prieure No. 23, Geneva, GE, Switzerland",
            "website": "www.ftbjj.ch"
        },
        {
            "id": 2883,
            "name": "Ferrari Team Academy",
            "federationAbbr": "IBJJF",
            "country": "Netherlands",
            "countryAbbr": "NL",
            "city": "Den Haag",
            "responsible": null,
            "address": "Rijswijk - Lobattostraat 92  , , Den Haag, HL, Netherlands",
            "website": "www.orgaf.com"
        },
        {
            "id": 6117,
            "name": "Ferraz Jiu-Jitsu Academy",
            "federationAbbr": "CBJJ",
            "country": "Brasil",
            "countryAbbr": "BR",
            "city": "Belém",
            "responsible": "Fabio Augusto Ferraz",
            "address": "Trav. Soares Carneiro, Vila Henrique, Casa 04, Altos, bairro umarizal, Belém, Pará, Brasil",
            "website": null
        },
        {
            "id": 2561,
            "name": "Ferrer BJJ",
            "federationAbbr": "IBJJF",
            "country": "Switzerland",
            "countryAbbr": "CH",
            "city": "Winterthur",
            "responsible": "Derval Luciano Rêgo",
            "address": "Toesstalstrasse 304  , , Winterthur, ZH, Switzerland",
            "website": "www.ferrerbjj.ch"
        },
        {
            "id": 6512,
            "name": "Feu BJJ Malibu",
            "federationAbbr": "CBJJ",
            "country": "Brasil",
            "countryAbbr": "BR",
            "city": "Paulinia",
            "responsible": "Sergio Lauro Jardim",
            "address": "Rua Madre Maria Vilac n: 201, Bela Vista, Paulinia, São Paulo, Brasil",
            "website": "www.feubjj.com.br"
        },
        {
            "id": 5642,
            "name": "FF Team BJJ",
            "federationAbbr": "CBJJ",
            "country": "Brasil",
            "countryAbbr": "BR",
            "city": "Bragança Paulista",
            "responsible": "Fabiano Junior Leite de Souza",
            "address": "Rua Major Fernando Valle, 1053, Vila Mato, Bragança Paulista, SP, Brasil",
            "website": null
        },
        {
            "id": 9774,
            "name": "FGK BJJ - FirstGym Korea Bjj",
            "federationAbbr": "IBJJF",
            "country": "Korea, South",
            "countryAbbr": "KR",
            "city": "Jeonju",
            "responsible": "Glayson Bertolot da Silva",
            "address": "Hongsanjungang-ro, Wansan-gu, Jeonju-si, Jeollabuk-do, Republic Of Korea, Jeonju, Jeollabuk-do, Korea, South",
            "website": null
        },
        {
            "id": 7557,
            "name": "Fide BJJ",
            "federationAbbr": "CBJJ",
            "country": "Brasil",
            "countryAbbr": "BR",
            "city": "Campinas",
            "responsible": "Luiz dos Santos Pereira",
            "address": "Av. Jacauna n: 965, Vila Aeroporto, Campinas, São Paulo, Brasil",
            "website": "Instagram Fide BJJ"
        },
        {
            "id": 7427,
            "name": "Field-ring",
            "federationAbbr": "JBJJF",
            "country": "Japan",
            "countryAbbr": "JP",
            "city": "Chiba",
            "responsible": "Yoshihiro Yamada",
            "address": "3F 3-11-3 Takasu Mihama-ku, Chiba, Chiba-city, Japan",
            "website": "https://1duro.com/"
        },
        {
            "id": 8978,
            "name": "Fifty Fight",
            "federationAbbr": "CBJJ",
            "country": "Brasil",
            "countryAbbr": "BR",
            "city": "Sorocaba",
            "responsible": "Hugo Leonardo B. Ferreira da Silva",
            "address": "Rua Dr Julio Marcondes Guimaraes,  91, Sorocaba, São Paulo, Brasil",
            "website": "www.fiftyfight.com.br"
        },
        {
            "id": 2280,
            "name": "Fifty/50 Jiu-Jitsu",
            "federationAbbr": "USBJJF",
            "country": "United States of America",
            "countryAbbr": "US",
            "city": "Arlington",
            "responsible": null,
            "address": "360 N. Fairfax Dr. #200  , , Arlington, VA, United States of America",
            "website": "www.5050bjj.com"
        },
        {
            "id": 3770,
            "name": "Fight Academy Pasadena",
            "federationAbbr": "USBJJF",
            "country": "United States of America",
            "countryAbbr": "US",
            "city": "Pasadena",
            "responsible": "William K. R. Cooper",
            "address": "61 Valley St.  , , Pasadena, CA, United States of America",
            "website": "www.fightacademymma.com"
        }
    ]
}