{
    "pagination": {
        "page": 53,
        "from": 1040,
        "to": 1060,
        "pageSize": 20,
        "lastPage": 358,
        "totalRecords": 7149
    },
    "list": [
        {
            "id": 5594,
            "name": "Brasília Templum JJ",
            "federationAbbr": "CBJJ",
            "country": "Brasil",
            "countryAbbr": "BR",
            "city": "Brasilia",
            "responsible": "Gustavo dos Santos Goretti",
            "address": "SCES Trecho 3, Lote3, Conjunto 5, A7, Setor de Clubes Sul, Brasilia, DF, Brasil",
            "website": "https://www.templumjiujitsu.com.br/"
        },
        {
            "id": 3161,
            "name": "Brave Heart",
            "federationAbbr": "JBJJF",
            "country": "Japan",
            "countryAbbr": "JP",
            "city": "Fukushima",
            "responsible": null,
            "address": "1-1 Sakae-machi Fukushima-shi  , , Fukushima, --, Japan",
            "website": "www.brave-heart-npo.jp"
        },
        {
            "id": 8506,
            "name": "Bravo SV Jiu Jitsu",
            "federationAbbr": "CBJJ",
            "country": "Brasil",
            "countryAbbr": "BR",
            "city": "Papanduva",
            "responsible": "Rodrigo Acordi Borges",
            "address": "Avenida Papa João Xiii, 1556, Papanduva, Santa Catarina, Brasil",
            "website": null
        },
        {
            "id": 6877,
            "name": "Bravos BJJ - Australia",
            "federationAbbr": "IBJJF",
            "country": "Australia",
            "countryAbbr": "AU",
            "city": "Perth",
            "responsible": "Adriano Ferreira de Araujo e Silva",
            "address": "U1/42 Ladner Street, Perth, WA, Australia",
            "website": "www.bravosbjj.com.au"
        },
        {
            "id": 4798,
            "name": "Bravos Jiu-Jitsu",
            "federationAbbr": "CBJJ",
            "country": "Brasil",
            "countryAbbr": "BR",
            "city": "Saquarema",
            "responsible": "Saulo Muniz Bravo",
            "address": "Rua das Tocas 236 , Porto da Roça, Saquarema, RJ, Brasil",
            "website": "www.bravosjiujitsu.com.br"
        },
        {
            "id": 7908,
            "name": "Bravus BJJ",
            "federationAbbr": "CBJJ",
            "country": "Brasil",
            "countryAbbr": "BR",
            "city": "Vitória Da Conquista",
            "responsible": "Ramon Campelo de Queiroz Junior",
            "address": "Av. Brasil, 1000, Bl. A Apt 002, Vitória Da Conquista, Bahia, Brasil",
            "website": null
        },
        {
            "id": 7620,
            "name": "Bravu's Brazilian",
            "federationAbbr": "CBJJ",
            "country": "Brasil",
            "countryAbbr": "BR",
            "city": "São Paulo",
            "responsible": "Adriano Gregorini Junior",
            "address": "Rua Pasquale Guallupi 1416, São Paulo, SP, Brasil",
            "website": null
        },
        {
            "id": 8183,
            "name": "Braz Brothers Escola De Jiu-Jitsu",
            "federationAbbr": "CBJJ",
            "country": "Brasil",
            "countryAbbr": "BR",
            "city": "Aracaju",
            "responsible": "Tharcisio Luiz Teixeira B. Silva",
            "address": "Avenida Josino José De Almeida, 1021 3º Andar, Aracaju, Sergipe, Brasil",
            "website": "https://www.instagram.com/brazbrothersejj/"
        },
        {
            "id": 8803,
            "name": "Brazier Jiu-Jitsu Academy",
            "federationAbbr": "IBJJF",
            "country": "Ireland",
            "countryAbbr": "IE",
            "city": "Dublin",
            "responsible": "José Henrique Saraiva Nascimento",
            "address": "45-46 Hardwicke Street, Dublin 1, Dublin, Dublin, Ireland",
            "website": null
        },
        {
            "id": 3132,
            "name": "Brazil 021 Edmonton",
            "federationAbbr": "IBJJF",
            "country": "Canada",
            "countryAbbr": "CA",
            "city": "Edmonton",
            "responsible": "Misty Victoria Shearer",
            "address": "10303 - 65 Ave, , Edmonton, AB, Canada",
            "website": "www.brazil021.ca"
        },
        {
            "id": 2950,
            "name": "Brazil 021 Houston",
            "federationAbbr": "USBJJF",
            "country": "United States of America",
            "countryAbbr": "US",
            "city": "Houson",
            "responsible": "Marcos Antonio Cerqueira Batista",
            "address": "1133 E 11th st  , , Houson, TX, United States of America",
            "website": "www.brazil021houston.com"
        },
        {
            "id": 6837,
            "name": "Brazil 021 Jacksonville",
            "federationAbbr": "USBJJF",
            "country": "United States of America",
            "countryAbbr": "US",
            "city": "Jacksonville",
            "responsible": "Jesus Orlando Santiago",
            "address": "925 North Marine Blvd. , Jacksonville, NC, United States of America",
            "website": "combatclubfitness.com"
        },
        {
            "id": 2191,
            "name": "Brazil 021 School of Jiu-Jitsu",
            "federationAbbr": "USBJJF",
            "country": "United States of America",
            "countryAbbr": "US",
            "city": "Chicago",
            "responsible": "André Fernando Alves Terêncio",
            "address": "1911 Chicago Avenue, Chicago, IL, United States of America",
            "website": "www.brazil021.com"
        },
        {
            "id": 2351,
            "name": "Brazil 021 School of Jiu-Jitsu BR",
            "federationAbbr": "CBJJ",
            "country": "Brasil",
            "countryAbbr": "BR",
            "city": "Rio de Janeiro",
            "responsible": "Flavio Aleluia dos Santos",
            "address": "Rua Clóvis Bevilacqua 180 , Tijuca, Rio de Janeiro, RJ, Brasil",
            "website": "www.brazil021.com"
        },
        {
            "id": 3839,
            "name": "Brazil 021 School of Jiu-Jitsu Toronto",
            "federationAbbr": "IBJJF",
            "country": "Canada",
            "countryAbbr": "CA",
            "city": "Toronto",
            "responsible": "Thiago Rogério dos Santos Silva",
            "address": "21 Wade Ave  , , Toronto, ON, Canada",
            "website": "www.Brazil021Toronto.com"
        },
        {
            "id": 4453,
            "name": "Brazil Academy USA",
            "federationAbbr": "USBJJF",
            "country": "United States of America",
            "countryAbbr": "US",
            "city": "Lenexa",
            "responsible": "Luis Felipe Ninja de Moraes Pinto",
            "address": "11441 Strang line Rd, Lenexa, KS, United States of America",
            "website": "www.brazilacademyusa.com"
        },
        {
            "id": 6808,
            "name": "Brazil ASBJJ",
            "federationAbbr": "CBJJ",
            "country": "Brasil",
            "countryAbbr": "BR",
            "city": "Centro",
            "responsible": "Alexandre dos Santos",
            "address": "Av Mem De Sá, Centro, Rio De Janeiro, Brasil",
            "website": "www.asbjj.com.br"
        },
        {
            "id": 4089,
            "name": "Brazil Jiu-Jitsu",
            "federationAbbr": "CBJJ",
            "country": "Brasil",
            "countryAbbr": "BR",
            "city": "Curitiba",
            "responsible": "Ramon Jamur",
            "address": "Rua Dr. Pamphilo D'assumpção 636, Rebouças, Curitiba, PR, Brasil",
            "website": "https://www.facebook.com/Brazil-Jiu-Jitsu-924611940947602"
        },
        {
            "id": 7851,
            "name": "Brazil-021 Arlington Heights ,IL",
            "federationAbbr": "USBJJF",
            "country": "United States of America",
            "countryAbbr": "US",
            "city": "Arlington Heights ",
            "responsible": "André Fernando Alves Terêncio",
            "address": "61 W. Golf Road , Arlington Heights , IL, United States of America",
            "website": "www.brazil021arlingtonheights.com"
        },
        {
            "id": 8647,
            "name": "Brazil-021 Matriz",
            "federationAbbr": "CBJJ",
            "country": "Brasil",
            "countryAbbr": "BR",
            "city": "Rio De Janeiro",
            "responsible": "Flavio Aleluia dos Santos",
            "address": "Rua Barão De Mesquita, 149 - Tijuca., Rio De Janeiro, Rio De Janeiro, Brasil",
            "website": "www.facebook.com/brazil021matrizRJ/"
        }
    ]
}