{
    "pagination": {
        "page": 113,
        "from": 2240,
        "to": 2260,
        "pageSize": 20,
        "lastPage": 358,
        "totalRecords": 7149
    },
    "list": [
        {
            "id": 8079,
            "name": "Equipe Vilhena Curitiba - Centro",
            "federationAbbr": "CBJJ",
            "country": "Brasil",
            "countryAbbr": "BR",
            "city": "Curitiba",
            "responsible": "Adriano Padua Souza Gomes",
            "address": "Rua Doutor Pedrosa 358 2º Andar - Centro, Curitiba, Pr, Brasil",
            "website": null
        },
        {
            "id": 2700,
            "name": "Equipe Vilhena Jiu-Jitsu",
            "federationAbbr": "CBJJ",
            "country": "Brasil",
            "countryAbbr": "BR",
            "city": "Marabá",
            "responsible": "Jefferson Willisten Vilhena Barbosa",
            "address": "Folha 27 , LT 08 N: 03, Nova Marabá, Marabá, PA, Brasil",
            "website": null
        },
        {
            "id": 8080,
            "name": "Equipe Vilhena Marabá  Ct Folha 27",
            "federationAbbr": "CBJJ",
            "country": "Brasil",
            "countryAbbr": "BR",
            "city": "Marabá",
            "responsible": "Reginaldo  Borcem Coelho",
            "address": "Folha 27 Quadra 18 Lote 03, A, Marabá, Pará, Brasil",
            "website": null
        },
        {
            "id": 8078,
            "name": "Equipe Vilhena Marabá Academia Supere",
            "federationAbbr": "CBJJ",
            "country": "Brasil",
            "countryAbbr": "BR",
            "city": "Maraba",
            "responsible": "Lucio Francisco de Paula Costa Junior",
            "address": "Rua Fortaleza N 90, Cidade Nova, Maraba, Para, Brasil",
            "website": "https://www.equipevilhenajj.com.br/equipe-vilhena-academia-supere/"
        },
        {
            "id": 8108,
            "name": "Equipe Vilhena Parauapebas Cidade Nova",
            "federationAbbr": "CBJJ",
            "country": "Brasil",
            "countryAbbr": "BR",
            "city": "Parauapebas Pa",
            "responsible": "Famir Salmen",
            "address": "Rua 5, Cidade Nova, Parauapebas Pa, Pará, Brasil",
            "website": null
        },
        {
            "id": 8105,
            "name": "Equipe Vilhena Redenção",
            "federationAbbr": "CBJJ",
            "country": "Brasil",
            "countryAbbr": "BR",
            "city": "Redenção",
            "responsible": "Jefferson Willisten Vilhena Barbosa",
            "address": "Rua Jose Júlio Da Silva Nº 305, Setor Oeste, Redenção, Pará, Brasil",
            "website": null
        },
        {
            "id": 8123,
            "name": "Equipe Vilhena Xinguara",
            "federationAbbr": "CBJJ",
            "country": "Brasil",
            "countryAbbr": "BR",
            "city": "Xinguara",
            "responsible": "Wildbruno Cardoso da Costa",
            "address": "Av Xingu, 400, Primefit Academia, Xinguara, Pa, Brasil",
            "website": "https://www.equipevilhenajj.com.br/equipe-vilhena-xinguara/"
        },
        {
            "id": 7113,
            "name": "Equipe WCL",
            "federationAbbr": "CBJJ",
            "country": "Brasil",
            "countryAbbr": "BR",
            "city": "Itaperuna",
            "responsible": "Wanderley Cordeiro de Lima",
            "address": "Av Cardoso Moreira 772, 3 Piso, Bairro Centro, Itaperuna, Rio De Janeiro, Brasil",
            "website": null
        },
        {
            "id": 4458,
            "name": "Equipe WRT",
            "federationAbbr": "CBJJ",
            "country": "Brasil",
            "countryAbbr": "BR",
            "city": "São Pedro da Aldeia",
            "responsible": "Weliton Rodrigues Teixeira",
            "address": "Rua Marechal Juarez Tavora n: 447 3 piso , São João, São Pedro da Aldeia, RJ, Brasil",
            "website": null
        },
        {
            "id": 10320,
            "name": "Equipo Antonio Henrique Cury Coufal Rb Uruguay",
            "federationAbbr": "IBJJF",
            "country": "Uruguai",
            "countryAbbr": "UY",
            "city": "Cidade De Rio Branco Cerro Largo Uruguai",
            "responsible": "Antonio Henrique Cury Coufal",
            "address": "Ipar De Zamora N° 430, Cidade De Rio Branco Cerro Largo Uruguai, Cerro Largo Uruguai, Uruguai",
            "website": null
        },
        {
            "id": 7984,
            "name": "ERB JIU-JITSU",
            "federationAbbr": "CBJJ",
            "country": "Brasil",
            "countryAbbr": "BR",
            "city": "São Paulo",
            "responsible": "Guilherme do Nascimento Leandro",
            "address": "Rua Deputado Fernando Ferrari, 260, Vila Souza, São Paulo, Sp, Brasil",
            "website": "-"
        },
        {
            "id": 9968,
            "name": "Erick Tavares Brazilian Jiu-Jitsu",
            "federationAbbr": "USBJJF",
            "country": "United States of America",
            "countryAbbr": "US",
            "city": "Township Of Washington",
            "responsible": "Erick Farias Tavares",
            "address": "257 Pascack Rd, Township Of Washington, New Jersey, United States of America",
            "website": "www.loyaltybjjnj.com"
        },
        {
            "id": 9646,
            "name": "Erik Lund Jiu-Jitsu",
            "federationAbbr": "IBJJF",
            "country": "Canada",
            "countryAbbr": "CA",
            "city": "Penticton",
            "responsible": "Erik Laurence Lund",
            "address": "763 Balsam Ave, Penticton, British Columbia, Canada",
            "website": null
        },
        {
            "id": 10193,
            "name": "Erike Souza BJJ",
            "federationAbbr": "IBJJF",
            "country": "Mexico",
            "countryAbbr": "MX",
            "city": "Aguascalientes",
            "responsible": "Erike Souza Martins",
            "address": "Privada Tlahuacan, Aguascalientes, Aguascalientes, Mexico",
            "website": null
        },
        {
            "id": 10659,
            "name": "ERON - Escola De Lutas",
            "federationAbbr": "CBJJ",
            "country": "Brasil",
            "countryAbbr": "BR",
            "city": "Rio De Janeiro",
            "responsible": "Emmanuel Rodrigues de Oliveira Neto",
            "address": "Estrada Do Cabuçu, 4070, Fundos 3, Rio De Janeiro, Rio De Janeiro, Brasil",
            "website": null
        },
        {
            "id": 5904,
            "name": "Esaki Jiu-Jitsu Academy",
            "federationAbbr": "USBJJF",
            "country": "United States of America",
            "countryAbbr": "US",
            "city": "Lihue",
            "responsible": "Evan Tadashi Esaki",
            "address": "3-3215 Kuhio Hwy #107, Lihue, HI, United States of America",
            "website": "esakijiujitsu.com"
        },
        {
            "id": 6591,
            "name": "Escapology BJJ",
            "federationAbbr": "IBJJF",
            "country": "United Kingdom",
            "countryAbbr": "GB",
            "city": "Cambridge",
            "responsible": "Tomas Andrew Barlow",
            "address": "Unit 25, Dry Drayton Industries, Scotland Road, Cambridge, Cambridgeshire, United Kingdom",
            "website": "www.escapologybjj.com"
        },
        {
            "id": 9311,
            "name": "Escola  De Jiu-jitsu Team K-ki",
            "federationAbbr": "CBJJ",
            "country": "Brasil",
            "countryAbbr": "BR",
            "city": "Barra Do Piraí",
            "responsible": "Leonardo Milward Bueno",
            "address": "Rua João Batista 302, Nsa. Santana / Oficinas Velhas, Barra Do Piraí, Rio De Janeiro, Brasil",
            "website": null
        },
        {
            "id": 7174,
            "name": "Escola BBS Jiu-Jitsu",
            "federationAbbr": "CBJJ",
            "country": "Brasil",
            "countryAbbr": "BR",
            "city": "Macaé",
            "responsible": "Eduardo de Souza Campos",
            "address": "Rua Barão De Mauá, 80, Segundo Andar, Macaé, Rio de Janeiro, Brasil",
            "website": null
        },
        {
            "id": 6911,
            "name": "Escola BJJ Professor Leandro Araujo",
            "federationAbbr": "CBJJ",
            "country": "Brasil",
            "countryAbbr": "BR",
            "city": "Florianópolis",
            "responsible": "Leandro Pereira Araujo",
            "address": "Servidão Joesi Guimarães Da Silva, Bairro: Rio Vermelho, Florianópolis, SC, Brasil",
            "website": null
        }
    ]
}