{
    "pagination": {
        "page": 109,
        "from": 2160,
        "to": 2180,
        "pageSize": 20,
        "lastPage": 358,
        "totalRecords": 7149
    },
    "list": [
        {
            "id": 10160,
            "name": "Equipe F Soares Team",
            "federationAbbr": "CBJJ",
            "country": "Brasil",
            "countryAbbr": "BR",
            "city": "Manaus",
            "responsible": "Fernando Soares",
            "address": "Rua Valdomiro Lustosa, 1793 - Japiim 2, Antiga Perimetral C, Manaus, Amazonas, Brasil",
            "website": null
        },
        {
            "id": 353,
            "name": "Equipe Fabricio Jiu-Jitsu",
            "federationAbbr": "CBJJ",
            "country": "Brasil",
            "countryAbbr": "BR",
            "city": "Rio de Janeiro",
            "responsible": "Fabricio Luiz Martins Costa",
            "address": "Av. Nª Sª de Copacabana 1017 201/203, Copacabana, Rio de Janeiro, RJ, Brasil",
            "website": "www.fabriciointernationalteam.com"
        },
        {
            "id": 4858,
            "name": "Equipe Fadda Brazilian Jiu-Jitsu",
            "federationAbbr": "CBJJ",
            "country": "Brasil",
            "countryAbbr": "BR",
            "city": "Rio de Janeiro",
            "responsible": "Helio Batista Fadda",
            "address": "Rua João Vicente n: 1191, Sobrado - Bento Ribeiro, Rio de Janeiro, RJ, Brasil",
            "website": "www.faddabjj.com"
        },
        {
            "id": 8000,
            "name": "Equipe Família Machado",
            "federationAbbr": "CBJJ",
            "country": "Brasil",
            "countryAbbr": "BR",
            "city": "Cruzeiro",
            "responsible": "João Rezende de Souza Filho",
            "address": "Rua Vereador Aurélio Garcez Novaes, Casa, Cruzeiro, Sp, Brasil",
            "website": null
        },
        {
            "id": 981,
            "name": "Equipe Fernando Boi",
            "federationAbbr": "CBJJ",
            "country": "Brasil",
            "countryAbbr": "BR",
            "city": "Brasilia",
            "responsible": null,
            "address": "  , , Brasilia, DF, Brasil",
            "website": ""
        },
        {
            "id": 7093,
            "name": "Equipe FJU BJJ",
            "federationAbbr": "CBJJ",
            "country": "Brasil",
            "countryAbbr": "BR",
            "city": "Rio de Janeiro",
            "responsible": "Celio Caneca",
            "address": "Av. Segal n: 40, Del Castilho, Rio de Janeiro, Rio de Janeiro, Brasil",
            "website": null
        },
        {
            "id": 7545,
            "name": "Equipe Fonte Jiu-Jitsu OSS - Careca JJ",
            "federationAbbr": "CBJJ",
            "country": "Brasil",
            "countryAbbr": "BR",
            "city": "Jardim Independencia",
            "responsible": "Luiz Carlos Dagmar",
            "address": "Rua Tenente Alberto Mendes Junior n: 05, Igreja Batista Fonte , Jardim Independencia, Campinas , Brasil",
            "website": null
        },
        {
            "id": 6392,
            "name": "Equipe Força G",
            "federationAbbr": "CBJJ",
            "country": "Brasil",
            "countryAbbr": "BR",
            "city": "Patrocinio",
            "responsible": "Gilvan Veloso dos Reis",
            "address": "Avenida José Maria de Alckimin n: 482, Clube Bairro: Centro, Patrocinio, Minas Gerais, Brasil",
            "website": null
        },
        {
            "id": 6930,
            "name": "Equipe Galindo Jiu-Jitsu",
            "federationAbbr": "CBJJ",
            "country": "Brasil",
            "countryAbbr": "BR",
            "city": "Caieiras",
            "responsible": "Francisco Santana Souza Junior",
            "address": "Rua Canário n: 175, Bairro: Laranjeiras, Caieiras, Sao Paulo, Brasil",
            "website": null
        },
        {
            "id": 1069,
            "name": "Equipe Gama Jiu-Jitsu",
            "federationAbbr": "CBJJ",
            "country": "Brasil",
            "countryAbbr": "BR",
            "city": "Rio de Janeiro",
            "responsible": "Rodrigo Souza da Gama",
            "address": "Av. Ministro Ary Franco n: 1036, Bairro: Bangu, Rio de Janeiro, Rio de Janeiro, Brasil",
            "website": null
        },
        {
            "id": 6245,
            "name": "Equipe Gambulino Team de Jiu-Jitsu",
            "federationAbbr": "CBJJ",
            "country": "Brasil",
            "countryAbbr": "BR",
            "city": "Piumhi",
            "responsible": "Alessandro Oliveira Soares Júnior",
            "address": "Rua Getúlio Vargas n: 750, Centro, Piumhi, Minas Gerais, Brasil",
            "website": null
        },
        {
            "id": 401,
            "name": "Equipe Gavião Jiu-Jitsu",
            "federationAbbr": "CBJJ",
            "country": "Brasil",
            "countryAbbr": "BR",
            "city": "Lagoa Santa",
            "responsible": "Jose Adilson Ferreira",
            "address": "Rua Nossa Senhora Aparecida  90 Bairro: São Geraldo, Recanto da Lagoa, Lagoa Santa, Mg, Brasil",
            "website": "www.equipegaviaojiujitsu.com.br"
        },
        {
            "id": 3604,
            "name": "Equipe Gavião Jiu-Jitsu International",
            "federationAbbr": "IBJJF",
            "country": "Switzerland",
            "countryAbbr": "CH",
            "city": "Thonex",
            "responsible": "Jose Adilson Ferreira",
            "address": "Rue de Geneve 154, , Thonex, Geneve, Switzerland",
            "website": "www.equipegaviaojiujitsu.com.br"
        },
        {
            "id": 4762,
            "name": "Equipe Gênesis Combat",
            "federationAbbr": "CBJJ",
            "country": "Brasil",
            "countryAbbr": "BR",
            "city": "Ubatuba",
            "responsible": "Alessandro de Souza",
            "address": "Rua Antonio Leite 155 , Taquaral, Ubatuba, SP, Brasil",
            "website": null
        },
        {
            "id": 4780,
            "name": "Equipe Giants BJJ Team",
            "federationAbbr": "CBJJ",
            "country": "Brasil",
            "countryAbbr": "BR",
            "city": "Limeira",
            "responsible": null,
            "address": "Av. Fabricio Vampré  855 Academia, JD. Nova Italia, Limeira, SP, Brasil",
            "website": ""
        },
        {
            "id": 7656,
            "name": "Equipe Gladiadores de Jiu Jitsu",
            "federationAbbr": "CBJJ",
            "country": "Brasil",
            "countryAbbr": "BR",
            "city": "Patos de Minas",
            "responsible": "Marcelo Galdino de Oliveira",
            "address": "Rua Deputado Leopoldo Dias Maciel, 93, Patos de Minas, MG, Brasil",
            "website": "https://www.marcelogaldino.com.br/"
        },
        {
            "id": 3810,
            "name": "Equipe GTT/IST",
            "federationAbbr": "CBJJ",
            "country": "Brasil",
            "countryAbbr": "BR",
            "city": "Nova Iguaçu",
            "responsible": "Gustavo Raymundo Souza",
            "address": "Rua Joá Lt 2 Qd. 37 S/N , Cabuçu, Nova Iguaçu, RJ, Brasil",
            "website": null
        },
        {
            "id": 3798,
            "name": "Equipe HM Bragança",
            "federationAbbr": "CBJJ",
            "country": "Brasil",
            "countryAbbr": "BR",
            "city": "São Gonçalo",
            "responsible": "Marco Aurelio da Costa Bragança",
            "address": "Rua St. Pacheco 575 , Pacheco, São Gonçalo, RJ, Brasil",
            "website": ""
        },
        {
            "id": 5322,
            "name": "Equipe Hugo Velasco Jiu-Jitsu",
            "federationAbbr": "CBJJ",
            "country": "Brasil",
            "countryAbbr": "BR",
            "city": "Araxá",
            "responsible": "Hugo Leonardo de Almeida Velasco",
            "address": "Praça Arthur Bernardes 25, Centro, Araxá, MG, Brasil",
            "website": null
        },
        {
            "id": 7087,
            "name": "Equipe IBABJJ",
            "federationAbbr": "CBJJ",
            "country": "Brasil",
            "countryAbbr": "BR",
            "city": "Rio de Janeiro",
            "responsible": "Marcos Vinicius Manhães da Costa",
            "address": "Rua Sylvio da Rocha Polis n: 751, Bairro: Barra da Tijuca, Rio de Janeiro, Rio de Janeiro, Brasil",
            "website": "www.esportes.ibatitude.com.br"
        }
    ]
}