{
    "pagination": {
        "page": 264,
        "from": 5260,
        "to": 5280,
        "pageSize": 20,
        "lastPage": 358,
        "totalRecords": 7149
    },
    "list": [
        {
            "id": 3971,
            "name": "Plus One Defense Systems",
            "federationAbbr": "USBJJF",
            "country": "United States of America",
            "countryAbbr": "US",
            "city": "West Hartford",
            "responsible": "Darin B. Reisler",
            "address": "9 Tolles Street, West Hartford, CT, United States of America",
            "website": "www.teamplusone.com"
        },
        {
            "id": 9976,
            "name": "PMA BJJ",
            "federationAbbr": "IBJJF",
            "country": "United Kingdom",
            "countryAbbr": "GB",
            "city": "Rochford",
            "responsible": "Lee Anthony Catling",
            "address": "32 Middle Mead, Rochford, England, United Kingdom",
            "website": "www.pmabjj.co.uk"
        },
        {
            "id": 7032,
            "name": "PMT/AFR Team",
            "federationAbbr": "CBJJ",
            "country": "Brasil",
            "countryAbbr": "BR",
            "city": "Nova Lima",
            "responsible": "Alisson Ferreira Reis",
            "address": "Rua Renato Avelar de Azeredo n: 60 Bloco 4/101, Honório Bicalho, Nova Lima, Minas Gerais, Brasil",
            "website": null
        },
        {
            "id": 8077,
            "name": "PNZ Jiu-Jitsu Clube",
            "federationAbbr": "CBJJ",
            "country": "Brasil",
            "countryAbbr": "BR",
            "city": "Petrolina",
            "responsible": "Igor Barbosa Menezes",
            "address": "Dezessete, 110, Petrolina, Pe, Brasil",
            "website": null
        },
        {
            "id": 2646,
            "name": "Pogona Club Gym",
            "federationAbbr": "JBJJF",
            "country": "Japan",
            "countryAbbr": "JP",
            "city": "Saitama",
            "responsible": "Hirotaka Suzuki",
            "address": "2-22-23 Higashikawaguchi, Kawaguchi city  , Saitama, --, Japan",
            "website": "http://pogonaclub.com/"
        },
        {
            "id": 6954,
            "name": "Point Blank Gym",
            "federationAbbr": "IBJJF",
            "country": "Ireland",
            "countryAbbr": "IE",
            "city": "Galway",
            "responsible": "Timothy Fergal Noel Murphy",
            "address": "30 Glenrock Business Park, Ballybane Industrial Estate, Galway, Ireland",
            "website": "www.pointblankgym.com"
        },
        {
            "id": 4247,
            "name": "Polar Jiu-Jitsu Team",
            "federationAbbr": "IBJJF",
            "country": "Finland",
            "countryAbbr": "FI",
            "city": "Turku",
            "responsible": "Tommy Mikael Malmberg",
            "address": "Tähtimökatu 9 B 10, , Turku, --, Finland",
            "website": ""
        },
        {
            "id": 8207,
            "name": "Polegar BJJ",
            "federationAbbr": "CBJJ",
            "country": "Brasil",
            "countryAbbr": "BR",
            "city": "Sao Goncalo",
            "responsible": "Leonardo Henrique D'avila Corrêa",
            "address": "Rua Vereador Luis Paulo Guimaraes, N 116 - Sobreloja, Rio Do Ouro, Sao Goncalo, Rio De Janeiro, Brasil",
            "website": null
        },
        {
            "id": 4147,
            "name": "Pollaro's Martial Arts",
            "federationAbbr": "USBJJF",
            "country": "United States of America",
            "countryAbbr": "US",
            "city": "Plainfield",
            "responsible": "Nicholas P Pollaro",
            "address": "2399 Bluewood Way  , , Plainfield, IN, United States of America",
            "website": "www.pollaroma.com"
        },
        {
            "id": 2850,
            "name": "Port City Combat Sports",
            "federationAbbr": "USBJJF",
            "country": "United States of America",
            "countryAbbr": "US",
            "city": "Mobile",
            "responsible": "James Edward Mills IV",
            "address": "7335 Airport Blvd, Suite A, Mobile, AL, United States of America",
            "website": "www.portcitycombatsports.com"
        },
        {
            "id": 9407,
            "name": "Port City Combat Sports Fairhope",
            "federationAbbr": "USBJJF",
            "country": "United States of America",
            "countryAbbr": "US",
            "city": "Fairhope",
            "responsible": "James Edward Mills IV",
            "address": "21611 Al-181 B, Fairhope, Alabama, United States of America",
            "website": "www.pckickboxing.com"
        },
        {
            "id": 6443,
            "name": "Portal Brazilian Jiu-Jitsu",
            "federationAbbr": "IBJJF",
            "country": "Australia",
            "countryAbbr": "AU",
            "city": "Ballina",
            "responsible": "David Moreira Soares",
            "address": "2/3 Sheather Street, Ballina, NSW, Australia",
            "website": "www.portalbrazilianjiujitsu.com"
        },
        {
            "id": 2511,
            "name": "Portugal Gold Team",
            "federationAbbr": "FPJJB",
            "country": "Portugal",
            "countryAbbr": "PT",
            "city": "Pontinha",
            "responsible": "Leonardo da Silva da Costa",
            "address": "Praca Sao Bartoleomeu n 10, Pontinha, --, Portugal",
            "website": null
        },
        {
            "id": 7331,
            "name": "Positive Jiu-Jitsu",
            "federationAbbr": "IBJJF",
            "country": "Argentina",
            "countryAbbr": "AR",
            "city": "Ciudad Autonoma De Buenos Aires",
            "responsible": "Pablo Javier Peirone",
            "address": "Doblas 1356, Ciudad Autonoma De Buenos Aires, Buenos Aires, Argentina",
            "website": "https://positivejiujitsu.com"
        },
        {
            "id": 9810,
            "name": "Potencial Jiu-jitsu",
            "federationAbbr": "CBJJ",
            "country": "Brasil",
            "countryAbbr": "BR",
            "city": "Camaçari",
            "responsible": "Wagner da Silva Porfírio",
            "address": "Av Vereador Pedro Ribeiro De Freitas Csu Bairro Gravatá, Em Frente A Escola Elena, Camaçari, Ba, Brasil",
            "website": "https://linktr.ee/potencialjiujitsu"
        },
        {
            "id": 2461,
            "name": "Pound for Pound",
            "federationAbbr": "FPJJB",
            "country": "Portugal",
            "countryAbbr": "PT",
            "city": "Cascais",
            "responsible": null,
            "address": "Estrada da Azenha, Quinta da Azenha  , Cascais, xx, Portugal",
            "website": null
        },
        {
            "id": 3761,
            "name": "Pound for Pound Deutschland",
            "federationAbbr": "IBJJF",
            "country": "Germany",
            "countryAbbr": "DE",
            "city": "Munich",
            "responsible": "Antônio Sérgio Zimmermann Cardoso",
            "address": "Boschetsrieder Strasse 60, Munich, --, Germany",
            "website": "poundforpoundteam.com"
        },
        {
            "id": 4760,
            "name": "Pound For Pound Roma",
            "federationAbbr": "UIJJ",
            "country": "Italy",
            "countryAbbr": "IT",
            "city": "Roma",
            "responsible": "Antônio Sérgio Zimmermann Cardoso",
            "address": "(LupaSport) via Argentina Altobelli, 32, Roma, ., Italy",
            "website": "www.poundforpoundroma.com"
        },
        {
            "id": 7837,
            "name": "Pound For Pound Roma Sud",
            "federationAbbr": "IBJJF",
            "country": "Italy",
            "countryAbbr": "IT",
            "city": "Rome",
            "responsible": "Daniele Proietti",
            "address": "Via Della Cava Aurelia 96, Rome, Italy",
            "website": null
        },
        {
            "id": 9281,
            "name": "Power Academy Tunisia",
            "federationAbbr": "IBJJF",
            "country": "Tunisia",
            "countryAbbr": "TN",
            "city": "Ariana",
            "responsible": "Monaem Bejaoui",
            "address": "21, Rue Des Mathématiques, Charguia 1, Ariana, Tunisia",
            "website": "www.poweracademy.tn"
        }
    ]
}