{
    "pagination": {
        "page": 16,
        "from": 300,
        "to": 320,
        "pageSize": 20,
        "lastPage": 358,
        "totalRecords": 7149
    },
    "list": [
        {
            "id": 10153,
            "name": "Alex Barros Jiu-Jitsu",
            "federationAbbr": "CBJJ",
            "country": "Brasil",
            "countryAbbr": "BR",
            "city": "Rio De Janeiro",
            "responsible": "Alex Barros de Oliveira",
            "address": "Rua Duquesa De Bragança 15, Rio De Janeiro, Rio De Janeiro, Brasil",
            "website": "http://instagram.com/novauniaograjaujiujitsu"
        },
        {
            "id": 8922,
            "name": "Alex Batata Brazilian Jiu-Jitsu",
            "federationAbbr": "CBJJ",
            "country": "Brasil",
            "countryAbbr": "BR",
            "city": "Manaus",
            "responsible": "Faustino Martins Neto",
            "address": "Rua Alberto Carreira, 4131 - Japiim, Bl 2b, Apto 203 - Residencial Acácias, Conjunto Nova República, Manaus, Amazonas, Brasil",
            "website": null
        },
        {
            "id": 7385,
            "name": "Alex Mello Hunters Jiu-jitsu",
            "federationAbbr": "CBJJ",
            "country": "Brasil",
            "countryAbbr": "BR",
            "city": "Rio Pardo",
            "responsible": "Alex Sandro dos Santos Mello",
            "address": "Rua Adalberto Muller n: 264, Raniz Galvão, Rio Pardo, RS, Brasil",
            "website": null
        },
        {
            "id": 5087,
            "name": "Alex Oliveira Team Jiu-Jitsu AOTJJ",
            "federationAbbr": "CBJJ",
            "country": "Brasil",
            "countryAbbr": "BR",
            "city": "Alvorada",
            "responsible": "Alex Sandro Santos de Oliveira",
            "address": "Av. Dos Gaviões n: 803 Apt: 01, Jardim Porto Alegre, Alvorada, RS, Brasil",
            "website": null
        },
        {
            "id": 9661,
            "name": "Alex Santos Bjj Team",
            "federationAbbr": "CBJJ",
            "country": "Brasil",
            "countryAbbr": "BR",
            "city": "Macae",
            "responsible": "Alex Sandro Henrique dos Santos",
            "address": "Av W 22, Travessa Alves N4, Macae, Rio De Janeiro, Brasil",
            "website": null
        },
        {
            "id": 6027,
            "name": "Alex Silva JJ",
            "federationAbbr": "CBJJ",
            "country": "Brasil",
            "countryAbbr": "BR",
            "city": "RS",
            "responsible": "Alex Sandro da Silva",
            "address": "Rua Marechal Floriano n: 1548, Bairro: Exposição, RS, Caxias do Sul, Brasil",
            "website": "www.alexsilvajj.com.br"
        },
        {
            "id": 7616,
            "name": "Alex Viana Team",
            "federationAbbr": "CBJJ",
            "country": "Brasil",
            "countryAbbr": "BR",
            "city": "Cruzeiro",
            "responsible": "Alex Rafael Paulino Viana Amancio",
            "address": "Rua Eduardo dos santos Pinto nº300, nº300, Cruzeiro, SP, Brasil",
            "website": null
        },
        {
            "id": 7985,
            "name": "Alexandre Araujo AJJ Team",
            "federationAbbr": "CBJJ",
            "country": "Brasil",
            "countryAbbr": "BR",
            "city": "São José",
            "responsible": "Alexandre Teixeira Araujo",
            "address": "R. Brasilpinho, 248, Bairro Kobrasol, São José, Santa Catarina, Brasil",
            "website": "www Araújo jiu jitsu.com.br"
        },
        {
            "id": 3774,
            "name": "Alexandre Japona",
            "federationAbbr": "CBJJ",
            "country": "Brasil",
            "countryAbbr": "BR",
            "city": "São José dos Campos",
            "responsible": "Alexandre Pessanha da Costa",
            "address": "Av. Mariana Andrade 431 , Jd. Mariana II, São José dos Campos, SP, Brasil",
            "website": ""
        },
        {
            "id": 459,
            "name": "Alexandre Machado Association - AMA  Jiu-Jitsu Team",
            "federationAbbr": "FPJJB",
            "country": "Portugal",
            "countryAbbr": "PT",
            "city": "Lisbon",
            "responsible": "Alexandre Machado",
            "address": "Rua General Firmino Miguel , N. 6 a/b, Lisbon, Lisboa, Portugal",
            "website": "www.amateam.pt"
        },
        {
            "id": 3967,
            "name": "Alexandre Machado Jiu-Jitsu",
            "federationAbbr": "CBJJ",
            "country": "Brasil",
            "countryAbbr": "BR",
            "city": "Niterói",
            "responsible": "Leandro Ribeiro Gomes Guimarães",
            "address": "Rua Pastor Martin Luther King 98 , Santa Bárbara, Niterói, RJ, Brasil",
            "website": ""
        },
        {
            "id": 7062,
            "name": "Alexandre Novaes Jiu-Jitsu Academy",
            "federationAbbr": "USBJJF",
            "country": "United States of America",
            "countryAbbr": "US",
            "city": "Lawndale",
            "responsible": "Alexandre Pacheco Novaes",
            "address": "4339 Redondo Beach Blvd, Lawndale, CA, United States of America",
            "website": "novaesjiujitsuacademy.com"
        },
        {
            "id": 7609,
            "name": "Alexandre Papa",
            "federationAbbr": "CBJJ",
            "country": "Brasil",
            "countryAbbr": "BR",
            "city": "Rio de Janeiro",
            "responsible": "Alexandre Barroso de Almeida",
            "address": "Rua Carmem Miranda numero 60 Jardim Guanabara, Rio de Janeiro, Rio de Janeiro, Brasil",
            "website": null
        },
        {
            "id": 10048,
            "name": "Alfa E Ômega  Bjj",
            "federationAbbr": "CBJJ",
            "country": "Brasil",
            "countryAbbr": "BR",
            "city": "Rio De Janeiro",
            "responsible": "Alex Cardoso da Silva",
            "address": "Rua Azevedo Lima 40, Rio De Janeiro, Rj, Brasil",
            "website": null
        },
        {
            "id": 4903,
            "name": "Alfa Jiu-Jitsu Academy",
            "federationAbbr": "CBJJ",
            "country": "Brasil",
            "countryAbbr": "BR",
            "city": "Araranguá",
            "responsible": "Marcos Eduardo Antunes Giusti",
            "address": "Rua Rui Barbosa 69 2 Piso, Centro, Araranguá, SC, Brasil",
            "website": "www.alfabjj.com.br"
        },
        {
            "id": 7903,
            "name": "Alfaec JJ Association",
            "federationAbbr": "IBJJF",
            "country": "Ecuador",
            "countryAbbr": "EC",
            "city": "Guayaquil",
            "responsible": "Fawel Abramowicz Ricaurte",
            "address": "Km 6 Via A La Costa, Centro Comercial Piazza Ceibos, Guayaquil, Guayas, Ecuador",
            "website": null
        },
        {
            "id": 10278,
            "name": "Alicate BJJ Academy",
            "federationAbbr": "USBJJF",
            "country": "United States of America",
            "countryAbbr": "US",
            "city": "Boerne",
            "responsible": "Marcio Antonio Pires Junior",
            "address": "8700 Starr Ranch #7202, Boerne, Tx, United States of America",
            "website": null
        },
        {
            "id": 5012,
            "name": "Alicerce Jiu-Jitsu",
            "federationAbbr": "CBJJ",
            "country": "Brasil",
            "countryAbbr": "BR",
            "city": "FRANCA",
            "responsible": "Iaroslav Neoral",
            "address": "Avenida Paulo VI, 1881, Jardim Lima, FRANCA, SP, Brasil",
            "website": "www.alicercejiujitsu.com.br"
        },
        {
            "id": 9651,
            "name": "Aline Coelho",
            "federationAbbr": "IBJJF",
            "country": "United Arab Emirates",
            "countryAbbr": "AE",
            "city": "Abu Dhabi",
            "responsible": "Aline de Paula Coelho",
            "address": "Abu Dhabi, Abu Dhabi, Abu Dhabi, United Arab Emirates",
            "website": null
        },
        {
            "id": 2647,
            "name": "Alive",
            "federationAbbr": "JBJJF",
            "country": "Japan",
            "countryAbbr": "JP",
            "city": "Aichi",
            "responsible": "Yoichi Suzuki",
            "address": "2-11-24 Aoi Bdg 2F, Tsutsui, Higashi-ku, Nagoya  , , Aichi, --, Japan",
            "website": "www.aliveacademy.net"
        }
    ]
}