{
    "pagination": {
        "page": 246,
        "from": 4900,
        "to": 4920,
        "pageSize": 20,
        "lastPage": 358,
        "totalRecords": 7149
    },
    "list": [
        {
            "id": 10393,
            "name": "Northwest Jiu-Jitsu Academy - Vancouver",
            "federationAbbr": "IBJJF",
            "country": "Canada",
            "countryAbbr": "CA",
            "city": "Vancouver",
            "responsible": "Scott Boudreau",
            "address": "3163 Kingsway, Vancouver, British Columbia, Canada",
            "website": null
        },
        {
            "id": 7958,
            "name": "Nose Team BJJ",
            "federationAbbr": "CBJJ",
            "country": "Brasil",
            "countryAbbr": "BR",
            "city": "Praia Grande",
            "responsible": "Dagoberto Persico Junior",
            "address": "Av: Presidente Kennedy N°8341, Vila Mirim, Praia Grande, São Paulo, Brasil",
            "website": null
        },
        {
            "id": 3744,
            "name": "Notorious Mixed Martial Arts",
            "federationAbbr": "USBJJF",
            "country": "United States of America",
            "countryAbbr": "US",
            "city": "East Rutherford",
            "responsible": "Marcio Vasconcellos Bittencourt",
            "address": "126 Park Ave, , East Rutherford, NJ, United States of America",
            "website": ""
        },
        {
            "id": 9043,
            "name": "Nova Arte Jiu Jitsu",
            "federationAbbr": "CBJJ",
            "country": "Brasil",
            "countryAbbr": "BR",
            "city": "Palhoça",
            "responsible": "Felipe Pereira Teixeira",
            "address": "Rua João Born, 1244, Palhoça, Sc, Brasil",
            "website": "palhoça sc"
        },
        {
            "id": 10611,
            "name": "NOVA ESCOLA DE JIU JITSU BRASILEIRO PALHOÇA",
            "federationAbbr": "CBJJ",
            "country": "Brasil",
            "countryAbbr": "BR",
            "city": "Palhoça",
            "responsible": "Tiago dos Santos da Silva",
            "address": "Rua Vereador  Osvaldo De Oliveira, Nº 4058, Palhoça, Santa Catarina, Brasil",
            "website": "https://instagram.com/new_bjj_school_palhoca?igshid=NTc4MTIwNjQ2YQ=="
        },
        {
            "id": 5289,
            "name": "Nova Força Brasil Team Jiu-Jitsu",
            "federationAbbr": "CBJJ",
            "country": "Brasil",
            "countryAbbr": "BR",
            "city": "Sao Paulo",
            "responsible": "Fabio Roberto Gomes",
            "address": "Av. Fortaleza da Conceiçao 81, Vila Costa Melo, Sao Paulo, SP, Brasil",
            "website": null
        },
        {
            "id": 2146,
            "name": "Nova Formação Jiu-Jitsu Team",
            "federationAbbr": "CBJJ",
            "country": "Brasil",
            "countryAbbr": "BR",
            "city": "Florianópolis",
            "responsible": "Antonio Rogerio dos Santos",
            "address": "Rua das Azaléias 175 Casa, Saco dos Limões, Florianópolis, SC, Brasil",
            "website": ""
        },
        {
            "id": 746,
            "name": "Nova Geração",
            "federationAbbr": "CBJJ",
            "country": "Brasil",
            "countryAbbr": "BR",
            "city": "Rio de Janeiror",
            "responsible": "Francisco Albuquerque Neto",
            "address": "Av. Bartolomeu Mitre 808 B, Leblon, Rio de Janeiror, RJ, Brasil",
            "website": "Brasil"
        },
        {
            "id": 2416,
            "name": "Nova Geração Davis",
            "federationAbbr": "USBJJF",
            "country": "United States of America",
            "countryAbbr": "US",
            "city": "Davis",
            "responsible": "Francisco Albuquerque Neto",
            "address": "255 Madson Place  Suite B, Davis, CA, United States of America",
            "website": "www.novageracaodavis.com"
        },
        {
            "id": 9057,
            "name": "Nova Geração Florida",
            "federationAbbr": "USBJJF",
            "country": "United States of America",
            "countryAbbr": "US",
            "city": "Davie",
            "responsible": "Francisco Albuquerque Neto",
            "address": "6503 Nova Drive, Davie, Florida, United States of America",
            "website": "www.novageracaobjj.com"
        },
        {
            "id": 8770,
            "name": "Nova Geração Kairós / Zenith",
            "federationAbbr": "CBJJ",
            "country": "Brasil",
            "countryAbbr": "BR",
            "city": "Fortaleza",
            "responsible": "Robson Gomes Lima",
            "address": "Rua 448 D Casa 41 2° Etapa, Conjunto Ceará, Fortaleza, Ceará, Brasil",
            "website": "Fortaleza-Ce"
        },
        {
            "id": 5608,
            "name": "Nova Geração Mexico",
            "federationAbbr": "IBJJF",
            "country": "Mexico",
            "countryAbbr": "MX",
            "city": "Saltillo",
            "responsible": "Francisco Albuquerque Neto",
            "address": "Blvd. Valdez Sanchez 274, Saltillo, Coahuila, Mexico",
            "website": "www.evolvetrainingcenter.mx"
        },
        {
            "id": 9168,
            "name": "Nova Geração USA",
            "federationAbbr": "USBJJF",
            "country": "United States of America",
            "countryAbbr": "US",
            "city": "Davie",
            "responsible": "Francisco Albuquerque Neto",
            "address": "6503 Nova Dr, Davie, Florida, United States of America",
            "website": "www.novageracaobjj.com"
        },
        {
            "id": 10476,
            "name": "Nova Integração",
            "federationAbbr": "CBJJ",
            "country": "Brasil",
            "countryAbbr": "BR",
            "city": "Solanea",
            "responsible": "Wallace Luiz Silva Pereira dos Reis",
            "address": "Rua Josefa Crispin, 126, Solanea, Paraíba, Brasil",
            "website": null
        },
        {
            "id": 5257,
            "name": "Nova Onda",
            "federationAbbr": "IBJJF",
            "country": "France",
            "countryAbbr": "FR",
            "city": "Salles",
            "responsible": "François Brandao",
            "address": "21a Route De Jean De Jeanne, Salles, France",
            "website": "https://www.facebook.com/NOVA-ONDA-Southwest-Jiu-Jitsu-1638580166399151/"
        },
        {
            "id": 4536,
            "name": "Nova Patria",
            "federationAbbr": "CBJJ",
            "country": "Brasil",
            "countryAbbr": "BR",
            "city": "Campo Grande",
            "responsible": "Rafael Fogaça de Oliveira",
            "address": "Rua João Pessoa, 490, Monte Castelo, Campo Grande, MS, Brasil",
            "website": null
        },
        {
            "id": 750,
            "name": "Nova União",
            "federationAbbr": "CBJJ",
            "country": "Brasil",
            "countryAbbr": "BR",
            "city": "Rio de Janeiro",
            "responsible": "Carlos Andre Pederneiras de Castro",
            "address": "Rua Marques De Abrantes 88, Flamengo, Rio de Janeiro, RJ, Brasil",
            "website": ""
        },
        {
            "id": 5124,
            "name": "Nova União - Clube NV de Jiu-Jitsu",
            "federationAbbr": "CBJJ",
            "country": "Brasil",
            "countryAbbr": "BR",
            "city": "Manaus",
            "responsible": "Raimundo Nonato Monteiro Machado",
            "address": "Avenida Coronel Teixeira, 6524, Lírio Do Vale, Manaus, AM, Brasil",
            "website": null
        },
        {
            "id": 9743,
            "name": "Nova Uniao 86 Team",
            "federationAbbr": "USBJJF",
            "country": "United States of America",
            "countryAbbr": "US",
            "city": "Waipahu",
            "responsible": "Paul Harold Ano",
            "address": "94 801 Farrongton Hwy. #106, Waipahu, Hi, United States of America",
            "website": "nu86bjj.wordpress.com"
        },
        {
            "id": 3615,
            "name": "Nova União Argentina",
            "federationAbbr": "IBJJF",
            "country": "Argentina",
            "countryAbbr": "AR",
            "city": "Buenos Aires",
            "responsible": "Eduardo Gerpe Duarte",
            "address": "Av. Cordoba 4156, , Buenos Aires, --, Argentina",
            "website": "novauniao.ar"
        }
    ]
}