{
    "pagination": {
        "page": 316,
        "from": 6300,
        "to": 6320,
        "pageSize": 20,
        "lastPage": 358,
        "totalRecords": 7149
    },
    "list": [
        {
            "id": 7941,
            "name": "Team César Silva",
            "federationAbbr": "CBJJ",
            "country": "Brasil",
            "countryAbbr": "BR",
            "city": "Nova Iguaçu",
            "responsible": "César Lima da Silva",
            "address": "Rua Zaida, 143, Nova Iguaçu, Rio De Janeiro, Brasil",
            "website": null
        },
        {
            "id": 8986,
            "name": "Team Chaotic Combat Sports",
            "federationAbbr": "USBJJF",
            "country": "United States of America",
            "countryAbbr": "US",
            "city": "Colorado Springs",
            "responsible": "William K Kalili Jr",
            "address": "153 Fontaine Blvd, Colorado Springs, Co, United States of America",
            "website": "Team Chaotic Combat Sports"
        },
        {
            "id": 2966,
            "name": "Team Chard BJJ",
            "federationAbbr": "USBJJF",
            "country": "United States of America",
            "countryAbbr": "US",
            "city": "Maledona",
            "responsible": "Christopher K. Chard",
            "address": "1602 Driftwood Lane  , , Maledona, OH, United States of America",
            "website": "www.ohiobjjc.com"
        },
        {
            "id": 3641,
            "name": "Team Conde JJ",
            "federationAbbr": "CBJJ",
            "country": "Brasil",
            "countryAbbr": "BR",
            "city": "Guarulhos",
            "responsible": "Michel da Silva Baggio",
            "address": "Travessa Leon Dinis 50, Cidade Brasil, Guarulhos, SP, Brasil",
            "website": null
        },
        {
            "id": 5286,
            "name": "Team Coquitlam",
            "federationAbbr": "IBJJF",
            "country": "Canada",
            "countryAbbr": "CA",
            "city": "Coquitlam",
            "responsible": "Mario Sergio Names Reis",
            "address": "937 Brunette Avenue Unit B, Coquitlam, BC, Canada",
            "website": "www.truenorthbjjacademy.com"
        },
        {
            "id": 10511,
            "name": "Team Cordeiro Cascavel",
            "federationAbbr": "CBJJ",
            "country": "Brasil",
            "countryAbbr": "BR",
            "city": "Cascavel",
            "responsible": "Adriano Jesus Cordeiro",
            "address": "Rua Antonina, N 246, Cascavel, Paraná, Brasil",
            "website": null
        },
        {
            "id": 5915,
            "name": "Team CR Jiu-Jitsu",
            "federationAbbr": "CBJJ",
            "country": "Brasil",
            "countryAbbr": "BR",
            "city": "João Pessoa",
            "responsible": "Luiz Claudio Romão de Oliveira",
            "address": "Rua Clotiude Torres N 179 - Alto do Mateus, João Pessoa, Paraiba, Brasil",
            "website": null
        },
        {
            "id": 282,
            "name": "Team Crézio Lutas",
            "federationAbbr": "CBJJ",
            "country": "Brasil",
            "countryAbbr": "BR",
            "city": "Petrópolis",
            "responsible": "Crézio Azevedo de Souza Filho",
            "address": "Rua Do Imperador 449, Centro, Petrópolis, RJ, Brasil",
            "website": ""
        },
        {
            "id": 7594,
            "name": "Team Crezio Lutas UK",
            "federationAbbr": "IBJJF",
            "country": "United Kingdom",
            "countryAbbr": "GB",
            "city": "Newcastle upon Tyne",
            "responsible": "Crézio Azevedo de Souza Filho",
            "address": "30 Ferndale Avenue, Newcastle upon Tyne, United Kingdom",
            "website": "mmanewcastle.co.uk"
        },
        {
            "id": 4971,
            "name": "Team Cruz BJJ",
            "federationAbbr": "CBJJ",
            "country": "Brasil",
            "countryAbbr": "BR",
            "city": "Santana de Parnaíba",
            "responsible": "Jonathan Almança da Cruz Silva",
            "address": "Rua Anhembi  85, Jardim Professor Benoá, Santana de Parnaíba, SP, Brasil",
            "website": "www.teamcruzbjj.com.br"
        },
        {
            "id": 9071,
            "name": "Team Cruz Internacional",
            "federationAbbr": "CBJJ",
            "country": "Brasil",
            "countryAbbr": "BR",
            "city": "Santana De Parnaiba",
            "responsible": "Jonathan Almança da Cruz Silva",
            "address": "Rua Anhembi 85, Santana De Parnaiba, São Paulo, Brasil",
            "website": "Teamcruzbjj.com.br"
        },
        {
            "id": 2550,
            "name": "Team Curran",
            "federationAbbr": "USBJJF",
            "country": "United States of America",
            "countryAbbr": "US",
            "city": "Crystal Lake",
            "responsible": null,
            "address": "110 West Woodstock Street Unit E  , , Crystal Lake, IL, United States of America",
            "website": "www.teamcurran.com"
        },
        {
            "id": 10103,
            "name": "Team Daniel Carvalho",
            "federationAbbr": "CBJJ",
            "country": "Brasil",
            "countryAbbr": "BR",
            "city": "Tubarão",
            "responsible": "Daniel Henriques Carvalho",
            "address": "Rua São José, 399, 506, Tubarão, Sc, Brasil",
            "website": null
        },
        {
            "id": 2352,
            "name": "Team Delima (SAS)",
            "federationAbbr": "USBJJF",
            "country": "United States of America",
            "countryAbbr": "US",
            "city": "Danbury",
            "responsible": null,
            "address": "One Memorial Dr.  , , Danbury, CT, United States of America",
            "website": "www.teamdelima.com"
        },
        {
            "id": 7211,
            "name": "Team Demerson Alves Jiu-Jitsu",
            "federationAbbr": "CBJJ",
            "country": "Brasil",
            "countryAbbr": "BR",
            "city": "Rio de Janeiro",
            "responsible": "Demerson Alves da Silva",
            "address": "Rua Guarani n: 1.161, Bairro: Piabetá, Rio de Janeiro, Rio de Janeiro, Brasil",
            "website": null
        },
        {
            "id": 10661,
            "name": "Team DM",
            "federationAbbr": "CBJJ",
            "country": "Brasil",
            "countryAbbr": "BR",
            "city": "Gravataí",
            "responsible": "Daniel Nunes Martins",
            "address": "Rua Guilherme Schimitz 926, Casa, Gravataí, Rs, Brasil",
            "website": null
        },
        {
            "id": 5299,
            "name": "Team DNA BJJ",
            "federationAbbr": "IBJJF",
            "country": "Canada",
            "countryAbbr": "CA",
            "city": "Whitby",
            "responsible": "Jorge Britto Lima Filho",
            "address": "2001 Thickson Road South, Whitby, ON, Canada",
            "website": "dnabjj.com"
        },
        {
            "id": 8292,
            "name": "Team Doan",
            "federationAbbr": "USBJJF",
            "country": "United States of America",
            "countryAbbr": "US",
            "city": "Gainesville",
            "responsible": "Si Quoc Doan",
            "address": "470 Woodsmill Rd Ste A, Gainesville, Ga, United States of America",
            "website": "teamdoan.info@gmail.com"
        },
        {
            "id": 9560,
            "name": "Team Dojô Leão",
            "federationAbbr": "CBJJ",
            "country": "Brasil",
            "countryAbbr": "BR",
            "city": "Santos",
            "responsible": "Douglas de Jesus Santos",
            "address": "Av Dr Pedro Lessa N1890 Aparecida, Salas 11,13,14, 21, 22, 24, 31 E 31, Santos, São Paulo (sp), Brasil",
            "website": null
        },
        {
            "id": 8798,
            "name": "Team Domingos LV",
            "federationAbbr": "USBJJF",
            "country": "United States of America",
            "countryAbbr": "US",
            "city": "Las Vegas",
            "responsible": "Rafael Domingos Benedito",
            "address": "4215 South Grand Canyon Drive, Las Vegas, Nevada, United States of America",
            "website": null
        }
    ]
}