{
    "pagination": {
        "page": 150,
        "from": 2980,
        "to": 3000,
        "pageSize": 20,
        "lastPage": 358,
        "totalRecords": 7149
    },
    "list": [
        {
            "id": 7522,
            "name": "Gracie Barra Asa Norte/Brasilia",
            "federationAbbr": "CBJJ",
            "country": "Brasil",
            "countryAbbr": "BR",
            "city": "Brasilia",
            "responsible": "Juliano Leiro Silva",
            "address": "Scrn 710/711, Bloco B Loja 31, Asa Norte, Brasilia, DF, Brasil",
            "website": null
        },
        {
            "id": 5146,
            "name": "Gracie Barra Ashbourne",
            "federationAbbr": "IBJJF",
            "country": "Ireland",
            "countryAbbr": "IE",
            "city": "Ashbourne",
            "responsible": "Aleksejs Kalins",
            "address": "Unit 9, Manufacturing Industrial State Ashbourne, , Ashbourne, Ireland",
            "website": ""
        },
        {
            "id": 7515,
            "name": "Gracie Barra Ashburn",
            "federationAbbr": "USBJJF",
            "country": "United States of America",
            "countryAbbr": "US",
            "city": "Ashburn",
            "responsible": "Charles Gomes",
            "address": "44710 Cape Court, #132, Ashburn, VA, United States of America",
            "website": "www.gbashburn.com"
        },
        {
            "id": 7122,
            "name": "Gracie Barra Asheville",
            "federationAbbr": "USBJJF",
            "country": "United States of America",
            "countryAbbr": "US",
            "city": "Asheville",
            "responsible": "Joshua Edward Trampas",
            "address": "347 New Leicester Hwy - A, Asheville, NC, United States of America",
            "website": "https://graciebarra.com/asheville-nc/"
        },
        {
            "id": 2198,
            "name": "Gracie Barra Asuncion",
            "federationAbbr": "IBJJF",
            "country": "Paraguay",
            "countryAbbr": "PY",
            "city": "Assunción",
            "responsible": "Francisco Fontenelle",
            "address": "25 de Mayo c/ Rca. Francesa 1651 , , Assunción, AS, Paraguay",
            "website": "www.academialefebvre.com"
        },
        {
            "id": 6410,
            "name": "Gracie Barra Aurora",
            "federationAbbr": "USBJJF",
            "country": "United States of America",
            "countryAbbr": "US",
            "city": "Aurora",
            "responsible": "Fred Vinicius Lobo de Oliveira",
            "address": "646 S. Frontenac St., Aurora, IL, United States of America",
            "website": "www.gbaurura.com"
        },
        {
            "id": 3995,
            "name": "Gracie Barra Av. das Américas",
            "federationAbbr": "CBJJ",
            "country": "Brasil",
            "countryAbbr": "BR",
            "city": "Rio de Janeiro",
            "responsible": "Daniel Bizinover",
            "address": "Rua Rachel de Queiroz S/N Clube da Aeronáutica, Barra da Tijuca, Rio de Janeiro, RJ, Brasil",
            "website": ""
        },
        {
            "id": 5436,
            "name": "Gracie Barra Baixo Guandu",
            "federationAbbr": "CBJJ",
            "country": "Brasil",
            "countryAbbr": "BR",
            "city": "Baixo Guandu",
            "responsible": "Andre Farias Brandiao",
            "address": "Rua Madame Albertina Holz 310, Balneário - Centro, Baixo Guandu, ES, Brasil",
            "website": null
        },
        {
            "id": 5024,
            "name": "Gracie Barra Balneário Camboriú",
            "federationAbbr": "CBJJ",
            "country": "Brasil",
            "countryAbbr": "BR",
            "city": "Balneário Camboriú",
            "responsible": "Jefferson Adonis Fabro",
            "address": "Rua Pernambuco n: 333 sala 02, Estados, Balneário Camboriú, SC, Brasil",
            "website": "graciebarrabc.com.br"
        },
        {
            "id": 9826,
            "name": "Gracie Barra Balneário Piçarras",
            "federationAbbr": "CBJJ",
            "country": "Brasil",
            "countryAbbr": "BR",
            "city": "Balneário Piçarras",
            "responsible": "Rafael Batista",
            "address": "Rua Norberto Bachmann N43, Balneário Piçarras, Santa Catarina, Brasil",
            "website": null
        },
        {
            "id": 5842,
            "name": "Gracie Barra Bandeirantes",
            "federationAbbr": "CBJJ",
            "country": "Brasil",
            "countryAbbr": "BR",
            "city": "Rio de Janeiro",
            "responsible": "Guilherme Ferreira Iunes",
            "address": "Estrada dos Bandeirantes n: 7967 - loja 131, Jacarépaguá, Rio de Janeiro, Rio de Janeiro, Brasil",
            "website": null
        },
        {
            "id": 7015,
            "name": "Gracie Barra Bangu",
            "federationAbbr": "CBJJ",
            "country": "Brasil",
            "countryAbbr": "BR",
            "city": "Rio de Janeiro",
            "responsible": "Gabriel Araujo do Carmo",
            "address": "Rua Silva Cardoso: 846, Bangu, Rio de Janeiro, Rio de Janeiro, Brasil",
            "website": "www.graciebarra.com.br"
        },
        {
            "id": 2860,
            "name": "Gracie Barra Barcelona",
            "federationAbbr": "IBJJF",
            "country": "Spain",
            "countryAbbr": "ES",
            "city": "Barcelona",
            "responsible": "Leandro Gontijo Fernandes",
            "address": "Calle Sant Eusebi, 10 - Piso 3rd -2nd  , , Barcelona, ES, Spain",
            "website": ""
        },
        {
            "id": 3687,
            "name": "Gracie Barra Barra da Tijuca",
            "federationAbbr": "CBJJ",
            "country": "Brasil",
            "countryAbbr": "BR",
            "city": "Rio de Janeiro",
            "responsible": "Alessandro M. Marcondes Medeiros",
            "address": "Av. Airton Senna 2541 , Barra da Tijuca, Rio de Janeiro, RJ, Brasil",
            "website": ""
        },
        {
            "id": 7425,
            "name": "Gracie Barra Barra do Garças - MT",
            "federationAbbr": "CBJJ",
            "country": "Brasil",
            "countryAbbr": "BR",
            "city": "Barra do Garças",
            "responsible": "Elcirley Luz Silva",
            "address": "Rua Otacílio José dos Santos Neto n: 155, Esquina com a Rua Goias, Barra do Garças, Mato Grosso, Brasil",
            "website": null
        },
        {
            "id": 10243,
            "name": "Gracie Barra Batatais",
            "federationAbbr": "CBJJ",
            "country": "Brasil",
            "countryAbbr": "BR",
            "city": "Batatais",
            "responsible": "João Gabriel Rodrigues Bezerra",
            "address": "Rua Antonio Jose Buranelli  222, Andar Superior, Batatais, São Paulo, Brasil",
            "website": null
        },
        {
            "id": 3415,
            "name": "Gracie Barra Bath",
            "federationAbbr": "IBJJF",
            "country": "United Kingdom",
            "countryAbbr": "GB",
            "city": "Bath",
            "responsible": "Carlos Lemos Junior",
            "address": "Unit 2 Wansdyke Business Center Oldfield Lane  , , Bath, --, United Kingdom",
            "website": "www.graciebarrabath.com"
        },
        {
            "id": 6314,
            "name": "Gracie Barra Bauru",
            "federationAbbr": "CBJJ",
            "country": "Brasil",
            "countryAbbr": "BR",
            "city": "Bauru",
            "responsible": "Michael Douglas Reihner",
            "address": "Rua Alfredo Ruiz nº 9-62 Vila Mesquita, Vila Mesquita, Bauru, São Paulo, Brasil",
            "website": null
        },
        {
            "id": 9715,
            "name": "Gracie Barra Beiramar",
            "federationAbbr": "CBJJ",
            "country": "Brasil",
            "countryAbbr": "BR",
            "city": "Florianópolis",
            "responsible": "Daniel Montardo Serri Lago Moraes",
            "address": "Rua Germano Wandhausen 203 Sala 101, Florianópolis, Santa Catarina, Brasil",
            "website": null
        },
        {
            "id": 5989,
            "name": "Gracie Barra Belgrade",
            "federationAbbr": "IBJJF",
            "country": "Serbia",
            "countryAbbr": "RS",
            "city": "Belgrade",
            "responsible": "Danijel Brajcic",
            "address": "Bulevar Vojvode Misica 17/24, Belgrade, Serbia",
            "website": "www.graciebarra.rs"
        }
    ]
}