{
    "pagination": {
        "page": 221,
        "from": 4400,
        "to": 4420,
        "pageSize": 20,
        "lastPage": 358,
        "totalRecords": 7149
    },
    "list": [
        {
            "id": 5547,
            "name": "Luta Mais",
            "federationAbbr": "CBJJ",
            "country": "Brasil",
            "countryAbbr": "BR",
            "city": "Brasilia",
            "responsible": "Guilherme Burjak Gabriel",
            "address": "Eqn 407/408 - Area Especial 1 - 1, Terceira Igreja Batista - Asa Norte, Brasilia, DF, Brasil",
            "website": "https://www.instagram.com/lutamais/"
        },
        {
            "id": 6503,
            "name": "Lutador BJJ - Serbia",
            "federationAbbr": "IBJJF",
            "country": "Serbia",
            "countryAbbr": "RS",
            "city": "Belgrade",
            "responsible": "Mateja Valjarevic",
            "address": "Studentski trg 6/2, Belgrade, --, Serbia",
            "website": "www.lutador.org"
        },
        {
            "id": 5815,
            "name": "Luz BJJ",
            "federationAbbr": "CBJJ",
            "country": "Brasil",
            "countryAbbr": "BR",
            "city": "Vitoria ",
            "responsible": "Fabio Paganotti Luz",
            "address": "Rua Angelo Carão n: 68 apt 1104, Jardim Camburi, Vitoria , Espirito Santo, Brasil",
            "website": null
        },
        {
            "id": 9956,
            "name": "LVTeam / Corpo e Mente - Sergipe",
            "federationAbbr": "CBJJ",
            "country": "Brasil",
            "countryAbbr": "BR",
            "city": "Aracaju, Sergipe, Brasil",
            "responsible": "Luciano Vieira Prado Sobrinho",
            "address": "Rua Aurea Costa 85, Conjunto Augusto Franco, Bairro Farolandia, Aracaju, Sergipe, Brasil, Se, Brasil",
            "website": null
        },
        {
            "id": 6183,
            "name": "LWM Jiu-Jitsu/PE",
            "federationAbbr": "CBJJ",
            "country": "Brasil",
            "countryAbbr": "BR",
            "city": "Jaboatão dos Guararapes",
            "responsible": "Derval Luciano Rêgo",
            "address": "Rua Ilha Bela n: 100, Barra de Jaugada, Jaboatão dos Guararapes, PE, Brasil",
            "website": null
        },
        {
            "id": 8768,
            "name": "Lycans",
            "federationAbbr": "CBJJ",
            "country": "Brasil",
            "countryAbbr": "BR",
            "city": "Itaituba",
            "responsible": "Bruno Oliveira da Silva",
            "address": "R. Homero Gomes De Castro, Residencia N800, Itaituba, Pará, Brasil",
            "website": "@lycans.itb"
        },
        {
            "id": 5198,
            "name": "Lynx Jiu-Jitsu Academy",
            "federationAbbr": "UIJJ",
            "country": "Italy",
            "countryAbbr": "IT",
            "city": "Bregano",
            "responsible": "Fabrizio Manzo",
            "address": "Via Fermi 388/2  , , Bregano, VA, Italy",
            "website": ""
        },
        {
            "id": 5759,
            "name": "M.T.T",
            "federationAbbr": "CBJJ",
            "country": "Brasil",
            "countryAbbr": "BR",
            "city": "Belem",
            "responsible": "Ricardo Alexandre Aires de Amorim",
            "address": "Avenida Gentil Bittencourt -383, Nazaré, Belem, PA, Brasil",
            "website": null
        },
        {
            "id": 8623,
            "name": "M12 Jiu-Jitsu",
            "federationAbbr": "CBJJ",
            "country": "Brasil",
            "countryAbbr": "BR",
            "city": "Sabara",
            "responsible": "Mounier Moreira Ricardo",
            "address": "Rua Urano, 24, Sabara, Minas Gerais, Brasil",
            "website": null
        },
        {
            "id": 8942,
            "name": "M2 JJ",
            "federationAbbr": "FPJJB",
            "country": "Portugal",
            "countryAbbr": "PT",
            "city": "Fernão Ferro",
            "responsible": "Matheus Bruco Rego Martins",
            "address": "Rua Da Liberdade Z44 (parque Verde), Fernão Ferro, Setúbal, Portugal",
            "website": null
        },
        {
            "id": 10626,
            "name": "M3a Fit",
            "federationAbbr": "JBJJF",
            "country": "Japan",
            "countryAbbr": "JP",
            "city": "Sakuraishi",
            "responsible": "Kouichi Uhara",
            "address": "1030-1 Shiba, Sakuraishi, Nara, Japan",
            "website": "https://m3afit.xii.jp/"
        },
        {
            "id": 6170,
            "name": "M4 BJJ",
            "federationAbbr": "CBJJ",
            "country": "Brasil",
            "countryAbbr": "BR",
            "city": "Cidade Universit",
            "responsible": "Marcio Mendes França",
            "address": "Rua José Feliciano De Campos N: 255, Cidade Universit, Presidente Prudente, Brasil",
            "website": null
        },
        {
            "id": 675,
            "name": "Macaco Gold Team",
            "federationAbbr": "CBJJ",
            "country": "Brasil",
            "countryAbbr": "BR",
            "city": "São José Do Rio Pardo",
            "responsible": "Jorge Luis Patino",
            "address": "Rua Campos Salles,153, Tatuapé, São José Do Rio Pardo, SP, Brasil",
            "website": "www.macacogoldteamoficial.com"
        },
        {
            "id": 8224,
            "name": "Macaco Gold Team Linke Bros",
            "federationAbbr": "IBJJF",
            "country": "Poland",
            "countryAbbr": "PL",
            "city": "Szczecin",
            "responsible": "Mariusz Ryszard Linke",
            "address": "Mickiewicza 34a, Szczecin, Zachodniopomorskie, Poland",
            "website": null
        },
        {
            "id": 8260,
            "name": "Macaco Gold Team Linke Poznan",
            "federationAbbr": "IBJJF",
            "country": "Poland",
            "countryAbbr": "PL",
            "city": "Poznan",
            "responsible": "Tomasz Linke",
            "address": "Dmowskiego 121, Poznan, Wielkopolska, Poland",
            "website": "GOLDTEAMPOZNAN.PL"
        },
        {
            "id": 10577,
            "name": "Macau Jiu-Jitsu",
            "federationAbbr": "IBJJF",
            "country": "Macau",
            "countryAbbr": "MO",
            "city": "Macau",
            "responsible": "Alexandre Magno Jorge",
            "address": "Avenida De Venceslau Morais, Edf Chun Foc, 13 Andar E, Macau, Macau",
            "website": null
        },
        {
            "id": 5734,
            "name": "Macedo Jiu-Jitsu",
            "federationAbbr": "CBJJ",
            "country": "Brasil",
            "countryAbbr": "BR",
            "city": "Belém",
            "responsible": "João Macedo de Carvalho",
            "address": "Travessa Ezeriel Monico de Matos numero: 27, Bairro: Guama, Belém, Pará, Brasil",
            "website": null
        },
        {
            "id": 4362,
            "name": "Macgyver Team",
            "federationAbbr": "CBJJ",
            "country": "Brasil",
            "countryAbbr": "BR",
            "city": "Florianópolis",
            "responsible": "João Evangelista da Costa Júnior",
            "address": "Servidão Aldo Laureano Da Costa 06 Sala 01 Térreo, Bairro: Vargem do Bom Jesus, Florianópolis, SC, Brasil",
            "website": null
        },
        {
            "id": 5737,
            "name": "Mach One",
            "federationAbbr": "IBJJF",
            "country": "Australia",
            "countryAbbr": "AU",
            "city": "Scarborough",
            "responsible": "Gustavo Falciroli",
            "address": "170 Northstead St, Scarborough, WA, Australia",
            "website": "m1fc.com.au"
        },
        {
            "id": 9566,
            "name": "Machado Jiu-jitsu Academy",
            "federationAbbr": "CBJJ",
            "country": "Brasil",
            "countryAbbr": "BR",
            "city": "Penha",
            "responsible": "Gustavo Henrique Machado",
            "address": "Avenida São João, 47, Penha, Santa Catarina, Brasil",
            "website": null
        }
    ]
}