{
    "pagination": {
        "page": 297,
        "from": 5920,
        "to": 5940,
        "pageSize": 20,
        "lastPage": 358,
        "totalRecords": 7149
    },
    "list": [
        {
            "id": 8412,
            "name": "Shirai Ryu",
            "federationAbbr": "CBJJ",
            "country": "Brasil",
            "countryAbbr": "BR",
            "city": "Castanhal",
            "responsible": "Kemps Bonifacio Melo de Souza",
            "address": "Alameda Imperial, Bairro São José (academia Beiserman Fit), Castanhal, Pará, Brasil",
            "website": null
        },
        {
            "id": 3290,
            "name": "Shoji Jiu-Jitsu Matsue",
            "federationAbbr": "JBJJF",
            "country": "Japan",
            "countryAbbr": "JP",
            "city": "Shimane",
            "responsible": "Hideaki Kurosaki",
            "address": "485-31 Hiratatyou Izumoshi   , , Shimane, --, Japan",
            "website": "wwww.geocities.jp/shoji.matue/index.html/"
        },
        {
            "id": 9675,
            "name": "Shonan Brazilian Jiu-Jitsu",
            "federationAbbr": "JBJJF",
            "country": "Japan",
            "countryAbbr": "JP",
            "city": "Hiratsuka",
            "responsible": "Marcio Soiti Nakamura",
            "address": "Tatsuno-cho 42-11 2F, Hiratsuka, Kanagawa, Japan",
            "website": null
        },
        {
            "id": 9187,
            "name": "Shonen Jiu-Jitsu",
            "federationAbbr": "USBJJF",
            "country": "United States of America",
            "countryAbbr": "US",
            "city": "Baltimore",
            "responsible": "Lee D. Rosenfield",
            "address": "3700 Toone St, Baltimore, Md, United States of America",
            "website": null
        },
        {
            "id": 4403,
            "name": "Shoot Team",
            "federationAbbr": "UIJJ",
            "country": "Italy",
            "countryAbbr": "IT",
            "city": "Modena",
            "responsible": null,
            "address": "Via Giardini 452/a  , , Modena, ., Italy",
            "website": "www.shootteammodena.it"
        },
        {
            "id": 1053,
            "name": "Shooto Gym K`z Factory",
            "federationAbbr": "JBJJF",
            "country": "Japan",
            "countryAbbr": "JP",
            "city": "Kanagawa",
            "responsible": "Kazuhiro Kusayanagi",
            "address": "1-14-3 Kamituruma Minamiku Sagamihara  , , Kanagawa, --, Japan",
            "website": "www.k-zfactory.com"
        },
        {
            "id": 4833,
            "name": "Shrapnel Jiu-Jitsu Academy",
            "federationAbbr": "JBJJF",
            "country": "Japan",
            "countryAbbr": "JP",
            "city": "Saitama",
            "responsible": "Ichiro Kaneko",
            "address": "1-81-8 H.1 Bil4f Kishikicho Omiyaku , Saitama, Saitama, Japan",
            "website": "shrapnel-bjj.com"
        },
        {
            "id": 8987,
            "name": "Shrapnel Jiu-Jitsu Liberta",
            "federationAbbr": "JBJJF",
            "country": "Japan",
            "countryAbbr": "JP",
            "city": "Mitsuke",
            "responsible": "Ichiro Kaneko",
            "address": "Tsukimidai1, 9-1, Mitsuke, Nigata, Japan",
            "website": "https://libertabjj.wixsite.com/libertabjjc/blank-3"
        },
        {
            "id": 4609,
            "name": "Shuhari Jiu-Jitsu",
            "federationAbbr": "JBJJF",
            "country": "Japan",
            "countryAbbr": "JP",
            "city": "Tokushima",
            "responsible": "Mitsuhiro Iwami",
            "address": "63-1 Hachinohata, Henshu-cho, Tokushima, Japan",
            "website": "https://www.facebook.com/shuharijiujitsu/"
        },
        {
            "id": 7438,
            "name": "Shun JJ",
            "federationAbbr": "CBJJ",
            "country": "Brasil",
            "countryAbbr": "BR",
            "city": "São Paulo",
            "responsible": "Carlos Francisco Takahashi Ferreira",
            "address": "Rua Pero Correia n: 359, Bairro: Vila Mariana, São Paulo, SP, Brasil",
            "website": null
        },
        {
            "id": 6977,
            "name": "Shun JJ International",
            "federationAbbr": "IBJJF",
            "country": "Chile",
            "countryAbbr": "CL",
            "city": "La Serena",
            "responsible": "Carlos Francisco Takahashi Ferreira",
            "address": "Las Tepas, No. 1219, La Serena, Coquimbo, Chile",
            "website": null
        },
        {
            "id": 8919,
            "name": "SIA - Sharpen Iron Academy",
            "federationAbbr": "USBJJF",
            "country": "United States of America",
            "countryAbbr": "US",
            "city": "Plano",
            "responsible": "Charles Mateus Gianeis",
            "address": "4017 Preston Road. Suite 542, Plano, Texas, United States of America",
            "website": "https://sharpenironacademy.com/"
        },
        {
            "id": 7453,
            "name": "Siam Brazilian Jiu-Jitsu",
            "federationAbbr": "CBJJ",
            "country": "Brasil",
            "countryAbbr": "BR",
            "city": "Francisco Beltrão",
            "responsible": "Alvaro Alexandre Francescon",
            "address": "Travessa Frei Deodato n: 77, bairro: Centro, Francisco Beltrão, Paraná, Brasil",
            "website": null
        },
        {
            "id": 10461,
            "name": "Sibirsky Bars Academy",
            "federationAbbr": "IBJJF",
            "country": "Russia",
            "countryAbbr": "RU",
            "city": "Aprelevka",
            "responsible": "Evgeny Korotkikh",
            "address": "Dubki 15, Aprelevka, Moscow Region, Russia",
            "website": null
        },
        {
            "id": 4916,
            "name": "Sidekick Academy",
            "federationAbbr": "IBJJF",
            "country": "Kuwait",
            "countryAbbr": "KW",
            "city": "Shuwaikh",
            "responsible": "Evaldo Correa Lima",
            "address": "Block 1, Street 6, Building 22, Industrial Area  , , Shuwaikh, Kuwait",
            "website": "sidekickacademy.com"
        },
        {
            "id": 5496,
            "name": "Sidney Monteiro Jiu-Jitsu",
            "federationAbbr": "CBJJ",
            "country": "Brasil",
            "countryAbbr": "BR",
            "city": "Niterói",
            "responsible": "Sidney da Conceição Monteiro",
            "address": "Alameda São Boaventura, 1042 - Fonseca Atlético Clube, Fonseca, Niterói, RJ, Brasil",
            "website": null
        },
        {
            "id": 5477,
            "name": "Sidney Silva Brazilian Jiu-Jitsu",
            "federationAbbr": "USBJJF",
            "country": "United States of America",
            "countryAbbr": "US",
            "city": "Las Vegas",
            "responsible": "Sidney Batista da Silva",
            "address": "1914 Corvette St, Las Vegas, NV, United States of America",
            "website": null
        },
        {
            "id": 7914,
            "name": "Sigma Jiu-Jitsu",
            "federationAbbr": "IBJJF",
            "country": "Finland",
            "countryAbbr": "FI",
            "city": "Lahti",
            "responsible": "Tommi Tapio Pulkkanen",
            "address": "Mestarinkatu 10, Lahti, Finland",
            "website": null
        },
        {
            "id": 5215,
            "name": "Signorelli Team",
            "federationAbbr": "CBJJ",
            "country": "Brasil",
            "countryAbbr": "BR",
            "city": "Colatina",
            "responsible": "Vinicius Jose Signorelli",
            "address": "Rua Aroldo Antoline , Vila Nova, Colatina, ES, Brasil",
            "website": null
        },
        {
            "id": 8375,
            "name": "Silanoe Martial Arts",
            "federationAbbr": "USBJJF",
            "country": "United States of America",
            "countryAbbr": "US",
            "city": "San Gabriel",
            "responsible": "Gino C. Silanoe",
            "address": "556 W. Las Tunas Dr., San Gabriel, CA, United States of America",
            "website": "Www.Silanoemartialarts.com"
        }
    ]
}