{
    "pagination": {
        "page": 335,
        "from": 6680,
        "to": 6700,
        "pageSize": 20,
        "lastPage": 358,
        "totalRecords": 7149
    },
    "list": [
        {
            "id": 7339,
            "name": "Tribe Jiu-Jitsu Roma Centro",
            "federationAbbr": "UIJJ",
            "country": "Italy",
            "countryAbbr": "IT",
            "city": "Roma",
            "responsible": "Federico Tisi",
            "address": "Via G. A. Colini 10, Roma, Italy",
            "website": null
        },
        {
            "id": 4400,
            "name": "Tribe Tokyo MMA",
            "federationAbbr": "JBJJF",
            "country": "Japan",
            "countryAbbr": "JP",
            "city": "Nerima",
            "responsible": "Yuki Nakai",
            "address": "1-22-10 Elegance bdg B1 Nerima-ku  , , Nerima, Tokyo, Japan",
            "website": ""
        },
        {
            "id": 7597,
            "name": "TRIBUS BJJ",
            "federationAbbr": "CBJJ",
            "country": "Brasil",
            "countryAbbr": "BR",
            "city": "Araruama",
            "responsible": "Eder de Souza Persiliano",
            "address": "RUA DOS APÓSTOLOS  - BAIRRO VILA CANAÃ, L 41 QD 07, Araruama, RJ, Brasil",
            "website": null
        },
        {
            "id": 7915,
            "name": "Tribus BJJ Internacional",
            "federationAbbr": "IBJJF",
            "country": "France",
            "countryAbbr": "FR",
            "city": "Calvi",
            "responsible": "Eder de Souza Persiliano",
            "address": "Route Territoriale 30 Camp Raffalli 2 Régiment Étranger De Parachutistes - Ca, Calvi, Corse, France",
            "website": null
        },
        {
            "id": 7706,
            "name": "Trident Jiu-Jitsu",
            "federationAbbr": "USBJJF",
            "country": "United States of America",
            "countryAbbr": "US",
            "city": "Ormond Beach",
            "responsible": "Joel T. Gingery",
            "address": "615 S Yonge Street, Ormond Beach, FL, United States of America",
            "website": "Ormond Beach, Florida "
        },
        {
            "id": 6989,
            "name": "Tri-Force Akasaka",
            "federationAbbr": "JBJJF",
            "country": "Japan",
            "countryAbbr": "JP",
            "city": "Minato-ku",
            "responsible": "Ito Shunsuke",
            "address": "#2 MartialArts Tower, 2-12-17, Minato-ku, Tokyo, Japan",
            "website": "http://www.martialarts-gym.jp/tf_akasaka/"
        },
        {
            "id": 4721,
            "name": "Tri-Force Belgium Exit Team",
            "federationAbbr": "IBJJF",
            "country": "Belgium",
            "countryAbbr": "BE",
            "city": "Antwerpen",
            "responsible": "Maurice Goffart",
            "address": "Kolveniersstraat 22  , , Antwerpen, Belgium",
            "website": "www.triforce-bjj.be"
        },
        {
            "id": 3330,
            "name": "Tri-Force Gotanda",
            "federationAbbr": "JBJJF",
            "country": "Japan",
            "countryAbbr": "JP",
            "city": "Tokyo",
            "responsible": "Toru Nakayama",
            "address": "Toto Building 1F, 2-7-11 Higashi gotanda, Shinagawaku  , , Tokyo, --, Japan",
            "website": "www.tf-gotanda.com"
        },
        {
            "id": 3261,
            "name": "Tri-Force Hakata",
            "federationAbbr": "JBJJF",
            "country": "Japan",
            "countryAbbr": "JP",
            "city": "Fukuoka",
            "responsible": "Kenshi Tomari",
            "address": "3-15-1 Seres Eki-Minami 2012, Fukuokashi Hakataka, Hakata Ekiminami  , , Fukuoka, --, Japan",
            "website": "triforce-bjj.com"
        },
        {
            "id": 9487,
            "name": "Tri-force Higashinakano",
            "federationAbbr": "JBJJF",
            "country": "Japan",
            "countryAbbr": "JP",
            "city": "Nakano-ku",
            "responsible": "Mitsuyoshi Hayakawa",
            "address": "View Flat  1f, Higashinakano, 4-27-26, Nakano-ku, Tokyo, Japan",
            "website": "https://triforce-higashinakano.com"
        },
        {
            "id": 4047,
            "name": "Tri-force Ikuno",
            "federationAbbr": "JBJJF",
            "country": "Japan",
            "countryAbbr": "JP",
            "city": "Osaka",
            "responsible": "Yasuyuki Miyake",
            "address": "4-4-31 Tatsumi Higashi, Ikuno, , Osaka, --, Japan",
            "website": "http://www.sunface.or.jp/"
        },
        {
            "id": 3392,
            "name": "Tri-Force International",
            "federationAbbr": "IBJJF",
            "country": "Korea, South",
            "countryAbbr": "KR",
            "city": "Tokyo",
            "responsible": "Mitsuyoshi Hayakawa",
            "address": "2-62-1 Ikebukuro Toshima-Ku  , Tokyo, --, Korea, South",
            "website": null
        },
        {
            "id": 10067,
            "name": "Tri-Force Ishigaki Island",
            "federationAbbr": "JBJJF",
            "country": "Japan",
            "countryAbbr": "JP",
            "city": "Ishigaki City",
            "responsible": "Mitsuyoshi Hayakawa",
            "address": "722-28 Maesato, Ishigaki City, Okinawa, Japan",
            "website": "https://www.islandbjj.net/"
        },
        {
            "id": 1046,
            "name": "Tri-Force Jiu-Jitsu Academy",
            "federationAbbr": "JBJJF",
            "country": "Japan",
            "countryAbbr": "JP",
            "city": "Toshima-Ku",
            "responsible": "Mitsuyoshi Hayakawa",
            "address": "Ikebukuro 2-62-1, PISO Ikebukuro 1F  , Toshima-Ku, TK, Japan",
            "website": "www.triforce-bjj.com"
        },
        {
            "id": 10066,
            "name": "Tri-Force Kawagoe",
            "federationAbbr": "JBJJF",
            "country": "Japan",
            "countryAbbr": "JP",
            "city": "Kawagoe-shi, Nakahara-cho",
            "responsible": "Mitsuyoshi Hayakawa",
            "address": "2-3-2-2f, Kawagoe-shi, Nakahara-cho, Saitama, Japan",
            "website": null
        },
        {
            "id": 7403,
            "name": "Tri-Force Kix",
            "federationAbbr": "JBJJF",
            "country": "Japan",
            "countryAbbr": "JP",
            "city": "Izumisano-shi",
            "responsible": "Yasuyuki Miyake",
            "address": "3-1-31-2F Uemachi, Izumisano-shi, Osaka, Japan",
            "website": "https://tsumugu.me/"
        },
        {
            "id": 10002,
            "name": "Tri-Force Kochi",
            "federationAbbr": "JBJJF",
            "country": "Japan",
            "countryAbbr": "JP",
            "city": "Kochi-city",
            "responsible": "Masashi Kadoya",
            "address": "Haruno-cho Hirookashimo 2264, Kochi-city, Kochi-ken, Japan",
            "website": null
        },
        {
            "id": 8617,
            "name": "Tri-force Koenji",
            "federationAbbr": "JBJJF",
            "country": "Japan",
            "countryAbbr": "JP",
            "city": "Tokyo",
            "responsible": "Takashi Iga",
            "address": "3-38-2 Yamatochou, Nakano-ku, Tokyo, Japan",
            "website": "http://mmamyd2021.com/"
        },
        {
            "id": 9289,
            "name": "Tri-force Maebashi",
            "federationAbbr": "JBJJF",
            "country": "Japan",
            "countryAbbr": "JP",
            "city": "Gunma-ken",
            "responsible": "Toru Nakayama",
            "address": "1230-3, Taguchi-cho, Maebashi-shi, Gunma-ken, Japan",
            "website": null
        },
        {
            "id": 10359,
            "name": "Tri-force Misato",
            "federationAbbr": "JBJJF",
            "country": "Japan",
            "countryAbbr": "JP",
            "city": "Misato",
            "responsible": "Mitsuyoshi Hayakawa",
            "address": "Nizo, 217-2, Misato, Saitama, Japan",
            "website": "http://brave-gym.tokyo/"
        }
    ]
}