{
    "pagination": {
        "page": 99,
        "from": 1960,
        "to": 1980,
        "pageSize": 20,
        "lastPage": 358,
        "totalRecords": 7149
    },
    "list": [
        {
            "id": 4333,
            "name": "Diego Herzog BJJ",
            "federationAbbr": "USBJJF",
            "country": "United States of America",
            "countryAbbr": "US",
            "city": "Morgan Hill",
            "responsible": "Diego da Silveira Herzog",
            "address": "350 Longview Dr  , , Morgan Hill, CA, United States of America",
            "website": ""
        },
        {
            "id": 9567,
            "name": "Diego Pezão Academy JJ",
            "federationAbbr": "CBJJ",
            "country": "Brasil",
            "countryAbbr": "BR",
            "city": "Salto",
            "responsible": "Diego Luis dos Santos",
            "address": "Rua Teothonio Correia De Moraes N 130 - Vila Nova, Salto, Sao Paulo, Brasil",
            "website": null
        },
        {
            "id": 10356,
            "name": "Diego Trindade Team",
            "federationAbbr": "IBJJF",
            "country": "China",
            "countryAbbr": "CN",
            "city": "Beijing",
            "responsible": "Diego Henrique Trindade",
            "address": "Chaoyang Men Way Street, Number 6, Central Park, Tower 13,room 1507 . Chaoyang District, Beijing China, 1507 Room, Beijing, Pequim / ¬, China",
            "website": null
        },
        {
            "id": 8171,
            "name": "Diego Vargas Jiu-Jitsu",
            "federationAbbr": "CBJJ",
            "country": "Brasil",
            "countryAbbr": "BR",
            "city": "Montenegro ",
            "responsible": "Diego Vargas da Silva",
            "address": "Manoel De Souza Moraes 283, Montenegro , Rio Grande Do Sul , Brasil",
            "website": null
        },
        {
            "id": 9477,
            "name": "Diego Vasconcellos Jiu-Jitsu",
            "federationAbbr": "CBJJ",
            "country": "Brasil",
            "countryAbbr": "BR",
            "city": "Petrópolis",
            "responsible": "Diego Vasconcellos Soares ",
            "address": "Rua Bernardo Proença, 979, Petrópolis, Rio De Janeiro, Brasil",
            "website": null
        },
        {
            "id": 2410,
            "name": "Dimitri Chrisos Jiu Jitsu Academy",
            "federationAbbr": "USBJJF",
            "country": "United States of America",
            "countryAbbr": "US",
            "city": "Chantilly",
            "responsible": "Dimitrios Nicolaos Chrisos",
            "address": "4425 Brookfield Corporate Drive  , , Chantilly, VA, United States of America",
            "website": "dc-bjj.com"
        },
        {
            "id": 8622,
            "name": "Dinastia Jiu Jitsu",
            "federationAbbr": "CBJJ",
            "country": "Brasil",
            "countryAbbr": "BR",
            "city": "Palhoça",
            "responsible": "Marcos José Coelho",
            "address": "Rua Inocêncio Chaves De Souza, 302, Casa 302, Palhoça, Santa Catarina, Brasil",
            "website": null
        },
        {
            "id": 9704,
            "name": "District Training Zone",
            "federationAbbr": "IBJJF",
            "country": "France",
            "countryAbbr": "FR",
            "city": "Montreuil",
            "responsible": "Samuel Claude J. Petite ",
            "address": "126 Rue Ernest Savart, Montreuil, France",
            "website": "Www.districtparis.com"
        },
        {
            "id": 9047,
            "name": "Distrito JJ",
            "federationAbbr": "CBJJ",
            "country": "Brasil",
            "countryAbbr": "BR",
            "city": "Salvador",
            "responsible": "Fernando José Novaes Pinto",
            "address": "Rua Da Orca Conjunto Pirajá 1, Salvador, Bahia, Brasil",
            "website": null
        },
        {
            "id": 5732,
            "name": "DJ Bros",
            "federationAbbr": "CBJJ",
            "country": "Brasil",
            "countryAbbr": "BR",
            "city": "Rio de Janeiro",
            "responsible": "Oswaldo Dias Jurema",
            "address": "Avenida das Americas numero: 14205 - Loja A, Recreio dos Bandeirantes, Rio de Janeiro, Rio de Janeiro, Brasil",
            "website": "www.djbros.com.br"
        },
        {
            "id": 5341,
            "name": "DJ Team",
            "federationAbbr": "CBJJ",
            "country": "Brasil",
            "countryAbbr": "BR",
            "city": "São José dos Campos",
            "responsible": "David Juliano Lemes",
            "address": "Av. Barbacena 9, V. Industrial, São José dos Campos, SP, Brasil",
            "website": "www.djteam.com.br"
        },
        {
            "id": 8502,
            "name": "Djago",
            "federationAbbr": "IBJJF",
            "country": "Hong Kong",
            "countryAbbr": "HK",
            "city": "Hong Kong",
            "responsible": "Marcus Vinicius Silva Cacella",
            "address": "1f/37 Cochrane Street, Central, Hong Kong, Hong Kong, Hong Kong",
            "website": "www.djagobjj.com"
        },
        {
            "id": 8295,
            "name": "DJG Martial Arts LTDA",
            "federationAbbr": "CBJJ",
            "country": "Brasil",
            "countryAbbr": "BR",
            "city": "Varginha",
            "responsible": "Edson Leite Pedroso Jr",
            "address": "Rua: Bela Vista -148 / Vila Paiva , Varginha, Minas Gerais , Brasil",
            "website": null
        },
        {
            "id": 8621,
            "name": "DN Jiu Jitsu",
            "federationAbbr": "CBJJ",
            "country": "Brasil",
            "countryAbbr": "BR",
            "city": "São Bento Do Una",
            "responsible": "Diego Nascimento de Souza",
            "address": "Duque De Caxias, 239, São Bento Do Una, Pe, Brasil",
            "website": null
        },
        {
            "id": 4594,
            "name": "DNA Jiu-Jitsu School Curitiba",
            "federationAbbr": "CBJJ",
            "country": "Brasil",
            "countryAbbr": "BR",
            "city": "Curitiba",
            "responsible": "João Raphael da Costa Vasconcelos",
            "address": "Rua Albino Silva 16, Bairro São Francisco, Curitiba, PR, Brasil",
            "website": "www.dnabjj.com.br"
        },
        {
            "id": 9194,
            "name": "DNA Pitbull",
            "federationAbbr": "CBJJ",
            "country": "Brasil",
            "countryAbbr": "BR",
            "city": "Barra Mansa",
            "responsible": "Adriano da Silva Monteiro",
            "address": "Rua Zilmar Maria Costa Augusto, Barra Mansa, Rio De Janeiro, Brasil",
            "website": null
        },
        {
            "id": 7840,
            "name": "Dodo Jiu-Jitsu",
            "federationAbbr": "IBJJF",
            "country": "Netherlands",
            "countryAbbr": "NL",
            "city": "Amsterdam",
            "responsible": "Ernst Frederik Jacobus van Bruggen",
            "address": "Lizzy Ansinghstraat 88, Amsterdam, Netherlands",
            "website": "https://dodojiujitsu.nl/"
        },
        {
            "id": 8474,
            "name": "Doidinho Team",
            "federationAbbr": "CBJJ",
            "country": "Brasil",
            "countryAbbr": "BR",
            "city": "Belo Horizonte",
            "responsible": "Claydson Washington Santos de Oliveira",
            "address": "Rua Povoa De Varzim 720, Bairro Paquetá, Belo Horizonte, Minas Gerais, Brasil",
            "website": null
        },
        {
            "id": 5900,
            "name": "Dojang Center Fight Club",
            "federationAbbr": "IBJJF",
            "country": "Argentina",
            "countryAbbr": "AR",
            "city": "Mar del Plata",
            "responsible": "Pedro Emilio Cambiaso",
            "address": "Santa Cruz 6166, Mar del Plata, Buenos Aires, Argentina",
            "website": "jiu-jitsu-corpo-e-mente-negocio.site"
        },
        {
            "id": 10096,
            "name": "Dojo Adati No Budo",
            "federationAbbr": "CBJJ",
            "country": "Brasil",
            "countryAbbr": "BR",
            "city": "Ribeirão Pires",
            "responsible": "Takeo Adati Leal",
            "address": "Rua Antônio Félix Filho, 95, Ribeirão Pires, São Paulo, Brasil",
            "website": null
        }
    ]
}