{
    "pagination": {
        "page": 44,
        "from": 860,
        "to": 880,
        "pageSize": 20,
        "lastPage": 358,
        "totalRecords": 7149
    },
    "list": [
        {
            "id": 2343,
            "name": "Big \"O\" Jiu-Jitsu/ Rey Diogo",
            "federationAbbr": "USBJJF",
            "country": "United States of America",
            "countryAbbr": "US",
            "city": "South San Francisco",
            "responsible": "Oliver D. Reich",
            "address": "511 Mayfair Ave.  , South San Francisco, CA, United States of America",
            "website": "ricardoreydiogobjj.com"
        },
        {
            "id": 133,
            "name": "Big Brothers",
            "federationAbbr": "USBJJF",
            "country": "United States of America",
            "countryAbbr": "US",
            "city": " Woodbridge",
            "responsible": "Leonardo Nunes Dalla Costa",
            "address": "  , ,  Woodbridge, VA, United States of America",
            "website": ""
        },
        {
            "id": 9417,
            "name": "Big Deal Pro BJJ",
            "federationAbbr": "CBJJ",
            "country": "Brasil",
            "countryAbbr": "BR",
            "city": "Balneário Camboriu",
            "responsible": "Edidene Pereira Areias",
            "address": "Rua 2870 N 168, Sala 01, Balneário Camboriu, Santa Catarina, Brasil",
            "website": null
        },
        {
            "id": 5213,
            "name": "Big Mount BJJ",
            "federationAbbr": "IBJJF",
            "country": "Korea, South",
            "countryAbbr": "KR",
            "city": "Suncheon",
            "responsible": "Han Sik Park",
            "address": "2F, 1833-10, Jorye-dong  , , Suncheon, Jeollanam-do, Korea, South",
            "website": ""
        },
        {
            "id": 10588,
            "name": "Bigfoot Brazilian Jiu-Jitsu Academy Bangkok",
            "federationAbbr": "IBJJF",
            "country": "Thailand",
            "countryAbbr": "TH",
            "city": "Bangkok",
            "responsible": "Lee Antony Livingstone",
            "address": "Rama 4, 3798 Rama 4 Road, Klongtan, Klong Toei, Bangkok, Thailand",
            "website": "www.bigfootbjjbkk.com"
        },
        {
            "id": 9136,
            "name": "Bildiowaza Brazilian Jiu-Jitsu",
            "federationAbbr": "IBJJF",
            "country": "Australia",
            "countryAbbr": "AU",
            "city": "Pennant Hills",
            "responsible": "Donggi Yeo",
            "address": "66 Boundary Rd, Pennant Hills, New South Wales, Australia",
            "website": "https://www.facebook.com/HOJ-Studio-Pennant-Hills-brazilian-jiujitsu-102027455643883"
        },
        {
            "id": 6263,
            "name": "Bill Brazilian Jiu-Jitsu Association",
            "federationAbbr": "USBJJF",
            "country": "United States of America",
            "countryAbbr": "US",
            "city": "Jacksonville",
            "responsible": "Aparecido Faria Gomes Ferreira",
            "address": "11570 San Jose Blvd, Suite 8, Jacksonville, FL, United States of America",
            "website": "www.billjiujitsu.com"
        },
        {
            "id": 2777,
            "name": "Bill Scott BJJ Shore Academy",
            "federationAbbr": "USBJJF",
            "country": "United States of America",
            "countryAbbr": "US",
            "city": "Point Pleasant",
            "responsible": "William J Scott",
            "address": "654 Ocean Road  , Point Pleasant, NJ, United States of America",
            "website": "www.billscottbjj.com"
        },
        {
            "id": 7867,
            "name": "Billaboy Brazilian Jiu-Jitsu",
            "federationAbbr": "IBJJF",
            "country": "Bhutan",
            "countryAbbr": "BT",
            "city": "Salmabad",
            "responsible": "Ulisses Martins Barros",
            "address": "2304 12, Salmabad, Manama, Bhutan",
            "website": null
        },
        {
            "id": 2754,
            "name": "Binda Brazilian Jiu Jitsu",
            "federationAbbr": "USBJJF",
            "country": "United States of America",
            "countryAbbr": "US",
            "city": "Haverhill",
            "responsible": "Lourival Julio da S. Binda",
            "address": "741 South Main Street  , , Haverhill, MA, United States of America",
            "website": "www.juliobjj.com"
        },
        {
            "id": 8862,
            "name": "Bite Academy",
            "federationAbbr": "IBJJF",
            "country": "Spain",
            "countryAbbr": "ES",
            "city": "Sevilla",
            "responsible": "Francisco José Martínez Barrios ",
            "address": "Carretera Villanueva Del Pitamo, 6, Blq 10 - 3d (grs-guardia Civil), Sevilla, Sevilla, Spain",
            "website": null
        },
        {
            "id": 2800,
            "name": "Bitetti Team",
            "federationAbbr": "CBJJ",
            "country": "Brasil",
            "countryAbbr": "BR",
            "city": "Santos",
            "responsible": "Amaury Tovar Bitetti",
            "address": "Rua Joaquim Távora 159 , Vila Mathias, Santos, SP, Brasil",
            "website": ""
        },
        {
            "id": 4644,
            "name": "Bitetti Team - London",
            "federationAbbr": "IBJJF",
            "country": "United Kingdom",
            "countryAbbr": "GB",
            "city": "London",
            "responsible": "Roberto Meneguetti da Silva Almeida",
            "address": "57 Arnold Crescent  , Isleworth, London, United Kingdom",
            "website": ""
        },
        {
            "id": 10391,
            "name": "Bitim Grappling / Jiu-jitsu",
            "federationAbbr": "FPJJB",
            "country": "Portugal",
            "countryAbbr": "PT",
            "city": "Oeiras",
            "responsible": "Hebert Penido das Dores Junior",
            "address": "Largo Da Pirâmide 3r Linda A Velha, Oeiras, Lisboa, Portugal",
            "website": "Bitimonline@gmail.com"
        },
        {
            "id": 6580,
            "name": "Bittan Academy",
            "federationAbbr": "IBJJF",
            "country": "France",
            "countryAbbr": "FR",
            "city": "Verrieres",
            "responsible": "Patrick J. R. Bittan",
            "address": "13 Rue des Petits Ruisseany, Verrieres, FR, France",
            "website": "www.PatrickBittan.com"
        },
        {
            "id": 4364,
            "name": "BJJ - Mushin",
            "federationAbbr": "USBJJF",
            "country": "United States of America",
            "countryAbbr": "US",
            "city": "New York",
            "responsible": "Richard J. Byrne",
            "address": "78 Fifth Avenue, 2nd floor  , New York, NY, United States of America",
            "website": "www.mushin.nyc"
        },
        {
            "id": 4964,
            "name": "BJJ 4 Life",
            "federationAbbr": "IBJJF",
            "country": "Switzerland",
            "countryAbbr": "CH",
            "city": "Neuchâtel ",
            "responsible": "Jose Mario Rangel do Outeiro",
            "address": "C/jose Mario Rangel Do Outeiro, Rue Des Deurres 8, , Neuchâtel , Ne, Switzerland",
            "website": ""
        },
        {
            "id": 5426,
            "name": "BJJ 4 Life Italy",
            "federationAbbr": "UIJJ",
            "country": "Italy",
            "countryAbbr": "IT",
            "city": "Chiesina Uzzanesse",
            "responsible": "Fabricio Carvalho de Souza",
            "address": "Via Fratelli Cervi N 20, Chiesina Uzzanesse, PT, Italy",
            "website": null
        },
        {
            "id": 9962,
            "name": "Bjj Academia Hj Fitness",
            "federationAbbr": "CBJJ",
            "country": "Brasil",
            "countryAbbr": "BR",
            "city": "Curitiba",
            "responsible": "Maicon Sant-ana",
            "address": "Luiz França ,2188, Próximo Ao Terminal, Curitiba, Pr, Brasil",
            "website": "Academiahj.24h"
        },
        {
            "id": 4625,
            "name": "BJJ Academy LV - Pedro Sauer Team",
            "federationAbbr": "IBJJF",
            "country": "Latvia",
            "countryAbbr": "LV",
            "city": "Riga",
            "responsible": "Jevgenijs Minajevs",
            "address": "Dammes iela 33-66  , , Riga, Latvia",
            "website": ""
        }
    ]
}