{
    "pagination": {
        "page": 102,
        "from": 2020,
        "to": 2040,
        "pageSize": 20,
        "lastPage": 358,
        "totalRecords": 7149
    },
    "list": [
        {
            "id": 8610,
            "name": "Double Five Vila Da Feira",
            "federationAbbr": "CBJJ",
            "country": "Brasil",
            "countryAbbr": "BR",
            "city": "Rio De Janeiro",
            "responsible": "Bruno Leonardo Reis de Souza",
            "address": "Rua Haddock Lobo 195, Rio De Janeiro, Rio De Janeiro, Brasil",
            "website": null
        },
        {
            "id": 8310,
            "name": "Double Five Vila Isabel",
            "federationAbbr": "CBJJ",
            "country": "Brasil",
            "countryAbbr": "BR",
            "city": "Rio De Janeiro",
            "responsible": "Alexandre Di Chiara Guimarães Salgado",
            "address": "Boulevard Vinte E Oito De Setembro, 227, Rio De Janeiro, Rio De Janeiro, Brasil",
            "website": null
        },
        {
            "id": 8544,
            "name": "Double Trouble",
            "federationAbbr": "CBJJ",
            "country": "Brasil",
            "countryAbbr": "BR",
            "city": "Sp",
            "responsible": "Beatriz de Oliveira Mesquita",
            "address": "Av Santo Amaro 3131, Apto , Sp, Sp, Brasil",
            "website": "Doubletroubleonline.com.br "
        },
        {
            "id": 4456,
            "name": "Douglas Pithan Jiu-Jitsu",
            "federationAbbr": "CBJJ",
            "country": "Brasil",
            "countryAbbr": "BR",
            "city": "Pelotas",
            "responsible": "Douglas Vieira Pithan",
            "address": "Rua Santa Cruz  3002 Apto 402, Centro, Pelotas, RS, Brasil",
            "website": ""
        },
        {
            "id": 4970,
            "name": "Dourado Jiu-Jitsu",
            "federationAbbr": "CBJJ",
            "country": "Brasil",
            "countryAbbr": "BR",
            "city": "Amparo",
            "responsible": "Otávio de Almeida Júnior",
            "address": "Rua Capitão Alceu Vieira n: 151, Centro, Amparo, SP, Brasil",
            "website": null
        },
        {
            "id": 7024,
            "name": "Downriver Jiu-Jitsu",
            "federationAbbr": "USBJJF",
            "country": "United States of America",
            "countryAbbr": "US",
            "city": "Riverview",
            "responsible": "Brent Richard Insco",
            "address": "16120 King rd., Riverview, MI, United States of America",
            "website": "www.downriverbjj.com"
        },
        {
            "id": 9583,
            "name": "Doze Jiu-jitsu",
            "federationAbbr": "CBJJ",
            "country": "Brasil",
            "countryAbbr": "BR",
            "city": "Betim",
            "responsible": "Walisson Barbosa Pereira Pardim",
            "address": "Rua São Judas Tadeu ,407, Loja, Betim, Minas Gerais, Brasil",
            "website": null
        },
        {
            "id": 7685,
            "name": "DPT Jiu-Jitsu",
            "federationAbbr": "CBJJ",
            "country": "Brasil",
            "countryAbbr": "BR",
            "city": "Angra dos Reis",
            "responsible": "Denilson de Carvalho Pimenta",
            "address": "Rua japoranga 1 loja 8, Angra dos Reis, Rio de Janeiro, Brasil",
            "website": null
        },
        {
            "id": 9555,
            "name": "DR Team BJJ",
            "federationAbbr": "CBJJ",
            "country": "Brasil",
            "countryAbbr": "BR",
            "city": "Manaus",
            "responsible": "Denys Rocha de Oliveira",
            "address": "Rua Chuva Branca - No 272 - Bairro: Coroado, Ouro Verde, Manaus, Amazonas, Brasil",
            "website": null
        },
        {
            "id": 8437,
            "name": "Dragon House MMA",
            "federationAbbr": "USBJJF",
            "country": "United States of America",
            "countryAbbr": "US",
            "city": "San Francisco",
            "responsible": "Han Zhong Luo",
            "address": "4696 Mission St, San Francisco, Ca, United States of America",
            "website": "San Francisco"
        },
        {
            "id": 3136,
            "name": "Dragon's Den",
            "federationAbbr": "JBJJF",
            "country": "Japan",
            "countryAbbr": "JP",
            "city": "Kawagoe",
            "responsible": "Makoto Sawada",
            "address": "KJ1 Building Wakitahoncho 10-10, Kawagoe, Saitama, Japan",
            "website": "www.dragonsden.jp"
        },
        {
            "id": 9682,
            "name": "Draig",
            "federationAbbr": "IBJJF",
            "country": "United Kingdom",
            "countryAbbr": "GB",
            "city": "Llanelli",
            "responsible": "Ashley Jordan Williams",
            "address": "55 Browen, Llanelli, Llanelli, Wales, United Kingdom",
            "website": null
        },
        {
            "id": 10289,
            "name": "Dream Art Pensacola",
            "federationAbbr": "USBJJF",
            "country": "United States of America",
            "countryAbbr": "US",
            "city": "Pensacola",
            "responsible": "Isaias Higino Pereira dos Santos",
            "address": "2600 W Nine Mile Rd, Cantonment Fl 32534, Pensacola, Florida, United States of America",
            "website": "https://www.theacademyofpensacola.com/"
        },
        {
            "id": 7741,
            "name": "Dream Mat",
            "federationAbbr": "CBJJ",
            "country": "Brasil",
            "countryAbbr": "BR",
            "city": "São Vicente",
            "responsible": "Marcel Ferreira Ribeiro",
            "address": "Rua Gonçalo Monteiro 146, fds, São Vicente, São Paulo, Brasil",
            "website": "www.dreammatteam.com.br"
        },
        {
            "id": 8717,
            "name": "DreamArt",
            "federationAbbr": "CBJJ",
            "country": "Brasil",
            "countryAbbr": "BR",
            "city": "São Paulo",
            "responsible": "Isaque Bahiense Braz",
            "address": "Rua Guaraiuva 249, Brooklin, São Paulo, São Paulo, Brasil",
            "website": "https://instagram.com/dream.art.project?utm_medium=copy_link"
        },
        {
            "id": 10121,
            "name": "DreamArt Conroe",
            "federationAbbr": "USBJJF",
            "country": "United States of America",
            "countryAbbr": "US",
            "city": "Conroe",
            "responsible": "Darryl R. Lebus",
            "address": "1402 Fm 2854 Rd, Suite B, Conroe, Texas, United States of America",
            "website": "www.dreamartconroe.com"
        },
        {
            "id": 10055,
            "name": "DreamArt Houston",
            "federationAbbr": "USBJJF",
            "country": "United States of America",
            "countryAbbr": "US",
            "city": "Spring",
            "responsible": "Isaque Bahiense Braz",
            "address": "6450 Louetta Rd. Spring, Tx 77379, Spring, Texas, United States of America",
            "website": "https://instagram.com/dreamart.houston?igshid=YmMyMTA2M2Y="
        },
        {
            "id": 10148,
            "name": "Dreamer Jiu-Jitsu",
            "federationAbbr": "CBJJ",
            "country": "Brasil",
            "countryAbbr": "BR",
            "city": "Brusque",
            "responsible": "Diego Zárate Trindade Geremias",
            "address": "Rua Lotus Número 5 Casa 1 Bairro Limeira Baixa, Casa 1, Brusque, Santa Catarina, Brasil",
            "website": null
        },
        {
            "id": 4166,
            "name": "Drill BJJ",
            "federationAbbr": "CBJJ",
            "country": "Brasil",
            "countryAbbr": "BR",
            "city": "Porto Alegre",
            "responsible": "Fernando Rangel Paradeda",
            "address": "Rua Libero Badaró 279 , Passo D`Areia, Porto Alegre, RS, Brasil",
            "website": "www.drillbjj.com"
        },
        {
            "id": 8645,
            "name": "DRM Jiu Jitsu",
            "federationAbbr": "IBJJF",
            "country": "Mexico",
            "countryAbbr": "MX",
            "city": "Ciudad Lopez Mateos",
            "responsible": "Alberto Serrano Govea",
            "address": "Avenida Hacienda De Tarimoro 116, Ciudad Lopez Mateos, Mexico, Mexico",
            "website": "ASGBJJ.COM"
        }
    ]
}