{
    "pagination": {
        "page": 96,
        "from": 1900,
        "to": 1920,
        "pageSize": 20,
        "lastPage": 358,
        "totalRecords": 7149
    },
    "list": [
        {
            "id": 9340,
            "name": "De La Riva Capanema - Pará",
            "federationAbbr": "CBJJ",
            "country": "Brasil",
            "countryAbbr": "BR",
            "city": "Capanema",
            "responsible": "Liliane dos Reis Lima",
            "address": "Travessa Rui Barbosa N° 159 Bairro: Centro, Capanema, Pará, Brasil",
            "website": "www.delariva.com.br"
        },
        {
            "id": 8190,
            "name": "De La Riva Floripa",
            "federationAbbr": "CBJJ",
            "country": "Brasil",
            "countryAbbr": "BR",
            "city": "Florianópolis",
            "responsible": "Fábio Gevaerd Suzuki",
            "address": "Av. Marinheiro Max Schramm, 3635 - Jardim Atlântico, Florianópolis, Sc, Brasil",
            "website": "https://www.instagram.com/wadodelarivaescola/"
        },
        {
            "id": 2443,
            "name": "De La Riva International",
            "federationAbbr": "IBJJF",
            "country": "Korea, Democratic People's Republic of",
            "countryAbbr": "KP",
            "city": "International",
            "responsible": "Ricardo De La Riva Goded",
            "address": "  , International, IBJJF, Korea, Democratic People's Republic of",
            "website": null
        },
        {
            "id": 2651,
            "name": "De La Riva Japan",
            "federationAbbr": "JBJJF",
            "country": "Japan",
            "countryAbbr": "JP",
            "city": "Tokyo",
            "responsible": "Kuniaki Hamajima",
            "address": "1-48-11 2F Itabashi Itabashiku, Tokyo, --, Japan",
            "website": "https://www.delariva.jp"
        },
        {
            "id": 3175,
            "name": "De La Riva Japan Utsunomiya",
            "federationAbbr": "JBJJF",
            "country": "Japan",
            "countryAbbr": "JP",
            "city": "Tochigi",
            "responsible": "Masato Saito",
            "address": "649 Kuwajimamachi, Utsunomiya-si  , , Tochigi, --, Japan",
            "website": "http://delarivajapanutsunomiya.jimdo.com"
        },
        {
            "id": 3173,
            "name": "De La Riva Japan Yamanashi Garuda",
            "federationAbbr": "JBJJF",
            "country": "Japan",
            "countryAbbr": "JP",
            "city": "Yamanashi",
            "responsible": "Atsushi Osada",
            "address": "Yamanashi Koufushi Osato-chou 1380 Solezio osatozo 205  , , Yamanashi, --, Japan",
            "website": ""
        },
        {
            "id": 5761,
            "name": "De La Riva Jiu-Jitsu Finland",
            "federationAbbr": "IBJJF",
            "country": "Finland",
            "countryAbbr": "FI",
            "city": "Helsinki",
            "responsible": "Delcio Nunes Pereira",
            "address": "Mekaanikonkatu 15A, Helsinki, Finland",
            "website": "www.rebelteam.fi"
        },
        {
            "id": 2292,
            "name": "De La Riva Jiu-Jitsu USA",
            "federationAbbr": "USBJJF",
            "country": "United States of America",
            "countryAbbr": "US",
            "city": "Winter Park",
            "responsible": "Thiago Morbin Domingues",
            "address": "1730 W. Fairbanks Ave.  , , Winter Park, FL, United States of America",
            "website": "elitefightingacademy.com"
        },
        {
            "id": 295,
            "name": "De La Riva JJ",
            "federationAbbr": "CBJJ",
            "country": "Brasil",
            "countryAbbr": "BR",
            "city": "Rio de Janeiro",
            "responsible": "Ricardo De La Riva Goded",
            "address": "Rua Pompeu Loureiro, 116 \u0013 Club Olympico, Copacabana, Rio de Janeiro, RJ, Brasil",
            "website": "www.delarivajiujitsu.com.br"
        },
        {
            "id": 4223,
            "name": "De La Riva Korea",
            "federationAbbr": "IBJJF",
            "country": "Korea, South",
            "countryAbbr": "KR",
            "city": "Incheon",
            "responsible": "Jung Woo Lee",
            "address": "270 Guwol-ro, Namdong-gu  , , Incheon, --, Korea, South",
            "website": ""
        },
        {
            "id": 5329,
            "name": "De La Riva Nantes",
            "federationAbbr": "IBJJF",
            "country": "France",
            "countryAbbr": "FR",
            "city": "Monnieres",
            "responsible": "Ricardo De La Riva Goded",
            "address": "12 La Huperie, Monnieres, France",
            "website": null
        },
        {
            "id": 7785,
            "name": "De La Riva Olinda",
            "federationAbbr": "CBJJ",
            "country": "Brasil",
            "countryAbbr": "BR",
            "city": "Olinda",
            "responsible": "Alexandre Vasconcelos Lopes de Lima",
            "address": "Av. Min. Marcos Freire, 395, Bairro Novo, Olinda, Pernambuco, Brasil",
            "website": "https://delariva.com.br/unidade/escola-delariva-olinda/"
        },
        {
            "id": 8659,
            "name": "De La Riva Pei",
            "federationAbbr": "IBJJF",
            "country": "Canada",
            "countryAbbr": "CA",
            "city": "Saint Peters Bay",
            "responsible": "Juliano Pereira Macário",
            "address": "1934 Cardigan Road, Saint Peters Bay, Pei, Canada",
            "website": "https://www.islandkickboxing.com/"
        },
        {
            "id": 7041,
            "name": "De La Riva Pesaro - Italia",
            "federationAbbr": "UIJJ",
            "country": "Italy",
            "countryAbbr": "IT",
            "city": "Pesaro",
            "responsible": "Ricardo De La Riva Goded",
            "address": "Via Toscana 22, Pesaro, PU, Italy",
            "website": "www.fightersacademy.it"
        },
        {
            "id": 296,
            "name": "De La Riva Poa",
            "federationAbbr": "CBJJ",
            "country": "Brasil",
            "countryAbbr": "BR",
            "city": "Porto Alegre",
            "responsible": "Ricardo De La Riva Goded",
            "address": "Rua Auxiliadora 215 , Auxiliadora, Porto Alegre, RS, Brasil",
            "website": ""
        },
        {
            "id": 6514,
            "name": "De La Riva Porto Alegre",
            "federationAbbr": "CBJJ",
            "country": "Brasil",
            "countryAbbr": "BR",
            "city": "Porto Alegre",
            "responsible": "Rafael Zilio",
            "address": "Rua Itapeva 93, Passo D\u0019areia, Porto Alegre, RS, Brasil",
            "website": null
        },
        {
            "id": 5366,
            "name": "De La Riva Tampa Bay",
            "federationAbbr": "USBJJF",
            "country": "United States of America",
            "countryAbbr": "US",
            "city": "Brooksville",
            "responsible": "Iury Souza Dimas Debs",
            "address": "13458 Chambord Street, Brooksville, FL, United States of America",
            "website": null
        },
        {
            "id": 10131,
            "name": "De Lazzer Team",
            "federationAbbr": "CBJJ",
            "country": "Brasil",
            "countryAbbr": "BR",
            "city": "Caxias Do Sul",
            "responsible": "Caroline de Lazzer Cardoso",
            "address": "Av Julio De Castilhos, 520, Sala A, Caxias Do Sul, Rio Grande Do Sul, Brasil",
            "website": null
        },
        {
            "id": 2745,
            "name": "De Souza Dojo",
            "federationAbbr": "IBJJF",
            "country": "United Kingdom",
            "countryAbbr": "GB",
            "city": "Bournemouth",
            "responsible": "Alex Souto de Souza",
            "address": "30 Kimberley Road  , , Bournemouth, UK, United Kingdom",
            "website": "www.desouza.tv"
        },
        {
            "id": 6253,
            "name": "Dean Lister Jiu-Jitsu",
            "federationAbbr": "USBJJF",
            "country": "United States of America",
            "countryAbbr": "US",
            "city": "San Diego",
            "responsible": "Adam J. Mazin",
            "address": "3666 Midway Drive, San Diego, CA, United States of America",
            "website": "www.VictoryGyms.com"
        }
    ]
}