{
    "pagination": {
        "page": 7,
        "from": 120,
        "to": 140,
        "pageSize": 20,
        "lastPage": 358,
        "totalRecords": 7149
    },
    "list": [
        {
            "id": 10220,
            "name": "Academia Batman Team",
            "federationAbbr": "CBJJ",
            "country": "Brasil",
            "countryAbbr": "BR",
            "city": "Florianópolis",
            "responsible": "Rogério Nascimento",
            "address": "Sérv Crispim Felisbino Jacques 290, Florianópolis, Santa  Catarina, Brasil",
            "website": null
        },
        {
            "id": 2155,
            "name": "Academia Betânia de Artes Marciais",
            "federationAbbr": "CBJJ",
            "country": "Brasil",
            "countryAbbr": "BR",
            "city": "Rio de Janeiro",
            "responsible": "Hermann Oliveira dos Santos",
            "address": "Estrada Manoel Nogueira de Sá 320 , Sulacap, Rio de Janeiro, RJ, Brasil",
            "website": "www.ibbetania.org.br"
        },
        {
            "id": 9464,
            "name": "Academia Bravelion",
            "federationAbbr": "CBJJ",
            "country": "Brasil",
            "countryAbbr": "BR",
            "city": "Cabo Frio",
            "responsible": "Alessandro Augusto de Assis",
            "address": "R Juscelino Kubitscheck, 330, Ao Lado Da Academia Elite, Cabo Frio, Rio De Janeiro, Brasil",
            "website": null
        },
        {
            "id": 1076,
            "name": "Academia Brazuka Jiu-Jitsu",
            "federationAbbr": "CBJJ",
            "country": "Brasil",
            "countryAbbr": "BR",
            "city": "Santa Cruz do Sul",
            "responsible": "Amauri do Espírito Santo dos Santos",
            "address": "Rua Coronel Oscar Rafael Jost - 1948, Bairro: Universitário, Santa Cruz do Sul, RS, Brasil",
            "website": "www.brazukajiujitsu.com.br"
        },
        {
            "id": 5884,
            "name": "Academia Bruno De Jesus",
            "federationAbbr": "CBJJ",
            "country": "Brasil",
            "countryAbbr": "BR",
            "city": "Salvador",
            "responsible": "Bruno Silva de Jesus",
            "address": "Tv. Teódulo De Albuquerque, 11, Casa J, Salvador, Ba, Brasil",
            "website": "www.academiabrunodejesus.com.br"
        },
        {
            "id": 5284,
            "name": "Academia Bulldog Team",
            "federationAbbr": "CBJJ",
            "country": "Brasil",
            "countryAbbr": "BR",
            "city": "Belém",
            "responsible": "Ricardo Candido Gomes",
            "address": "Conjunto Satélite We - 03 / N04, Bairro: Coqueiro, Belém, Pará, Brasil",
            "website": null
        },
        {
            "id": 10056,
            "name": "Academia Casé Team",
            "federationAbbr": "CBJJ",
            "country": "Brasil",
            "countryAbbr": "BR",
            "city": "Paraguaçu",
            "responsible": "Marlos Alves Batista de Araujo",
            "address": "17, Casa, Paraguaçu, Mg, Brasil",
            "website": null
        },
        {
            "id": 10438,
            "name": "Academia Charles Bastos BJJ",
            "federationAbbr": "CBJJ",
            "country": "Brasil",
            "countryAbbr": "BR",
            "city": "Manaus",
            "responsible": "Charles Bastos Neves",
            "address": "Rua Acre,164, Sala 12, Edifício Levy Macedo, Manaus, Amazonas, Brasil",
            "website": null
        },
        {
            "id": 2164,
            "name": "Academia CM System",
            "federationAbbr": "CBJJ",
            "country": "Brasil",
            "countryAbbr": "BR",
            "city": "Curitiba",
            "responsible": "Cristiano Marcello da Silva",
            "address": "Rua Des. Isaias Bevilaqua 895 , Mercês, Curitiba, PR, Brasil",
            "website": "www.cmsystem.com.br"
        },
        {
            "id": 2158,
            "name": "Academia Coliseu",
            "federationAbbr": "CBJJ",
            "country": "Brasil",
            "countryAbbr": "BR",
            "city": "Anápolis",
            "responsible": "Cristiano Costa Soares Reis",
            "address": "Av. Senador José Lourenço Dias 475, Centro, Anápolis, GO, Brasil",
            "website": "www.allianceanapolis.com.br"
        },
        {
            "id": 6833,
            "name": "Academia CTE Provigor",
            "federationAbbr": "CBJJ",
            "country": "Brasil",
            "countryAbbr": "BR",
            "city": "Distrito Federal",
            "responsible": "Alvaro Peixoto da Silva",
            "address": "QD 201 Conjunto 08 n: 20 Sala 205, Recanto das Emas, Distrito Federal, Brasilia, Brasil",
            "website": null
        },
        {
            "id": 9046,
            "name": "Academia Dado BJJ",
            "federationAbbr": "CBJJ",
            "country": "Brasil",
            "countryAbbr": "BR",
            "city": "Garopaba",
            "responsible": "João Eduardo Gonçalves",
            "address": "Rodovia Dos Açores., 346, Garopaba, Santa Catarina, Brasil",
            "website": null
        },
        {
            "id": 2569,
            "name": "Academia Day Bu Kan - DBK",
            "federationAbbr": "CBJJ",
            "country": "Brasil",
            "countryAbbr": "BR",
            "city": "Fortaleza",
            "responsible": "Ricardo Costa de Souza",
            "address": "Rua Guilherme Rocha, 1164, Centro, Fortaleza, CE, Brasil",
            "website": null
        },
        {
            "id": 2197,
            "name": "Academia de Artes Marciais do Ceará",
            "federationAbbr": "CBJJ",
            "country": "Brasil",
            "countryAbbr": "BR",
            "city": "Fortaleza",
            "responsible": null,
            "address": "Rua 854 50 3 Etapa, Conjunto Ceará, Fortaleza, CE, Brasil",
            "website": ""
        },
        {
            "id": 8275,
            "name": "Academia De Brazilian Jiu-Jitsu Kratos",
            "federationAbbr": "IBJJF",
            "country": "Argentina",
            "countryAbbr": "AR",
            "city": "San Luis ",
            "responsible": "Aldo Leonardo Escudero",
            "address": "Club Belgrano San Luis Capital, San Luis , Argentina",
            "website": null
        },
        {
            "id": 2030,
            "name": "Academia de Jiu-jitsu",
            "federationAbbr": "CBJJ",
            "country": "Brasil",
            "countryAbbr": "BR",
            "city": "s",
            "responsible": null,
            "address": "s, s, Brasil",
            "website": null
        },
        {
            "id": 6061,
            "name": "Academia De La Costa",
            "federationAbbr": "IBJJF",
            "country": "Dominican Republic",
            "countryAbbr": "DO",
            "city": "Cabarete",
            "responsible": "Joseph Michael Neurauter",
            "address": "Callejon De La Loma, Cabarete, Dominican Republic",
            "website": "www.academiadelacosta.com"
        },
        {
            "id": 10594,
            "name": "Academia De Lutas Morcegos Brothers",
            "federationAbbr": "CBJJ",
            "country": "Brasil",
            "countryAbbr": "BR",
            "city": "Camboriú",
            "responsible": "Rafael Silva da Costa",
            "address": "Rua Monte Pedra Açu 417, Camboriú, Santa Catarina, Brasil",
            "website": null
        },
        {
            "id": 75,
            "name": "Academia Dede JJ",
            "federationAbbr": "CBJJ",
            "country": "Brasil",
            "countryAbbr": "BR",
            "city": "l",
            "responsible": null,
            "address": "  , , l, l, Brasil",
            "website": ""
        },
        {
            "id": 8523,
            "name": "Academia Deivid Rodrigues de Jiu Jitsu",
            "federationAbbr": "CBJJ",
            "country": "Brasil",
            "countryAbbr": "BR",
            "city": "Guarapari",
            "responsible": "Robert Dutra Moreira",
            "address": "Rua 10 - Numero: 64 , Casa 3, Guarapari, Espirito Santo , Brasil",
            "website": null
        }
    ]
}