{
    "pagination": {
        "page": 250,
        "from": 4980,
        "to": 5000,
        "pageSize": 20,
        "lastPage": 358,
        "totalRecords": 7149
    },
    "list": [
        {
            "id": 6818,
            "name": "O.M.A.",
            "federationAbbr": "USBJJF",
            "country": "United States of America",
            "countryAbbr": "US",
            "city": "Tracy",
            "responsible": "Felipe Heidrich",
            "address": "2505 N. Tracy Blvd. , Tracy, CA, United States of America",
            "website": "www.openmatfighter.com"
        },
        {
            "id": 10643,
            "name": "OAF do Recife",
            "federationAbbr": "CBJJ",
            "country": "Brasil",
            "countryAbbr": "BR",
            "city": "Recife",
            "responsible": "Joaquina dos Santos Bonfim Neta",
            "address": "Rua Dos Coelhos, Nº 351. Boa Vista., Recife, Pe, Brasil",
            "website": "https://www.oafdorecife.org.br/"
        },
        {
            "id": 9824,
            "name": "Oahu North Shore Jiu-Jitsu Club",
            "federationAbbr": "USBJJF",
            "country": "United States of America",
            "countryAbbr": "US",
            "city": "Haleiwa",
            "responsible": "Chris Hideki Nitta",
            "address": "66-437 Kamehameha Hwy Ste. 101, Haleiwa, Hawaii, United States of America",
            "website": "https://northshorejiujitsuclub.org/"
        },
        {
            "id": 6593,
            "name": "OAK Jiu-Jitsu",
            "federationAbbr": "CBJJ",
            "country": "Brasil",
            "countryAbbr": "BR",
            "city": "Macaé",
            "responsible": "Luan de Carvalho Alves",
            "address": "Av. Carlos Augusto Tinoco Garcia 1516, Academia Bairro: Solymar, Macaé, Rio de Janeiro, Brasil",
            "website": null
        },
        {
            "id": 6624,
            "name": "Oakland Guardian Gym",
            "federationAbbr": "USBJJF",
            "country": "United States of America",
            "countryAbbr": "US",
            "city": "Oakland",
            "responsible": "Caleb Khan",
            "address": "1922 Webster St, Oakland, CA, United States of America",
            "website": "www.guardiangym.org"
        },
        {
            "id": 8614,
            "name": "Oasis Jiu-Jitsu",
            "federationAbbr": "CBJJ",
            "country": "Brasil",
            "countryAbbr": "BR",
            "city": "Santos",
            "responsible": "Bruno Cezar Barbosa Silva",
            "address": "Rua Paissandu 18, Santos, Sp, Brasil",
            "website": null
        },
        {
            "id": 10353,
            "name": "Obx Martial Arts",
            "federationAbbr": "USBJJF",
            "country": "United States of America",
            "countryAbbr": "US",
            "city": "Nags Head",
            "responsible": "Richard Elwood Bateman",
            "address": "2210 South Croatan Hwy, Nags Head, North Carolina, United States of America",
            "website": "https://obxmartialarts.com/about-us/"
        },
        {
            "id": 9924,
            "name": "Ocean Jiu-Jitsu",
            "federationAbbr": "IBJJF",
            "country": "Korea, South",
            "countryAbbr": "KR",
            "city": "Suncheon-si,",
            "responsible": "Sun Woo Heo",
            "address": "Ocean Jiu-jitsu 2f 10, Wanggung 1-gil,, Suncheon-si,, Jeollanam-do,, Korea, South",
            "website": "Korea south"
        },
        {
            "id": 6797,
            "name": "Oceans St. Pete Brazilian Jiu-Jitsu Academy",
            "federationAbbr": "USBJJF",
            "country": "United States of America",
            "countryAbbr": "US",
            "city": "St. Petersburg ",
            "responsible": "Leandro L. Massaro",
            "address": "1941 34th St. N, St. Petersburg , FL, United States of America",
            "website": "www.oceansbjj.com"
        },
        {
            "id": 5365,
            "name": "Oceanside Jiu-Jitsu",
            "federationAbbr": "USBJJF",
            "country": "United States of America",
            "countryAbbr": "US",
            "city": "Oceanside",
            "responsible": "Nathanael Bartlett Soli",
            "address": "1833 Oceanside Blvd S, Suite C, Oceanside, CA, United States of America",
            "website": "oceansidejiujitsu.com"
        },
        {
            "id": 7488,
            "name": "Ochanomizu \u0026 Akihabara Brazilian Jiu-Jitsu",
            "federationAbbr": "JBJJF",
            "country": "Japan",
            "countryAbbr": "JP",
            "city": "Suginami-ku",
            "responsible": "Miyashita Kazunari",
            "address": "102 3-34-5 Minami-Ogikubo, Suginami-ku, Tokyo, Japan",
            "website": "http://ochabjj.tokyo/"
        },
        {
            "id": 9263,
            "name": "Octa BJJ",
            "federationAbbr": "IBJJF",
            "country": "Canada",
            "countryAbbr": "CA",
            "city": "Oakville",
            "responsible": "Luiz Otávio Ferreira da Costa",
            "address": "220 Wyecroft Road, Unit 42, Oakville, On, Canada",
            "website": "octabjj.com"
        },
        {
            "id": 2327,
            "name": "Octagon MMA",
            "federationAbbr": "USBJJF",
            "country": "United States of America",
            "countryAbbr": "US",
            "city": "Dallas",
            "responsible": "Rafael Azevedo Lang",
            "address": "4152 Cole Ave. Suite 104  , Dallas, TX, United States of America",
            "website": "www.octagonmma.com"
        },
        {
            "id": 7795,
            "name": "Octo Team",
            "federationAbbr": "CBJJ",
            "country": "Brasil",
            "countryAbbr": "BR",
            "city": "Fortaleza",
            "responsible": "Ricardo de Vasconcelos Barros",
            "address": "Rua Soriano Alburquerque, Nº 860, Joaquim Tavora, Fortaleza, Ceara, Brasil",
            "website": "octoteam (facebook) e octoteambjj (instagram)"
        },
        {
            "id": 9323,
            "name": "Octo Team Malaga",
            "federationAbbr": "IBJJF",
            "country": "Spain",
            "countryAbbr": "ES",
            "city": "Málaga",
            "responsible": "Raphael Pereira Sá Busgaib",
            "address": "Pasaje Del Cuartel De Caballería, S/n, Gimnasio Corpore Sano, Málaga, Málaga, Spain",
            "website": null
        },
        {
            "id": 4045,
            "name": "Octógono Jiu-Jitsu",
            "federationAbbr": "CBJJ",
            "country": "Brasil",
            "countryAbbr": "BR",
            "city": "São Bernardo do Campo",
            "responsible": "Thiago Bernardo C. de Almeida",
            "address": "Rua Tapajós 97 , Centro, São Bernardo do Campo, SP, Brasil",
            "website": "academiaoctogono.com.br"
        },
        {
            "id": 5331,
            "name": "Octopus Area 21",
            "federationAbbr": "UIJJ",
            "country": "Italy",
            "countryAbbr": "IT",
            "city": "Cagliari",
            "responsible": "Nicholas Hunter Brooks",
            "address": "via del Timo 21, Cagliari, Italy",
            "website": null
        },
        {
            "id": 3153,
            "name": "Oda Jiu-Jitsu",
            "federationAbbr": "JBJJF",
            "country": "Japan",
            "countryAbbr": "JP",
            "city": "Komatsu shi",
            "responsible": "Robson Oda De Oliveira",
            "address": "10-4 Hamasami hon machi, Komatsu shi, Ishikawa ken, Japan",
            "website": "--"
        },
        {
            "id": 8696,
            "name": "Odin's Halls Jiu Jitsu",
            "federationAbbr": "USBJJF",
            "country": "United States of America",
            "countryAbbr": "US",
            "city": "Las Vegas",
            "responsible": "Steven Gerard Ficca",
            "address": "7501 N Cimarron Rd, Las Vegas, Nevada, United States of America",
            "website": "Www.bjjvegas.com"
        },
        {
            "id": 8074,
            "name": "Odysseybjj",
            "federationAbbr": "IBJJF",
            "country": "United Kingdom",
            "countryAbbr": "GB",
            "city": "Romford",
            "responsible": "Michael Josef Russell",
            "address": "Odyssey Bjj, Mma Clinic 7-13 High St, Romford, Essex, United Kingdom",
            "website": "https://odysseybjj.co.uk/"
        }
    ]
}