{
    "pagination": {
        "page": 29,
        "from": 560,
        "to": 580,
        "pageSize": 20,
        "lastPage": 358,
        "totalRecords": 7149
    },
    "list": [
        {
            "id": 7374,
            "name": "Ares BJJ MABJJ Academy",
            "federationAbbr": "USBJJF",
            "country": "United States of America",
            "countryAbbr": "US",
            "city": "Irvine",
            "responsible": "Marcus V. C. Antelante",
            "address": "2108 Hurd Dr., Suite 200, Irvine, Texas, United States of America",
            "website": "MABJJAcademy.com"
        },
        {
            "id": 5728,
            "name": "Ares BJJ Mexico",
            "federationAbbr": "IBJJF",
            "country": "Mexico",
            "countryAbbr": "MX",
            "city": "Hermosillo",
            "responsible": "Samir José Chantre Dahás",
            "address": "Nayarit #131, Int. 317, Hermosillo, Sor, Mexico",
            "website": null
        },
        {
            "id": 4767,
            "name": "Ares BJJ Peru",
            "federationAbbr": "IBJJF",
            "country": "Peru",
            "countryAbbr": "PE",
            "city": "Lima",
            "responsible": "Samir José Chantre Dahás",
            "address": "Calle Los Pinos 114 of. 201 Miraflores  , , Lima, Lima, Peru",
            "website": ""
        },
        {
            "id": 6113,
            "name": "Ares BJJ Phoenix",
            "federationAbbr": "USBJJF",
            "country": "United States of America",
            "countryAbbr": "US",
            "city": "Phoenix",
            "responsible": "Osvaldo Augusto Honorio Moizinho",
            "address": "2737 W Thunderbird Rd  - Unit 111, Unit E, Phoenix, Az, United States of America",
            "website": "aresbjjphoenix.com"
        },
        {
            "id": 4766,
            "name": "Ares BJJ Roseville",
            "federationAbbr": "USBJJF",
            "country": "United States of America",
            "countryAbbr": "US",
            "city": "Roseville",
            "responsible": "Manuel Alejandro Moreno Macias",
            "address": "9050 Fairway Drive Suite 115, Roseville, CA, United States of America",
            "website": "www.aresbjjroseville.com"
        },
        {
            "id": 4948,
            "name": "Ares BJJ Uruguay",
            "federationAbbr": "IBJJF",
            "country": "Uruguai",
            "countryAbbr": "UY",
            "city": "Montevideo",
            "responsible": "Alan Rodrigo de Moraes",
            "address": "Francisco Araucho 1233  , Montevideo, Uruguai",
            "website": null
        },
        {
            "id": 8492,
            "name": "Ares East Mesa BJJ Academy",
            "federationAbbr": "USBJJF",
            "country": "United States of America",
            "countryAbbr": "US",
            "city": "Mesa",
            "responsible": "Alexander Martinez",
            "address": "9245 E. Guadalupe Rd Ste 105, Mesa, Arizona, United States of America",
            "website": null
        },
        {
            "id": 10585,
            "name": "ARG Irmaos Club",
            "federationAbbr": "IBJJF",
            "country": "Argentina",
            "countryAbbr": "AR",
            "city": "Rio Gallegos",
            "responsible": "Fernando Javier Olivera",
            "address": "Jofre De Loaiza 379, Rio Gallegos, Santa Cruz, Argentina",
            "website": "https://irmaosclub.misactividades.com/#home"
        },
        {
            "id": 4397,
            "name": "Argus Jiu-Jitsu",
            "federationAbbr": "CBJJ",
            "country": "Brasil",
            "countryAbbr": "BR",
            "city": "Maceió",
            "responsible": "Kleber de Oliveira do Nascimento",
            "address": "Rua Coronel Adauto Gomes Barbosa 310, Trapiche da Barra, Maceió, AL, Brasil",
            "website": "argusjiujitsu.wix.com/argus"
        },
        {
            "id": 4677,
            "name": "Arion Team Jiu-Jitsu",
            "federationAbbr": "CBJJ",
            "country": "Brasil",
            "countryAbbr": "BR",
            "city": "São Gonçalo",
            "responsible": "José Aristeu de Mesquita Braga",
            "address": "Rua Heitor Levi 160 , Barro Vermelho, São Gonçalo, RJ, Brasil",
            "website": "www.arionteam.com.br"
        },
        {
            "id": 7691,
            "name": "Arise Jiu-Jitsu",
            "federationAbbr": "USBJJF",
            "country": "United States of America",
            "countryAbbr": "US",
            "city": "Miami",
            "responsible": "Daniel Fundora",
            "address": "4563 SW 71 AVE, Miami, FL, United States of America",
            "website": "www.arisebjj.com"
        },
        {
            "id": 9588,
            "name": "Arizona One Love",
            "federationAbbr": "USBJJF",
            "country": "United States of America",
            "countryAbbr": "US",
            "city": "Phoenix",
            "responsible": "Issa Able",
            "address": "3121 E. Greenway Rd. #207, Phoenix, Arizona, United States of America",
            "website": "www.onelovegrapplingarts.com"
        },
        {
            "id": 7302,
            "name": "ARKA BJJ",
            "federationAbbr": "CBJJ",
            "country": "Brasil",
            "countryAbbr": "BR",
            "city": "Aracaju",
            "responsible": "Wagner Oliveira Costa Santos",
            "address": "Rua João Felipe Da Silva, Nª 296 (esquina Com Rua G), Loteamento Aquarius - Bairro: Zona De Expansão (aruana), Aracaju, Sergipe, Brasil",
            "website": "www.arkabjj.com.br"
        },
        {
            "id": 9750,
            "name": "Arka School Of Jiu-Jitsu, Missouri City",
            "federationAbbr": "USBJJF",
            "country": "United States of America",
            "countryAbbr": "US",
            "city": "Missouri City",
            "responsible": "Wancler Oliveira Costa Santos",
            "address": "4875 Highway 6, Ste B, Missouri City, Texas, United States of America",
            "website": "Houston, Texas"
        },
        {
            "id": 4441,
            "name": "Arlans Siqueira Jiu-Jitsu",
            "federationAbbr": "IBJJF",
            "country": "United Kingdom",
            "countryAbbr": "GB",
            "city": "Essex",
            "responsible": "Arlans de Menon Siqueira",
            "address": "Lake Forest House, Forest Road, Barkingside  , Essex, --, United Kingdom",
            "website": "www.arlanssiqueirabrazilianjiujitsu.co.uk"
        },
        {
            "id": 9070,
            "name": "Arm Brazilian Jiu-Jitsu",
            "federationAbbr": "CBJJ",
            "country": "Brasil",
            "countryAbbr": "BR",
            "city": "São Pedro Da Aldeia",
            "responsible": "Andre Luiz Martini de Castro Ferreira",
            "address": "Rua Francisco Santos, 178, São Pedro Da Aldeia, Rio De Janeiro, Brasil",
            "website": null
        },
        {
            "id": 8283,
            "name": "Armada Jiu-Jitsu Academy",
            "federationAbbr": "USBJJF",
            "country": "United States of America",
            "countryAbbr": "US",
            "city": "Winter Park",
            "responsible": "Leonardo Lopes Rodrigues",
            "address": "6808 Aloma Ave., Winter Park, Florida, United States of America",
            "website": "winterparkbjj.com"
        },
        {
            "id": 10207,
            "name": "Armageddon Jiu-Jitsu",
            "federationAbbr": "CBJJ",
            "country": "Brasil",
            "countryAbbr": "BR",
            "city": "Feira De Santana",
            "responsible": "Valnei da Cruz Valadão",
            "address": "Caminho Santa Bárbara, Casa 25, Feira De Santana, Ba, Brasil",
            "website": null
        },
        {
            "id": 10530,
            "name": "Armazen",
            "federationAbbr": "FPJJB",
            "country": "Portugal",
            "countryAbbr": "PT",
            "city": "Agualva-cacém, Lisboa",
            "responsible": "Fabio Fetter",
            "address": "Alto Da Bela Vista 86 L, Agualva-cacém, Lisboa, Portugal",
            "website": "armazenamf.com"
        },
        {
            "id": 5064,
            "name": "Armis Training Center",
            "federationAbbr": "CBJJ",
            "country": "Brasil",
            "countryAbbr": "BR",
            "city": "Londrina",
            "responsible": "Daniel Macedo Reis",
            "address": "Av. Garibaldi Deliberador 812, Pq. Res. Alcantara, Londrina, PR, Brasil",
            "website": "www.armiscenter.com.br"
        }
    ]
}