{
    "pagination": {
        "page": 8,
        "from": 140,
        "to": 160,
        "pageSize": 20,
        "lastPage": 358,
        "totalRecords": 7149
    },
    "list": [
        {
            "id": 301,
            "name": "Academia Deo",
            "federationAbbr": "CBJJ",
            "country": "Brasil",
            "countryAbbr": "BR",
            "city": "Brasília",
            "responsible": "Deoclecio Paulo",
            "address": "Qr 106 Conjunto 02 Casa N: 07, Samanbaia Sul, Brasília, DF, Brasil",
            "website": "www.deojiujitsu.com.br"
        },
        {
            "id": 7701,
            "name": "Academia DL BJJ",
            "federationAbbr": "FPJJB",
            "country": "Portugal",
            "countryAbbr": "PT",
            "city": "Queluz",
            "responsible": "Daniel dos Santos Lopes",
            "address": "Av. Da República, 97, Queluz, Lisboa, Portugal",
            "website": "Amadora"
        },
        {
            "id": 5412,
            "name": "Academia Dojo Aguia BJJ - Ceará",
            "federationAbbr": "CBJJ",
            "country": "Brasil",
            "countryAbbr": "BR",
            "city": "Fortaleza",
            "responsible": "Moises Robertson Laurentino da Costa",
            "address": "Rua Aspirante Mendes 167, Aerolândia, Fortaleza, CE, Brasil",
            "website": null
        },
        {
            "id": 3941,
            "name": "Academia Eduardo Santoro",
            "federationAbbr": "CBJJ",
            "country": "Brasil",
            "countryAbbr": "BR",
            "city": "São Paulo",
            "responsible": "Luiz Guilherme Fernandes de Jesus",
            "address": "Rua Eng. Mesquita Sampaio 38 , Chácaras Santo Antonio, São Paulo, SP, Brasil",
            "website": "www.eduardosantorojj.com.br"
        },
        {
            "id": 7012,
            "name": "Academia Emballus",
            "federationAbbr": "CBJJ",
            "country": "Brasil",
            "countryAbbr": "BR",
            "city": "Ji Paraná",
            "responsible": "Vanderlei Rodrigues do Carmo",
            "address": "Av. Marechal Rondon n: 257, Centro, Ji Paraná, Rondônia, Brasil",
            "website": null
        },
        {
            "id": 8012,
            "name": "Academia Erivelton Tartaruga",
            "federationAbbr": "CBJJ",
            "country": "Brasil",
            "countryAbbr": "BR",
            "city": "Boa Vista",
            "responsible": "Erivelton de Melo Santos",
            "address": "Rua Abel Monteiro Reis, 1598 Pintolandia, Boa Vista, Rr, Brasil",
            "website": null
        },
        {
            "id": 5955,
            "name": "Academia Escudo",
            "federationAbbr": "CBJJ",
            "country": "Brasil",
            "countryAbbr": "BR",
            "city": "Brasília",
            "responsible": "Douglas Pinheiro Lopes",
            "address": "Quadra 510 Conjunto 07 Casa 04, Recanto das Emas, Brasília, DF, Brasil",
            "website": null
        },
        {
            "id": 6964,
            "name": "Academia Faisca e Fumaça Jiu-Jitsu",
            "federationAbbr": "CBJJ",
            "country": "Brasil",
            "countryAbbr": "BR",
            "city": "Aracaju",
            "responsible": "Francisco Carlos Menezes",
            "address": "Rua A N: 217, Jardim Costa do Sol - Bairro: Atalaia Velha, Aracaju, Sergipe, Brasil",
            "website": null
        },
        {
            "id": 9801,
            "name": "Academia Fala De Luta",
            "federationAbbr": "FPJJB",
            "country": "Portugal",
            "countryAbbr": "PT",
            "city": "Vila Nova De Gaia",
            "responsible": "Paulo Jorge de Sá Nogueira",
            "address": "Praceta Nova Do Fontão Loja 84e, Vila Nova De Gaia, Gaia, Portugal",
            "website": null
        },
        {
            "id": 6087,
            "name": "Academia Fight For Life",
            "federationAbbr": "CBJJ",
            "country": "Brasil",
            "countryAbbr": "BR",
            "city": "Limeira ",
            "responsible": "Cleber Crispin",
            "address": "Rua São João n: 380, Vila São João, Limeira , São Paulo, Brasil",
            "website": null
        },
        {
            "id": 3453,
            "name": "Academia Fitness Combat",
            "federationAbbr": "CBJJ",
            "country": "Brasil",
            "countryAbbr": "BR",
            "city": "Dourados",
            "responsible": "Marcos Cesar da Silva Souza",
            "address": "Rua Cornelia Cerzosimo de Souza 920 , Jardim Maringá, Dourados, MS, Brasil",
            "website": "fcombat.com.br"
        },
        {
            "id": 378,
            "name": "Academia Força e União - Matriz",
            "federationAbbr": "CBJJ",
            "country": "Brasil",
            "countryAbbr": "BR",
            "city": "Boa Vista",
            "responsible": "Richelli Benicio de Souza",
            "address": "Rua Perpétua 359, Boa Vista, RR, Brasil",
            "website": "www.futeam.com.br"
        },
        {
            "id": 479,
            "name": "Academia Fortaleza",
            "federationAbbr": "CBJJ",
            "country": "Brasil",
            "countryAbbr": "BR",
            "city": "--",
            "responsible": null,
            "address": "  , , --, --, Brasil",
            "website": ""
        },
        {
            "id": 6022,
            "name": "Academia Freeza BJJ Team",
            "federationAbbr": "CBJJ",
            "country": "Brasil",
            "countryAbbr": "BR",
            "city": "Condor",
            "responsible": "Ubiratan Puga Ferreira",
            "address": "Rua Nova 1 número 13, Honório é Roberto, Condor, Belém, Brasil",
            "website": null
        },
        {
            "id": 7618,
            "name": "Academia Fuscao Silva",
            "federationAbbr": "CBJJ",
            "country": "Brasil",
            "countryAbbr": "BR",
            "city": "Pouso alegre",
            "responsible": "Macio Aparecido da Silva",
            "address": "Avenida Duque De Caxias, 131, Academia - Andar 2, Pouso alegre, Minas gerais, Brasil",
            "website": null
        },
        {
            "id": 4763,
            "name": "Academia Gaia Fighter",
            "federationAbbr": "CBJJ",
            "country": "Brasil",
            "countryAbbr": "BR",
            "city": "Macé",
            "responsible": null,
            "address": "Rua Coronel Sisernando 632 Loja, Visconde de Araujo, Macé, RJ, Brasil",
            "website": ""
        },
        {
            "id": 4175,
            "name": "Academia Garcia",
            "federationAbbr": "CBJJ",
            "country": "Brasil",
            "countryAbbr": "BR",
            "city": "Cel Fabriciano ",
            "responsible": "José Nacino Garcia",
            "address": "Rua Jacaraipe 1407 Atrás da Casa do Cimento, Giovanini, Cel Fabriciano , MG, Brasil",
            "website": null
        },
        {
            "id": 7094,
            "name": "Academia Gerando Vida",
            "federationAbbr": "CBJJ",
            "country": "Brasil",
            "countryAbbr": "BR",
            "city": "São Gonçalo",
            "responsible": "João Batista Freire da Silva",
            "address": "Av. Expedicionário Bittencourt Rodrigues da Costa Lote: 8 Quadra 20, Bairro: Maria Paula, São Gonçalo, Rio de Janeiro, Brasil",
            "website": null
        },
        {
            "id": 7256,
            "name": "Academia Gorila",
            "federationAbbr": "IBJJF",
            "country": "Poland",
            "countryAbbr": "PL",
            "city": "Warsaw ",
            "responsible": "Jedrzej Jakub Loska",
            "address": "Kopernika 36/40, Warsaw , Poland",
            "website": "www.gorila.pl"
        },
        {
            "id": 6784,
            "name": "Academia Gracie Barra Brodowski - SP",
            "federationAbbr": "CBJJ",
            "country": "Brasil",
            "countryAbbr": "BR",
            "city": "Brodowski",
            "responsible": "Flavio Araujo Guidolin Silva",
            "address": "Rua Marechal Deodoro n: 326, Academia, Brodowski, São Paulo, Brasil",
            "website": null
        }
    ]
}