{
    "pagination": {
        "page": 18,
        "from": 340,
        "to": 360,
        "pageSize": 20,
        "lastPage": 358,
        "totalRecords": 7149
    },
    "list": [
        {
            "id": 6430,
            "name": "Alliance Boca Raton",
            "federationAbbr": "USBJJF",
            "country": "United States of America",
            "countryAbbr": "US",
            "city": "Boca Raton",
            "responsible": "Alexandre Viana de Britto",
            "address": "19805 Hampton Drive Ste D1-2, Boca Raton, FL, United States of America",
            "website": "www.AllianceBocaRaton.com"
        },
        {
            "id": 5407,
            "name": "Alliance Butantã",
            "federationAbbr": "CBJJ",
            "country": "Brasil",
            "countryAbbr": "BR",
            "city": "São Paulo",
            "responsible": "Sebastião Sergio da Silva Alves",
            "address": "Avenida Jorge João Saad 373 Morumbi, 2 Andar, São Paulo, São Paulo, Brasil",
            "website": "https://www.alliancebutanta.com.br"
        },
        {
            "id": 5061,
            "name": "Alliance Campinas",
            "federationAbbr": "CBJJ",
            "country": "Brasil",
            "countryAbbr": "BR",
            "city": "Campinas",
            "responsible": "Adriano Ribeiro Pires",
            "address": "Rua Artur Paioli 297, Jardim Nossa Senhora Auxiliadora, Campinas, SP, Brasil",
            "website": "alliancecampinas.com.br"
        },
        {
            "id": 6594,
            "name": "Alliance Campo Grande",
            "federationAbbr": "CBJJ",
            "country": "Brasil",
            "countryAbbr": "BR",
            "city": "Campo Grande",
            "responsible": "Robson Roberto Duarte Alencar",
            "address": "Av Mato Grosso 861, Centro, Campo Grande, MS, Brasil",
            "website": "www.alliancems.com.br"
        },
        {
            "id": 8482,
            "name": "Alliance Campo Grande Centro",
            "federationAbbr": "CBJJ",
            "country": "Brasil",
            "countryAbbr": "BR",
            "city": "Campo Grande",
            "responsible": "Marco Antonio Goés Felizardo",
            "address": "Avenida Alvorada, 159 - Jardim Dos Estados, Campo Grande, Ms, Brasil",
            "website": "www.alliancecgcentro.com.br"
        },
        {
            "id": 7541,
            "name": "Alliance Casale",
            "federationAbbr": "IBJJF",
            "country": "Italy",
            "countryAbbr": "IT",
            "city": "Casale Monferrato (AL)",
            "responsible": "Sandro Spampinato",
            "address": "Via Della Non Violenza 1, Casale Monferrato (AL), Italy",
            "website": "www.alliancecasale.com"
        },
        {
            "id": 8923,
            "name": "Alliance Centro SP",
            "federationAbbr": "CBJJ",
            "country": "Brasil",
            "countryAbbr": "BR",
            "city": "São Paulo",
            "responsible": "Ricardo Ramos de Mesquita",
            "address": "Av Duque De Caxias 129, 129, São Paulo, Sp, Brasil",
            "website": null
        },
        {
            "id": 4334,
            "name": "Alliance Charlotte",
            "federationAbbr": "USBJJF",
            "country": "United States of America",
            "countryAbbr": "US",
            "city": "Charlotte",
            "responsible": "Lucas Alves Lepri",
            "address": "1636 Sardis Road North Ste 170 , Charlotte, NC, United States of America",
            "website": "lepribjj.com"
        },
        {
            "id": 7739,
            "name": "Alliance Chile",
            "federationAbbr": "IBJJF",
            "country": "Chile",
            "countryAbbr": "CL",
            "city": "Santiago de Chile",
            "responsible": "Alejandro Enrique Villaparedes Quiroz",
            "address": "Hernando de Aguirre 162, Providencia, Oficina 204 , Santiago de Chile, Región Metropolitana, Chile",
            "website": "Alliancebjj.cl"
        },
        {
            "id": 6846,
            "name": "Alliance Coral Springs",
            "federationAbbr": "USBJJF",
            "country": "United States of America",
            "countryAbbr": "US",
            "city": "Coral Springs",
            "responsible": "Nei Seda",
            "address": "4674 Coral Ridge Dr. , Coral Springs, FL, United States of America",
            "website": "www.alliancecoralsprings.com"
        },
        {
            "id": 6578,
            "name": "Alliance Core Brazilian Jiu-Jitsu Academy",
            "federationAbbr": "USBJJF",
            "country": "United States of America",
            "countryAbbr": "US",
            "city": "Stanhope",
            "responsible": "Mario Sergio Names Reis",
            "address": "8 US 206, Stanhope, NJ, United States of America",
            "website": "www.corebjjnj.com"
        },
        {
            "id": 5259,
            "name": "Alliance Costa Rica",
            "federationAbbr": "IBJJF",
            "country": "Costa Rica",
            "countryAbbr": "CR",
            "city": "San Jose",
            "responsible": "Alci Cleiton Pereira da Costa",
            "address": "Tibas  , , San Jose, Costa Rica",
            "website": ""
        },
        {
            "id": 3883,
            "name": "Alliance Croatia",
            "federationAbbr": "IBJJF",
            "country": "Croatia",
            "countryAbbr": "HR",
            "city": "Zagreb",
            "responsible": "Dubravko Colic",
            "address": "Jarunska 5  , , Zagreb, --, Croatia",
            "website": "--"
        },
        {
            "id": 9670,
            "name": "Alliance Cuiabá",
            "federationAbbr": "CBJJ",
            "country": "Brasil",
            "countryAbbr": "BR",
            "city": "Cuiabá",
            "responsible": "Otávio Santos Marinho de Oliveira",
            "address": "Av Haiti, N 500, Jd Das Américas, Cuiabá, Mato Grosso, Brasil",
            "website": null
        },
        {
            "id": 7297,
            "name": "Alliance Dallas",
            "federationAbbr": "USBJJF",
            "country": "United States of America",
            "countryAbbr": "US",
            "city": "Dallas",
            "responsible": "João Gabriel de Oliveira e S. Rocha",
            "address": "1901 Royal Ln ste 109, Dallas, TX, United States of America",
            "website": "www.doublefivedallas.com"
        },
        {
            "id": 2259,
            "name": "Alliance Ecuador",
            "federationAbbr": "IBJJF",
            "country": "Ecuador",
            "countryAbbr": "EC",
            "city": "Guayaquil",
            "responsible": "Fernando Jose Di Pierro",
            "address": "Av. Carlos Julio Arosemeur KM 1,5 Vnn. Catolica, , Guayaquil, GU, Ecuador",
            "website": ""
        },
        {
            "id": 3052,
            "name": "Alliance El Paso",
            "federationAbbr": "USBJJF",
            "country": "United States of America",
            "countryAbbr": "US",
            "city": "El Paso",
            "responsible": "Tatsuo Goya",
            "address": "11385 James Watt B-7, El Paso, TX, United States of America",
            "website": "www.elpjiujitsu.com"
        },
        {
            "id": 28,
            "name": "Alliance ES",
            "federationAbbr": "CBJJ",
            "country": "Brasil",
            "countryAbbr": "BR",
            "city": "ES",
            "responsible": null,
            "address": "  , , ES, ES, Brasil",
            "website": ""
        },
        {
            "id": 7595,
            "name": "Alliance Fortaleza",
            "federationAbbr": "CBJJ",
            "country": "Brasil",
            "countryAbbr": "BR",
            "city": "Fortaleza",
            "responsible": "Guilherme Rocha de Faria",
            "address": "Rua General Tertuliano Potiguara, 1861 - Cocó, Fortaleza - CE, 60135-280, Fortaleza, Ceará, Brasil",
            "website": "https://alliancefortaleza.com.br/"
        },
        {
            "id": 6927,
            "name": "Alliance Framingham",
            "federationAbbr": "USBJJF",
            "country": "United States of America",
            "countryAbbr": "US",
            "city": "Framingham",
            "responsible": "Joao Paulo Faria",
            "address": "16 Concord Street, Framingham, MA, United States of America",
            "website": "alliancebjjframingham@gmail.com"
        }
    ]
}