{
    "pagination": {
        "page": 315,
        "from": 6280,
        "to": 6300,
        "pageSize": 20,
        "lastPage": 358,
        "totalRecords": 7149
    },
    "list": [
        {
            "id": 8714,
            "name": "Team Brothers JJB",
            "federationAbbr": "CBJJ",
            "country": "Brasil",
            "countryAbbr": "BR",
            "city": "Campinas",
            "responsible": "André Luis de Munari Silva",
            "address": "Av. Mal. Rondon, 1638 - Jardim Chapadão, Campinas, São Paulo, Brasil",
            "website": "@bjjteambrothers"
        },
        {
            "id": 6982,
            "name": "Team Bruno Costa Jiu-Jitsu",
            "federationAbbr": "CBJJ",
            "country": "Brasil",
            "countryAbbr": "BR",
            "city": "São João da Barra",
            "responsible": "Bruno Ernesto da Costa",
            "address": "Rua João Francisco de Almeida n: 321, Bairro: Centro, São João da Barra, Rio de Janeiro, Brasil",
            "website": null
        },
        {
            "id": 10150,
            "name": "Team Bruno Scooby",
            "federationAbbr": "CBJJ",
            "country": "Brasil",
            "countryAbbr": "BR",
            "city": "Rio De Janeiro",
            "responsible": "Bruno Ramos Dias Rozena",
            "address": "Rua João Alberto N 19, Rio De Janeiro, Rio De Janeiro, Brasil",
            "website": null
        },
        {
            "id": 10519,
            "name": "Team Bruno Silva Jiu-Jitsu",
            "federationAbbr": "CBJJ",
            "country": "Brasil",
            "countryAbbr": "BR",
            "city": "Salvador",
            "responsible": "Andre Gomes Costa",
            "address": "Rua Mocambo 787 ,trobogy, Chácara Mocambo, Salvador, Bahia, Brasil",
            "website": "@1Familiasilvajiujitsu"
        },
        {
            "id": 4470,
            "name": "Team Buda International",
            "federationAbbr": "IBJJF",
            "country": "Malaysia",
            "countryAbbr": "MY",
            "city": "Kuala Lumpur",
            "responsible": "Bruno Cardoso Barbosa",
            "address": "Monarchy MMA Gym Sdn Bhd, lot 146-147B 1st Fl, Wisma Mpl  , , Kuala Lumpur, KL, Malaysia",
            "website": ""
        },
        {
            "id": 808,
            "name": "Team Buda JJ",
            "federationAbbr": "CBJJ",
            "country": "Brasil",
            "countryAbbr": "BR",
            "city": "Petrópolis",
            "responsible": null,
            "address": "Rua Casemiro de Abreu 247 , Centro, Petrópolis, RJ, Brasil",
            "website": "teambudajiujitsu.com.br"
        },
        {
            "id": 8294,
            "name": "Team Butler Brazilian Jiu-Jitsu",
            "federationAbbr": "USBJJF",
            "country": "United States of America",
            "countryAbbr": "US",
            "city": "Bonney Lake",
            "responsible": "Jarrod Lewis Butler ",
            "address": "20616 Hwy 410 E, Bonney Lake, Washington, United States of America",
            "website": "https://www.bonneylakebrazilianjiujitsu.com"
        },
        {
            "id": 5798,
            "name": "Team Capo BJJ",
            "federationAbbr": "USBJJF",
            "country": "United States of America",
            "countryAbbr": "US",
            "city": "San Juan Capistrano",
            "responsible": "Rafael Sánchez Villanueva",
            "address": "31921 Camino Capistrano #20, San Juan Capistrano, CA, United States of America",
            "website": "www.teamcapobjj.com"
        },
        {
            "id": 6186,
            "name": "Team Cappato",
            "federationAbbr": "CBJJ",
            "country": "Brasil",
            "countryAbbr": "BR",
            "city": "Rio de Janeiro",
            "responsible": "Sandro Soares Barbosa",
            "address": "Rua mora n: 1014 - 3 andar, Campo Grande, Rio de Janeiro, Rio de Janeiro, Brasil",
            "website": null
        },
        {
            "id": 5511,
            "name": "Team Carcará Brazilian Jiu-Jitsu",
            "federationAbbr": "CBJJ",
            "country": "Brasil",
            "countryAbbr": "BR",
            "city": "Camaçari",
            "responsible": "Ralex Oliveira do Nascimento",
            "address": "Rua da Gloria n: 26, bairro: Gleba C, Camaçari, BA, Brasil",
            "website": null
        },
        {
            "id": 312,
            "name": "Team Carvalho",
            "federationAbbr": "CBJJ",
            "country": "Brasil",
            "countryAbbr": "BR",
            "city": "Salvador",
            "responsible": "Enilton de Santana Ribeiro de Mattos",
            "address": "Av. Oceânica 295, Barra, Salvador, BA, Brasil",
            "website": "www.teamcarvalho.com"
        },
        {
            "id": 10578,
            "name": "Team Carvalho Asia",
            "federationAbbr": "IBJJF",
            "country": "China",
            "countryAbbr": "CN",
            "city": "Beijing",
            "responsible": "Jefferson Nunes dos Santos",
            "address": "Airport Street, Shunyi District, Beijing . Yu'an Road Convention And Exhibition Fame Phase 1 Phase 3 Room 808, Building No.3, Beijing, China",
            "website": null
        },
        {
            "id": 7295,
            "name": "Team Carvalho Candeias-BA",
            "federationAbbr": "CBJJ",
            "country": "Brasil",
            "countryAbbr": "BR",
            "city": "Candeias",
            "responsible": "Josevan Fernandes de Souza",
            "address": "Rua Andaluzia n: 75, COMPLEMENTO - 2 andar casa, Candeias, Bahia, Brasil",
            "website": null
        },
        {
            "id": 3646,
            "name": "Team Carvalho Mexico",
            "federationAbbr": "IBJJF",
            "country": "Mexico",
            "countryAbbr": "MX",
            "city": "Guadalajara",
            "responsible": "Rafael Souza Salomao",
            "address": "Av. Inglaterra x3222-9B  , Prados Vallarta, Guadalajara, JL, Mexico",
            "website": "http://www.salomaojiujitsu.com/"
        },
        {
            "id": 7068,
            "name": "Team Carvalho Norway",
            "federationAbbr": "IBJJF",
            "country": "Norway",
            "countryAbbr": "NO",
            "city": "Lier",
            "responsible": "Bruno C. Pinto Gomes",
            "address": "Skarpsnoveien 21, Lier, Norway",
            "website": "-"
        },
        {
            "id": 8518,
            "name": "Team Carvalho QG",
            "federationAbbr": "CBJJ",
            "country": "Brasil",
            "countryAbbr": "BR",
            "city": "Salvador ",
            "responsible": "Edson Carvalho Pinto",
            "address": "Av Oceânica 295 Barra, Salvador , Ba, Brasil",
            "website": "www.teamcarvalho.com"
        },
        {
            "id": 6324,
            "name": "Team Carvalho Ricardo Tannus",
            "federationAbbr": "CBJJ",
            "country": "Brasil",
            "countryAbbr": "BR",
            "city": "Ipiaú",
            "responsible": "Edson Carvalho Pinto",
            "address": "Praça Cinquentanário n:137, Centro, Ipiaú, Bahia, Brasil",
            "website": null
        },
        {
            "id": 2539,
            "name": "Team Carvalho Sweden",
            "federationAbbr": "IBJJF",
            "country": "Sweden",
            "countryAbbr": "SE",
            "city": "Mölndal",
            "responsible": "Andre Gomes Costa",
            "address": "Fullblodsgatan 5a, , Mölndal, Västra Gotland, Sweden",
            "website": ""
        },
        {
            "id": 10471,
            "name": "Team Carvalho Treasure Coast",
            "federationAbbr": "USBJJF",
            "country": "United States of America",
            "countryAbbr": "US",
            "city": "Fort Pierce",
            "responsible": "Bruno C. Pinto Gomes",
            "address": "113 Orange Avenue, Fort Pierce, Florida, United States of America",
            "website": "Teamcarvalhotreasurecoast.com"
        },
        {
            "id": 3922,
            "name": "Team Cavalcanti BJJ Poland",
            "federationAbbr": "IBJJF",
            "country": "Poland",
            "countryAbbr": "PL",
            "city": "Poznan",
            "responsible": "Ricardo Cavalcanti",
            "address": "Newtona 4B/18  , , Poznan, --, Poland",
            "website": "www.mma-poznan.pl"
        }
    ]
}