{
    "pagination": {
        "page": 227,
        "from": 4520,
        "to": 4540,
        "pageSize": 20,
        "lastPage": 358,
        "totalRecords": 7149
    },
    "list": [
        {
            "id": 2603,
            "name": "Marcus Soares Academy",
            "federationAbbr": "IBJJF",
            "country": "Canada",
            "countryAbbr": "CA",
            "city": "Surrey",
            "responsible": "Marcus Vinícius de Macedo Soares",
            "address": "10678 138 A st. #208 , , Surrey, BC, Canada",
            "website": "www.marcussoares.com"
        },
        {
            "id": 5727,
            "name": "Marcus Soares Brazilian Jiu-Jitsu USA",
            "federationAbbr": "USBJJF",
            "country": "United States of America",
            "countryAbbr": "US",
            "city": "Centralia",
            "responsible": "Marcus Vinícius de Macedo Soares",
            "address": "2568 Seminary Hill Road, Centralia, WA, United States of America",
            "website": "www.marcussoares.com"
        },
        {
            "id": 9208,
            "name": "Marcus Vinicius Jiu-Jitsu",
            "federationAbbr": "CBJJ",
            "country": "Brasil",
            "countryAbbr": "BR",
            "city": "Campo Grande",
            "responsible": "Marcus Vinicius  Barbosa Carvalho",
            "address": "Rua Dr. Michel Scaff, 201, Bairro Chácara Cachoeira, Campo Grande, Mato Grosso Do Sul, Brasil",
            "website": "Rua Dr. Michel Scaff, 201 Chácara Cachoeira Campo Grande |MS"
        },
        {
            "id": 8309,
            "name": "Maré Top Team",
            "federationAbbr": "CBJJ",
            "country": "Brasil",
            "countryAbbr": "BR",
            "city": "Rio De Janeiro",
            "responsible": "Douglas de Oliveira Gentil",
            "address": "Rua Ary Leão 33, Bonsucesso, Rio De Janeiro, Rj, Brasil",
            "website": null
        },
        {
            "id": 5554,
            "name": "Maremoto BJJ",
            "federationAbbr": "IBJJF",
            "country": "Mexico",
            "countryAbbr": "MX",
            "city": "Culiacan",
            "responsible": "Helio Nunes Carcereri",
            "address": "Angel de la Guardia #1491, Culiacan, SN, Mexico",
            "website": "www.facebook.com/maremoto"
        },
        {
            "id": 9906,
            "name": "Marga Brazilian Jiu-Jitsu Radom",
            "federationAbbr": "IBJJF",
            "country": "Poland",
            "countryAbbr": "PL",
            "city": "Radom",
            "responsible": "Łukasz Karol Bilski",
            "address": "Batorego 30/1, Radom, Poland, Poland",
            "website": "margabjj.pl"
        },
        {
            "id": 10603,
            "name": "Mariano Jiu-Jitsus",
            "federationAbbr": "CBJJ",
            "country": "Brasil",
            "countryAbbr": "BR",
            "city": "Campos Dos Goytacazes",
            "responsible": "Ronaldy Santos Mariano Jùnior",
            "address": "Av Alberto Lamego 405 A B11-103, Campos Dos Goytacazes, Rj, Brasil",
            "website": null
        },
        {
            "id": 3737,
            "name": "Marinho Fontes Jiu-Jitsu",
            "federationAbbr": "CBJJ",
            "country": "Brasil",
            "countryAbbr": "BR",
            "city": "Pompeia",
            "responsible": "Mario Gonzalez Fontes",
            "address": "Rua Euclides da Cunha n: 201, Altos, Pompeia, SP, Brasil",
            "website": "marinhojiujitsu.com.br"
        },
        {
            "id": 9717,
            "name": "Mario Marciano Jiu Jitsu",
            "federationAbbr": "CBJJ",
            "country": "Brasil",
            "countryAbbr": "BR",
            "city": "Sao Paulo",
            "responsible": "Mario Henrique Marciano",
            "address": "Avenida Diogenes Ribeiro De Lima, 3521, Fundos, Sao Paulo, Sao Paulo, Brasil",
            "website": null
        },
        {
            "id": 5762,
            "name": "Mario Sperry Jiu-Jitsu",
            "federationAbbr": "USBJJF",
            "country": "United States of America",
            "countryAbbr": "US",
            "city": "Miami",
            "responsible": "José Mário Sperry",
            "address": "760 NW 4th Street, Miami, FL, United States of America",
            "website": "mariosperry.com"
        },
        {
            "id": 7171,
            "name": "Mario Sperry Jiu-Jitsu Brasil",
            "federationAbbr": "CBJJ",
            "country": "Brasil",
            "countryAbbr": "BR",
            "city": "Rio Grande do Sul",
            "responsible": "José Mário Sperry",
            "address": "Av. Coronel Marcos n: 2352 Prédio, Bairro: Ipanema, Rio Grande do Sul, Rio Grande do Sul, Brasil",
            "website": null
        },
        {
            "id": 2692,
            "name": "Mario Sukata Internacional",
            "federationAbbr": "IBJJF",
            "country": "Argentina",
            "countryAbbr": "AR",
            "city": "Capital Federal ",
            "responsible": "Frederico Guilherme Peixoto",
            "address": "Coronel Apolinario Figueroa 934  , Capital Federal , AR, Argentina",
            "website": "sukatabjj.com"
        },
        {
            "id": 708,
            "name": "Mario Sukata JJ",
            "federationAbbr": "CBJJ",
            "country": "Brasil",
            "countryAbbr": "BR",
            "city": null,
            "responsible": "Robert Christian Barbosa",
            "address": "Brasil",
            "website": null
        },
        {
            "id": 8872,
            "name": "Marisa Barros Jiu-Jitsu Team",
            "federationAbbr": "CBJJ",
            "country": "Brasil",
            "countryAbbr": "BR",
            "city": "Brasília",
            "responsible": "Marisa Barros de Araujo",
            "address": "Qnm 22 Conjunto N Casa 29, Brasília, Distrito Federal, Brasil",
            "website": null
        },
        {
            "id": 9995,
            "name": "Mark Dong's Dragon's Den SDA",
            "federationAbbr": "USBJJF",
            "country": "United States of America",
            "countryAbbr": "US",
            "city": "Houston",
            "responsible": "Mark Hung-En Dong",
            "address": "2110 N. Fry Rd #b, Houston, Tx, United States of America",
            "website": "www.dragonsdensda.com"
        },
        {
            "id": 9587,
            "name": "Mark Ramos Academy",
            "federationAbbr": "USBJJF",
            "country": "United States of America",
            "countryAbbr": "US",
            "city": "Lodi",
            "responsible": "Mark Daniel Ramos",
            "address": "79 S Main Street, Unit 7, Lodi, New Jersey, United States of America",
            "website": null
        },
        {
            "id": 8925,
            "name": "Markinhos Brazilian Jiu Jitsu",
            "federationAbbr": "CBJJ",
            "country": "Brasil",
            "countryAbbr": "BR",
            "city": "Porto Alegre",
            "responsible": "Marcos Paulo Machado dos Santos",
            "address": "Av. Sertório 6315, Bairro São Sebastião, Porto Alegre, Rio Grande Do Sul, Brasil",
            "website": "Porto Alegre"
        },
        {
            "id": 5157,
            "name": "Markle Gold Team",
            "federationAbbr": "USBJJF",
            "country": "United States of America",
            "countryAbbr": "US",
            "city": "Richmond",
            "responsible": "James Robert Markle",
            "address": "6119 Sunnyside Court  , , Richmond, TX, United States of America",
            "website": "www.facebook.com/marklegoldteam"
        },
        {
            "id": 6387,
            "name": "Marlon Colorado BJJ",
            "federationAbbr": "USBJJF",
            "country": "United States of America",
            "countryAbbr": "US",
            "city": "Woodside",
            "responsible": "Rocian Gracie Junior",
            "address": "50-14 Skillman Ave, Woodside, NY, United States of America",
            "website": "www.MarlonColoradoBJJNYC.com"
        },
        {
            "id": 3617,
            "name": "Marlon Loor BJJ",
            "federationAbbr": "USBJJF",
            "country": "United States of America",
            "countryAbbr": "US",
            "city": "Charlotte",
            "responsible": "Marlond Ricauter Loor Vera",
            "address": "15105 H John J. Delaney Drive   , , Charlotte, NC, United States of America",
            "website": "www.marlonloorvera.com"
        }
    ]
}