{
    "pagination": {
        "page": 115,
        "from": 2280,
        "to": 2300,
        "pageSize": 20,
        "lastPage": 358,
        "totalRecords": 7149
    },
    "list": [
        {
            "id": 9959,
            "name": "Escola De Jiu-Jitsu Patricia Amaral",
            "federationAbbr": "CBJJ",
            "country": "Brasil",
            "countryAbbr": "BR",
            "city": "Silva Jardim",
            "responsible": "Patricia Alvarenga do Amaral",
            "address": "Joaquim Peixoto Da Fonseca, 148 Casa 02 , Reginópolis, Silva Jardim, Rj, Brasil",
            "website": null
        },
        {
            "id": 10604,
            "name": "Escola de Jiu-Jitsu Paulo Pereira",
            "federationAbbr": "CBJJ",
            "country": "Brasil",
            "countryAbbr": "BR",
            "city": "Cabo Frio",
            "responsible": "Paulo Jose Antunes Pereira",
            "address": "Rua Apolo Três, 08, Verão Vermelho, Cabo Frio, Rj, Brasil",
            "website": null
        },
        {
            "id": 9120,
            "name": "Escola De Jiu-Jitsu Raízes",
            "federationAbbr": "CBJJ",
            "country": "Brasil",
            "countryAbbr": "BR",
            "city": "Itu",
            "responsible": "Marcos Matias dos Santos",
            "address": "Rua Orlando Góes, 105, Itu, São Paulo, Brasil",
            "website": null
        },
        {
            "id": 10749,
            "name": "Escola De Jiu-Jitsu Roberto Lima",
            "federationAbbr": "CBJJ",
            "country": "Brasil",
            "countryAbbr": "BR",
            "city": "Natividade",
            "responsible": "Roberto Gonçalves de Lima",
            "address": "Rua Monsenhor Miguel Dos Reis Mello 43 Liberdade, Natividade, Rio De Janeiro, Brasil",
            "website": null
        },
        {
            "id": 6355,
            "name": "Escola de Jiu-Jitsu Rodrigo Moraes",
            "federationAbbr": "CBJJ",
            "country": "Brasil",
            "countryAbbr": "BR",
            "city": "Itapeva",
            "responsible": "Rodrigo de Souza Moraes",
            "address": "Rua Carlos de Campos n: 26 Sala, Centro, Itapeva, São Paulo, Brasil",
            "website": null
        },
        {
            "id": 5153,
            "name": "Escola de Jiu-Jitsu Suzuki",
            "federationAbbr": "CBJJ",
            "country": "Brasil",
            "countryAbbr": "BR",
            "city": "Florianopolis",
            "responsible": "Fábio Gevaerd Suzuki",
            "address": "Rua dos Navegantes 192 Casa, Estreito, Florianopolis, SC, Brasil",
            "website": "instagram.com/escoladejiujitsusuzuki"
        },
        {
            "id": 10697,
            "name": "Escola De Jiu-Jitsu Verbo Da Vida",
            "federationAbbr": "CBJJ",
            "country": "Brasil",
            "countryAbbr": "BR",
            "city": "Belo Horizonte",
            "responsible": "Thiago Carvalho Farias",
            "address": "Avenida Tereza Cristina, 960, Belo Horizonte, Minas Gerais, Brasil",
            "website": "https://www.instagram.com/verbobhjj/"
        },
        {
            "id": 6801,
            "name": "Escola de Jiu-Jitsu WS",
            "federationAbbr": "CBJJ",
            "country": "Brasil",
            "countryAbbr": "BR",
            "city": "Teresópolis",
            "responsible": "Washington Faria da Silva",
            "address": "Rua das Casas Populares n: 105, São Pedro, Teresópolis, Rio de Janeiro, Brasil",
            "website": null
        },
        {
            "id": 3425,
            "name": "Escola De Jiu-Jitu Dojô Bushikai",
            "federationAbbr": "CBJJ",
            "country": "Brasil",
            "countryAbbr": "BR",
            "city": "Castanhal",
            "responsible": "Kemps Bonifacio Melo de Souza",
            "address": "Rua Calderario De Brito Nº 195, Saudade 1, Castanhal, Pa, Brasil",
            "website": "http://www.bushikaijj.com.br"
        },
        {
            "id": 396,
            "name": "Escola de JJ Leão Teixeira",
            "federationAbbr": "CBJJ",
            "country": "Brasil",
            "countryAbbr": "BR",
            "city": "Rio de Janeiro",
            "responsible": "José Henrique Leão Teixeira Filho",
            "address": "Rua dos Oitis 20 Casa, Gávea, Rio de Janeiro, RJ, Brasil",
            "website": "www.escoladejiujitsu.com.br"
        },
        {
            "id": 8782,
            "name": "Escola De Luta André Silva",
            "federationAbbr": "CBJJ",
            "country": "Brasil",
            "countryAbbr": "BR",
            "city": "Rio De Janeiro",
            "responsible": "André Barbosa da Silva Moura",
            "address": "Rua Almira, N 3, Rio De Janeiro, Rj, Brasil",
            "website": "@gfteamriodaspedras"
        },
        {
            "id": 6008,
            "name": "Escola de Luta Cassius Marcelo",
            "federationAbbr": "CBJJ",
            "country": "Brasil",
            "countryAbbr": "BR",
            "city": "Rio de Janeiro",
            "responsible": "Cassius Marcelo Nascimento Souza Lima",
            "address": "Rua Araújo Leitão n: 607 bl 3 / 402, Engenho Novo, Rio de Janeiro, Rio de Janeiro, Brasil",
            "website": null
        },
        {
            "id": 9521,
            "name": "Escola De Lutas Agnaldo Pereira Dos Santos Ltda",
            "federationAbbr": "CBJJ",
            "country": "Brasil",
            "countryAbbr": "BR",
            "city": "Campo Grande",
            "responsible": "Agnaldo Pereira dos Santos",
            "address": "Rua Santo Angelo 212 - Coronel Antonino, Ra Academia, Campo Grande, Mato Grosso Do Sul, Brasil",
            "website": null
        },
        {
            "id": 10260,
            "name": "Escola De Lutas Americana",
            "federationAbbr": "CBJJ",
            "country": "Brasil",
            "countryAbbr": "BR",
            "city": "Americana",
            "responsible": "Jeferson Alves Padilha",
            "address": "Rua Portugal 282, Americana, São Paulo, Brasil",
            "website": null
        },
        {
            "id": 7401,
            "name": "Escola de Lutas FF",
            "federationAbbr": "CBJJ",
            "country": "Brasil",
            "countryAbbr": "BR",
            "city": "Rio de Janeiro",
            "responsible": "Fabio Florencio Alves",
            "address": "Estrada Adhemar Bebiano n: 1185 Apt 404 bloco 5, Bairro: Inhaúma, Rio de Janeiro, Rio de Janeiro, Brasil",
            "website": null
        },
        {
            "id": 9985,
            "name": "Escola De Lutas Michel Kmiec",
            "federationAbbr": "CBJJ",
            "country": "Brasil",
            "countryAbbr": "BR",
            "city": "Sao Gonçalo",
            "responsible": "Michel Martins Kmiec",
            "address": "Rua Caxambu, 269, Sao Gonçalo, Rj, Brasil",
            "website": "@escoladelutasmichelkmiec"
        },
        {
            "id": 7315,
            "name": "Escola de Lutas Weberty Viana",
            "federationAbbr": "CBJJ",
            "country": "Brasil",
            "countryAbbr": "BR",
            "city": "Brasilia",
            "responsible": "Weberty Viana de Sousa",
            "address": "Seen Tr 03 Conjunto 3 Sala, Asa Norte - APCEF DF, Brasilia, Distrito Federal, Brasil",
            "website": null
        },
        {
            "id": 7287,
            "name": "Escola Delariva Aveiro",
            "federationAbbr": "FPJJB",
            "country": "Portugal",
            "countryAbbr": "PT",
            "city": "Aveiro",
            "responsible": "Italo Jose Marques Alves",
            "address": "Avenida Dom Manuel De Almeida Trindade, N.º7, Aveiro, Aveiro, Portugal",
            "website": "www.delarivaveiro.pt"
        },
        {
            "id": 7513,
            "name": "Escola Delariva Viseu",
            "federationAbbr": "FPJJB",
            "country": "Portugal",
            "countryAbbr": "PT",
            "city": "Viseu",
            "responsible": "Italo Jose Marques Alves",
            "address": "Rua do Palacio do Gelo, n 3 Piso - 2,, Viseu, --, Portugal",
            "website": "www.delarivaviseu.pt"
        },
        {
            "id": 6771,
            "name": "Escola Familia Carvalho Jiu-Jitsu 01",
            "federationAbbr": "CBJJ",
            "country": "Brasil",
            "countryAbbr": "BR",
            "city": "Altamira",
            "responsible": "Jaedson Carvalho Barros",
            "address": "Rua Pitangas n:339 (Lote. Casa Nova), Casa de Esquina Bairro: Liberdade, Altamira, PA, Brasil",
            "website": null
        }
    ]
}