{
    "pagination": {
        "page": 154,
        "from": 3060,
        "to": 3080,
        "pageSize": 20,
        "lastPage": 358,
        "totalRecords": 7149
    },
    "list": [
        {
            "id": 6023,
            "name": "Gracie Barra Centro Campo Grande - MS",
            "federationAbbr": "CBJJ",
            "country": "Brasil",
            "countryAbbr": "BR",
            "city": "Campo Grande",
            "responsible": "Welton Reis dos Santos Junior",
            "address": "Avenida Joaquim Dornelas, 418, Centro, Campo Grande, MS, Brasil",
            "website": null
        },
        {
            "id": 9613,
            "name": "Gracie Barra Centro Penha - SC",
            "federationAbbr": "CBJJ",
            "country": "Brasil",
            "countryAbbr": "BR",
            "city": "Penha",
            "responsible": "Claudio Adriano Carraro",
            "address": "Avenida Nereu Ramos 768, Centro, Penha, Sc, Brasil",
            "website": null
        },
        {
            "id": 5825,
            "name": "Gracie Barra Centro RJ",
            "federationAbbr": "CBJJ",
            "country": "Brasil",
            "countryAbbr": "BR",
            "city": "Rio de Janeiro",
            "responsible": "Murillo Valporto de Sá Neto",
            "address": "Avenida Passos n: 65, Sobrado - Centro do Rio de Janeiro, Rio de Janeiro, Rio de Janeiro, Brasil",
            "website": "www.gbcentro.com.br"
        },
        {
            "id": 6995,
            "name": "Gracie Barra Centro São Gonçalo",
            "federationAbbr": "CBJJ",
            "country": "Brasil",
            "countryAbbr": "BR",
            "city": "Rio de Janeiro",
            "responsible": "Seidler Rodrigo S. Ziser",
            "address": "Rua Salvatore n: 10  - Sala 101, São Gonçalo, Rio de Janeiro, Rio de Janeiro, Brasil",
            "website": null
        },
        {
            "id": 2168,
            "name": "Gracie Barra Centro-Cosmópolis",
            "federationAbbr": "CBJJ",
            "country": "Brasil",
            "countryAbbr": "BR",
            "city": "Cosmópolis",
            "responsible": "Carlos Alberto Liberi",
            "address": "Rua Antonio Carlos Nogueira 855 , Centro, Cosmópolis, SP, Brasil",
            "website": ""
        },
        {
            "id": 2077,
            "name": "Gracie Barra Centro-Palmas",
            "federationAbbr": "CBJJ",
            "country": "Brasil",
            "countryAbbr": "BR",
            "city": "Palmas",
            "responsible": "Jefferson Costa Pinto",
            "address": "204 Sul  Casa 9 Alameda 11, Centro, Palmas, TO, Brasil",
            "website": null
        },
        {
            "id": 9681,
            "name": "Gracie Barra Ceres",
            "federationAbbr": "CBJJ",
            "country": "Brasil",
            "countryAbbr": "BR",
            "city": "Ceres",
            "responsible": "Rhamon Sousa Marques",
            "address": "Avenida Ministro Fernando Costa, 147, Ceres, Goiás, Brasil",
            "website": null
        },
        {
            "id": 9229,
            "name": "Gracie Barra Champaign",
            "federationAbbr": "USBJJF",
            "country": "United States of America",
            "countryAbbr": "US",
            "city": "Urbana",
            "responsible": "Joshua Cadenbach",
            "address": "408 North Race Street, Ste E, Urbana, Illinois, United States of America",
            "website": "www.gbchampaign.com"
        },
        {
            "id": 7491,
            "name": "Gracie Barra Champions",
            "federationAbbr": "USBJJF",
            "country": "United States of America",
            "countryAbbr": "US",
            "city": "Houston",
            "responsible": "Kurt Zettlemoyer",
            "address": "18730 State Highway 249, Suite C, Houston, TX, United States of America",
            "website": "gbchampions.com"
        },
        {
            "id": 4668,
            "name": "Gracie Barra Channel Islands",
            "federationAbbr": "IBJJF",
            "country": "United Kingdom",
            "countryAbbr": "GB",
            "city": "Jersey Channel Islands",
            "responsible": "Rob Staples",
            "address": "24 The Palms, La Rue Voisin St Brelade  , , Jersey Channel Islands, United Kingdom",
            "website": "www.gracie-barra-channel-islands.com"
        },
        {
            "id": 10068,
            "name": "Gracie Barra Chantilly",
            "federationAbbr": "USBJJF",
            "country": "United States of America",
            "countryAbbr": "US",
            "city": "Chantilly",
            "responsible": "Glaucia Braga Libanio",
            "address": "4200 Lafayette Center Dr, Suite N, Chantilly, Virginia, United States of America",
            "website": "https://graciebarra.com/chantilly-va/"
        },
        {
            "id": 10198,
            "name": "Gracie Barra Charleston",
            "federationAbbr": "USBJJF",
            "country": "United States of America",
            "countryAbbr": "US",
            "city": "Mount Pleasant",
            "responsible": "Henrique G. Carepa",
            "address": "1956 Long Grove Dr., Mount Pleasant, Sc, United States of America",
            "website": "www.gbcharleston.com"
        },
        {
            "id": 3111,
            "name": "Gracie Barra Charlotte",
            "federationAbbr": "USBJJF",
            "country": "United States of America",
            "countryAbbr": "US",
            "city": "Charlotte",
            "responsible": "Diogo Silva de Souza",
            "address": "2620 South Boulevard Suite A  , , Charlotte, NC, United States of America",
            "website": "www.gbcharlotte.com"
        },
        {
            "id": 9236,
            "name": "Gracie Barra Chelmsford",
            "federationAbbr": "IBJJF",
            "country": "United Kingdom",
            "countryAbbr": "GB",
            "city": "Chelmsford",
            "responsible": "Jeremy  Lord",
            "address": "16 Eckelsley Road, Chelmsford, United Kingdom",
            "website": "www.gbchelmsford.com"
        },
        {
            "id": 6916,
            "name": "Gracie Barra Cheshunt",
            "federationAbbr": "IBJJF",
            "country": "United Kingdom",
            "countryAbbr": "GB",
            "city": "Cheshunt",
            "responsible": "Wessley James Johnson",
            "address": "Unit 3, Armitage Business Centre, Delamare Road, Cheshunt, Herts, United Kingdom",
            "website": "www.gbcheshunt.com"
        },
        {
            "id": 8362,
            "name": "Gracie Barra Chicago-west Loop",
            "federationAbbr": "USBJJF",
            "country": "United States of America",
            "countryAbbr": "US",
            "city": "Chicago",
            "responsible": "Marcio Feitosa Souza",
            "address": "630 West Lake Street, Chicago, Illinois, United States of America",
            "website": "www.graciebarrachicago.com"
        },
        {
            "id": 6972,
            "name": "Gracie Barra Chieri",
            "federationAbbr": "UIJJ",
            "country": "Italy",
            "countryAbbr": "IT",
            "city": "Chieri",
            "responsible": "Rodrigo de Carvalho Silva",
            "address": "via Roma 13, Chieri, Italy",
            "website": "www.graciebarrachieri.com"
        },
        {
            "id": 2229,
            "name": "Gracie Barra Chino",
            "federationAbbr": "USBJJF",
            "country": "United States of America",
            "countryAbbr": "US",
            "city": "Chino ",
            "responsible": "Rafael L. Oliveira",
            "address": "13751 Roswell Ave  , Suite G, Chino , CA, United States of America",
            "website": "www.gbchino.com"
        },
        {
            "id": 5760,
            "name": "Gracie Barra Chorley",
            "federationAbbr": "IBJJF",
            "country": "United Kingdom",
            "countryAbbr": "GB",
            "city": "Chorley",
            "responsible": "Lucio Furtado Rodrigues",
            "address": "unite 5 Matrix House, Friday Street, Chorley, United Kingdom",
            "website": "graciebarrachorley.co.uk"
        },
        {
            "id": 5922,
            "name": "Gracie Barra Cidade Baixa",
            "federationAbbr": "CBJJ",
            "country": "Brasil",
            "countryAbbr": "BR",
            "city": "Porto Alegre",
            "responsible": "Max Jonas Lacerda da Silva",
            "address": "Rua José Do Patrocínio, 726, Bairro: Cidade Baixa, Porto Alegre, RS, Brasil",
            "website": "www.graciebarra.com"
        }
    ]
}