{
    "pagination": {
        "page": 134,
        "from": 2660,
        "to": 2680,
        "pageSize": 20,
        "lastPage": 358,
        "totalRecords": 7149
    },
    "list": [
        {
            "id": 9241,
            "name": "Fusion Studio",
            "federationAbbr": "CBJJ",
            "country": "Brasil",
            "countryAbbr": "BR",
            "city": "Saquarema",
            "responsible": "Ronaldo de Salles Lopes",
            "address": "Rua 13 Quadra 2412 Lt 01, Saquarema, Rio De Janeiro, Brasil",
            "website": null
        },
        {
            "id": 10503,
            "name": "Fusion Studio Team",
            "federationAbbr": "FPJJB",
            "country": "Portugal",
            "countryAbbr": "PT",
            "city": "Lagos",
            "responsible": "Alexsandro Barbosa Agostinho",
            "address": "Rua Regimento Da Infantaria 2 Lote 2, Lagos, Algarve, Portugal",
            "website": null
        },
        {
            "id": 5129,
            "name": "Futawa Jiu-Jitsu Endure",
            "federationAbbr": "JBJJF",
            "country": "Japan",
            "countryAbbr": "JP",
            "city": "Funabashi",
            "responsible": "Kimihiro Hirose",
            "address": "3-1-8 Sakigaoka  , Funabashi, Chiba, Japan",
            "website": "http://futawabjj.wix.com/futawa"
        },
        {
            "id": 5984,
            "name": "Future School of Jiu-Jitsu",
            "federationAbbr": "USBJJF",
            "country": "United States of America",
            "countryAbbr": "US",
            "city": "Port Saint Lucie",
            "responsible": "Thaisio Da Costa Feliz",
            "address": "820 SE Becker Rd., Port Saint Lucie, FL, United States of America",
            "website": "www.FutureJiuJitsu.com"
        },
        {
            "id": 9153,
            "name": "Future School Of Jiu-Jitsu - Saint James",
            "federationAbbr": "USBJJF",
            "country": "United States of America",
            "countryAbbr": "US",
            "city": "Port Saint Lucie",
            "responsible": "Thaisio Da Costa Feliz",
            "address": "5461 Nw Saint James Dr, Port Saint Lucie, Florida, United States of America",
            "website": "www.fsojj.com"
        },
        {
            "id": 9075,
            "name": "Future School Of Jiu-Jitsu International",
            "federationAbbr": "CBJJ",
            "country": "Brasil",
            "countryAbbr": "BR",
            "city": "Cubatao",
            "responsible": "Thaisio Da Costa Feliz",
            "address": "Avenida Nadir Tereza Esteves 455, Jardim Caraguata, Cubatao, Sao Paulo, Brasil",
            "website": "www.fsojj.com"
        },
        {
            "id": 10051,
            "name": "Futuro Suave",
            "federationAbbr": "CBJJ",
            "country": "Brasil",
            "countryAbbr": "BR",
            "city": "Porto Alegre",
            "responsible": "Renato Severino Werlang",
            "address": "Avenida Willy Eugênio Fleck, 1500, Porto Alegre, Rs, Brasil",
            "website": null
        },
        {
            "id": 4613,
            "name": "FVTeam BJJ",
            "federationAbbr": "CBJJ",
            "country": "Brasil",
            "countryAbbr": "BR",
            "city": "Niteroi",
            "responsible": "Flavius Luiz Virginio da Silva",
            "address": "Rua Alvares De Azevedo, 47 - Apto 1202, Icarai, Niteroi, RJ, Brasil",
            "website": "fvteambjj.com"
        },
        {
            "id": 3671,
            "name": "FVTeam BJJ - USA",
            "federationAbbr": "USBJJF",
            "country": "United States of America",
            "countryAbbr": "US",
            "city": "Orlando",
            "responsible": "Flavius Luiz Virginio da Silva",
            "address": "7075 Kingspointe Parkway Suite 12 , , Orlando, FL, United States of America",
            "website": "www.fvteambjj.com.br"
        },
        {
            "id": 7961,
            "name": "FVTeam BJJ Internacional",
            "federationAbbr": "IBJJF",
            "country": "United Arab Emirates",
            "countryAbbr": "AE",
            "city": "Al Ain ",
            "responsible": "Flavius Luiz Virginio da Silva",
            "address": "Street 32, Bulding 47, Flat 1 - Al Jimi Area, Al Ain , Abudhabi, United Arab Emirates",
            "website": "www.fvteambjj.com"
        },
        {
            "id": 9576,
            "name": "G O A",
            "federationAbbr": "IBJJF",
            "country": "Germany",
            "countryAbbr": "DE",
            "city": "Frankenthal",
            "responsible": "Anna Mafalda Kemper",
            "address": "Asselheimer Strasse 18, Frankenthal, Germany",
            "website": null
        },
        {
            "id": 8118,
            "name": "G T S",
            "federationAbbr": "USBJJF",
            "country": "United States of America",
            "countryAbbr": "US",
            "city": "Tampa",
            "responsible": "Peter J. Molinelli",
            "address": "1345 W Gray St., Tampa, Florida, United States of America",
            "website": null
        },
        {
            "id": 5184,
            "name": "G.A Fight Jiu-Jitsu",
            "federationAbbr": "CBJJ",
            "country": "Brasil",
            "countryAbbr": "BR",
            "city": "Vila Velha",
            "responsible": "Giovanni Almeida dos Santos Neves",
            "address": "Rua Leopoldina n: 302, São Torquato, Vila Velha, ES, Brasil",
            "website": "facebook.com/gafightjiujitsu"
        },
        {
            "id": 10730,
            "name": "G.A.D.",
            "federationAbbr": "USBJJF",
            "country": "United States of America",
            "countryAbbr": "US",
            "city": "Chelmsford",
            "responsible": "Raphael B. Carneiro Fischetti",
            "address": "83 Parkhurst Road, Unit 8, Chelmsford, Ma, United States of America",
            "website": "www.gentleartdojo.com"
        },
        {
            "id": 4354,
            "name": "G.Y.P. JJB",
            "federationAbbr": "IBJJF",
            "country": "France",
            "countryAbbr": "FR",
            "city": "St. Chamond",
            "responsible": "Yvan Louis Desire Petiot",
            "address": "45 rue de la Republique, St. Chamond, France",
            "website": "www.jj-bresilien.com"
        },
        {
            "id": 9377,
            "name": "G/A Jiu-Jitsu Team",
            "federationAbbr": "CBJJ",
            "country": "Brasil",
            "countryAbbr": "BR",
            "city": "Petrópolis",
            "responsible": "Gabriel de Medeiros de Amaral",
            "address": "Rua General Rondom 30, Petrópolis, Rj, Brasil",
            "website": null
        },
        {
            "id": 412,
            "name": "G13 BJJ",
            "federationAbbr": "CBJJ",
            "country": "Brasil",
            "countryAbbr": "BR",
            "city": "São Paulo",
            "responsible": "Roberto Godoi",
            "address": "Alameda Dos Jurupis 1413, Moema, São Paulo, SP, Brasil",
            "website": "www.g13bjj.com.br"
        },
        {
            "id": 5413,
            "name": "G13 BJJ - JP",
            "federationAbbr": "CBJJ",
            "country": "Brasil",
            "countryAbbr": "BR",
            "city": "João Pessoa",
            "responsible": "Telmo Araújo do Nascimento",
            "address": "Rua Oceano Antático, 326, Jardim Oceania, João Pessoa, PB, Brasil",
            "website": "https://www.telmonascimento.com.br/"
        },
        {
            "id": 10547,
            "name": "G13 BJJ Adelaide",
            "federationAbbr": "IBJJF",
            "country": "Australia",
            "countryAbbr": "AU",
            "city": "Adelaide",
            "responsible": "Fabricio Menna Goncalves",
            "address": "10 Nikola Road, Adelaide, South Australia, Australia",
            "website": null
        },
        {
            "id": 6491,
            "name": "G13 BJJ AU",
            "federationAbbr": "IBJJF",
            "country": "Australia",
            "countryAbbr": "AU",
            "city": "Adelaide",
            "responsible": "Roberto Godoi",
            "address": "133 Lone Street - Queenstown, Adelaide, SA, Australia",
            "website": null
        }
    ]
}