{
    "pagination": {
        "page": 120,
        "from": 2380,
        "to": 2400,
        "pageSize": 20,
        "lastPage": 358,
        "totalRecords": 7149
    },
    "list": [
        {
            "id": 7054,
            "name": "Fabio Bastos BJJ",
            "federationAbbr": "IBJJF",
            "country": "China",
            "countryAbbr": "CN",
            "city": "Shanghai",
            "responsible": "Fabio Bastos Moreira de Souza",
            "address": "Room c 1155, Wisdon Bay, 6 Yunchuan Road, Baoshan District, Shanghai, --, China",
            "website": null
        },
        {
            "id": 9441,
            "name": "Fabio Costa Jiu Jitsu",
            "federationAbbr": "CBJJ",
            "country": "Brasil",
            "countryAbbr": "BR",
            "city": "Lavras",
            "responsible": "Fabio Ribeiro da Costa",
            "address": "Rua Osorio Sebastiao, 297, Lavras, Minas Gerais, Brasil",
            "website": null
        },
        {
            "id": 9066,
            "name": "Fabio Jules Team",
            "federationAbbr": "CBJJ",
            "country": "Brasil",
            "countryAbbr": "BR",
            "city": "Itapetinga",
            "responsible": "Fábio Galvão Jules",
            "address": "Rua Jj Seabra, 170 - Centro, Itapetinga, Bahia, Brasil",
            "website": "Itapetinga - Bahia"
        },
        {
            "id": 6844,
            "name": "Fabio Latini De Souza",
            "federationAbbr": "FPJJB",
            "country": "Portugal",
            "countryAbbr": "PT",
            "city": "Estoril",
            "responsible": "Fabio Latini de Souza",
            "address": "Rua Do Viveiro, Lote 15 - 5f, Estoril, Portugal, Portugal",
            "website": "www.gracieterra.com"
        },
        {
            "id": 9246,
            "name": "Fábio Luís BJJ",
            "federationAbbr": "CBJJ",
            "country": "Brasil",
            "countryAbbr": "BR",
            "city": "Osasco",
            "responsible": "Fábio Luís de Faria de Carvalho",
            "address": "Rua João Crudo 345, Apt. 25, Osasco, São Paulo, Brasil",
            "website": "fabioluis1@yahoo.com.br"
        },
        {
            "id": 8195,
            "name": "Fabio Matos Brazilian Jiu-Jitsu",
            "federationAbbr": "CBJJ",
            "country": "Brasil",
            "countryAbbr": "BR",
            "city": "Laranjeiras Do Sul",
            "responsible": "Fabio dos Santos Matos",
            "address": "R Cap Antônio Joaquim De Camargo 391, B, Laranjeiras Do Sul, Pr, Brasil",
            "website": null
        },
        {
            "id": 2577,
            "name": "Fabio Novaes BJJ",
            "federationAbbr": "USBJJF",
            "country": "United States of America",
            "countryAbbr": "US",
            "city": "lakeland",
            "responsible": null,
            "address": "6315, OAK Square east   , , lakeland, FL, United States of America",
            "website": "fabionovaesbjj.com"
        },
        {
            "id": 2322,
            "name": "Fabio Prado BJJ",
            "federationAbbr": "USBJJF",
            "country": "United States of America",
            "countryAbbr": "US",
            "city": "Sacramento",
            "responsible": "Fabio Nascimento do Prado",
            "address": "4234 Carle Ln.  , , Sacramento, CA, United States of America",
            "website": ""
        },
        {
            "id": 2120,
            "name": "Fabio Santos BJJ",
            "federationAbbr": "USBJJF",
            "country": "United States of America",
            "countryAbbr": "US",
            "city": "San Diego",
            "responsible": "Fabio Santos",
            "address": "4616 Mission George Place  Suit \"B\"  , San Diego, CA, United States of America",
            "website": "fabiosantosjiujitsu.com"
        },
        {
            "id": 6592,
            "name": "Fabio Santos Bratislava",
            "federationAbbr": "IBJJF",
            "country": "Slovakia",
            "countryAbbr": "SK",
            "city": "Bratislava",
            "responsible": "Roman Zelenka",
            "address": "Ivanska'cesta 30/D, Bratislava, Bratislava, Slovakia",
            "website": "www.jiujitsuacademy.sk"
        },
        {
            "id": 10380,
            "name": "Fabio Tio Chico Brazilian Jiu Jitsu",
            "federationAbbr": "CBJJ",
            "country": "Brasil",
            "countryAbbr": "BR",
            "city": "São Paulo",
            "responsible": "Fabio Junior da Silva",
            "address": "Rua Salete, 298, São Paulo, Sp, Brasil",
            "website": null
        },
        {
            "id": 9009,
            "name": "Fábrica De Monstro BJJ",
            "federationAbbr": "CBJJ",
            "country": "Brasil",
            "countryAbbr": "BR",
            "city": "Rio De Janeiro",
            "responsible": "Andre Gustavo Costa Nascimento de Britto",
            "address": "Praia Do Recôncavo 432, Ao Lado Do Prédio, Rio De Janeiro, Rio De Janeiro, Brasil",
            "website": "www.fabricademonstrobjj@yahoo.com.br"
        },
        {
            "id": 6408,
            "name": "Fabricio Araujo Jiu-Jitsu",
            "federationAbbr": "CBJJ",
            "country": "Brasil",
            "countryAbbr": "BR",
            "city": "Castanhal",
            "responsible": "Fabricio Gomes de Araujo",
            "address": "Rua Ernestina Neves - 949, Saudade 1, Castanhal, Pará, Brasil",
            "website": "www.fabricioaraujo.com"
        },
        {
            "id": 8887,
            "name": "Fabricio Claro Jiu-Jitsu",
            "federationAbbr": "CBJJ",
            "country": "Brasil",
            "countryAbbr": "BR",
            "city": "Santo André",
            "responsible": "Fabrício Fiore Claro",
            "address": "Rua Piracicaba, 550, Vila Valparaiso, Santo André, Sp, Brasil",
            "website": null
        },
        {
            "id": 2334,
            "name": "Fabricio International Team - FIT",
            "federationAbbr": "IBJJF",
            "country": "Philippines",
            "countryAbbr": "PH",
            "city": "q",
            "responsible": "Fabricio Luiz Martins Costa",
            "address": "  , q, q, Philippines",
            "website": null
        },
        {
            "id": 7482,
            "name": "Fabricio International Team Australia",
            "federationAbbr": "IBJJF",
            "country": "Australia",
            "countryAbbr": "AU",
            "city": "Sydney ",
            "responsible": "Luiz Gustavo J. Tannuri de Almeida",
            "address": "North Bondi Golf Club - 5 Military Rd, North Bondi , Sydney , NSW, Australia",
            "website": "tannuribjj.com"
        },
        {
            "id": 3120,
            "name": "Fabricio Rodrigues BJJ",
            "federationAbbr": "CBJJ",
            "country": "Brasil",
            "countryAbbr": "BR",
            "city": "Niterói",
            "responsible": "Fabricio Rodrigues da Silva",
            "address": "Rua Benjamin Constant 510 Casa, Barreto, Niterói, RJ, Brasil",
            "website": "@fabriciorodriguezbjj"
        },
        {
            "id": 3123,
            "name": "Fabricio Rodrigues BJJ Internacional",
            "federationAbbr": "IBJJF",
            "country": "Colombia",
            "countryAbbr": "CO",
            "city": "Bogota",
            "responsible": "Fabricio Rodrigues da Silva",
            "address": "Avenida Boyacá # 43 C 80 Sur - Kennedy, Piso 2, Bogota, CO, Colombia",
            "website": "https://www.instagram.com/fabriciorsbjj/"
        },
        {
            "id": 7686,
            "name": "Fachini Jiu-Jitsu",
            "federationAbbr": "CBJJ",
            "country": "Brasil",
            "countryAbbr": "BR",
            "city": "Sao Jose",
            "responsible": "Joelson Fachini",
            "address": "Rua Joao  Nilo Morfim 02, Bairro Nossa Senhora Do Rosario, Casa Marrom, Sao Jose, Sc, Brasil",
            "website": null
        },
        {
            "id": 8192,
            "name": "Faconti Jiu-Jitsu",
            "federationAbbr": "CBJJ",
            "country": "Brasil",
            "countryAbbr": "BR",
            "city": "Santos",
            "responsible": "Raul Silva Faconti",
            "address": "Epitácio Pessoa, 280, Santos, Sp, Brasil",
            "website": null
        }
    ]
}