{
    "pagination": {
        "page": 186,
        "from": 3700,
        "to": 3720,
        "pageSize": 20,
        "lastPage": 358,
        "totalRecords": 7149
    },
    "list": [
        {
            "id": 3199,
            "name": "Hishoujyuku Sora",
            "federationAbbr": "JBJJF",
            "country": "Japan",
            "countryAbbr": "JP",
            "city": "Nagano",
            "responsible": "Mikio Oga",
            "address": "1-21-16 Aokijima , Nagano, --, Japan",
            "website": "www.hishoujyuku.wordpress.com"
        },
        {
            "id": 2028,
            "name": "HJJT - Horse Jiu-Jitsu Team",
            "federationAbbr": "CBJJ",
            "country": "Brasil",
            "countryAbbr": "BR",
            "city": "Londrina",
            "responsible": "Paulo Henrique Guimarães Rett",
            "address": "Rua Maria Quiteria 318, Jd. Brasilia, Londrina, PR, Brasil",
            "website": "www.hjjt.com.br"
        },
        {
            "id": 7664,
            "name": "HNJJT - Henrique Novaes Jiu Jitsu Team",
            "federationAbbr": "CBJJ",
            "country": "Brasil",
            "countryAbbr": "BR",
            "city": "Floresta",
            "responsible": "Henrique Marques Torres Novaes Goyanna",
            "address": "Av. Dep. Audomar Ferraz, 120, Centro, Diocesano Colégio e Curso, Floresta, Pernambuco, Brasil",
            "website": "@henriquenovaesjjt ou @teamhnjj"
        },
        {
            "id": 4990,
            "name": "Hoboken Jiu-Jitsu",
            "federationAbbr": "USBJJF",
            "country": "United States of America",
            "countryAbbr": "US",
            "city": "Hoboken",
            "responsible": "Daniel J. Covel",
            "address": "316 Sinatra Dr.  , , Hoboken, NJ, United States of America",
            "website": "www.hobokenbjj.com"
        },
        {
            "id": 6144,
            "name": "HOJJ",
            "federationAbbr": "IBJJF",
            "country": "Cyprus",
            "countryAbbr": "CY",
            "city": "Limassol",
            "responsible": "Charles Negromonte Santos",
            "address": "103 Arch Makariou 111, Limassol, --, Cyprus",
            "website": "www.houseofjiujitsu.com.cy"
        },
        {
            "id": 8350,
            "name": "Hokama Dojo",
            "federationAbbr": "CBJJ",
            "country": "Brasil",
            "countryAbbr": "BR",
            "city": "Araraquara",
            "responsible": "Lucas Okama de Lima Lopes",
            "address": "Rua Nicolau Jorge Lauand, N° 749, Araraquara, Sp, Brasil",
            "website": null
        },
        {
            "id": 6294,
            "name": "Hokuto BJJ",
            "federationAbbr": "IBJJF",
            "country": "Finland",
            "countryAbbr": "FI",
            "city": "Helsinki",
            "responsible": "Jari Pere",
            "address": "Kaadelitehdas Tallberginkatu 1D, Helsinki, --, Finland",
            "website": "www.hokutoryu.com"
        },
        {
            "id": 2675,
            "name": "Hollywood BJJ",
            "federationAbbr": "USBJJF",
            "country": "United States of America",
            "countryAbbr": "US",
            "city": "Los Angeles",
            "responsible": "Rodrigo Antunes Guimarães",
            "address": " 7131 1/2 W Sunset Blv  , , Los Angeles, CA, United States of America",
            "website": "www.hollywoodbjj.com"
        },
        {
            "id": 6142,
            "name": "Holo I Mua",
            "federationAbbr": "JBJJF",
            "country": "Japan",
            "countryAbbr": "JP",
            "city": "--",
            "responsible": "Yoshihiro Yamada",
            "address": "2-559,  Mihashi , Omiya-ku,  Saitama -shi,  Saitama, --, --, Japan",
            "website": "http://www.holoimua.net"
        },
        {
            "id": 8661,
            "name": "Holohan Martial Arts",
            "federationAbbr": "IBJJF",
            "country": "Ireland",
            "countryAbbr": "IE",
            "city": "Dublin",
            "responsible": "Patrick Pearse Holohan",
            "address": "Unit Gb 1 Sitecast Industrial Estate, Greenhills Road, Tallaght, Dublin, Dublin, Ireland",
            "website": "www.holohanmartialarts.com"
        },
        {
            "id": 7203,
            "name": "Holy Ground Squad",
            "federationAbbr": "IBJJF",
            "country": "Germany",
            "countryAbbr": "DE",
            "city": "Berlin",
            "responsible": "Jan Mohrbacher",
            "address": "Kaiserdamm 113 / Charlottenberg, Berlin, Germany",
            "website": "www.bjjinberlin.de"
        },
        {
            "id": 4320,
            "name": "Homa BJJ",
            "federationAbbr": "IBJJF",
            "country": "Canada",
            "countryAbbr": "CA",
            "city": "Montreal",
            "responsible": "Johnny Zemouli",
            "address": "5650 Hochelaga, Montreal, QC, Canada",
            "website": "homabjj.com"
        },
        {
            "id": 9223,
            "name": "Home Gym",
            "federationAbbr": "CBJJ",
            "country": "Brasil",
            "countryAbbr": "BR",
            "city": "Colatina",
            "responsible": "Thiago Osmar Peichinho Mageste",
            "address": "Avenida Sílvio Avidos - De 1722 A 2200 - Lado Par, Viacao Sao Gabriel, Colatina, Es, Brasil",
            "website": null
        },
        {
            "id": 7163,
            "name": "Homem Pedra Jiu-Jitsu",
            "federationAbbr": "CBJJ",
            "country": "Brasil",
            "countryAbbr": "BR",
            "city": "Macapá",
            "responsible": "Gleik Santos do Nascimento",
            "address": "Avenida Evandro Carneiro De Melo N: 1352, Bairro: Congós, Macapá, Amapá, Brasil",
            "website": null
        },
        {
            "id": 2387,
            "name": "Hong Kong Jiu-Jitsu",
            "federationAbbr": "IBJJF",
            "country": "Hong Kong",
            "countryAbbr": "HK",
            "city": "Kowloon",
            "responsible": "Makoto Aramaki",
            "address": "Room A, 2/F, 69 Bedford Road, Tai Kok Tsui  , Kowloon, --, Hong Kong",
            "website": "www.hkjj.com.hk"
        },
        {
            "id": 8907,
            "name": "Honjiujitsu",
            "federationAbbr": "IBJJF",
            "country": "Korea, South",
            "countryAbbr": "KR",
            "city": "Busan",
            "responsible": "Changhun Kim",
            "address": "Myeongji-dong Gangsae-goo, Richmondplaza 303ho, Busan, Korea, South",
            "website": null
        },
        {
            "id": 3616,
            "name": "Honor Roll BJJ",
            "federationAbbr": "USBJJF",
            "country": "United States of America",
            "countryAbbr": "US",
            "city": "Santa Clarita ",
            "responsible": "Bruno Augusto Togni Antunes",
            "address": "26370 Diamond Pl., Suite 502  , , Santa Clarita , CA, United States of America",
            "website": "www.honorrollbjj.com"
        },
        {
            "id": 7791,
            "name": "Honorato Team",
            "federationAbbr": "CBJJ",
            "country": "Brasil",
            "countryAbbr": "BR",
            "city": "Rio De Janeiro",
            "responsible": "Eduardo Costa Honorato da Silva ",
            "address": "Rua Hélio Tomás, 100, Casa, Rio De Janeiro, Rj, Brasil",
            "website": null
        },
        {
            "id": 3747,
            "name": "HONU BJJ",
            "federationAbbr": "USBJJF",
            "country": "United States of America",
            "countryAbbr": "US",
            "city": "San Diego",
            "responsible": "Alexandre Couceiro Ribeiro",
            "address": "4310 Orange Ave.  , , San Diego, CA, United States of America",
            "website": "www.honubjj.com"
        },
        {
            "id": 9634,
            "name": "Hope Jiu-jitsu",
            "federationAbbr": "CBJJ",
            "country": "Brasil",
            "countryAbbr": "BR",
            "city": "Fortaleza",
            "responsible": "Nazareno Ferreira da Silva",
            "address": "Rua Caroa 1504, Fortaleza, Ceara, Brasil",
            "website": null
        }
    ]
}