{
    "pagination": {
        "page": 259,
        "from": 5160,
        "to": 5180,
        "pageSize": 20,
        "lastPage": 358,
        "totalRecords": 7149
    },
    "list": [
        {
            "id": 7859,
            "name": "Part of Jiu-Jitsu",
            "federationAbbr": "JBJJF",
            "country": "Japan",
            "countryAbbr": "JP",
            "city": "Yamato-shi",
            "responsible": "Yusuke Morishita",
            "address": "Yamato-shi, Kanagawa, Japan",
            "website": null
        },
        {
            "id": 3644,
            "name": "Pascoal Júnior Jiu-Jitsu",
            "federationAbbr": "CBJJ",
            "country": "Brasil",
            "countryAbbr": "BR",
            "city": "Belo Horizonte",
            "responsible": "Pascoal Júnior Monteiro de Castro",
            "address": "Rua Henrique Gorceix, 2110, 304, Belo Horizonte, MG, Brasil",
            "website": "@pascoaljiujitsu"
        },
        {
            "id": 9526,
            "name": "Passador Brasa Niagara",
            "federationAbbr": "IBJJF",
            "country": "Canada",
            "countryAbbr": "CA",
            "city": "Niagara Falls",
            "responsible": "Jose Mario MacCord Queiroga",
            "address": "4536 Portage Rd, Niagara Falls, Ontario, Canada",
            "website": "www.passadorbjj.com"
        },
        {
            "id": 4217,
            "name": "Passaic BJJ / Fight Club",
            "federationAbbr": "USBJJF",
            "country": "United States of America",
            "countryAbbr": "US",
            "city": "Passaic",
            "responsible": "Marcio Vasconcellos Bittencourt",
            "address": "838 Main Ave, Passaic, NJ, United States of America",
            "website": "www.passaicbjjandboxing.com"
        },
        {
            "id": 794,
            "name": "Pássaros da Manhã",
            "federationAbbr": "CBJJ",
            "country": "Brasil",
            "countryAbbr": "BR",
            "city": null,
            "responsible": "Pascoal Magalhães Duarte",
            "address": "Brasil",
            "website": null
        },
        {
            "id": 4012,
            "name": "Passos Brazilian Jiu-Jitsu",
            "federationAbbr": "CBJJ",
            "country": "Brasil",
            "countryAbbr": "BR",
            "city": "Paranaguá",
            "responsible": "Jaci Ricardo Leal Passos",
            "address": "Rua Baronesa do Cerro Azul 747, João Gualberto, Paranaguá, PR, Brasil",
            "website": "www.passosbjj.com.br"
        },
        {
            "id": 4722,
            "name": "PAT Academy Belgium",
            "federationAbbr": "IBJJF",
            "country": "Belgium",
            "countryAbbr": "BE",
            "city": "Brussels",
            "responsible": "Patrick Pierre H. Chaput",
            "address": "946 Ch. d'Alsemberg  , Brussels, Belgium",
            "website": null
        },
        {
            "id": 4319,
            "name": "PaTa-Kampfkunstakademie",
            "federationAbbr": "IBJJF",
            "country": "Germany",
            "countryAbbr": "DE",
            "city": "Ludwigshaten",
            "responsible": "Gabriel Rainho Fontes",
            "address": "Altstadtplatz 15  , , Ludwigshaten, Germany",
            "website": "www.mma4all.de"
        },
        {
            "id": 6466,
            "name": "Pato Jiu-Jitsu Team",
            "federationAbbr": "CBJJ",
            "country": "Brasil",
            "countryAbbr": "BR",
            "city": "Londrina",
            "responsible": "Marcelo Donald Pereira",
            "address": "Avenida Higienópolis 1405, Centro, Londrina, PR, Brasil",
            "website": null
        },
        {
            "id": 4911,
            "name": "Pato Studio",
            "federationAbbr": "JBJJF",
            "country": "Japan",
            "countryAbbr": "JP",
            "city": "Tokyo",
            "responsible": "Daisuke Nakamura",
            "address": "3-25-2-201 Sugamo Tashima-ku  , , Tokyo, Japan",
            "website": "patosbjj.jp"
        },
        {
            "id": 8847,
            "name": "Patrick Almeida Jiu-Jitsu",
            "federationAbbr": "USBJJF",
            "country": "United States of America",
            "countryAbbr": "US",
            "city": "Mission",
            "responsible": "Patrick A. de Almeida Goncalves",
            "address": "2708 E Griffin Pkwy C, Mission, TX, United States of America",
            "website": "www.championacademyjj.com"
        },
        {
            "id": 9366,
            "name": "Patrick Almeida Jiu-Jitsu - International",
            "federationAbbr": "IBJJF",
            "country": "Mexico",
            "countryAbbr": "MX",
            "city": "Reynosa",
            "responsible": "Patrick A. de Almeida Goncalves",
            "address": "Blvrd Del Maestro \u0026 Av Mozart, Narciso Mendoza, Reynosa, Tamps, Mexico",
            "website": null
        },
        {
            "id": 7716,
            "name": "Patriot BJJ",
            "federationAbbr": "USBJJF",
            "country": "United States of America",
            "countryAbbr": "US",
            "city": "Delray Beach",
            "responsible": "Mark T. Conklin",
            "address": "4723 W Atlantic Ave., Suite 11, Delray Beach, FL, United States of America",
            "website": null
        },
        {
            "id": 9903,
            "name": "Paulo Amaral Jiu-Jitsu",
            "federationAbbr": "CBJJ",
            "country": "Brasil",
            "countryAbbr": "BR",
            "city": "Brasilia",
            "responsible": "Paulo Henrique Cardozo Amaral",
            "address": "Eptg Qe 02 Bloco B2 Apt 203, Brasilia, Df, Brasil",
            "website": null
        },
        {
            "id": 9250,
            "name": "Paulo César Bezerra Team Brasil",
            "federationAbbr": "CBJJ",
            "country": "Brasil",
            "countryAbbr": "BR",
            "city": "Fortaleza",
            "responsible": "Paulo Cesar Bezerra",
            "address": "Rua Costa Freire, 753, Fortaleza, Ceará, Brasil",
            "website": null
        },
        {
            "id": 7457,
            "name": "Paulo Filho World Team",
            "federationAbbr": "CBJJ",
            "country": "Brasil",
            "countryAbbr": "BR",
            "city": "Rio de Janeiro",
            "responsible": "Paulo Fernando S. Leite Filho",
            "address": "Rua Visconde de Araguaia n: 866, academia Clube Araguaia Bairro: Santa Cruz, Rio de Janeiro, Rio de Janeiro, Brasil",
            "website": null
        },
        {
            "id": 5458,
            "name": "Paulo Ledesma BJJ",
            "federationAbbr": "CBJJ",
            "country": "Brasil",
            "countryAbbr": "BR",
            "city": "Bauru",
            "responsible": "Paulo César Ledesma",
            "address": "R Anhembi, 2 - 14, Bauru, SP, Brasil",
            "website": null
        },
        {
            "id": 7810,
            "name": "Paulo Moura Jiu-Jitsu",
            "federationAbbr": "IBJJF",
            "country": "Canada",
            "countryAbbr": "CA",
            "city": "Longueuil",
            "responsible": "Jose Paulo de Moura",
            "address": "Saint Alexandre 1721 J4j3t3 5, Canadá, Longueuil, Qc - Québec, Canada",
            "website": "Instagram: @mourajiujitsubr"
        },
        {
            "id": 2287,
            "name": "Paulo Ribeiro Brazilian Jiu Jitsu Team",
            "federationAbbr": "USBJJF",
            "country": "United States of America",
            "countryAbbr": "US",
            "city": "Naples",
            "responsible": "Paulo Roberto Ribeiro",
            "address": "771 Airport Rd. N  , , Naples, FL, United States of America",
            "website": "prbjjnaples.com"
        },
        {
            "id": 4526,
            "name": "Paulo Ricardo Team",
            "federationAbbr": "CBJJ",
            "country": "Brasil",
            "countryAbbr": "BR",
            "city": "Acaçatuba",
            "responsible": "Paulo Ricardo Santos Rodrigues",
            "address": "Av. Saudade, 790 F, , Acaçatuba, SP, Brasil",
            "website": "www.prteam.com.br"
        }
    ]
}