{
    "pagination": {
        "page": 50,
        "from": 980,
        "to": 1000,
        "pageSize": 20,
        "lastPage": 358,
        "totalRecords": 7149
    },
    "list": [
        {
            "id": 7141,
            "name": "Bokk Jiu-Jitsu",
            "federationAbbr": "IBJJF",
            "country": "Senegal",
            "countryAbbr": "SN",
            "city": "Dakar",
            "responsible": "Ibrahima Samba",
            "address": "Boulevard Martin Luther King / Corniche Quest, Dakar, Senegal",
            "website": "https://m.facebook.com/bokkjiujitsu"
        },
        {
            "id": 141,
            "name": "Bolão Jiu-Jitsu",
            "federationAbbr": "CBJJ",
            "country": "Brasil",
            "countryAbbr": "BR",
            "city": "Rio de Janeiro",
            "responsible": "Sergio Augusto de Jesus R. Souza",
            "address": "Av. Das Américas 2000 - 2480 - Clube Arouca, Barra da Tijuca, Rio de Janeiro, RJ, Brasil",
            "website": null
        },
        {
            "id": 8369,
            "name": "Bold Team",
            "federationAbbr": "CBJJ",
            "country": "Brasil",
            "countryAbbr": "BR",
            "city": "Belém",
            "responsible": "João Williamis dos Santos Carvalho",
            "address": "Rua Sideral, N150 - Quadra 11, Esquina Com A Rua Nova / Bairro: Parque Verde, Belém, Pará, Brasil",
            "website": null
        },
        {
            "id": 7893,
            "name": "Bolo Martial Arts",
            "federationAbbr": "IBJJF",
            "country": "China",
            "countryAbbr": "CN",
            "city": "Beijing",
            "responsible": "Yuki Ishikawa",
            "address": "7-6, Wangjing Dongyuan Qiqu, Chaoyang District, Beijing, Beijing, China",
            "website": null
        },
        {
            "id": 10670,
            "name": "Bolognina Luta Club",
            "federationAbbr": "IBJJF",
            "country": "Italy",
            "countryAbbr": "IT",
            "city": "Bologna",
            "responsible": "Ivan Leo",
            "address": "Via Maserati 5, Bologna, Italy",
            "website": null
        },
        {
            "id": 7584,
            "name": "Bon Jiu-Jitsu",
            "federationAbbr": "IBJJF",
            "country": "Korea, South",
            "countryAbbr": "KR",
            "city": "Seoul",
            "responsible": "Jung Woo Lee",
            "address": "4f Yurim Building 233, Dangsan-ro, Yeongdeungpo-gu, Seoul, South Korea, Korea, South",
            "website": "http://www.bonjiujitsu.com"
        },
        {
            "id": 7965,
            "name": "Bonassoli Jiu-Jitsu",
            "federationAbbr": "CBJJ",
            "country": "Brasil",
            "countryAbbr": "BR",
            "city": "Curitiba",
            "responsible": "Carlos Cesar Bonassoli",
            "address": "Rua Joao Cubas 251, Casa, Curitiba, Parana, Brasil",
            "website": null
        },
        {
            "id": 4551,
            "name": "Bonetti BJJ",
            "federationAbbr": "CBJJ",
            "country": "Brasil",
            "countryAbbr": "BR",
            "city": "Nova Hamburgo",
            "responsible": "Felipe Bonetti",
            "address": "Rua São Leopoldo, 527 Apt 02, Liberdade, Nova Hamburgo, RS, Brasil",
            "website": ""
        },
        {
            "id": 9458,
            "name": "Bonobo Jiu-Jitsu",
            "federationAbbr": "IBJJF",
            "country": "Viet Nam",
            "countryAbbr": "VN",
            "city": "Hà NÙi",
            "responsible": "David Lapetina",
            "address": "SÑ 45a, Ngõ 59 Hoàng C§u, Hà NÙi, Viet Nam",
            "website": "https://bjj.vn"
        },
        {
            "id": 8289,
            "name": "Bons Frutos",
            "federationAbbr": "CBJJ",
            "country": "Brasil",
            "countryAbbr": "BR",
            "city": "Anápolis",
            "responsible": "Pablo Henrique Lial Tavares",
            "address": "Rua Professor Clementino De Alencar Lima, 1, Anápolis, Go, Brasil",
            "website": null
        },
        {
            "id": 5431,
            "name": "Bon-Sai Association Australia",
            "federationAbbr": "IBJJF",
            "country": "Australia",
            "countryAbbr": "AU",
            "city": "North Adelaide",
            "responsible": "Mauricio Antonio de Souza",
            "address": "78 Kermode Street, North Adelaide, SA, Australia",
            "website": "facebook.com/adelaidejiujitsuacademy"
        },
        {
            "id": 145,
            "name": "Bon-Sai Association Internacional",
            "federationAbbr": "CBJJ",
            "country": "Brasil",
            "countryAbbr": "BR",
            "city": "São Paulo",
            "responsible": "Mauricio Antonio de Souza",
            "address": "Avenida Dalila 56, Vila Dalila, São Paulo, SP, Brasil",
            "website": ""
        },
        {
            "id": 2532,
            "name": "Bon-Sai Jiu-Jitsu",
            "federationAbbr": "JBJJF",
            "country": "Japan",
            "countryAbbr": "JP",
            "city": "Iwata",
            "responsible": "Mauricio Antonio de Souza",
            "address": "522-1 Mitsuke Fujime Cho, Iwata, --, Japan",
            "website": "www.b-j-j.com/gym"
        },
        {
            "id": 5638,
            "name": "Bonsai JJ - Guam",
            "federationAbbr": "IBJJF",
            "country": "Guam",
            "countryAbbr": "GU",
            "city": "Hagatna",
            "responsible": "Luis Elijah Leon G. Reyes",
            "address": "484 W. Soledad Ave., Hagatna, Gu, Guam",
            "website": null
        },
        {
            "id": 2142,
            "name": "Boran Brazilian Jiu-Jitsu",
            "federationAbbr": "USBJJF",
            "country": "United States of America",
            "countryAbbr": "US",
            "city": "Costa Mesa",
            "responsible": "James Richard Boran",
            "address": "1548 Adams Ave ste F  , Costa Mesa, CA, United States of America",
            "website": "www.boranjj.com"
        },
        {
            "id": 5927,
            "name": "Bordão Jiu-Jitsu",
            "federationAbbr": "CBJJ",
            "country": "Brasil",
            "countryAbbr": "BR",
            "city": "Ponta Porã",
            "responsible": "Carlos Alexandre Bordão",
            "address": "Rua Tiradentes n: 766, Centro, Ponta Porã, MS, Brasil",
            "website": "carlosbordao.com.br"
        },
        {
            "id": 8158,
            "name": "Border Martial Arts Academy",
            "federationAbbr": "USBJJF",
            "country": "United States of America",
            "countryAbbr": "US",
            "city": "Collierville",
            "responsible": "Jonathan Alvis Border",
            "address": "4644 Merchants Park Cir Suite 8, Collierville, Tn, United States of America",
            "website": null
        },
        {
            "id": 5863,
            "name": "Born To Jiu-Jitsu",
            "federationAbbr": "CBJJ",
            "country": "Brasil",
            "countryAbbr": "BR",
            "city": "Taguatinga Norte",
            "responsible": "Francisco Nonato Barbosa",
            "address": "Qnc 01 E Ae 19, Condomínio Paradiso Clube, Taguatinga Norte, Distrito Federal, Brasil",
            "website": null
        },
        {
            "id": 10145,
            "name": "Borracha Team JF",
            "federationAbbr": "CBJJ",
            "country": "Brasil",
            "countryAbbr": "BR",
            "city": "Juiz De Fora",
            "responsible": "Paulo Luiz de Resende Júnior",
            "address": "Rua Antônio De Almeida N190, Juiz De Fora, Minas Gerais, Brasil",
            "website": null
        },
        {
            "id": 5291,
            "name": "Borz Jiu-Jitsu",
            "federationAbbr": "IBJJF",
            "country": "Russia",
            "countryAbbr": "RU",
            "city": "Chechnya Grozniy",
            "responsible": "Idris Bislanovitsj Musajev",
            "address": "Street Zavety Ilycha u8, Chechnya Grozniy, Russia",
            "website": null
        }
    ]
}