{
    "pagination": {
        "page": 173,
        "from": 3440,
        "to": 3460,
        "pageSize": 20,
        "lastPage": 358,
        "totalRecords": 7149
    },
    "list": [
        {
            "id": 8513,
            "name": "Gracie Barra Vila Adyana",
            "federationAbbr": "CBJJ",
            "country": "Brasil",
            "countryAbbr": "BR",
            "city": "São José Dos Campos",
            "responsible": "Diogo Martins de Almeida",
            "address": "Rua Euclides Miragaia, 145 , São José Dos Campos, Sp, Brasil",
            "website": "www.gbvilaadyana.com"
        },
        {
            "id": 9147,
            "name": "Gracie Barra Vila Anastácio",
            "federationAbbr": "CBJJ",
            "country": "Brasil",
            "countryAbbr": "BR",
            "city": "São Paulo",
            "responsible": "Fernando Alves Mourão",
            "address": "Rua Bernardo Guimarães, 179, Vila Anastácio, São Paulo, SP, Brasil",
            "website": null
        },
        {
            "id": 9814,
            "name": "Gracie Barra Vila Siam Londrina PR",
            "federationAbbr": "CBJJ",
            "country": "Brasil",
            "countryAbbr": "BR",
            "city": "Londrina",
            "responsible": "Paulo Vitor Ortega",
            "address": "Avenida Celso Garcia Cid 2120, Londrina, Pr, Brasil",
            "website": null
        },
        {
            "id": 4444,
            "name": "Gracie Barra Vila-seca",
            "federationAbbr": "IBJJF",
            "country": "Spain",
            "countryAbbr": "ES",
            "city": "Vila-seca",
            "responsible": "Luis Cristiano Ribas da Motta",
            "address": "C/ Galleran de Pinos, 14 Local 2  , , Vila-seca, --, Spain",
            "website": ""
        },
        {
            "id": 4785,
            "name": "Gracie Barra W3 Sul",
            "federationAbbr": "CBJJ",
            "country": "Brasil",
            "countryAbbr": "BR",
            "city": "Brasília",
            "responsible": "Ricardo Augusto Moreno de Freitas",
            "address": "CRS S11 Bloco c entrada 61 loja 01, Asa Sul, Brasília, DF, Brasil",
            "website": "www.gbw3sul.com.br"
        },
        {
            "id": 6556,
            "name": "Gracie Barra Warrington",
            "federationAbbr": "IBJJF",
            "country": "United Kingdom",
            "countryAbbr": "GB",
            "city": "Warrington",
            "responsible": "Graeme Finneran",
            "address": "Unit 3 Ashton St, Warrington, --, United Kingdom",
            "website": "www.gbwarrington.com"
        },
        {
            "id": 9186,
            "name": "Gracie Barra West Bay",
            "federationAbbr": "CBJJ",
            "country": "Brasil",
            "countryAbbr": "BR",
            "city": "Arcos",
            "responsible": "Ronney Eustaquio de Carvalho Lima",
            "address": "Rua Paulo Vi, 59, Bairro Vila Boa Vista, Arcos, Mg, Brasil",
            "website": null
        },
        {
            "id": 8165,
            "name": "Gracie Barra West Bay Doha",
            "federationAbbr": "IBJJF",
            "country": "Qatar",
            "countryAbbr": "QA",
            "city": "Doha ",
            "responsible": "Ronney Eustaquio de Carvalho Lima",
            "address": "Ambassador St , Ases Tower 1 Floor , Doha , Qatar , Qatar",
            "website": null
        },
        {
            "id": 8984,
            "name": "Gracie Barra West Jordan",
            "federationAbbr": "USBJJF",
            "country": "United States of America",
            "countryAbbr": "US",
            "city": "West Jordan",
            "responsible": "Seidler Rodrigo S. Ziser",
            "address": "8018 Welby Park Drive, Suite 2, West Jordan, Ut, United States of America",
            "website": "www.gbslc.com"
        },
        {
            "id": 2119,
            "name": "Gracie Barra West Palm Beach",
            "federationAbbr": "USBJJF",
            "country": "United States of America",
            "countryAbbr": "US",
            "city": "West Palm Beach",
            "responsible": "Braulio de Oliveira Estima",
            "address": "300 Clematis Street  , , West Palm Beach, FL, United States of America",
            "website": "gbwestpalmbeach.com"
        },
        {
            "id": 6525,
            "name": "Gracie Barra West Ryde",
            "federationAbbr": "IBJJF",
            "country": "Australia",
            "countryAbbr": "AU",
            "city": "Sydney",
            "responsible": "Julio Augusto Gomes Guerra",
            "address": "Shop 6/2 Marsden RD., Sydney, NSW, Australia",
            "website": "GBWestRyde.com.Au"
        },
        {
            "id": 7300,
            "name": "Gracie Barra Westbury",
            "federationAbbr": "IBJJF",
            "country": "United Kingdom",
            "countryAbbr": "GB",
            "city": "Bristol ",
            "responsible": "Victor de Oliveira Estima",
            "address": "Badocks Wood Primary School, 117 Doncaster Rd. , Bristol , United Kingdom",
            "website": "www.GracieBarraWestbury.com"
        },
        {
            "id": 2925,
            "name": "Gracie Barra Westchase",
            "federationAbbr": "USBJJF",
            "country": "United States of America",
            "countryAbbr": "US",
            "city": "Houston",
            "responsible": "Vinicius Magalhães",
            "address": "2610 Fondren RD, Houston, TX, United States of America",
            "website": "www.gbwestchase.com"
        },
        {
            "id": 7202,
            "name": "Gracie Barra White Rock",
            "federationAbbr": "IBJJF",
            "country": "Canada",
            "countryAbbr": "CA",
            "city": "Surrey",
            "responsible": "Eduardo Jovel",
            "address": "#138-1959 152nd Street, Surrey, BC, Canada",
            "website": "gbwhiterock.com"
        },
        {
            "id": 2560,
            "name": "Gracie Barra Whittier",
            "federationAbbr": "USBJJF",
            "country": "United States of America",
            "countryAbbr": "US",
            "city": "Whittier",
            "responsible": "Bruno Henrique Meireles Rocha",
            "address": "14153 Whittier Blvd Unit 4 , , Whittier, CA, United States of America",
            "website": "www.gbwhittier.com"
        },
        {
            "id": 9831,
            "name": "Gracie Barra Windermere",
            "federationAbbr": "USBJJF",
            "country": "United States of America",
            "countryAbbr": "US",
            "city": "Orlando",
            "responsible": "Daniel Calil",
            "address": "9001 Taborfield Ave, Orlando, Fl, United States of America",
            "website": "graciebarrawindermere@gmail.com"
        },
        {
            "id": 5265,
            "name": "Gracie Barra Wolfsburg",
            "federationAbbr": "IBJJF",
            "country": "Germany",
            "countryAbbr": "DE",
            "city": "Danndorf",
            "responsible": "Rodrigo Fajardo",
            "address": "Am Tannenkamp 5  , , Danndorf, Germany",
            "website": ""
        },
        {
            "id": 10323,
            "name": "Gracie Barra Yate",
            "federationAbbr": "IBJJF",
            "country": "United Kingdom",
            "countryAbbr": "GB",
            "city": "Yate, Bristol",
            "responsible": "Antonio Bustorff",
            "address": "11 Heron Way, Yate, Bristol, United Kingdom",
            "website": null
        },
        {
            "id": 6917,
            "name": "Gracie Barra Yekaterinburg",
            "federationAbbr": "IBJJF",
            "country": "Russia",
            "countryAbbr": "RU",
            "city": "Yekaterinburg",
            "responsible": "Vladimir Chipurnoy",
            "address": "Ulitsa Sheinkmana 121A, Yekaterinburg, Russia",
            "website": "vk.com/grapplingekaterinburg"
        },
        {
            "id": 6059,
            "name": "Gracie Barra Zhongshan District",
            "federationAbbr": "IBJJF",
            "country": "China",
            "countryAbbr": "CN",
            "city": "Da Lian",
            "responsible": "Du Yunlai",
            "address": "101 Kun Mingjie Ihongshan Qu, Da Lian, LIao Nion, China",
            "website": null
        }
    ]
}