{
    "pagination": {
        "page": 127,
        "from": 2520,
        "to": 2540,
        "pageSize": 20,
        "lastPage": 358,
        "totalRecords": 7149
    },
    "list": [
        {
            "id": 5480,
            "name": "Fighter Family",
            "federationAbbr": "IBJJF",
            "country": "France",
            "countryAbbr": "FR",
            "city": "Nevilly Sur Narne",
            "responsible": "Pape Samba Guisse",
            "address": "5 Rue de Liepi D'or, Nevilly Sur Narne, --, France",
            "website": "www.fighterfamily.fr"
        },
        {
            "id": 1079,
            "name": "Fighter Jiu-Jitsu",
            "federationAbbr": "CBJJ",
            "country": "Brasil",
            "countryAbbr": "BR",
            "city": "Florianópolis",
            "responsible": "Francisco José Barreto",
            "address": "Rua Santos Saraiva n: 1284 Academia Fighter, Bairro: Estreito, Florianópolis, SC, Brasil",
            "website": null
        },
        {
            "id": 8940,
            "name": "Fighteria Academy",
            "federationAbbr": "USBJJF",
            "country": "United States of America",
            "countryAbbr": "US",
            "city": "Wimberley",
            "responsible": "Gleidson  Moraes Cutis",
            "address": "10330 Rr 12, Wimberley, Texas, United States of America",
            "website": "www.fighteriatx..com"
        },
        {
            "id": 8893,
            "name": "Fighters Inside Portugal",
            "federationAbbr": "FPJJB",
            "country": "Portugal",
            "countryAbbr": "PT",
            "city": "Reguengos De Monsaraz",
            "responsible": "Pedro Manuel Morgado Rodrigues",
            "address": "Rua João De Deus 24, Reguengos De Monsaraz, Portugal",
            "website": "https://www.facebook.com/fightersinsideReguengos"
        },
        {
            "id": 2254,
            "name": "Fighters Team BJJ",
            "federationAbbr": "CBJJ",
            "country": "Brasil",
            "countryAbbr": "BR",
            "city": "Goiânia",
            "responsible": "Iuri Cardoso Soares",
            "address": "Av. Moinho Dos Ventos Q 32 L17, Moinho Dos Ventos, Goiânia, GO, Brasil",
            "website": "facebook/fightersteamgoiania"
        },
        {
            "id": 7901,
            "name": "Fightfarm Jiu-Jitsu",
            "federationAbbr": "JBJJF",
            "country": "Japan",
            "countryAbbr": "JP",
            "city": "Funabashi-shi",
            "responsible": "Yuki Nakai",
            "address": "2-42-13 Room1, Maebashi Nishi, Funabashi-shi, Chiba, Japan",
            "website": "http://fightfarm.jp/"
        },
        {
            "id": 8025,
            "name": "Fightsports Charlotte",
            "federationAbbr": "USBJJF",
            "country": "United States of America",
            "countryAbbr": "US",
            "city": "Charlotte",
            "responsible": "Daniel Druker",
            "address": "15033 Ballancroft Pkwy, Charlotte, North Carolina, United States of America",
            "website": null
        },
        {
            "id": 4740,
            "name": "Fightworx Academy",
            "federationAbbr": "IBJJF",
            "country": "United Kingdom",
            "countryAbbr": "GB",
            "city": "Newton Abbot",
            "responsible": "Darren  Yeoman",
            "address": "84 Orleigh Cross, , Newton Abbot, DV, United Kingdom",
            "website": "www.fightworx.co.uk"
        },
        {
            "id": 3099,
            "name": "Figueroa Academy of Brazilian Jiu-Jitsu",
            "federationAbbr": "USBJJF",
            "country": "United States of America",
            "countryAbbr": "US",
            "city": "Vista",
            "responsible": "Martin Gilberto Figueroa",
            "address": "1116 Sycamore Ave Ste. G  , , Vista, CA, United States of America",
            "website": "www.figueroajiujitsu.com"
        },
        {
            "id": 9609,
            "name": "Filipe Barbosa Brazilian Jiu-Jitsu Academy",
            "federationAbbr": "USBJJF",
            "country": "United States of America",
            "countryAbbr": "US",
            "city": "Baraboo",
            "responsible": "Filipe Leonardo de Castro Barbosa",
            "address": "912 Wis-136 Ste. 104, Baraboo, Wisconsin, United States of America",
            "website": "Www.bjjwisconsin.com"
        },
        {
            "id": 9177,
            "name": "Filipe BJJ",
            "federationAbbr": "CBJJ",
            "country": "Brasil",
            "countryAbbr": "BR",
            "city": "Passo Fundo",
            "responsible": "Filipe Fernando de Moraes",
            "address": "Av. Sete De Setembro, 915, Centro, Passo Fundo, Rio Grande Do Sul, Brasil",
            "website": "Passo Fundo"
        },
        {
            "id": 7330,
            "name": "Filipenko BJJ",
            "federationAbbr": "IBJJF",
            "country": "Israel",
            "countryAbbr": "IL",
            "city": "Ya'ara ",
            "responsible": "Alexey Filipenko",
            "address": "Israel Western Galilee Mooshay Ya'ara 167, Ya'ara , Israel",
            "website": "filteambjj@co.il"
        },
        {
            "id": 9773,
            "name": "Filipenses Jiu-Jitsu",
            "federationAbbr": "CBJJ",
            "country": "Brasil",
            "countryAbbr": "BR",
            "city": "Goiânia",
            "responsible": "Eduardo Lima Rampani",
            "address": "Rua 20 Setor Central Goiânia Go, Imcg, Goiânia, Goiás, Brasil",
            "website": null
        },
        {
            "id": 8957,
            "name": "Findlay Jiu-Jitsu Academy",
            "federationAbbr": "USBJJF",
            "country": "United States of America",
            "countryAbbr": "US",
            "city": "Findlay",
            "responsible": "Jorge Britto Lima Filho",
            "address": "2461 S Main St., Findlay, Ohio, United States of America",
            "website": "findlayjiujitsu.com"
        },
        {
            "id": 9110,
            "name": "Finianos 0ctopus",
            "federationAbbr": "CBJJ",
            "country": "Brasil",
            "countryAbbr": "BR",
            "city": "Angra Dos Reis",
            "responsible": "Bruno Alves Pereira",
            "address": "Rua Barra Mansa, Número, 51, Angra Dos Reis, Rj, Brasil",
            "website": "Angra dos Reis"
        },
        {
            "id": 2540,
            "name": "Finney's MMA",
            "federationAbbr": "USBJJF",
            "country": "United States of America",
            "countryAbbr": "US",
            "city": "St Louis",
            "responsible": "Lucas Lopes de Freitas Xavier",
            "address": "9744, Watson Roas  , , St Louis, MO, United States of America",
            "website": "www.finneysmma.com"
        },
        {
            "id": 5173,
            "name": "Fire Jiu-Jitsu",
            "federationAbbr": "CBJJ",
            "country": "Brasil",
            "countryAbbr": "BR",
            "city": "Palmas",
            "responsible": "Jefferson Costa Pinto",
            "address": "Rua 33 - Quadra 137 Lote 14, Jardim Aureny III, Palmas, TO, Brasil",
            "website": ""
        },
        {
            "id": 5245,
            "name": "Firefighters Grapplers The Best Tribe",
            "federationAbbr": "CBJJ",
            "country": "Brasil",
            "countryAbbr": "BR",
            "city": "Brasilia",
            "responsible": "João Marques de Oliveira Junior",
            "address": "Asa Sul-setor Policial, Academia De Bombeiros/ Cecaf, Brasilia, DF, Brasil",
            "website": null
        },
        {
            "id": 8284,
            "name": "Firmados Na Rocha",
            "federationAbbr": "CBJJ",
            "country": "Brasil",
            "countryAbbr": "BR",
            "city": "Manaus",
            "responsible": "Marcio dos Santos Mamed",
            "address": "Av Leopoldo Peres, 419, Manaus, Am, Brasil",
            "website": null
        },
        {
            "id": 4114,
            "name": "First BJJ Carlson Gracie Team",
            "federationAbbr": "USBJJF",
            "country": "United States of America",
            "countryAbbr": "US",
            "city": "Murray",
            "responsible": "Suyan Lopes Queiroz",
            "address": "5508 S. Van Winke EXPY  , , Murray, UT, United States of America",
            "website": "www.firstbjj.com"
        }
    ]
}