{
    "pagination": {
        "page": 73,
        "from": 1440,
        "to": 1460,
        "pageSize": 20,
        "lastPage": 358,
        "totalRecords": 7149
    },
    "list": [
        {
            "id": 7451,
            "name": "CF24 Jiu-Jitsu",
            "federationAbbr": "IBJJF",
            "country": "United Kingdom",
            "countryAbbr": "GB",
            "city": "Cardiff ",
            "responsible": "Marcelo de Oliveira Copa",
            "address": "160-162 Cottrell Rd, Roath, Cardiff , United Kingdom",
            "website": "www.cf24jiujitsu.co.uk"
        },
        {
            "id": 5475,
            "name": "CFC Team",
            "federationAbbr": "IBJJF",
            "country": "Spain",
            "countryAbbr": "ES",
            "city": "Cerdanyola del Valles",
            "responsible": "Sergio Calderon Gonzalez",
            "address": "c/zurbano 6, Cerdanyola del Valles, Spain",
            "website": "www.cerdanyolafightclub.com"
        },
        {
            "id": 4268,
            "name": "C-Fighter Academy",
            "federationAbbr": "IBJJF",
            "country": "Spain",
            "countryAbbr": "ES",
            "city": "Madrid",
            "responsible": "Cleiton Novas Pinheiro",
            "address": "Calle Provisiones, 20   , , Madrid, --, Spain",
            "website": "www.c-fighter.com"
        },
        {
            "id": 2858,
            "name": "CFS BJJ",
            "federationAbbr": "IBJJF",
            "country": "United Kingdom",
            "countryAbbr": "GB",
            "city": "North Finchley",
            "responsible": "M. I. David Onuma",
            "address": "20 Buxted Road, , North Finchley, United Kingdom",
            "website": "www.nth12.com"
        },
        {
            "id": 7261,
            "name": "Chain BJJ",
            "federationAbbr": "FPJJB",
            "country": "Portugal",
            "countryAbbr": "PT",
            "city": "Lisboa",
            "responsible": "Ricardo Silva Chain",
            "address": "Rua Maluda, 13, 1 D, Lisboa, --, Portugal",
            "website": null
        },
        {
            "id": 7450,
            "name": "Champ`s Factory Team",
            "federationAbbr": "CBJJ",
            "country": "Brasil",
            "countryAbbr": "BR",
            "city": "Manaus",
            "responsible": "Jose Alberto Santos",
            "address": "Rua Waldemar Pedrosa, 35 - São Jorge, Quadra 14 Lote F 09, Manaus, AM, Brasil",
            "website": null
        },
        {
            "id": 2144,
            "name": "Champion Factory",
            "federationAbbr": "USBJJF",
            "country": "United States of America",
            "countryAbbr": "US",
            "city": "Amite",
            "responsible": "Rafael Ellwanger da Silva",
            "address": "26326 E. Snowcreek Road , Amite, LA, United States of America",
            "website": "trainbjjnow.com"
        },
        {
            "id": 3005,
            "name": "Champion Jiu Jitsu International",
            "federationAbbr": "USBJJF",
            "country": "United States of America",
            "countryAbbr": "US",
            "city": "Arlington Heights",
            "responsible": "Bruce William Harvard",
            "address": "19 E. Golf Road, Arlington Heights, Il, United States of America",
            "website": "www.championjiujitsu.com"
        },
        {
            "id": 6479,
            "name": "Champion JJ MMA Team Tangier Andalus",
            "federationAbbr": "IBJJF",
            "country": "Morocco",
            "countryAbbr": "MA",
            "city": "Tangier",
            "responsible": "Bruce William Harvard",
            "address": "c/o Flora Fitness, Espace Flora, Residence Al Andaluss, Boukhalef, Tangier, --, Morocco",
            "website": "championjiujitsu.com"
        },
        {
            "id": 2819,
            "name": "Champions BJJ",
            "federationAbbr": "FPJJB",
            "country": "Portugal",
            "countryAbbr": "PT",
            "city": "Matosinhos",
            "responsible": null,
            "address": "Rua Brito e Cunha, 234 - 4450 Matosinhos  , , Matosinhos, xx, Portugal",
            "website": "http://www.championsmma.net/"
        },
        {
            "id": 3417,
            "name": "Champions MMA Lakeland",
            "federationAbbr": "USBJJF",
            "country": "United States of America",
            "countryAbbr": "US",
            "city": "Lakeland",
            "responsible": "Marcus Vinicius Teixeira Santos",
            "address": "8220 US 98 North  , , Lakeland, FL, United States of America",
            "website": "www.championmma.tv"
        },
        {
            "id": 7499,
            "name": "Channel Islands BJJ",
            "federationAbbr": "USBJJF",
            "country": "United States of America",
            "countryAbbr": "US",
            "city": "Ventura ",
            "responsible": "Jonatas Novaes ",
            "address": "3645 Telegraph Rd. , Ventura , CA, United States of America",
            "website": null
        },
        {
            "id": 8636,
            "name": "Chantillymma",
            "federationAbbr": "USBJJF",
            "country": "United States of America",
            "countryAbbr": "US",
            "city": "Chantilly",
            "responsible": "Suldbayar Damdin",
            "address": "4124 Walney Rd, Chantilly, Virginia, United States of America",
            "website": "Chantillymma.come"
        },
        {
            "id": 8895,
            "name": "Chão Explosivo",
            "federationAbbr": "CBJJ",
            "country": "Brasil",
            "countryAbbr": "BR",
            "city": "Leopoldina",
            "responsible": "Luiz Alberto Ponciano da Cruz Junior",
            "address": "Rua Barão De Cotegipe, 190, Leopoldina, Minas Gerais, Brasil",
            "website": null
        },
        {
            "id": 8381,
            "name": "Chapel Hill Team Roc",
            "federationAbbr": "USBJJF",
            "country": "United States of America",
            "countryAbbr": "US",
            "city": "Chapel Hill ",
            "responsible": "Mazaher Heydary",
            "address": "1728 Fordham Blvd Suite 127, Chapel Hill , North Carolina, United States of America",
            "website": "https://www.chapelhilljiujitsu.net"
        },
        {
            "id": 6306,
            "name": "Charles Gracie Academy - San Mateo",
            "federationAbbr": "USBJJF",
            "country": "United States of America",
            "countryAbbr": "US",
            "city": "San Mateo",
            "responsible": "Charles Gracie",
            "address": "174 w. 25th Avenue, San Mateo, CA, United States of America",
            "website": "www.GracieSanMateo.com"
        },
        {
            "id": 2610,
            "name": "Charles Gracie Jiu-Jitsu Academy",
            "federationAbbr": "USBJJF",
            "country": "United States of America",
            "countryAbbr": "US",
            "city": "Tracy",
            "responsible": "Charles Gracie",
            "address": "1005 E. Pescadero Ave #149, Tracy, CA, United States of America",
            "website": "www.charlesgracie.com"
        },
        {
            "id": 6343,
            "name": "Charles Gracie Jiu-Jitsu Academy - Daly City",
            "federationAbbr": "USBJJF",
            "country": "United States of America",
            "countryAbbr": "US",
            "city": "Daly City",
            "responsible": "Charles Gracie",
            "address": "7340 Mission Street, Daly City, CA, United States of America",
            "website": "www.graciedalycity.com"
        },
        {
            "id": 6386,
            "name": "Charles Gracie Jiu-Jitsu Academy - Reno",
            "federationAbbr": "USBJJF",
            "country": "United States of America",
            "countryAbbr": "US",
            "city": "Reno",
            "responsible": "Gary Lee Grate",
            "address": "1335 Airmotive Way, Reno, NV, United States of America",
            "website": "www.BJJReno.com"
        },
        {
            "id": 8975,
            "name": "Charles Vieira Brazilian Jiu Jitsu",
            "federationAbbr": "CBJJ",
            "country": "Brasil",
            "countryAbbr": "BR",
            "city": "Jaboatão Dos Guararapes",
            "responsible": "Jose Charles Vieira de Assis",
            "address": "Rua Boa Vista, 866, Ct Jiu Jitsu, Jaboatão Dos Guararapes, Pernambuco, Brasil",
            "website": "@charles_vieira_bjj"
        }
    ]
}