{
    "pagination": {
        "page": 263,
        "from": 5240,
        "to": 5260,
        "pageSize": 20,
        "lastPage": 358,
        "totalRecords": 7149
    },
    "list": [
        {
            "id": 7667,
            "name": "Pimenta Jiu-Jitsu",
            "federationAbbr": "USBJJF",
            "country": "United States of America",
            "countryAbbr": "US",
            "city": "Naples",
            "responsible": "Denilson de Carvalho Pimenta",
            "address": "3573 Mercantile Ave #3, Naples, Fl, United States of America",
            "website": "Evolutionmmanaples.com"
        },
        {
            "id": 4457,
            "name": "Pinheiro's Team",
            "federationAbbr": "CBJJ",
            "country": "Brasil",
            "countryAbbr": "BR",
            "city": "Blumenau",
            "responsible": "Michael Jefferson de Lima Pinheiro",
            "address": "Rua Dolores Duran 226, Itoupava Norte, Blumenau, SC, Brasil",
            "website": null
        },
        {
            "id": 5583,
            "name": "Pirâmide Grappling Association",
            "federationAbbr": "CBJJ",
            "country": "Brasil",
            "countryAbbr": "BR",
            "city": "Rio de Janeiro",
            "responsible": "Marco Aurellio de Queiroz",
            "address": "Rua Busa Ferraz, Quadra 39, Barra Da Tijuca, Rio de Janeiro, RJ, Brasil",
            "website": null
        },
        {
            "id": 9191,
            "name": "Piratas Academy",
            "federationAbbr": "IBJJF",
            "country": "Russia",
            "countryAbbr": "RU",
            "city": "Saint-petersburg",
            "responsible": "Vadim Tolokonnikov",
            "address": "Barochnaya Street 12-88, Barochnaya Street 12-88, Saint-petersburg, Saint-petersburg, Russia",
            "website": "Piratasbjj.ru"
        },
        {
            "id": 5866,
            "name": "Pirates",
            "federationAbbr": "IBJJF",
            "country": "Greece",
            "countryAbbr": "GR",
            "city": "Peristeri",
            "responsible": "Samir Hamid Krvavac",
            "address": "Souri 20, Peristeri, --, Greece",
            "website": null
        },
        {
            "id": 458,
            "name": "Pitbull",
            "federationAbbr": "CBJJ",
            "country": "Brasil",
            "countryAbbr": "BR",
            "city": "Teresópolis",
            "responsible": "Adilson Jorge de Lima",
            "address": "Av. Delfim Moreira 445 4 andar/Sala 06, Varzea, Teresópolis, RJ, Brasil",
            "website": null
        },
        {
            "id": 5462,
            "name": "Pitbull Brothers",
            "federationAbbr": "CBJJ",
            "country": "Brasil",
            "countryAbbr": "BR",
            "city": "Parnamirim",
            "responsible": "Francisco Jose Mansor",
            "address": "R. Cruz E Souza, 155, Nova Parnamirim, 59150-370, Parnamirim, RN, Brasil",
            "website": "http://pitbullbrothers.com.br/"
        },
        {
            "id": 7897,
            "name": "Pitbull Campos RJ",
            "federationAbbr": "CBJJ",
            "country": "Brasil",
            "countryAbbr": "BR",
            "city": "Campos Dos Goytacazes",
            "responsible": "Marlon Leite Faria",
            "address": "Rua Barão De Miracema, 274 - Centro,, Campos Dos Goytacazes, Rio De Janeiro, Brasil",
            "website": null
        },
        {
            "id": 6303,
            "name": "Pitbull Guapimirim",
            "federationAbbr": "CBJJ",
            "country": "Brasil",
            "countryAbbr": "BR",
            "city": "Guapimirim",
            "responsible": "Mesac Cesario do Nacimento",
            "address": "Rua Itá n: 459, Guapimirim, Guapimirim, Rio de Janeiro, Brasil",
            "website": null
        },
        {
            "id": 4683,
            "name": "Pitbull Parada Modelo",
            "federationAbbr": "CBJJ",
            "country": "Brasil",
            "countryAbbr": "BR",
            "city": "Guapimirim ",
            "responsible": "Rodrigo Alcantara Siqueira",
            "address": "Estrada Rio Friburgo - KM 0 53 , Parada Modelo, Guapimirim , RJ, Brasil",
            "website": "www.academiauc.com.br"
        },
        {
            "id": 1009,
            "name": "Piu Jiu-Jitsu Team / Competition",
            "federationAbbr": "CBJJ",
            "country": "Brasil",
            "countryAbbr": "BR",
            "city": "São Paulo",
            "responsible": "Marcelo Gheler",
            "address": "Rua São Vicente De Paula, 650 - Ap. 13, Santa Cecília, São Paulo, SP, Brasil",
            "website": "www.competition.com.br"
        },
        {
            "id": 7388,
            "name": "PJJ Fight Team",
            "federationAbbr": "IBJJF",
            "country": "United Kingdom",
            "countryAbbr": "GB",
            "city": "London",
            "responsible": "Arya  Esfandmaz",
            "address": "The rehersal rooms, Victoria Road, London, United Kingdom",
            "website": "wwwpurejiujitsu.com"
        },
        {
            "id": 7253,
            "name": "PJT Jiu-Jitsu Colatina",
            "federationAbbr": "CBJJ",
            "country": "Brasil",
            "countryAbbr": "BR",
            "city": "Colatina",
            "responsible": "Marcos Pavan de Souza",
            "address": "Rua José de Almeida n: 353, Bairro: Castelo Branco, Colatina, Espirito Santo, Brasil",
            "website": null
        },
        {
            "id": 9654,
            "name": "Pk BJJ",
            "federationAbbr": "CBJJ",
            "country": "Brasil",
            "countryAbbr": "BR",
            "city": "Presidente Dutra",
            "responsible": "Jardeson de Almeida Pereira",
            "address": "Enoque Vieira, 83, Presidente Dutra, Ma, Brasil",
            "website": null
        },
        {
            "id": 5482,
            "name": "PK29",
            "federationAbbr": "UIJJ",
            "country": "Italy",
            "countryAbbr": "IT",
            "city": "Roma",
            "responsible": "Simone Franceschini",
            "address": "via Giacinto de Veccai Pieralicie 116-114, Roma, IT, Italy",
            "website": null
        },
        {
            "id": 3015,
            "name": "PKG Training Center",
            "federationAbbr": "USBJJF",
            "country": "United States of America",
            "countryAbbr": "US",
            "city": "Los Angeles",
            "responsible": "Tahi Burns",
            "address": "8954 Ellis Avenue  , , Los Angeles, CA, United States of America",
            "website": "www.pkgla.com"
        },
        {
            "id": 7052,
            "name": "Plantas",
            "federationAbbr": "USBJJF",
            "country": "United States of America",
            "countryAbbr": "US",
            "city": "West Bloomfield",
            "responsible": "Alex Jacob Hodi",
            "address": "7299 Silver Leaf Ln. , West Bloomfield, MI, United States of America",
            "website": "instagram/rootsjiujitsu"
        },
        {
            "id": 7555,
            "name": "Play Fight Team (PFT)",
            "federationAbbr": "CBJJ",
            "country": "Brasil",
            "countryAbbr": "BR",
            "city": "Rio de Janeiro ",
            "responsible": "Glimario João dos Santos Junior",
            "address": "Rua Belmiro de Souza n: 12, Cheche Aspa, Rio de Janeiro , Rio de Janeiro , Brasil",
            "website": null
        },
        {
            "id": 9664,
            "name": "Playa Venao BJJ",
            "federationAbbr": "IBJJF",
            "country": "Panama",
            "countryAbbr": "PA",
            "city": "Playa Venao",
            "responsible": "Amal B. Easton",
            "address": "Beach Break Surf Camp, Playa Venao, Pedasi, Panama",
            "website": "https://www.beachbreaksurfcamp.com/"
        },
        {
            "id": 10450,
            "name": "Playground Jiu-Jitsu",
            "federationAbbr": "USBJJF",
            "country": "United States of America",
            "countryAbbr": "US",
            "city": "East Providence",
            "responsible": "Paulo V Canabarro",
            "address": "781 Waterman Ave, East Providence, Rhode Island, United States of America",
            "website": "playgroundjiujitsu.com"
        }
    ]
}