{
    "pagination": {
        "page": 311,
        "from": 6200,
        "to": 6220,
        "pageSize": 20,
        "lastPage": 358,
        "totalRecords": 7149
    },
    "list": [
        {
            "id": 7285,
            "name": "Sv Team",
            "federationAbbr": "CBJJ",
            "country": "Brasil",
            "countryAbbr": "BR",
            "city": "Manaus",
            "responsible": "Laércio Pereira Sarmento Júnior",
            "address": "Rua Portugal n: 225, Bairro: Parque Das Nações / Flores, Manaus, Amazonas, Brasil",
            "website": null
        },
        {
            "id": 4823,
            "name": "Swampfox Jiu-Jitsu",
            "federationAbbr": "USBJJF",
            "country": "United States of America",
            "countryAbbr": "US",
            "city": "Florence",
            "responsible": "David Brian Edwards",
            "address": "1717 W Palmetto St, , Florence, Sc, United States of America",
            "website": "swampfoxjiujitsu.com"
        },
        {
            "id": 8771,
            "name": "Swat Team",
            "federationAbbr": "CBJJ",
            "country": "Brasil",
            "countryAbbr": "BR",
            "city": "Mauá",
            "responsible": "Matheus Moraes de Oliveira",
            "address": "Rua Plewna 179, Mauá, São Paulo, Brasil",
            "website": "Rua plewna 179"
        },
        {
            "id": 4700,
            "name": "Sylvio Behring USA",
            "federationAbbr": "USBJJF",
            "country": "United States of America",
            "countryAbbr": "US",
            "city": "Park City",
            "responsible": "Peter C. Iacavazzi",
            "address": "P.O. Box 981641  , Park City, UT, United States of America",
            "website": "bitterrootmma.com"
        },
        {
            "id": 3949,
            "name": "Synergy Brazilian Jiu Jitsu",
            "federationAbbr": "USBJJF",
            "country": "United States of America",
            "countryAbbr": "US",
            "city": "Rocklin",
            "responsible": "Nathan Alan Burnette",
            "address": "4157 Rocklin Road Suite #E  , , Rocklin, CA, United States of America",
            "website": "bjj-rocklin.com"
        },
        {
            "id": 4416,
            "name": "Syon Jiu-Jitsu",
            "federationAbbr": "CBJJ",
            "country": "Brasil",
            "countryAbbr": "BR",
            "city": "Três Lagoas",
            "responsible": "André Luis Tozoni",
            "address": "R: Bruno Garcia  2525, Jardim Primaveril, Três Lagoas, MS, Brasil",
            "website": ""
        },
        {
            "id": 7493,
            "name": "T \u0026 D Jiu-Jitsu",
            "federationAbbr": "USBJJF",
            "country": "United States of America",
            "countryAbbr": "US",
            "city": "Peabody",
            "responsible": "Thiago Dias D. Narciso",
            "address": "116 Main Street #2D, Peabody, MA, United States of America",
            "website": null
        },
        {
            "id": 9058,
            "name": "T\u0026J Team JIU-JITSU",
            "federationAbbr": "CBJJ",
            "country": "Brasil",
            "countryAbbr": "BR",
            "city": "Castanhal",
            "responsible": "Robnilson Rocha da Silva",
            "address": "Alameda Imperial Nº 353 - Bairro São José, Academia, Castanhal, Pará, Brasil",
            "website": "ACADEMIA"
        },
        {
            "id": 6547,
            "name": "T. Birmingham Academy",
            "federationAbbr": "IBJJF",
            "country": "United Kingdom",
            "countryAbbr": "GB",
            "city": "South Hampton",
            "responsible": "Trevor Terrence Birmingham",
            "address": "145 Viney Avenue, Romsey, South Hampton, --, United Kingdom",
            "website": null
        },
        {
            "id": 9488,
            "name": "T.b.nation Jiu-Jitsu",
            "federationAbbr": "JBJJF",
            "country": "Japan",
            "countryAbbr": "JP",
            "city": "Daito",
            "responsible": "Mamoru Kashikura",
            "address": "5-6-50, Sanga, Daito, Osaka, Japan",
            "website": null
        },
        {
            "id": 3402,
            "name": "T.K. ESPERANZA",
            "federationAbbr": "JBJJF",
            "country": "Japan",
            "countryAbbr": "JP",
            "city": "Hiroshima",
            "responsible": "Tsuyoshi Okada",
            "address": "4-19-26 Sanyo bdg 203 Kongo-naka Nishi-ku  , , Hiroshima, --, Japan",
            "website": "www.tkesperanza.com"
        },
        {
            "id": 5753,
            "name": "T.O.S.S. Academy",
            "federationAbbr": "USBJJF",
            "country": "United States of America",
            "countryAbbr": "US",
            "city": "Bentonville",
            "responsible": "Carlos Elias",
            "address": "1400 SW Susana St, Ste #14, Bentonville, AR, United States of America",
            "website": "tossbjj.com"
        },
        {
            "id": 6033,
            "name": "T1 Alexey Cruz",
            "federationAbbr": "CBJJ",
            "country": "Brasil",
            "countryAbbr": "BR",
            "city": "Macapa",
            "responsible": "Tadeu Ricelli Beltrao Santos",
            "address": "Av. Presidente Vargas n: 1081, Centro, Macapa, Amapá, Brasil",
            "website": null
        },
        {
            "id": 10477,
            "name": "T1 Laranjal Do Jari",
            "federationAbbr": "CBJJ",
            "country": "Brasil",
            "countryAbbr": "BR",
            "city": "Laranjal Do Jari",
            "responsible": "Silvio Samir da Silva Sena",
            "address": "Rua Rio Jari 1053, Loja 08, Laranjal Do Jari, Amapá, Brasil",
            "website": null
        },
        {
            "id": 2948,
            "name": "T3MA",
            "federationAbbr": "USBJJF",
            "country": "United States of America",
            "countryAbbr": "US",
            "city": "Redmond",
            "responsible": "Miriam Cardoso Cerqueira",
            "address": "17725 Ne 65th St. Suite A-175  , Redmond, WA, United States of America",
            "website": "www.T3MA.com"
        },
        {
            "id": 10664,
            "name": "Tabernáculo Sports BJJ",
            "federationAbbr": "CBJJ",
            "country": "Brasil",
            "countryAbbr": "BR",
            "city": "Manaus",
            "responsible": "Wendell Moreira dos Santos",
            "address": "Rua Japurá N 2249, Cachoeirinha, Manaus, Amazonas, Brasil",
            "website": null
        },
        {
            "id": 8708,
            "name": "Tabinha BJJ",
            "federationAbbr": "CBJJ",
            "country": "Brasil",
            "countryAbbr": "BR",
            "city": "Rio De Janeiro",
            "responsible": "Luis Carlos Velasco",
            "address": "21964231238, Rio De Janeiro, Brasil",
            "website": null
        },
        {
            "id": 6659,
            "name": "TABJJ / Honeybadger BJJ",
            "federationAbbr": "USBJJF",
            "country": "United States of America",
            "countryAbbr": "US",
            "city": "Las Vegas",
            "responsible": "Moises Lopez",
            "address": "4613 Eagle Nest Peak St. , Las Vegas, NV, United States of America",
            "website": null
        },
        {
            "id": 9974,
            "name": "Tabula Rasa BJJ",
            "federationAbbr": "USBJJF",
            "country": "United States of America",
            "countryAbbr": "US",
            "city": "Colorado Springs",
            "responsible": "Aaron Palos Windeknecht",
            "address": "4775 Barnes Rd, Unit G, Colorado Springs, Co, United States of America",
            "website": "tabsbjj.com"
        },
        {
            "id": 2417,
            "name": "Tac Team BJJ - Midwest",
            "federationAbbr": "USBJJF",
            "country": "United States of America",
            "countryAbbr": "US",
            "city": "Niles",
            "responsible": "Mark J. Vives",
            "address": "5647 W. Howard St.  , Niles, IL, United States of America",
            "website": "www.newbreedtrainingcenter.com"
        }
    ]
}