{
    "pagination": {
        "page": 136,
        "from": 2700,
        "to": 2720,
        "pageSize": 20,
        "lastPage": 358,
        "totalRecords": 7149
    },
    "list": [
        {
            "id": 5677,
            "name": "Game Fight Barra Da Tijuca",
            "federationAbbr": "CBJJ",
            "country": "Brasil",
            "countryAbbr": "BR",
            "city": "Rio de Janeiro",
            "responsible": "Vinícius Jorge Dubugras do Amaral",
            "address": "Avenida Das Americas, 12.300, Barra da Tijuca, Rio de Janeiro, RJ, Brasil",
            "website": null
        },
        {
            "id": 6145,
            "name": "Game Fight Bolivia",
            "federationAbbr": "IBJJF",
            "country": "Bolivia",
            "countryAbbr": "BO",
            "city": "Cochabamba",
            "responsible": "Vinícius Jorge Dubugras do Amaral",
            "address": "Santivanez 258 - Junin y Hamiraya, Cochabamba, --, Bolivia",
            "website": "www.bjjbolivia.blogspot.com"
        },
        {
            "id": 7945,
            "name": "Game Fight Fusion",
            "federationAbbr": "FPJJB",
            "country": "Portugal",
            "countryAbbr": "PT",
            "city": "Aveiro",
            "responsible": "Thiago Carvalho Arpino",
            "address": "Avenida Da Liberdade 852, Gião - Santa Maria Da Feira, Aveiro, Portugal",
            "website": null
        },
        {
            "id": 5742,
            "name": "Game Fight Matriz",
            "federationAbbr": "CBJJ",
            "country": "Brasil",
            "countryAbbr": "BR",
            "city": "Rio de Janeiro",
            "responsible": "Vinícius Jorge Dubugras do Amaral",
            "address": "Rua Açaré - 28, Engenho Novo, Rio de Janeiro, RJ, Brasil",
            "website": null
        },
        {
            "id": 8120,
            "name": "Game Fight Mendanha",
            "federationAbbr": "CBJJ",
            "country": "Brasil",
            "countryAbbr": "BR",
            "city": "Rio De Janeiro",
            "responsible": "Alessandro Eduardo Garcia de Medeiros",
            "address": "Rua Do Catarinense, Lt: 01, Sobrado, Rio De Janeiro, Rio De Janeiro, Brasil",
            "website": null
        },
        {
            "id": 7600,
            "name": "Game Fight Miguel Pereira",
            "federationAbbr": "CBJJ",
            "country": "Brasil",
            "countryAbbr": "BR",
            "city": "Miguel Pereira ",
            "responsible": "Vinícius Jorge Dubugras do Amaral",
            "address": "Rua Luiz Márquez número 150 , Divisa com Miguel Pereira , Miguel Pereira , Rio de Janeiro , Brasil",
            "website": null
        },
        {
            "id": 5889,
            "name": "Game Fight Oswaldo Cruz",
            "federationAbbr": "CBJJ",
            "country": "Brasil",
            "countryAbbr": "BR",
            "city": "Rio de Janeiro",
            "responsible": "Vinícius Jorge Dubugras do Amaral",
            "address": "Rua Pereira de Figueiredo n: 177, Oswaldo Cruz, Rio de Janeiro, Rio de Janeiro, Brasil",
            "website": null
        },
        {
            "id": 5925,
            "name": "Game Fight Paraiba do Sul",
            "federationAbbr": "CBJJ",
            "country": "Brasil",
            "countryAbbr": "BR",
            "city": "Paraiba do Sul",
            "responsible": "Everton Damasceno Guimarães",
            "address": "Rua Zilda Torres de Castro n: 46 casa 01, Lava Peis, Paraiba do Sul, Rio de Janeiro, Brasil",
            "website": null
        },
        {
            "id": 7607,
            "name": "Game Fight Peru",
            "federationAbbr": "IBJJF",
            "country": "Peru",
            "countryAbbr": "PE",
            "city": "Lima ",
            "responsible": "Vinícius Jorge Dubugras do Amaral",
            "address": "Coliseo Aldo chamochumbi, S/N , Madalena del mar, , Lima , Lima , Peru",
            "website": "www.gamefightbjj.com.br "
        },
        {
            "id": 6156,
            "name": "Game Fight Rio das Ostras",
            "federationAbbr": "CBJJ",
            "country": "Brasil",
            "countryAbbr": "BR",
            "city": "Rio de Janeiro",
            "responsible": "Vinícius Jorge Dubugras do Amaral",
            "address": "Rua Campo de Pargo n: 54, casa 1 - Rio das Ostras, Rio de Janeiro, Rio de Janeiro, Brasil",
            "website": null
        },
        {
            "id": 3856,
            "name": "Game Fight UK",
            "federationAbbr": "IBJJF",
            "country": "United Kingdom",
            "countryAbbr": "GB",
            "city": "Leeds",
            "responsible": "Vinícius Jorge Dubugras do Amaral",
            "address": "Stampford House, 25-27 Cross Stampford Street, Leeds, Yorkshire, United Kingdom",
            "website": "GameFightBJJ.co.uk"
        },
        {
            "id": 7192,
            "name": "Game Fight Usina",
            "federationAbbr": "CBJJ",
            "country": "Brasil",
            "countryAbbr": "BR",
            "city": "Rio de Janeiro",
            "responsible": "Vinícius Jorge Dubugras do Amaral",
            "address": "Rua Conde de Bonfim n: 1393, Sobreloja Bairro: Usina, Rio de Janeiro, Rio de Janeiro, Brasil",
            "website": null
        },
        {
            "id": 9515,
            "name": "Game Master",
            "federationAbbr": "CBJJ",
            "country": "Brasil",
            "countryAbbr": "BR",
            "city": "Volta Redonda",
            "responsible": "Elessandro Correa Fonseca",
            "address": "Rua Dantes, Casa 20, Volta Redonda, Rj, Brasil",
            "website": null
        },
        {
            "id": 8491,
            "name": "Gameness Fight Club",
            "federationAbbr": "CBJJ",
            "country": "Brasil",
            "countryAbbr": "BR",
            "city": "São Luís",
            "responsible": "Raimundo Nonato P. Trindade Junior",
            "address": "Av Jeronimo De Albuquerque 9, Academia Gameness. Segundo Andar, São Luís, Maranhão, Brasil",
            "website": null
        },
        {
            "id": 4071,
            "name": "Garage Jiu-Jitsu",
            "federationAbbr": "IBJJF",
            "country": "Australia",
            "countryAbbr": "AU",
            "city": "Gosford",
            "responsible": "Guilherme da Silveira Neves",
            "address": "406/20 Kendall, Street, Gosford, Nsw, Australia",
            "website": "www.garagejiujitsu.com.au"
        },
        {
            "id": 8307,
            "name": "Garagem 98 The Project",
            "federationAbbr": "CBJJ",
            "country": "Brasil",
            "countryAbbr": "BR",
            "city": "Belo Horizonte",
            "responsible": "Thiago Carvalho Farias",
            "address": "Av. Tereza Cristina, 960, Escola De Jiu-jitsu Verbo Bh, Belo Horizonte, Minas Gerais, Brasil",
            "website": null
        },
        {
            "id": 3833,
            "name": "Garcia Top Team",
            "federationAbbr": "IBJJF",
            "country": "United Kingdom",
            "countryAbbr": "GB",
            "city": "London",
            "responsible": "Nilton Cesar Garcia Protasio",
            "address": "12 Castlehaven Rd. Unit 11 , Camden Town, London, --, United Kingdom",
            "website": "http://bjjinlondon.com"
        },
        {
            "id": 5191,
            "name": "Garra Brazilian Jiu-Jitsu - Australia",
            "federationAbbr": "IBJJF",
            "country": "Australia",
            "countryAbbr": "AU",
            "city": "Kelvin Grove",
            "responsible": "Eduardo André de Viveiros Dias",
            "address": "Unit 1/81 Bishop Street  , , Kelvin Grove, QLD, Australia",
            "website": "www.garrabjj.com.au"
        },
        {
            "id": 2531,
            "name": "Garra Team",
            "federationAbbr": "CBJJ",
            "country": "Brasil",
            "countryAbbr": "BR",
            "city": "Bento Gonçalves",
            "responsible": "Eduardo Virissimo",
            "address": "Rua Góes Monteiro 322 , São Francisco, Bento Gonçalves, RS, Brasil",
            "website": "www.garrateam.com.br"
        },
        {
            "id": 6831,
            "name": "Garth Taylor Jiu-Jitsu",
            "federationAbbr": "USBJJF",
            "country": "United States of America",
            "countryAbbr": "US",
            "city": "Santa Cruz",
            "responsible": "Garth Michael Taylor",
            "address": "403D Swift Street , Santa Cruz, CA, United States of America",
            "website": "www.garthtaylorjj.com"
        }
    ]
}