{
    "pagination": {
        "page": 205,
        "from": 4080,
        "to": 4100,
        "pageSize": 20,
        "lastPage": 358,
        "totalRecords": 7149
    },
    "list": [
        {
            "id": 7363,
            "name": "Kakutogi Academy",
            "federationAbbr": "IBJJF",
            "country": "Poland",
            "countryAbbr": "PL",
            "city": "Zary",
            "responsible": "Emil Sylwester Waszak",
            "address": "street; Ulanska 3/8, Zary, Poland",
            "website": null
        },
        {
            "id": 5748,
            "name": "Kalango Team KT-JJ",
            "federationAbbr": "CBJJ",
            "country": "Brasil",
            "countryAbbr": "BR",
            "city": "Paranavai",
            "responsible": "Wilson Lopes de Souza",
            "address": "Rua Mil Jutin Cogei - numero: 1481, Jd: Simone, Paranavai, Paraná, Brasil",
            "website": null
        },
        {
            "id": 5052,
            "name": "Kama Jiu-Jitsu",
            "federationAbbr": "USBJJF",
            "country": "United States of America",
            "countryAbbr": "US",
            "city": "Trabuco Canyon",
            "responsible": "David K. Kama",
            "address": "32182 Fall River Rd  , , Trabuco Canyon, CA, United States of America",
            "website": ""
        },
        {
            "id": 2196,
            "name": "Kamikaze BJJ",
            "federationAbbr": "CBJJ",
            "country": "Brasil",
            "countryAbbr": "BR",
            "city": "Criciúma",
            "responsible": "Roberto Correa de Lima",
            "address": "Rua Irajá esquina com Rua Major Acacio Moreira 301 , Centro, Criciúma, SC, Brasil",
            "website": "www.kamikazebjj.com.br"
        },
        {
            "id": 2811,
            "name": "Kamphuis - Fabricio JJ",
            "federationAbbr": "IBJJF",
            "country": "Philippines",
            "countryAbbr": "PH",
            "city": "Mandaluyong",
            "responsible": "Fabricio Luiz Martins Costa",
            "address": "UG 26, Wack wack Royal Mansion, Wack Wack Road  , Mandaluyong, --, Philippines",
            "website": "www.bjjphilippines.com"
        },
        {
            "id": 8963,
            "name": "Kamppailu Center - Hilti BJJ",
            "federationAbbr": "IBJJF",
            "country": "Finland",
            "countryAbbr": "FI",
            "city": "Klaukkala",
            "responsible": "Marko Leisten",
            "address": "Järvihaantie 18a, Klaukkala, Etelä-suomi, Finland",
            "website": "www.kamppailucenter.com"
        },
        {
            "id": 7125,
            "name": "Kandango JJ",
            "federationAbbr": "CBJJ",
            "country": "Brasil",
            "countryAbbr": "BR",
            "city": "Vitória",
            "responsible": "Cristiano Sergio P. Almeida",
            "address": "Rua Professor Belmiro Siqueira n: 155, Centro Esportivo Enseada , Vitória, Espírito Santo, Brasil",
            "website": null
        },
        {
            "id": 10300,
            "name": "Kando Jiu-Jitsu",
            "federationAbbr": "CBJJ",
            "country": "Brasil",
            "countryAbbr": "BR",
            "city": "Belo Horizonte",
            "responsible": "Aline de Paula Coelho",
            "address": "Av. Portugal N. 680, Bairro Jardim Atlântico, Belo Horizonte, Minas Gerais, Brasil",
            "website": null
        },
        {
            "id": 9965,
            "name": "Kane Gehling Jiu-Jitsu",
            "federationAbbr": "IBJJF",
            "country": "Australia",
            "countryAbbr": "AU",
            "city": "North Adelaide",
            "responsible": "Kane Samuel Gehling",
            "address": "78 Kermode St, North Adelaide, South Australia, Australia",
            "website": "Kanegehlingjj.com"
        },
        {
            "id": 10431,
            "name": "Kapincho Jiu-Jitsu",
            "federationAbbr": "CBJJ",
            "country": "Brasil",
            "countryAbbr": "BR",
            "city": "Santa Maria",
            "responsible": "Mateus Martins Obaldia",
            "address": "Rua Barão Do Triunfo, 975, 2° Andar, Santa Maria, Rio Grande Do Sul, Brasil",
            "website": null
        },
        {
            "id": 9572,
            "name": "Karasu Tengu Academy",
            "federationAbbr": "USBJJF",
            "country": "United States of America",
            "countryAbbr": "US",
            "city": "Nashua",
            "responsible": "Walter S Cotito Cachay",
            "address": "1 Chestnut Street, 5d, Nashua, New Hampshire, United States of America",
            "website": "www.ktacademymma.com"
        },
        {
            "id": 8445,
            "name": "Karecovisk Fight",
            "federationAbbr": "CBJJ",
            "country": "Brasil",
            "countryAbbr": "BR",
            "city": "Belo Horizonte",
            "responsible": "Eder Rildo Araújo",
            "address": "Rua Joel José De Carvalho, 306, Belo Horizonte, Minas Gerais, Brasil",
            "website": "@careca _fight_team"
        },
        {
            "id": 5249,
            "name": "Karequinha Jiu-Jitsu",
            "federationAbbr": "CBJJ",
            "country": "Brasil",
            "countryAbbr": "BR",
            "city": "Salvador",
            "responsible": "Otavio Romualdo Cruz Carvalho",
            "address": "Rua Bahia Quadra 2 Lote 27 20 , Itapuã, Salvador, BA, Brasil",
            "website": null
        },
        {
            "id": 7554,
            "name": "Karkara BJJ Brasil",
            "federationAbbr": "CBJJ",
            "country": "Brasil",
            "countryAbbr": "BR",
            "city": "Rio de Janeiro",
            "responsible": "Robson Pinheiro Dantas",
            "address": "Rua Lino Teixeira n: 202 fundos , Bairro: Jacaré, Rio de Janeiro, Rio de Janeiro, Brasil",
            "website": null
        },
        {
            "id": 6164,
            "name": "Karkara BJJ France",
            "federationAbbr": "IBJJF",
            "country": "Switzerland",
            "countryAbbr": "CH",
            "city": "Plan-les-Ouates",
            "responsible": "Robson Pinheiro Dantas",
            "address": "Route du Velodrome 8, Plan-les-Ouates, GE, Switzerland",
            "website": "www.kimura-jjb.ch"
        },
        {
            "id": 7290,
            "name": "Karkara BJJ Germany",
            "federationAbbr": "IBJJF",
            "country": "Switzerland",
            "countryAbbr": "CH",
            "city": "Plan-Les-Ouates",
            "responsible": "Robson Pinheiro Dantas",
            "address": "Route du vélodrome 8, Chez Pinheiro Dantas Robson, Plan-Les-Ouates, GVA, Switzerland",
            "website": "www.karkarabjj.com"
        },
        {
            "id": 7283,
            "name": "Karkara BJJ Portugal",
            "federationAbbr": "FPJJB",
            "country": "Portugal",
            "countryAbbr": "PT",
            "city": "Caldas da Rainha",
            "responsible": "Robson Pinheiro Dantas",
            "address": "Avenida Timor Lorosae, Caldas da Rainha, --, Portugal",
            "website": "karkarabjj.com"
        },
        {
            "id": 5395,
            "name": "Karkara BJJ Switzerland",
            "federationAbbr": "IBJJF",
            "country": "Switzerland",
            "countryAbbr": "CH",
            "city": "Plan-les-Ouates",
            "responsible": "Robson Pinheiro Dantas",
            "address": "Route du Velodrome 8, Plan-les-Ouates, GE, Switzerland",
            "website": "www.kimura-jjb.ch"
        },
        {
            "id": 6517,
            "name": "Karlsruhe Teamxtreme",
            "federationAbbr": "IBJJF",
            "country": "Germany",
            "countryAbbr": "DE",
            "city": "Karlsruhe",
            "responsible": "Santeri Lilius",
            "address": "Nco Club, Deleware Str 21,, Karlsruhe, --, Germany",
            "website": "BJJ-Karlsruhe.de"
        },
        {
            "id": 5035,
            "name": "Kaspary Team",
            "federationAbbr": "CBJJ",
            "country": "Brasil",
            "countryAbbr": "BR",
            "city": "São Leopoldo",
            "responsible": "Alexandre Natanael Kaspary",
            "address": "Rua Presidente Lucena 1332 , Sharlau, São Leopoldo, RS, Brasil",
            "website": "facebook.com/kasparyteam"
        }
    ]
}