{
    "pagination": {
        "page": 319,
        "from": 6360,
        "to": 6380,
        "pageSize": 20,
        "lastPage": 358,
        "totalRecords": 7149
    },
    "list": [
        {
            "id": 4448,
            "name": "Team Jucão Spain",
            "federationAbbr": "IBJJF",
            "country": "Spain",
            "countryAbbr": "ES",
            "city": "Leioa",
            "responsible": "Cleyton Gonçalves Bastos",
            "address": "Calle/ Langileria 16- A, Leioa, --vizcaya, Spain",
            "website": null
        },
        {
            "id": 8233,
            "name": "Team Jucao Valparaiso - Go",
            "federationAbbr": "CBJJ",
            "country": "Brasil",
            "countryAbbr": "BR",
            "city": "Brasília",
            "responsible": "Eduardo Borges Ferreira",
            "address": "Qd 14 Casa 77, Casa 77, Brasília, Df, Brasil",
            "website": "@teamjucaoval"
        },
        {
            "id": 7829,
            "name": "Team Kalista",
            "federationAbbr": "IBJJF",
            "country": "Dominican Republic",
            "countryAbbr": "DO",
            "city": "Punta Cana ",
            "responsible": "Kaelum Martin M. Kalista",
            "address": "Avenida Alamania , Punta Cana , Na , Dominican Republic",
            "website": "Www.team kalista.com"
        },
        {
            "id": 8365,
            "name": "Team Kalista USA",
            "federationAbbr": "USBJJF",
            "country": "United States of America",
            "countryAbbr": "US",
            "city": "Hinesville",
            "responsible": "Kaelum Martin M. Kalista",
            "address": "248 Hardman Rd, Hinesville, Georgia, United States of America",
            "website": "Teamkalista.com"
        },
        {
            "id": 6684,
            "name": "Team Kamal Brazilian Jiu-Jitsu",
            "federationAbbr": "CBJJ",
            "country": "Brasil",
            "countryAbbr": "BR",
            "city": "Macapá",
            "responsible": "Claudionor Ferreira da Silva",
            "address": "Av. General Osório n: 724, Bairro: laguinho, Macapá, Amapá, Brasil",
            "website": "www.instagram.com/teamkamalbjj"
        },
        {
            "id": 6047,
            "name": "Team Kamui",
            "federationAbbr": "CBJJ",
            "country": "Brasil",
            "countryAbbr": "BR",
            "city": "Feira de Santana",
            "responsible": "Evandro Alves Nascimento",
            "address": "Rua Godofredo Rebello de Figueiredo Filho n: 1108, A - Bairro: Sim, Feira de Santana, Bahia, Brasil",
            "website": "http://www.kamuikimonos.com.br"
        },
        {
            "id": 6899,
            "name": "Team KF",
            "federationAbbr": "IBJJF",
            "country": "Ireland",
            "countryAbbr": "IE",
            "city": "Swords",
            "responsible": "Thomas John King",
            "address": "Unit B3 Metropoint Business Park, Kettles Lane, Swords, Dublin, Ireland",
            "website": "www.teamkfmartialarts.com/"
        },
        {
            "id": 4604,
            "name": "Team Kurama",
            "federationAbbr": "IBJJF",
            "country": "Italy",
            "countryAbbr": "IT",
            "city": "Perugia",
            "responsible": "Giordano Brozzi",
            "address": "Via Dei Bastai N 37 -san Enea, Perugia, ., Italy",
            "website": null
        },
        {
            "id": 2763,
            "name": "Team Lagarto",
            "federationAbbr": "IBJJF",
            "country": "United Kingdom",
            "countryAbbr": "GB",
            "city": "Preston ",
            "responsible": "Lucio Furtado Rodrigues",
            "address": "1 Flak Land St  , , Preston , UK, United Kingdom",
            "website": "www.lagartoacademy.co.uk"
        },
        {
            "id": 4227,
            "name": "Team LDMA",
            "federationAbbr": "USBJJF",
            "country": "United States of America",
            "countryAbbr": "US",
            "city": "Sherwood",
            "responsible": "Daniel Calvin Dring",
            "address": "308 East Kiehl #A-4, , Sherwood, AR, United States of America",
            "website": "www.livingdefense.com"
        },
        {
            "id": 3843,
            "name": "Team Leites Stockholm",
            "federationAbbr": "IBJJF",
            "country": "Sweden",
            "countryAbbr": "SE",
            "city": "Stockholm",
            "responsible": "Sergio Miguel Leites",
            "address": "Nybohovsbacken 63  , , Stockholm, --, Sweden",
            "website": "http://www.bjj.se/"
        },
        {
            "id": 9888,
            "name": "Team Lenildo Machado",
            "federationAbbr": "CBJJ",
            "country": "Brasil",
            "countryAbbr": "BR",
            "city": "Campos Dos Goytacazes",
            "responsible": "Lenildo Machado Ribeiro Lima",
            "address": "Av. Alberto Torres 415, Campos Dos Goytacazes, Rio De Janeiro, Brasil",
            "website": null
        },
        {
            "id": 7119,
            "name": "Team LGM",
            "federationAbbr": "IBJJF",
            "country": "Switzerland",
            "countryAbbr": "CH",
            "city": "Le Lignon ",
            "responsible": "Massimiliano La Gioia",
            "address": "KKCG - Chemin Chateau - Bloch 1, Le Lignon , Geneve, Switzerland",
            "website": ""
        },
        {
            "id": 2406,
            "name": "Team Link",
            "federationAbbr": "USBJJF",
            "country": "United States of America",
            "countryAbbr": "US",
            "city": "Ludlow",
            "responsible": "Marco Aurelio Alvan",
            "address": "135 Winsor St, Ludlow, MA, United States of America",
            "website": "www.linkbjj.com"
        },
        {
            "id": 3452,
            "name": "Team Link Brazilian Jiu-Jitsu",
            "federationAbbr": "CBJJ",
            "country": "Brasil",
            "countryAbbr": "BR",
            "city": "Uberlândia",
            "responsible": "Wander Braga Corrêa da Costa",
            "address": "Av. Floriano Peixoto 2733 , Brasil, Uberlândia, MG, Brasil",
            "website": ""
        },
        {
            "id": 6586,
            "name": "Team Link Itamonte",
            "federationAbbr": "CBJJ",
            "country": "Brasil",
            "countryAbbr": "BR",
            "city": "Itamonte",
            "responsible": "Carlos Eduardo Eugênio Corrêa",
            "address": "Rua Custodio Francisco da Rocha n: 80 Academia, Bairro: Berta, Itamonte, Minas Gerais, Brasil",
            "website": null
        },
        {
            "id": 6772,
            "name": "Team Link Muriaé",
            "federationAbbr": "CBJJ",
            "country": "Brasil",
            "countryAbbr": "BR",
            "city": "Murié",
            "responsible": "Marco Aurelio Alvan",
            "address": "Av. Dante Bruno n: 345, Bairro: Dornelas, Murié, Minas Gerais, Brasil",
            "website": null
        },
        {
            "id": 8664,
            "name": "Team Link Riachuelo",
            "federationAbbr": "CBJJ",
            "country": "Brasil",
            "countryAbbr": "BR",
            "city": "Rio De Janeiro",
            "responsible": "Marco Aurelio Alvan",
            "address": "Rua Luis Zancheta 134, Riachuelo, Rio De Janeiro, Rio De Janeiro, Brasil",
            "website": "www.linkbjj.com"
        },
        {
            "id": 5923,
            "name": "Team Link Uberlândia",
            "federationAbbr": "CBJJ",
            "country": "Brasil",
            "countryAbbr": "BR",
            "city": "Minas Gerais",
            "responsible": "Marco Aurelio Alvan",
            "address": "Avenida Floriano Peixoto n: 2733, Aparecida, Minas Gerais, Minas Gerais, Brasil",
            "website": null
        },
        {
            "id": 3445,
            "name": "Team Link Utah",
            "federationAbbr": "USBJJF",
            "country": "United States of America",
            "countryAbbr": "US",
            "city": "Layton",
            "responsible": "Fabio Luiz Dias Serrao",
            "address": "1220 West Jack D. Drive  , , Layton, UT, United States of America",
            "website": "www.teamlinkutah.com"
        }
    ]
}