{
    "pagination": {
        "page": 101,
        "from": 2000,
        "to": 2020,
        "pageSize": 20,
        "lastPage": 358,
        "totalRecords": 7149
    },
    "list": [
        {
            "id": 7828,
            "name": "Dominion BJJ",
            "federationAbbr": "USBJJF",
            "country": "United States of America",
            "countryAbbr": "US",
            "city": "Manassas",
            "responsible": "Frederick William Nagle III",
            "address": "8068 Flannery Ct, Manassas, Virginia, United States of America",
            "website": "www.dominionbjj.com"
        },
        {
            "id": 9003,
            "name": "Donato Jiu-Jitsu B9",
            "federationAbbr": "CBJJ",
            "country": "Brasil",
            "countryAbbr": "BR",
            "city": "Chavantes",
            "responsible": "Tiago Donato",
            "address": "Rua Das Rosas, 20, Chavantes, São Paulo, Brasil",
            "website": null
        },
        {
            "id": 9114,
            "name": "Dongbaek BJJ",
            "federationAbbr": "IBJJF",
            "country": "Korea, South",
            "countryAbbr": "KR",
            "city": "Yongin-si",
            "responsible": "Jung Joo Kim",
            "address": "2601-102, Dongbaek 8-ro 89, Giheung-gu,, Yongin-si, Korea, South",
            "website": null
        },
        {
            "id": 4314,
            "name": "Donosti BJJ",
            "federationAbbr": "CBJJ",
            "country": "Brasil",
            "countryAbbr": "BR",
            "city": "Maceió",
            "responsible": "Gustavo Henrique Ataide Oliveira",
            "address": "Av. Juca Sampaio 06, Feitosa, Maceió, AL, Brasil",
            "website": "donostict.com.br"
        },
        {
            "id": 6566,
            "name": "Dortmund Alphateam",
            "federationAbbr": "IBJJF",
            "country": "Germany",
            "countryAbbr": "DE",
            "city": "Dortmund ",
            "responsible": "Stefan Wolf Breiksch",
            "address": "Kruckeler Str. 226, Dortmund , NRW, Germany",
            "website": "www.krav-maga-Alpha.de"
        },
        {
            "id": 8353,
            "name": "Double Five - Vila Valqueire",
            "federationAbbr": "CBJJ",
            "country": "Brasil",
            "countryAbbr": "BR",
            "city": "Rio De Janeiro ",
            "responsible": "Romeu Patrick Gabriel Mendes",
            "address": "Rua Das Margaridas 462 - Vila Valqueire , Rio De Janeiro , Ri, Brasil",
            "website": null
        },
        {
            "id": 8641,
            "name": "Double Five Barão",
            "federationAbbr": "CBJJ",
            "country": "Brasil",
            "countryAbbr": "BR",
            "city": "São João De Meriti",
            "responsible": "Pablo Pinheiro da Silva Peres",
            "address": "Rua Divisa, Lote 7 Quadra 28, São João De Meriti, Rj, Brasil",
            "website": null
        },
        {
            "id": 8640,
            "name": "Double Five Barra Da Tijuca",
            "federationAbbr": "CBJJ",
            "country": "Brasil",
            "countryAbbr": "BR",
            "city": "Rio De Janeiro",
            "responsible": "Cristiano da Silva Alves",
            "address": "Av Das Américas 12300, Sala 142, Rio De Janeiro, Rio De Janeiro, Brasil",
            "website": null
        },
        {
            "id": 8774,
            "name": "Double Five Campo Grande",
            "federationAbbr": "CBJJ",
            "country": "Brasil",
            "countryAbbr": "BR",
            "city": "Rio De Janeiro",
            "responsible": "Maurício Ribeiro da Silva Santos",
            "address": "Avenida de Santa Cruz 12212, 12.663, Rio De Janeiro, Rj, Brasil",
            "website": "www.ctmauricioribeiro.com.br"
        },
        {
            "id": 9249,
            "name": "Double Five Caxias",
            "federationAbbr": "CBJJ",
            "country": "Brasil",
            "countryAbbr": "BR",
            "city": "Duque De Caxias",
            "responsible": "Rodrigo Henrique Moura Fernandes",
            "address": "Rua Heredia Lote 28 Quadra 100a, Parque Paulista, Duque De Caxias, Rio De Janeiro, Brasil",
            "website": null
        },
        {
            "id": 3073,
            "name": "Double Five Chicago",
            "federationAbbr": "USBJJF",
            "country": "United States of America",
            "countryAbbr": "US",
            "city": "Chicago",
            "responsible": "Andre Luiz Leite",
            "address": "1531 W Chicago Ave., Store Front, Chicago, Il, United States of America",
            "website": "https://doublefivechicago.com/"
        },
        {
            "id": 10049,
            "name": "Double Five Estácio",
            "federationAbbr": "CBJJ",
            "country": "Brasil",
            "countryAbbr": "BR",
            "city": "Rio De Janeiro",
            "responsible": "Anderson Miranda Nascimento",
            "address": "Rua Aristides Lobo, 53, Segundo Andar, Rio De Janeiro, Rj, Brasil",
            "website": null
        },
        {
            "id": 7332,
            "name": "Double Five Glendale",
            "federationAbbr": "USBJJF",
            "country": "United States of America",
            "countryAbbr": "US",
            "city": "Glendale",
            "responsible": "Ismael Gonçalves Aoki",
            "address": "6640 W. Cactus Rd. A116-A117, Glendale, AZ, United States of America",
            "website": null
        },
        {
            "id": 7317,
            "name": "Double Five Highland Village",
            "federationAbbr": "USBJJF",
            "country": "United States of America",
            "countryAbbr": "US",
            "city": "Highland Village ",
            "responsible": "Rafael Monteiro Barbosa",
            "address": "1800 Justin Rd. #1800A, Highland Village , TX, United States of America",
            "website": "www.doublefivehighlandvillage.com"
        },
        {
            "id": 7380,
            "name": "Double Five International",
            "federationAbbr": "IBJJF",
            "country": "United Arab Emirates",
            "countryAbbr": "AE",
            "city": null,
            "responsible": null,
            "address": "United Arab Emirates",
            "website": null
        },
        {
            "id": 8536,
            "name": "Double Five Niterói",
            "federationAbbr": "CBJJ",
            "country": "Brasil",
            "countryAbbr": "BR",
            "city": "Niterói",
            "responsible": "Victor Monteiro de Carvalho",
            "address": "Rua Maria Luzia Gomes Da Costa, Casa, Lt17, Qd58, Niterói, Rj, Brasil",
            "website": "www.tartarugajiujitsu.com"
        },
        {
            "id": 10713,
            "name": "Double Five Piratininga",
            "federationAbbr": "CBJJ",
            "country": "Brasil",
            "countryAbbr": "BR",
            "city": "Niterói",
            "responsible": "Ricardo Augusto Soares Vidal",
            "address": "237 Rua Jornalista Francisco Rodrigues De Miranda, Niterói, Rio De Janeiro, Brasil",
            "website": null
        },
        {
            "id": 9376,
            "name": "Double Five São Cristóvão",
            "federationAbbr": "CBJJ",
            "country": "Brasil",
            "countryAbbr": "BR",
            "city": "Rio De Janeiro",
            "responsible": "Anderson Silva Gonçalves",
            "address": "Rua Ricardo Machado, 904, Rio De Janeiro, Rj, Brasil",
            "website": "https://instagram.com/hakischool?utm_medium=copy_link"
        },
        {
            "id": 8333,
            "name": "Double Five South Ms",
            "federationAbbr": "USBJJF",
            "country": "United States of America",
            "countryAbbr": "US",
            "city": "Diberville",
            "responsible": "Leonardo Delgado de Oliveira",
            "address": "10418a Seymour Ave, Diberville, Mississippi, United States of America",
            "website": "www.selfdefensedibervillems.com"
        },
        {
            "id": 308,
            "name": "Double Five Tijuca",
            "federationAbbr": "CBJJ",
            "country": "Brasil",
            "countryAbbr": "BR",
            "city": "Rio de Janeiro",
            "responsible": "Leandro Lopes Escobar",
            "address": "Rua Mariz e Barros, Loja B, Rio de Janeiro, RJ, Brasil",
            "website": null
        }
    ]
}