{
    "pagination": {
        "page": 107,
        "from": 2120,
        "to": 2140,
        "pageSize": 20,
        "lastPage": 358,
        "totalRecords": 7149
    },
    "list": [
        {
            "id": 8603,
            "name": "Empower Brazilian Jiu-Jitsu",
            "federationAbbr": "USBJJF",
            "country": "United States of America",
            "countryAbbr": "US",
            "city": "Boston",
            "responsible": "Michael de Araujo Fontes",
            "address": "374 Washington Street, Boston, Ma, United States of America",
            "website": null
        },
        {
            "id": 10063,
            "name": "Encourage Jiu-Jitsu",
            "federationAbbr": "IBJJF",
            "country": "Sweden",
            "countryAbbr": "SE",
            "city": "Stockholm",
            "responsible": "Alan Douglas Pereira do Nascimento",
            "address": "Hagagatan 31, Stockholm, Stockholm, Sweden",
            "website": "www.allstarsgym.se"
        },
        {
            "id": 5399,
            "name": "Endless Team Jiu-Jitsu - Liga De Algés",
            "federationAbbr": "FPJJB",
            "country": "Portugal",
            "countryAbbr": "PT",
            "city": "Alges / Lisbon",
            "responsible": "Hugo Alexandre da Silva Tavares",
            "address": "Rua Ernesto Da Silva N.º 95, Alges / Lisbon, Lisboa, Portugal",
            "website": null
        },
        {
            "id": 10229,
            "name": "Endure Jiu-Jitsu",
            "federationAbbr": "IBJJF",
            "country": "Bahrain",
            "countryAbbr": "BH",
            "city": "Manama",
            "responsible": "Wagner da Silva Borges",
            "address": "Manama, P.o. Box 965, Manama, Bahrain",
            "website": null
        },
        {
            "id": 6683,
            "name": "Energia Fight Jiu-Jitsu",
            "federationAbbr": "CBJJ",
            "country": "Brasil",
            "countryAbbr": "BR",
            "city": "Osasco",
            "responsible": "Francisco Santana Souza Junior",
            "address": "Rua João Crudo n: 345 apt.25, Bairro: Centro, Osasco, São Paulo, Brasil",
            "website": null
        },
        {
            "id": 5526,
            "name": "ENJJ/Iliarde Santos",
            "federationAbbr": "CBJJ",
            "country": "Brasil",
            "countryAbbr": "BR",
            "city": "Belem",
            "responsible": "Iliarde Belo Sabino",
            "address": "Av. Rosa Moreira 93 - Fundos, Telégrafo, Belem, PA, Brasil",
            "website": null
        },
        {
            "id": 9074,
            "name": "Enjoy Jiu-Jitsu",
            "federationAbbr": "CBJJ",
            "country": "Brasil",
            "countryAbbr": "BR",
            "city": "São Joao Da Boa Vista",
            "responsible": "Jonathan Fernando da Silva",
            "address": "Av Brasilia Sala 02, São Joao Da Boa Vista, São Paulo, Brasil",
            "website": null
        },
        {
            "id": 9391,
            "name": "Enlisted Nine Fight Company",
            "federationAbbr": "USBJJF",
            "country": "United States of America",
            "countryAbbr": "US",
            "city": "Fredericksburg",
            "responsible": "Richard Pasinski",
            "address": "88 Le Way Dr, Suite 123, Fredericksburg, Virginia, United States of America",
            "website": "e9fcva.com"
        },
        {
            "id": 6447,
            "name": "Enoque Medeiros Jiu-Jitsu",
            "federationAbbr": "CBJJ",
            "country": "Brasil",
            "countryAbbr": "BR",
            "city": "Boa Vista",
            "responsible": "Enoque Medeiros da Silva",
            "address": "Rua Dr Zamenhof 133, Bairro Carana, Boa Vista, RR, Brasil",
            "website": null
        },
        {
            "id": 6353,
            "name": "Ensenada Bay Brazilian Jiu-Jitsu",
            "federationAbbr": "IBJJF",
            "country": "Mexico",
            "countryAbbr": "MX",
            "city": "Ensenada",
            "responsible": "Erwin A Iniquez Gonzalez",
            "address": "Av Juarez 1449 #16, Ensenada, BC, Mexico",
            "website": null
        },
        {
            "id": 3507,
            "name": "Enso Jiu Jitsu",
            "federationAbbr": "USBJJF",
            "country": "United States of America",
            "countryAbbr": "US",
            "city": "Beaverton",
            "responsible": "Keisuke Andrew",
            "address": "12155 SW Spur Ct. #155C  , , Beaverton, OR, United States of America",
            "website": "www.ensojj.com"
        },
        {
            "id": 3181,
            "name": "Entertain",
            "federationAbbr": "JBJJF",
            "country": "Japan",
            "countryAbbr": "JP",
            "city": "Niigata",
            "responsible": "Yasunori Yamada",
            "address": "2054-7 Ajiri, Nishikanku, Niigata, Niigata, Japan",
            "website": "http:saigym.com/"
        },
        {
            "id": 10641,
            "name": "Enzo Jiu-Jitsu",
            "federationAbbr": "USBJJF",
            "country": "United States of America",
            "countryAbbr": "US",
            "city": "Mcallen",
            "responsible": "Brenda Castillo Rodriguez",
            "address": "6421 N.10th St. Suite 130, Mcallen, Texas, United States of America",
            "website": "www.enzojj.com"
        },
        {
            "id": 7564,
            "name": "EPJJ Team",
            "federationAbbr": "CBJJ",
            "country": "Brasil",
            "countryAbbr": "BR",
            "city": "Barra do Pirai",
            "responsible": "Emerson Leandro de Paula",
            "address": "Rua Moreira dos Santos n: 60 sala 01, Centro, Barra do Pirai, Rio de Janeiro, Brasil",
            "website": null
        },
        {
            "id": 8592,
            "name": "Epoch BJJ",
            "federationAbbr": "USBJJF",
            "country": "United States of America",
            "countryAbbr": "US",
            "city": "Wilmington",
            "responsible": "Christopher Brian Mingia",
            "address": "4107 Oleander Drive Suite I, Wilmington, Nc, United States of America",
            "website": null
        },
        {
            "id": 1027,
            "name": "Eq Orlando Araújo",
            "federationAbbr": "CBJJ",
            "country": "Brasil",
            "countryAbbr": "BR",
            "city": "Rio de Janeiro",
            "responsible": "Orlando de Araujo",
            "address": "Praça Condessa Paulo de Frontin 55 Sobreloja, Rio Comprido, Rio de Janeiro, RJ, Brasil",
            "website": ""
        },
        {
            "id": 318,
            "name": "Eq. Claudionor Cardoso",
            "federationAbbr": "CBJJ",
            "country": "Brasil",
            "countryAbbr": "BR",
            "city": "Campo Grande",
            "responsible": "Claudionor Cardoso da Silva",
            "address": "Rua Jordão  1887 , Jardim Noroeste, Campo Grande, MS, Brasil",
            "website": null
        },
        {
            "id": 5078,
            "name": "Equilíbrio Jiu-Jitsu Brasileiro",
            "federationAbbr": "CBJJ",
            "country": "Brasil",
            "countryAbbr": "BR",
            "city": "Cidade Nova",
            "responsible": "Frederico Ferreira Pereira",
            "address": "Rua Olímpio Bedim n: 631, Baixo, Cidade Nova, RJ, Brasil",
            "website": null
        },
        {
            "id": 4234,
            "name": "Equilibrium Mixed Martial Arts",
            "federationAbbr": "IBJJF",
            "country": "Singapore",
            "countryAbbr": "SG",
            "city": "Singapore",
            "responsible": "Jason Paul Hunt",
            "address": "*Scape, 2 Orchard Link #03-06  , , Singapore, SG, Singapore",
            "website": "www.eq-mma.sg"
        },
        {
            "id": 5738,
            "name": "Equipe 7/CTT",
            "federationAbbr": "CBJJ",
            "country": "Brasil",
            "countryAbbr": "BR",
            "city": "Manaus",
            "responsible": "Francisco de Assis Nonato Pereira",
            "address": "Rua Rio Bijogó, Novo Aleixo, Manaus, Amazonas, Brasil",
            "website": null
        }
    ]
}