{
    "pagination": {
        "page": 331,
        "from": 6600,
        "to": 6620,
        "pageSize": 20,
        "lastPage": 358,
        "totalRecords": 7149
    },
    "list": [
        {
            "id": 5609,
            "name": "Todd Ryan BJJ",
            "federationAbbr": "USBJJF",
            "country": "United States of America",
            "countryAbbr": "US",
            "city": "Tulsa",
            "responsible": "Joseph Todd Ryan",
            "address": "216 S. Trenton Ave, Tulsa, OK, United States of America",
            "website": "www.ryanbjj.com"
        },
        {
            "id": 6129,
            "name": "Togi BJJ",
            "federationAbbr": "CBJJ",
            "country": "Brasil",
            "countryAbbr": "BR",
            "city": "Rio de Janeiro",
            "responsible": "Gustavo Pavan Togi",
            "address": "Rua Oliveira Da Silva, 41, Tijuca, Rio de Janeiro, Rio de Janeiro, Brasil",
            "website": null
        },
        {
            "id": 6958,
            "name": "Togi BJJ International",
            "federationAbbr": "USBJJF",
            "country": "United States of America",
            "countryAbbr": "US",
            "city": "Pompano Beach",
            "responsible": "Gustavo Pavan Togi",
            "address": "750 East Sample Road B-4 10, Pompano Beach, FL, United States of America",
            "website": "togibjj.com"
        },
        {
            "id": 7738,
            "name": "TOHO BJJ",
            "federationAbbr": "IBJJF",
            "country": "France",
            "countryAbbr": "FR",
            "city": "Paris ",
            "responsible": "Simon Victorien Ehrlacher",
            "address": "3 Rue des Petits Carreaux , Paris , France",
            "website": null
        },
        {
            "id": 3447,
            "name": "Toikatsu Grappling Higashinakano",
            "federationAbbr": "JBJJF",
            "country": "Japan",
            "countryAbbr": "JP",
            "city": "Nakano",
            "responsible": "Takeshi Yamazaki",
            "address": "3-15-22-#B1 Higashinakano, Nakano, Tokyo, Japan",
            "website": "https://tkdj.net/dojo/higashinakano"
        },
        {
            "id": 4411,
            "name": "Tokai BJJ-Brasil",
            "federationAbbr": "CBJJ",
            "country": "Brasil",
            "countryAbbr": "BR",
            "city": "Curitiba",
            "responsible": "Roberto Nacaya",
            "address": "Rua das Orquídeas  20 Conjunto Diadema , CIC, Curitiba, PR, Brasil",
            "website": ""
        },
        {
            "id": 3324,
            "name": "Tokai Brazilian Jiu-Jitsu",
            "federationAbbr": "JBJJF",
            "country": "Japan",
            "countryAbbr": "JP",
            "city": "Mie",
            "responsible": "Roberto Nacaya",
            "address": "4-1-26 Takahanadaira, , Mie, Yokkaichi-shi, Japan",
            "website": ""
        },
        {
            "id": 9169,
            "name": "Tokorozawa  Jiu-Jitsu",
            "federationAbbr": "JBJJF",
            "country": "Japan",
            "countryAbbr": "JP",
            "city": "Tokorozawa  City",
            "responsible": "Mikio Oga",
            "address": "Yama2 Biru, Higashiaraicho 253, Tokorozawa  City, Saitama  Ken, Japan",
            "website": null
        },
        {
            "id": 5655,
            "name": "Tokugawa Brasil",
            "federationAbbr": "CBJJ",
            "country": "Brasil",
            "countryAbbr": "BR",
            "city": "Ipatinga",
            "responsible": "Pablo Bernardo Melo D`Avila",
            "address": "Rua Castro Alves, 219, Cidade Nobre, Ipatinga, MG, Brasil",
            "website": "tokugawabrasil.com.br"
        },
        {
            "id": 2502,
            "name": "Tokushima BJJ",
            "federationAbbr": "JBJJF",
            "country": "Japan",
            "countryAbbr": "JP",
            "city": "Tokushima",
            "responsible": "Takahito Yoshioka",
            "address": "14-1 Sako Goban-cho Tokushima-shi, Tokushima, --, Japan",
            "website": "https://www.tbjj2015.net"
        },
        {
            "id": 6341,
            "name": "Tomasausk Jiu-Jitsu",
            "federationAbbr": "CBJJ",
            "country": "Brasil",
            "countryAbbr": "BR",
            "city": "Cianorte",
            "responsible": "Antonio Sergio Tomasausk",
            "address": "Avenida Goiás 1446, Cianorte, PR, Brasil",
            "website": null
        },
        {
            "id": 5499,
            "name": "Tomingas Arte Suave Brazilian Jiu-Jitsu",
            "federationAbbr": "IBJJF",
            "country": "Estonia",
            "countryAbbr": "EE",
            "city": "Vastse-Kuuste",
            "responsible": "Pedro Nogueira Duarte",
            "address": "Pargitn 18-13, Vastse-Kuuste, Pelvanaa, Estonia",
            "website": "hiltibjjestonia.eu"
        },
        {
            "id": 5348,
            "name": "Tone Up Fight",
            "federationAbbr": "IBJJF",
            "country": "Switzerland",
            "countryAbbr": "CH",
            "city": "Lausanne",
            "responsible": "Yan Cabral de Almeida",
            "address": "Chemin du Trabandan 28C, Lausanne, VD, Switzerland",
            "website": "toneupcrossfitandfight.ch"
        },
        {
            "id": 3847,
            "name": "Tong Dragon MMA",
            "federationAbbr": "USBJJF",
            "country": "United States of America",
            "countryAbbr": "US",
            "city": "Bayville",
            "responsible": "Jose Fernando Sarmento Jr",
            "address": "340 Atlantic City Blvd.  , , Bayville, NJ, United States of America",
            "website": "http://www.tongdragon.com"
        },
        {
            "id": 3509,
            "name": "Tonicão Team BJJ",
            "federationAbbr": "CBJJ",
            "country": "Brasil",
            "countryAbbr": "BR",
            "city": "Florianópolis",
            "responsible": "Antonio Claudio Collares",
            "address": "Rua Souza Dutra n: 145, Centro, Florianópolis, SC, Brasil",
            "website": null
        },
        {
            "id": 6104,
            "name": "Tony Bebbington Jiu-Jitsu Academy",
            "federationAbbr": "IBJJF",
            "country": "United Kingdom",
            "countryAbbr": "GB",
            "city": "Liverpool",
            "responsible": "Anthony Bebbington",
            "address": "27 Wellesbourne Road, Liverpool, --, United Kingdom",
            "website": "www.tonybebbingtonjiujitsu.co.uk"
        },
        {
            "id": 6048,
            "name": "Tony Passos Jiu-Jitsu",
            "federationAbbr": "USBJJF",
            "country": "United States of America",
            "countryAbbr": "US",
            "city": "Sterling",
            "responsible": "Antonio Fernando M. Passos",
            "address": "22446 Davis Drive, STE #153, Sterling, Virginia, United States of America",
            "website": "www.teampassos.com"
        },
        {
            "id": 8725,
            "name": "Tooele Martial Arts Academy",
            "federationAbbr": "USBJJF",
            "country": "United States of America",
            "countryAbbr": "US",
            "city": "Tooele",
            "responsible": "Keith Adam Azbury",
            "address": "10 S. Garnet Street, Building 669, Unit#4, Tooele, Utah, United States of America",
            "website": "tooelemartialartsacademy.com"
        },
        {
            "id": 213,
            "name": "Top Brother",
            "federationAbbr": "CBJJ",
            "country": "Brasil",
            "countryAbbr": "BR",
            "city": "Rio de Janeiro",
            "responsible": "Cezar Guimarães",
            "address": "Rua Dias Da Cruz, N: 638 - Sala 207, Meier, Rio de Janeiro, RJ, Brasil",
            "website": "www.topbrotherteam.com"
        },
        {
            "id": 2480,
            "name": "Top Brother Brasil",
            "federationAbbr": "CBJJ",
            "country": "Brasil",
            "countryAbbr": "BR",
            "city": "Rio de Janeiro",
            "responsible": "Cezar Guimarães",
            "address": "Almirante Calheiros da Graça  Nº 47 Casa 102, Méier , Rio de Janeiro, Rj, Brasil",
            "website": "www.topbrotherteam"
        }
    ]
}