{
    "pagination": {
        "page": 36,
        "from": 700,
        "to": 720,
        "pageSize": 20,
        "lastPage": 358,
        "totalRecords": 7149
    },
    "list": [
        {
            "id": 8734,
            "name": "Audaz Jiu Jitsu",
            "federationAbbr": "CBJJ",
            "country": "Brasil",
            "countryAbbr": "BR",
            "city": "Feira De Santana",
            "responsible": "Pedro Thiago Martins Melo",
            "address": "Conjunto Vila Olimpia, Pedra Do Descanso, N 100 - Villa Mariana, Casa 08 C., 100, Feira De Santana, Bahia, Brasil",
            "website": "audazjiujitsu.com.br"
        },
        {
            "id": 9476,
            "name": "Augusto Cézar Brazilian Jiu-Jitsu",
            "federationAbbr": "CBJJ",
            "country": "Brasil",
            "countryAbbr": "BR",
            "city": "Manaus",
            "responsible": "Augusto Cezar Silva de Menezes",
            "address": "Rua Desembargador José Bonifácio De Almeida - Quadra 24, Casa 10 - Planalto, Conjunto Campos Elísios, Manaus, Amazonas, Brasil",
            "website": null
        },
        {
            "id": 10030,
            "name": "Augusto Machado Brazilian Jiu-Jitsu",
            "federationAbbr": "CBJJ",
            "country": "Brasil",
            "countryAbbr": "BR",
            "city": "Manaus",
            "responsible": "Augusto Regis Gaia Machado",
            "address": "Rua 27 Cidade Nova 2 Núcleo 4, Principal Ao Lado Do Sushi, Manaus, Amazonas, Brasil",
            "website": null
        },
        {
            "id": 10003,
            "name": "Aura Jiu-Jitsu",
            "federationAbbr": "IBJJF",
            "country": "Sweden",
            "countryAbbr": "SE",
            "city": "Stockholm",
            "responsible": "Silvio Rodrigues de Souza",
            "address": "Vårbergsvägen 185, Stockholm, Stockholm, Sweden",
            "website": null
        },
        {
            "id": 4328,
            "name": "Aurelio Zorzi Jiu-Jitsu Association",
            "federationAbbr": "IBJJF",
            "country": "Angola",
            "countryAbbr": "AO",
            "city": "Luanda",
            "responsible": "Aurelio da Silva Zorzi",
            "address": "Condominio Pintangas, Casa de Talatons, Luanda, Angola",
            "website": "www.aureliozorzi.com.br"
        },
        {
            "id": 8943,
            "name": "AUS Ultimate Jiu-Jitsu",
            "federationAbbr": "IBJJF",
            "country": "Australia",
            "countryAbbr": "AU",
            "city": "Rockdale",
            "responsible": "Robert Naumoski",
            "address": "452 Princes Hwy, Rockdale, Nsw, Australia",
            "website": "www.ujj.com.au"
        },
        {
            "id": 6442,
            "name": "Australia ASBJJ",
            "federationAbbr": "IBJJF",
            "country": "Australia",
            "countryAbbr": "AU",
            "city": "North Melbourne",
            "responsible": "Alexandre dos Santos",
            "address": "504 Victoria Street, North Melbourne, VIC, Australia",
            "website": "ASBJJ.com.au"
        },
        {
            "id": 4469,
            "name": "Australian Elite Team",
            "federationAbbr": "IBJJF",
            "country": "Australia",
            "countryAbbr": "AU",
            "city": "Tullamarine",
            "responsible": "Jamie A. Murray",
            "address": "156 Melrose Drive, , Tullamarine, VIC, Australia",
            "website": "theaet.com.au"
        },
        {
            "id": 9396,
            "name": "Australian Grappling Clubs",
            "federationAbbr": "IBJJF",
            "country": "Australia",
            "countryAbbr": "AU",
            "city": "Castle Hill",
            "responsible": "Peter Lachlan Yabsley",
            "address": "2b 4 Hudson Ave, Castle Hill, Nsw, Australia",
            "website": null
        },
        {
            "id": 9405,
            "name": "Australian Limitless Squad",
            "federationAbbr": "IBJJF",
            "country": "Australia",
            "countryAbbr": "AU",
            "city": "Sunbury",
            "responsible": "Troy J Skidmore",
            "address": "1/65 Horne Street, Sunbury, Victoria, Australia",
            "website": null
        },
        {
            "id": 4490,
            "name": "Austrian BJJ Academy",
            "federationAbbr": "IBJJF",
            "country": "Austria",
            "countryAbbr": "AT",
            "city": "Purkersdorf ",
            "responsible": "Jesus Lopez Garcia",
            "address": "Dr. Hildgasse 2-8/5/6  , Purkersdorf , AUSTRIA, Austria",
            "website": "wkfaustria.at"
        },
        {
            "id": 8549,
            "name": "Autore",
            "federationAbbr": "USBJJF",
            "country": "United States of America",
            "countryAbbr": "US",
            "city": "Los Angeles",
            "responsible": "Alexis David Fonseca",
            "address": "939 S Broadway, Unit 803, Los Angeles, Ca, United States of America",
            "website": "www.autorebjj.com"
        },
        {
            "id": 7059,
            "name": "Avance Brazilian Jiu-Jitsu Brasil",
            "federationAbbr": "CBJJ",
            "country": "Brasil",
            "countryAbbr": "BR",
            "city": "Itapecererica da Serra",
            "responsible": "Jefferson Costa Pinto",
            "address": "Rua Andaraí n; 09, Jardim Itapecerica, Itapecererica da Serra, São Paulo, Brasil",
            "website": null
        },
        {
            "id": 2812,
            "name": "Aveiro Grappling Club",
            "federationAbbr": "FPJJB",
            "country": "Portugal",
            "countryAbbr": "PT",
            "city": "Aveiro",
            "responsible": "Alyson Frederico Borges Ramos Silva",
            "address": "Rua Comandante Rocha E Cunha, 3a, 3a, Aveiro, Aveiro, Portugal",
            "website": ""
        },
        {
            "id": 8627,
            "name": "Aviador BJJ",
            "federationAbbr": "CBJJ",
            "country": "Brasil",
            "countryAbbr": "BR",
            "city": "Rio De Janeiro",
            "responsible": "Fernando de Almeida Silva",
            "address": "Avenida Marechal Fontenele, 755, Vila Dos Afonsos - Coga, Rio De Janeiro, Rj, Brasil",
            "website": null
        },
        {
            "id": 3572,
            "name": "Avila Jiu-Jitsu",
            "federationAbbr": "CBJJ",
            "country": "Brasil",
            "countryAbbr": "BR",
            "city": "São José",
            "responsible": "Everson Avila",
            "address": "Rua Do Expedicionário N 635 , Casa , São José, SC, Brasil",
            "website": "www.floripajiujitsu.com.br"
        },
        {
            "id": 6902,
            "name": "Aviv Jiu-Jitsu",
            "federationAbbr": "USBJJF",
            "country": "United States of America",
            "countryAbbr": "US",
            "city": "Miramar ",
            "responsible": "Luanna Alzuguir Marton Moraes",
            "address": "2041 Renaissance Blvd 201, Miramar , FL, United States of America",
            "website": null
        },
        {
            "id": 9860,
            "name": "Awalébjj",
            "federationAbbr": "IBJJF",
            "country": "Cote D'Ivoire",
            "countryAbbr": "CI",
            "city": "Abidjan",
            "responsible": "Ahmed Sinany Touré",
            "address": "Rue Thomas Edison, Abidjan, Cote D'Ivoire",
            "website": null
        },
        {
            "id": 8110,
            "name": "AWP - Alpha Wolf Pack",
            "federationAbbr": "IBJJF",
            "country": "Spain",
            "countryAbbr": "ES",
            "city": "Lugo",
            "responsible": "Luis Castaño Martín",
            "address": "Rúa Catasol 17, Lugo, Lugo, Spain",
            "website": "www.wolfpack.es"
        },
        {
            "id": 8151,
            "name": "Axia Escola De Jiu-Jitsu",
            "federationAbbr": "CBJJ",
            "country": "Brasil",
            "countryAbbr": "BR",
            "city": "João Pessoa",
            "responsible": "Gustavo Henrique do Nascimento Neto",
            "address": "Rua Bacharel José De Oliveira Cuchartuz, 17, João Pessoa, Brasil",
            "website": "axiabjj.com"
        }
    ]
}