{
    "pagination": {
        "page": 321,
        "from": 6400,
        "to": 6420,
        "pageSize": 20,
        "lastPage": 358,
        "totalRecords": 7149
    },
    "list": [
        {
            "id": 3492,
            "name": "Team Mirza",
            "federationAbbr": "IBJJF",
            "country": "Jordan",
            "countryAbbr": "JO",
            "city": "Amman",
            "responsible": "Zaid Azmi Abbas Mirza",
            "address": "69 Princess Taghrid Street - Desert Force Training Center, Amman, --, Jordan",
            "website": "TeamMirza.com"
        },
        {
            "id": 4597,
            "name": "Team Mohler  - Dallas",
            "federationAbbr": "USBJJF",
            "country": "United States of America",
            "countryAbbr": "US",
            "city": "Dallas",
            "responsible": "Clarence Allen Mohler lll",
            "address": "2909 Canton Street, Suite B, Dallas, TX, United States of America",
            "website": "www.mohlermma.com"
        },
        {
            "id": 2508,
            "name": "Team Mohler - Grapevine",
            "federationAbbr": "USBJJF",
            "country": "United States of America",
            "countryAbbr": "US",
            "city": "Grapevine",
            "responsible": "Clarence Allen Mohler lll",
            "address": "201 N. Starnes Street, , Grapevine, Tx, United States of America",
            "website": "www.mohlermma.com"
        },
        {
            "id": 5123,
            "name": "Team Monge",
            "federationAbbr": "CBJJ",
            "country": "Brasil",
            "countryAbbr": "BR",
            "city": "Curitiba",
            "responsible": "Luciano Morais",
            "address": "Rua Octacyr Reinando Mion 164, Xaxim, Curitiba, PR, Brasil",
            "website": null
        },
        {
            "id": 5704,
            "name": "Team MV Jiu-Jitsu",
            "federationAbbr": "CBJJ",
            "country": "Brasil",
            "countryAbbr": "BR",
            "city": "Rio de Janeiro",
            "responsible": "Marco Aurélio da Rocha Victória",
            "address": "Rua dos Baianos, 08, Magueira, Rio de Janeiro, RJ, Brasil",
            "website": null
        },
        {
            "id": 4433,
            "name": "Team Myrmidons",
            "federationAbbr": "USBJJF",
            "country": "United States of America",
            "countryAbbr": "US",
            "city": "Charlotte",
            "responsible": "Joseph Darius Hurst",
            "address": "5527 Stone Bluff Ct.  , , Charlotte, NC, United States of America",
            "website": "--"
        },
        {
            "id": 7076,
            "name": "Team Nakahama",
            "federationAbbr": "CBJJ",
            "country": "Brasil",
            "countryAbbr": "BR",
            "city": "Diadema",
            "responsible": "Jeremias Cassemiro Alves Silva",
            "address": "Av. Juarez Rios de Vasconcelos n: 178, Bairro: Centro, Diadema, São Paulo, Brasil",
            "website": "www.personalacad.com.br"
        },
        {
            "id": 8312,
            "name": "Team Negrao BJJ",
            "federationAbbr": "CBJJ",
            "country": "Brasil",
            "countryAbbr": "BR",
            "city": "Rio De Janeiro ",
            "responsible": "Fridson Lukeni Ngola Canzuela",
            "address": "Rua Manoel Ribeiro Vasconcelos , Rio De Janeiro , Rio De Janeiro , Brasil",
            "website": null
        },
        {
            "id": 6987,
            "name": "Team Nelson Neves BJJ",
            "federationAbbr": "CBJJ",
            "country": "Brasil",
            "countryAbbr": "BR",
            "city": "Rio de Janeiro",
            "responsible": "Andre Luiz Gomes Batista",
            "address": "Praça Nilo Peçanha n: 97 sala 207 e 208, Bairro: Nilópolis, Rio de Janeiro, Rio de Janeiro, Brasil",
            "website": null
        },
        {
            "id": 2693,
            "name": "Team Nogueira",
            "federationAbbr": "CBJJ",
            "country": "Brasil",
            "countryAbbr": "BR",
            "city": "Rio de Janeiro",
            "responsible": "Antonio Rogerio Correia Nogueira",
            "address": "Rua São Francisco de Assis 486 , Recreio dos Bandeirantes, Rio de Janeiro, RJ, Brasil",
            "website": "teamnogueira.com.br"
        },
        {
            "id": 8805,
            "name": "Team Nomades",
            "federationAbbr": "CBJJ",
            "country": "Brasil",
            "countryAbbr": "BR",
            "city": "Carapebus",
            "responsible": "Carlos Magno dos S. Crespo",
            "address": "Rua Maria Helena De Souza, 55, Carapebus, Rio De Janeiro, Brasil",
            "website": null
        },
        {
            "id": 5122,
            "name": "Team OJJ Canada",
            "federationAbbr": "IBJJF",
            "country": "Canada",
            "countryAbbr": "CA",
            "city": "Boisbriand",
            "responsible": "Luciano Chris Ucci",
            "address": "388 Chemin Grande-cote, Boisbriand, QC, Canada",
            "website": "www.onejiujitsu.ca"
        },
        {
            "id": 6405,
            "name": "Team Old School Fernandes Jiu-Jitsu",
            "federationAbbr": "CBJJ",
            "country": "Brasil",
            "countryAbbr": "BR",
            "city": " Samambaia Sul",
            "responsible": "Flavio Fernandes",
            "address": "Qn 122 Conjunto 15 Lote 2,  Aprt. 205 ,  Samambaia Sul, Distrito Federal, Brasil",
            "website": null
        },
        {
            "id": 2217,
            "name": "Team Oliveira",
            "federationAbbr": "USBJJF",
            "country": "United States of America",
            "countryAbbr": "US",
            "city": "Howell",
            "responsible": "Ademir Pereira de Oliveira",
            "address": "2905 Route 9 North  , , Howell, NJ, United States of America",
            "website": "www.teamoliveirabjj.net"
        },
        {
            "id": 7508,
            "name": "Team Orochi Jiu-Jitsu",
            "federationAbbr": "CBJJ",
            "country": "Brasil",
            "countryAbbr": "BR",
            "city": "Magé",
            "responsible": "Alexandre Torquato Ricardo Alves",
            "address": "Rua Dona Hilda n: 117, bairro: Piabetá, Magé, Rio de Janeiro, Brasil",
            "website": null
        },
        {
            "id": 5367,
            "name": "Team Oscar Luque",
            "federationAbbr": "IBJJF",
            "country": "Spain",
            "countryAbbr": "ES",
            "city": "Santa Cruz de Tenerife",
            "responsible": "Óscar Edey Luque De Oyanguren",
            "address": "Pasaje Tigaiga 40, Santa Cruz de Tenerife, Spain",
            "website": null
        },
        {
            "id": 5789,
            "name": "Team PAS",
            "federationAbbr": "CBJJ",
            "country": "Brasil",
            "countryAbbr": "BR",
            "city": "Salvador ",
            "responsible": "Andre Gomes Costa",
            "address": "Rua do Dendê n: 46 B - 2 ANDAR, Itapuã, Salvador , Bahia, Brasil",
            "website": null
        },
        {
            "id": 6522,
            "name": "Team Pé de Chumbo",
            "federationAbbr": "CBJJ",
            "country": "Brasil",
            "countryAbbr": "BR",
            "city": "Teresópolis",
            "responsible": "Delson Heleno Raimundo",
            "address": "Av. Almirante Lucia Meira n: 1143 3 andar, Bairro: Varzea, Teresópolis, Rio de Janeiro, Brasil",
            "website": null
        },
        {
            "id": 10219,
            "name": "Team Pedra BJJ",
            "federationAbbr": "CBJJ",
            "country": "Brasil",
            "countryAbbr": "BR",
            "city": "Belford Roxo",
            "responsible": "Andre Luiz Gomes Batista",
            "address": "Avenida Heliópolis 701, Belford Roxo, Rio De Janeiro, Brasil",
            "website": null
        },
        {
            "id": 9679,
            "name": "Team Penn Gladiator Jiu-Jitsu Family",
            "federationAbbr": "USBJJF",
            "country": "United States of America",
            "countryAbbr": "US",
            "city": "Montclair",
            "responsible": "Kenneth Penn",
            "address": "9509 Central Ave,, Unit F, Montclair, Ca, United States of America",
            "website": null
        }
    ]
}