{
    "pagination": {
        "page": 30,
        "from": 580,
        "to": 600,
        "pageSize": 20,
        "lastPage": 358,
        "totalRecords": 7149
    },
    "list": [
        {
            "id": 8882,
            "name": "Armlock Jiu Jitsu Competition Team",
            "federationAbbr": "CBJJ",
            "country": "Brasil",
            "countryAbbr": "BR",
            "city": "Salvador",
            "responsible": "Juracy Moura Silva Junior",
            "address": "Rua Nossa Senhora Da Angústia, 09-b - Itapuã, Salvador, Bahia, Brasil",
            "website": "Salvador-Ba"
        },
        {
            "id": 9626,
            "name": "Armour Brazilian Jiu-Jitsu",
            "federationAbbr": "CBJJ",
            "country": "Brasil",
            "countryAbbr": "BR",
            "city": "Macaé",
            "responsible": "Leonardo Rocha da Cunha",
            "address": "Rua Ivandro Lúcio Amaral Drumond 134 Parque Aeroporto Antiga Rua 21, Macaé, Rio De Janeiro, Brasil",
            "website": null
        },
        {
            "id": 8644,
            "name": "Armstrong Academy of Martial Arts",
            "federationAbbr": "IBJJF",
            "country": "Canada",
            "countryAbbr": "CA",
            "city": "Chatham",
            "responsible": "Thomas Armstrong",
            "address": "3-480 Riverview Drive, Chatham, Ontario, Canada",
            "website": "www.martialartsck.com"
        },
        {
            "id": 8185,
            "name": "Armyfighter Combatives",
            "federationAbbr": "USBJJF",
            "country": "United States of America",
            "countryAbbr": "US",
            "city": "Colorado Springs",
            "responsible": "William K Kalili Jr",
            "address": "254 S Academy Blvd, Colorado Springs, Co, United States of America",
            "website": "Victory MMA"
        },
        {
            "id": 8813,
            "name": "Arões Jiu-Jitsu",
            "federationAbbr": "FPJJB",
            "country": "Portugal",
            "countryAbbr": "PT",
            "city": "Fafe",
            "responsible": "José Ribeiro da Fonseca",
            "address": "Rua Do Assento 26-25 Arões S. Romão, Fafe, Portugal, Portugal",
            "website": null
        },
        {
            "id": 8968,
            "name": "Aros BJJ",
            "federationAbbr": "IBJJF",
            "country": "Sweden",
            "countryAbbr": "SE",
            "city": "Uppsala",
            "responsible": "Anders Xu",
            "address": "Dragarbrunnsgatan 66a, Uppsala, Sweden",
            "website": null
        },
        {
            "id": 8660,
            "name": "Ars Magna Jiu Jitsu",
            "federationAbbr": "IBJJF",
            "country": "Chile",
            "countryAbbr": "CL",
            "city": "Talca",
            "responsible": "Raimundo José C. Marín Garay",
            "address": "6 Norte #1015, Departamento 402, Talca, Maule, Chile",
            "website": null
        },
        {
            "id": 3879,
            "name": "Ars Nova Team",
            "federationAbbr": "UIJJ",
            "country": "Italy",
            "countryAbbr": "IT",
            "city": "Mesagne",
            "responsible": "Salvatore Costantini",
            "address": "via Labanchi  3a , Mesagne, Brindisi, Italy",
            "website": "www.vingtjun.it"
        },
        {
            "id": 1031,
            "name": "Art Combat",
            "federationAbbr": "CBJJ",
            "country": "Brasil",
            "countryAbbr": "BR",
            "city": "Macaé",
            "responsible": "Gerson Rezende de Azevedo",
            "address": "Rua Teixeira de Gouveia, 2037 , Costa do Sol, Macaé, RJ, Brasil",
            "website": null
        },
        {
            "id": 8858,
            "name": "Art Fusion Jiu Jitsu",
            "federationAbbr": "CBJJ",
            "country": "Brasil",
            "countryAbbr": "BR",
            "city": "Rio De Janeiro",
            "responsible": "Isaque Silva de Oliveira",
            "address": "Rua General Cláudio 345, Rio De Janeiro, Rio De Janeiro, Brasil",
            "website": null
        },
        {
            "id": 3627,
            "name": "Art In Motion Jiu-Jitsu",
            "federationAbbr": "USBJJF",
            "country": "United States of America",
            "countryAbbr": "US",
            "city": "Miami",
            "responsible": "Robert Scott Schwartz",
            "address": "661 Nw 124th Pl, , Miami, FL, United States of America",
            "website": "www.lobsterjiujitsu.com"
        },
        {
            "id": 5893,
            "name": "Art of Fight - Lisboa",
            "federationAbbr": "FPJJB",
            "country": "Portugal",
            "countryAbbr": "PT",
            "city": "Lisboa",
            "responsible": "Victor Bernardo da Silva M. Marinho",
            "address": "Estrada da Luz N 28A, Lisboa, Portugal",
            "website": null
        },
        {
            "id": 5539,
            "name": "Art of Fight Academy Kuwait",
            "federationAbbr": "IBJJF",
            "country": "Kuwait",
            "countryAbbr": "KW",
            "city": "Farwaneya",
            "responsible": "Hussam Adeen Bassam Rajeh Qashou",
            "address": "Kuwait Farwaneya - Al Tadhamon Sport Club, Farwaneya, Kuwait",
            "website": null
        },
        {
            "id": 9283,
            "name": "Art Of Flow Academy",
            "federationAbbr": "IBJJF",
            "country": "Spain",
            "countryAbbr": "ES",
            "city": "Ibiza",
            "responsible": "Raúl Montero Abad",
            "address": "Calle Bisbe Abad I Lasierra N48, Ibiza, Baleares, Spain",
            "website": null
        },
        {
            "id": 3376,
            "name": "Art of Jiu Jitsu",
            "federationAbbr": "USBJJF",
            "country": "United States of America",
            "countryAbbr": "US",
            "city": "Costa Mesa",
            "responsible": "Guilherme Mendes ",
            "address": "411 East 17th Street  , , Costa Mesa, CA, United States of America",
            "website": "www.mendesbros.com"
        },
        {
            "id": 3991,
            "name": "Art of Roll",
            "federationAbbr": "IBJJF",
            "country": "Sweden",
            "countryAbbr": "SE",
            "city": "Malmö",
            "responsible": "Octavio Henrique Couto da Silva Jr.",
            "address": "Nydalavägen 5A  , , Malmö, --, Sweden",
            "website": ""
        },
        {
            "id": 9271,
            "name": "Art Prime Team",
            "federationAbbr": "CBJJ",
            "country": "Brasil",
            "countryAbbr": "BR",
            "city": "Rio De Janeiro",
            "responsible": "Roberto de Oliveira Martins",
            "address": "Estrada Dos Caboclos, 191, Rio De Janeiro, Rio De Janeiro, Brasil",
            "website": null
        },
        {
            "id": 7587,
            "name": "Art Prodigy Jiu-Jitsu",
            "federationAbbr": "CBJJ",
            "country": "Brasil",
            "countryAbbr": "BR",
            "city": "Nilópolis",
            "responsible": "Andre Luiz Daniel Santos",
            "address": "Avenida Getúlio Vargas, 1577, Centro, Nilópolis, RJ, Brasil",
            "website": "www.artprodigyjiujitsu.com.br"
        },
        {
            "id": 5471,
            "name": "Art Temple Jiu-Jitsu",
            "federationAbbr": "CBJJ",
            "country": "Brasil",
            "countryAbbr": "BR",
            "city": "Salvador",
            "responsible": "Orville de Andrade Neto",
            "address": "Alameda Praia do Flamengo n: 2591, Stella Maris, Salvador, Bahia, Brasil",
            "website": "www.arttemplebjj.com.br"
        },
        {
            "id": 6868,
            "name": "Arte Da Guerra Brazilian Jiu-Jitsu",
            "federationAbbr": "CBJJ",
            "country": "Brasil",
            "countryAbbr": "BR",
            "city": "Recife",
            "responsible": "Douglas Dias de Araújo",
            "address": "R. João Borba Carvalho Filho, 1, Bairro: Coqueiral, Recife, Pe, Brasil",
            "website": "Recife-PE"
        }
    ]
}