{
    "pagination": {
        "page": 275,
        "from": 5480,
        "to": 5500,
        "pageSize": 20,
        "lastPage": 358,
        "totalRecords": 7149
    },
    "list": [
        {
            "id": 10236,
            "name": "Renzo Gracie Mcallen",
            "federationAbbr": "USBJJF",
            "country": "United States of America",
            "countryAbbr": "US",
            "city": "Mcallen",
            "responsible": "Joshua Adam Sharpless",
            "address": "1505 Goldcrest Ave, Mcallen, Tx, United States of America",
            "website": "renzograciemcallen.com"
        },
        {
            "id": 2363,
            "name": "Renzo Gracie Mexico",
            "federationAbbr": "IBJJF",
            "country": "Mexico",
            "countryAbbr": "MX",
            "city": "Mexico City",
            "responsible": "Mario Delgado Davila",
            "address": "Galileo 361  , Polanco, Miguel Hidalgo, Mexico City, D.F., Mexico",
            "website": "www.renzograciemexico.com"
        },
        {
            "id": 9286,
            "name": "Renzo Gracie Mont Belvieu",
            "federationAbbr": "USBJJF",
            "country": "United States of America",
            "countryAbbr": "US",
            "city": "Baytown",
            "responsible": "Ricardo Ferreira Evangelista",
            "address": "6333 Fm 3180, Baytown, Texas, United States of America",
            "website": "Golivesportscampus.com"
        },
        {
            "id": 8698,
            "name": "Renzo Gracie Nashville",
            "federationAbbr": "USBJJF",
            "country": "United States of America",
            "countryAbbr": "US",
            "city": "Brentwood",
            "responsible": "Shawn Michael Williams",
            "address": "5105 Maryland Way, Ste 101, Brentwood, Tennessee, United States of America",
            "website": "www.renzogracienashville.com"
        },
        {
            "id": 2969,
            "name": "Renzo Gracie Newark",
            "federationAbbr": "USBJJF",
            "country": "United States of America",
            "countryAbbr": "US",
            "city": "Newark",
            "responsible": "Marco Labati Teixeira",
            "address": "172 Mc Whorter St  , , Newark, NJ, United States of America",
            "website": "www.renzogracienewark.com"
        },
        {
            "id": 6203,
            "name": "Renzo Gracie NH",
            "federationAbbr": "USBJJF",
            "country": "United States of America",
            "countryAbbr": "US",
            "city": "Windham",
            "responsible": "Kevin D. Landry",
            "address": "20 Rockingham Rd, Windham, NH, United States of America",
            "website": "RenzoGracieNH.org"
        },
        {
            "id": 5667,
            "name": "Renzo Gracie NorCal / Samurai BJJ",
            "federationAbbr": "USBJJF",
            "country": "United States of America",
            "countryAbbr": "US",
            "city": "Campbell",
            "responsible": "Richard Owen Jackson III",
            "address": "2125 South Winchester Blvd, Campbell, CA, United States of America",
            "website": "bjjsamurai.com"
        },
        {
            "id": 7081,
            "name": "Renzo Gracie Orlando",
            "federationAbbr": "USBJJF",
            "country": "United States of America",
            "countryAbbr": "US",
            "city": "Orlando ",
            "responsible": "Patrick Allan Scott Cooligan",
            "address": "3837 East Colonial Drive, Orlando , FL, United States of America",
            "website": "orlandojiujitsu.com"
        },
        {
            "id": 2749,
            "name": "Renzo Gracie Ottawa",
            "federationAbbr": "IBJJF",
            "country": "Canada",
            "countryAbbr": "CA",
            "city": "Ottawa",
            "responsible": null,
            "address": "1673 Carling Ave  , , Ottawa, ON, Canada",
            "website": "www.oama.com"
        },
        {
            "id": 3371,
            "name": "Renzo Gracie Pennsylvania Academy",
            "federationAbbr": "USBJJF",
            "country": "United States of America",
            "countryAbbr": "US",
            "city": "Hatfield",
            "responsible": "Richard Andrew Latta",
            "address": "1627 Bethlehem Pike Rt.309  , , Hatfield, PA, United States of America",
            "website": "www.renzograciepa.com"
        },
        {
            "id": 10135,
            "name": "Renzo Gracie SAT",
            "federationAbbr": "USBJJF",
            "country": "United States of America",
            "countryAbbr": "US",
            "city": "San Antonio",
            "responsible": "Robert A. Brice",
            "address": "11503 Jones Maltsberger Rd., Suite 1127, San Antonio, Texas, United States of America",
            "website": null
        },
        {
            "id": 10640,
            "name": "Renzo Gracie South Carolina",
            "federationAbbr": "USBJJF",
            "country": "United States of America",
            "countryAbbr": "US",
            "city": "Anderson",
            "responsible": "Patrick J. Higgins",
            "address": "1632 N Main St, Anderson, SC, United States of America",
            "website": "Www.renzograciesc@gmail.com"
        },
        {
            "id": 4462,
            "name": "Renzo Gracie St. Maarten",
            "federationAbbr": "IBJJF",
            "country": "Netherlands Antilles",
            "countryAbbr": "AN",
            "city": "Cole Bay",
            "responsible": "Renzo Gracie",
            "address": "15 Wellington Rd. Cole Bay  , , Cole Bay, St. Maarten, Netherlands Antilles",
            "website": "www.sxmbjj.com"
        },
        {
            "id": 8574,
            "name": "Renzo Gracie Team Brasil",
            "federationAbbr": "CBJJ",
            "country": "Brasil",
            "countryAbbr": "BR",
            "city": "S達o Paulo",
            "responsible": "Francisco Santana Souza Junior",
            "address": "Av Do Cursino 812, Ipiranga, S達o Paulo, S達o Paulo, Brasil",
            "website": null
        },
        {
            "id": 8027,
            "name": "Renzo Gracie Utah",
            "federationAbbr": "USBJJF",
            "country": "United States of America",
            "countryAbbr": "US",
            "city": "Kaysville",
            "responsible": "Felipe Martins Cavalcante",
            "address": "860 W 300 N, Suite 200, Kaysville, Utah, United States of America",
            "website": "Renzogracieutah.com"
        },
        {
            "id": 7118,
            "name": "Renzo Gracie Warwick",
            "federationAbbr": "USBJJF",
            "country": "United States of America",
            "countryAbbr": "US",
            "city": "Warwick",
            "responsible": "Igor Gracie",
            "address": "62 Main St. 3rd Floor, Warwick, New York , United States of America",
            "website": "www.renzograciewarwick.com"
        },
        {
            "id": 7868,
            "name": "Republic Of Jiu-Jitsu",
            "federationAbbr": "IBJJF",
            "country": "Ireland",
            "countryAbbr": "IE",
            "city": "Dublin ",
            "responsible": "Jeferson Cruz de Almeida",
            "address": "14 Maggenis Place Pearse Street Dublin 2 , Dublin , Ireland",
            "website": null
        },
        {
            "id": 9827,
            "name": "Reset Jiu Jitsu",
            "federationAbbr": "CBJJ",
            "country": "Brasil",
            "countryAbbr": "BR",
            "city": "Passo Fundo",
            "responsible": "Jo達o Luiz Zilio",
            "address": "Rua Nascimento Vargas 472, Casa, Passo Fundo, Rio Grande Do Sul, Brasil",
            "website": null
        },
        {
            "id": 5232,
            "name": "Resilience Training Centre",
            "federationAbbr": "IBJJF",
            "country": "Australia",
            "countryAbbr": "AU",
            "city": "Footscray",
            "responsible": "Gustavo Falciroli",
            "address": "86 Buckley St.  , , Footscray, VIC, Australia",
            "website": "resiliencetrainingcentre.com"
        },
        {
            "id": 9916,
            "name": "Resilient Jiu Jitsu",
            "federationAbbr": "CBJJ",
            "country": "Brasil",
            "countryAbbr": "BR",
            "city": "Itu",
            "responsible": "Gabriel Luis Montuani",
            "address": "Rua Professor Acacio De Vasconcelos Camargo, 263/bloco2, Itu, Sao Paulo, Brasil",
            "website": null
        }
    ]
}