{
    "pagination": {
        "page": 51,
        "from": 1000,
        "to": 1020,
        "pageSize": 20,
        "lastPage": 358,
        "totalRecords": 7149
    },
    "list": [
        {
            "id": 8356,
            "name": "Boss Jiu-Jitsu",
            "federationAbbr": "CBJJ",
            "country": "Brasil",
            "countryAbbr": "BR",
            "city": "Barueri",
            "responsible": "Ivan César Rocha Pereira",
            "address": "Avenida Copacabana, 325, 22 Andar, Barueri, São Paulo, Brasil",
            "website": "www.unibjj.com.br"
        },
        {
            "id": 152,
            "name": "Boston Brazilian Jiu-Jitsu Academy",
            "federationAbbr": "USBJJF",
            "country": "United States of America",
            "countryAbbr": "US",
            "city": "Boston",
            "responsible": "Roberto Doyle Maia Jr.",
            "address": "10 Dedham Street  , , Boston, MA, United States of America",
            "website": "www.bbjiujitsu.com"
        },
        {
            "id": 9854,
            "name": "Botany Jiu-Jitsu",
            "federationAbbr": "IBJJF",
            "country": "Australia",
            "countryAbbr": "AU",
            "city": "Botany",
            "responsible": null,
            "address": "12 Pemberton St, Botany, Nsw, Australia",
            "website": "https://botanyfitness.com.au/adults-bjj/"
        },
        {
            "id": 10385,
            "name": "Boto Brazilian Jiu-Jitsu Portugal",
            "federationAbbr": "FPJJB",
            "country": "Portugal",
            "countryAbbr": "PT",
            "city": "Ribeira Grande",
            "responsible": "Klely Dircio Domingues",
            "address": "Rua Nossa Senhora Do Vencimento,12 R/cesquerdo,conceição, Ribeira Grande, Açores, Portugal",
            "website": null
        },
        {
            "id": 8828,
            "name": "Boulevard Jiu-Jitsu",
            "federationAbbr": "CBJJ",
            "country": "Brasil",
            "countryAbbr": "BR",
            "city": "Manaus",
            "responsible": "Edivan Lucas Gama do Nascimento",
            "address": "Rua Olímpio De Carvalho N2, Atrás Do Estádio De Futebol Do São Raimundo, Manaus, Amazonas, Brasil",
            "website": null
        },
        {
            "id": 4032,
            "name": "Bowie MMA",
            "federationAbbr": "USBJJF",
            "country": "United States of America",
            "countryAbbr": "US",
            "city": "Bowie",
            "responsible": "Carlos Catania",
            "address": "13711 Old Annapois Rd Ste 104 B , , Bowie, MD, United States of America",
            "website": "www.mmaofbowie.com"
        },
        {
            "id": 9622,
            "name": "Bowler's BJJ",
            "federationAbbr": "IBJJF",
            "country": "Canada",
            "countryAbbr": "CA",
            "city": "Flesherton",
            "responsible": "Andrew R. Bowler",
            "address": "774310 Hwy 10, Flesherton, Ontario, Canada",
            "website": null
        },
        {
            "id": 8504,
            "name": "Bowmans Brazilian Jiu-Jitsu",
            "federationAbbr": "IBJJF",
            "country": "Canada",
            "countryAbbr": "CA",
            "city": "Fort Mcmurray",
            "responsible": "Francis A Sandy Bowman",
            "address": "180 Westwood Crescent, Fort Mcmurray, Alberta, Canada",
            "website": "www.bowmansmma.com"
        },
        {
            "id": 7743,
            "name": "Box 79 Fight Escola de Lutas",
            "federationAbbr": "CBJJ",
            "country": "Brasil",
            "countryAbbr": "BR",
            "city": "Mamanguape",
            "responsible": "Luciano Valentim da Silva",
            "address": "Rua Francisco Cleto, Número 98 Bairro: Centro, Perto Da Antiga Creche, Mamanguape, PB, Brasil",
            "website": null
        },
        {
            "id": 9016,
            "name": "Boxmoor BJJ",
            "federationAbbr": "IBJJF",
            "country": "United Kingdom",
            "countryAbbr": "GB",
            "city": "Hemel Hempstead",
            "responsible": "Daniel Cox",
            "address": "34 Mark Road, Hemel Hempstead, Herts, United Kingdom",
            "website": "https://www.boxmoorbjj.co.uk/"
        },
        {
            "id": 8067,
            "name": "Brabo",
            "federationAbbr": "CBJJ",
            "country": "Brasil",
            "countryAbbr": "BR",
            "city": "Juiz De Fora",
            "responsible": "Ramon Fontes de Almeida Medeiros",
            "address": "Av Presidente Itamar Franco, 1575 / 804, Juiz De Fora, Mg, Brasil",
            "website": null
        },
        {
            "id": 10499,
            "name": "Bracher BJJ",
            "federationAbbr": "IBJJF",
            "country": "United Kingdom",
            "countryAbbr": "GB",
            "city": "Birmingham",
            "responsible": "Thomas Bracher",
            "address": "19 The Mount, Curdworth, Birmingham, West Midlands, United Kingdom",
            "website": null
        },
        {
            "id": 9520,
            "name": "Braddah Jiu-Jitsu",
            "federationAbbr": "CBJJ",
            "country": "Brasil",
            "countryAbbr": "BR",
            "city": "Porto Alegre",
            "responsible": "Lucas Branco Sachs",
            "address": "Av. Dr. Joao Simplicio Alves De Carvalho, Porto Alegre, Rs, Brasil",
            "website": "www.braddahjiujitsu.com.au"
        },
        {
            "id": 10225,
            "name": "Braddah Jiu-Jitsu Artarmon",
            "federationAbbr": "IBJJF",
            "country": "Australia",
            "countryAbbr": "AU",
            "city": "Sydney",
            "responsible": "Lucas Branco Sachs",
            "address": "1/43 Herbert St. Artarmon, Sydney, Nsw, Australia",
            "website": "https://www.braddahjiujitsu.com.au"
        },
        {
            "id": 2082,
            "name": "Braga Fight Team - Los Angeles",
            "federationAbbr": "USBJJF",
            "country": "United States of America",
            "countryAbbr": "US",
            "city": "Upland",
            "responsible": "Wander Braga Corrêa da Costa",
            "address": "1120 N. Dewey way  , , Upland, ca, United States of America",
            "website": "www.wanderbraga.com"
        },
        {
            "id": 3044,
            "name": "Braga Fight Team / Italy",
            "federationAbbr": "UIJJ",
            "country": "Italy",
            "countryAbbr": "IT",
            "city": "Castigrione Olona",
            "responsible": "Wander Braga Corrêa da Costa",
            "address": "Via Cesari Batisti number 126   , , Castigrione Olona, VA, Italy",
            "website": ""
        },
        {
            "id": 2694,
            "name": "Braga Jiu-Jitsu Brasil",
            "federationAbbr": "CBJJ",
            "country": "Brasil",
            "countryAbbr": "BR",
            "city": "Rio de Janeiro",
            "responsible": "Wander Braga Corrêa da Costa",
            "address": "Avenida Olegário Maciel 71, 202, Barra da Tijuca, Rio de Janeiro, RJ, Brasil",
            "website": "www.wanderbraga.com"
        },
        {
            "id": 3043,
            "name": "Braga Jiu-Jitsu Greece",
            "federationAbbr": "IBJJF",
            "country": "Greece",
            "countryAbbr": "GR",
            "city": "Platanias - Chania ",
            "responsible": "Wander Braga Corrêa da Costa",
            "address": "Samarias 36   , Platanias - Chania , Greece",
            "website": "www.bragagreece.com"
        },
        {
            "id": 5532,
            "name": "Braga Jiu-Jitsu Lebanon",
            "federationAbbr": "IBJJF",
            "country": "Lebanon",
            "countryAbbr": "LB",
            "city": "Beirut",
            "responsible": "Wander Braga Corrêa da Costa",
            "address": "Ashvafich - Monot 222 Bldg, Beirut, Lebanon",
            "website": "www.wanderbraga.com"
        },
        {
            "id": 7523,
            "name": "Braganti Jiu-Jitsu",
            "federationAbbr": "CBJJ",
            "country": "Brasil",
            "countryAbbr": "BR",
            "city": "São Paulo",
            "responsible": "Francisco Santana Souza Junior",
            "address": "Rua São Fidelis n: 272, 1 andar, São Paulo, SP, Brasil",
            "website": null
        }
    ]
}