{
    "pagination": {
        "page": 65,
        "from": 1280,
        "to": 1300,
        "pageSize": 20,
        "lastPage": 358,
        "totalRecords": 7149
    },
    "list": [
        {
            "id": 6168,
            "name": "Carlson Gracie Istanbul",
            "federationAbbr": "IBJJF",
            "country": "Turkey",
            "countryAbbr": "TR",
            "city": "Istanbul",
            "responsible": "Sadik Caglar Yazman",
            "address": "Valikonagi Cad. Haci Mansur Sok. No:2 Inka Residence Kat. -3 Nisantasi-sisli, Istanbul, --, Turkey",
            "website": "carlsongracieistanbul.com"
        },
        {
            "id": 6648,
            "name": "Carlson Gracie Jiu-Jitsu New Zealand",
            "federationAbbr": "IBJJF",
            "country": "New Zealand",
            "countryAbbr": "NZ",
            "city": "Frankton",
            "responsible": "Jose Carlos Gomes Pereira Neto",
            "address": "6A/15 Red Oaks Drive, Remarkables Park , Frankton, New Zealand",
            "website": "carlsongraciebjj.co.nz"
        },
        {
            "id": 6323,
            "name": "Carlson Gracie Joinville",
            "federationAbbr": "CBJJ",
            "country": "Brasil",
            "countryAbbr": "BR",
            "city": "Joinville",
            "responsible": "José Henrique Saraiva Nascimento",
            "address": "Rua Dona Francisca n: 1587, Saguaçú, Joinville, Santa Catarina, Brasil",
            "website": null
        },
        {
            "id": 4934,
            "name": "Carlson Gracie Keystone Florida",
            "federationAbbr": "USBJJF",
            "country": "United States of America",
            "countryAbbr": "US",
            "city": "Keystone Hts",
            "responsible": "Elpidio Santiago",
            "address": "260 NE Commercial Circle #1241, Keystone Hts, FL, United States of America",
            "website": "www.ElpidioSantiago.com"
        },
        {
            "id": 5530,
            "name": "Carlson Gracie Korea",
            "federationAbbr": "IBJJF",
            "country": "Korea, South",
            "countryAbbr": "KR",
            "city": "Cheonan",
            "responsible": "Sung Baek Kim",
            "address": "1467 Ssangyong 2-dong, Seobuk-gu, Cheonan, Korea, South",
            "website": "www.teammatador.co.kr"
        },
        {
            "id": 4936,
            "name": "Carlson Gracie Lakeland",
            "federationAbbr": "USBJJF",
            "country": "United States of America",
            "countryAbbr": "US",
            "city": "Lakeland",
            "responsible": "Rafael Ferreira dos Santos",
            "address": "921 Shadow Dr Ste 10 , Lakeland, FL, United States of America",
            "website": "lakelandjj.com"
        },
        {
            "id": 10159,
            "name": "Carlson Gracie Las Vegas",
            "federationAbbr": "USBJJF",
            "country": "United States of America",
            "countryAbbr": "US",
            "city": "Las Vegas",
            "responsible": "Bryan  Calleros",
            "address": "6320 S Pecos Rd, Unit 117, Las Vegas, Nv, United States of America",
            "website": "Carlsongracielv.com"
        },
        {
            "id": 6582,
            "name": "Carlson Gracie Leme",
            "federationAbbr": "CBJJ",
            "country": "Brasil",
            "countryAbbr": "BR",
            "city": "Rio de Janeiro",
            "responsible": "Rodrigo da Costa Totti",
            "address": "Ladeira Ari Barroso n: 1 3 andar , Bairro: Leme, Rio de Janeiro, Rio de Janeiro, Brasil",
            "website": null
        },
        {
            "id": 5338,
            "name": "Carlson Gracie Luxembourg",
            "federationAbbr": "IBJJF",
            "country": "Luxembourg",
            "countryAbbr": "LU",
            "city": "Bech",
            "responsible": "Fabrício Ribeiro de Novaes",
            "address": "19 Enneschtgaass, Bech, Luxembourg",
            "website": "carlsongracieluxembourg.lu"
        },
        {
            "id": 5650,
            "name": "Carlson Gracie Mato Grosso Do Sul",
            "federationAbbr": "CBJJ",
            "country": "Brasil",
            "countryAbbr": "BR",
            "city": "Campo Grande",
            "responsible": "Luiz Claudio Isaias Sousa",
            "address": "Rua Antonio Corrêa, 111, Centro, Campo Grande, MS, Brasil",
            "website": null
        },
        {
            "id": 2187,
            "name": "Carlson Gracie MBFTEAM/Florianópolis",
            "federationAbbr": "CBJJ",
            "country": "Brasil",
            "countryAbbr": "BR",
            "city": "Florianópolis",
            "responsible": "Marcio Rogerio Delfes Branco",
            "address": "Rua Lauro Linhares n: 255, Loja 3 - Trindade, Florianópolis, SC, Brasil",
            "website": "www.bfteambrazilianjiujitsu.com.br"
        },
        {
            "id": 3884,
            "name": "Carlson Gracie Mexico",
            "federationAbbr": "IBJJF",
            "country": "Mexico",
            "countryAbbr": "MX",
            "city": "Xalapa",
            "responsible": "Carlson Gracie Júnior",
            "address": "Loma Mulato 1A, Lomas Verdes 3A Seccion  , , Xalapa, VER, Mexico",
            "website": "www.jiujitsumexico.net"
        },
        {
            "id": 8933,
            "name": "Carlson Gracie Napa Valley",
            "federationAbbr": "USBJJF",
            "country": "United States of America",
            "countryAbbr": "US",
            "city": "Napa",
            "responsible": "Vauvenargues Xavier Vicentini",
            "address": "901 Trancas St., Napa, California, United States of America",
            "website": "www.carlsongracienapavalley.com"
        },
        {
            "id": 8488,
            "name": "Carlson Gracie Norway",
            "federationAbbr": "IBJJF",
            "country": "Norway",
            "countryAbbr": "NO",
            "city": "Surnadal",
            "responsible": "Victor Adauto Costa Silva",
            "address": "Svartvassvegen 4, Surnadal, Møre Og Romsdal, Norway",
            "website": "https://carlsongracieteam.org/"
        },
        {
            "id": 5995,
            "name": "Carlson Gracie Orlando",
            "federationAbbr": "USBJJF",
            "country": "United States of America",
            "countryAbbr": "US",
            "city": "Ocoee",
            "responsible": "Thiago Silva Ramos",
            "address": "576 Maguire Rd., Ocoee, FL, United States of America",
            "website": "www.carlsongracieorlando.com"
        },
        {
            "id": 7378,
            "name": "Carlson Gracie Parma",
            "federationAbbr": "UIJJ",
            "country": "Italy",
            "countryAbbr": "IT",
            "city": "Parma",
            "responsible": "Guilherme Assad Teixeira",
            "address": "Via Emilia Pvest 46, Parma, Italy",
            "website": "www.madgym.it"
        },
        {
            "id": 8550,
            "name": "Carlson Gracie Plant City",
            "federationAbbr": "USBJJF",
            "country": "United States of America",
            "countryAbbr": "US",
            "city": "Plant City",
            "responsible": "Samuel Robert Kimmel",
            "address": "109 E Reynolds St, Plant City, Florida, United States of America",
            "website": "www.plantcitybjj.com"
        },
        {
            "id": 2820,
            "name": "Carlson Gracie Portugal",
            "federationAbbr": "FPJJB",
            "country": "Portugal",
            "countryAbbr": "PT",
            "city": "Torres Vedras",
            "responsible": "Francisco José dos Santos da Costa Maya",
            "address": "Rua dos Palomes n.º 3 R/C n. 3 R/C, , Torres Vedras, xx, Portugal",
            "website": ""
        },
        {
            "id": 2271,
            "name": "Carlson Gracie Puerto Rico",
            "federationAbbr": "IBJJF",
            "country": "Puerto Rico",
            "countryAbbr": "PR",
            "city": "Trujillo-Alto",
            "responsible": null,
            "address": "Urb. Encantada Cond. Montecillo Apt. 1606  , , Trujillo-Alto, --, Puerto Rico",
            "website": "http://jiujitsupr.com/"
        },
        {
            "id": 7060,
            "name": "Carlson Gracie San Antonio TX",
            "federationAbbr": "USBJJF",
            "country": "United States of America",
            "countryAbbr": "US",
            "city": "San Antonio ",
            "responsible": "Thiago L. Mendes Barros",
            "address": "16535 Huebner Rd. , San Antonio , TX, United States of America",
            "website": null
        }
    ]
}