{
    "pagination": {
        "page": 215,
        "from": 4280,
        "to": 4300,
        "pageSize": 20,
        "lastPage": 358,
        "totalRecords": 7149
    },
    "list": [
        {
            "id": 2021,
            "name": "Leo Dalla BJJ",
            "federationAbbr": "USBJJF",
            "country": "United States of America",
            "countryAbbr": "US",
            "city": "Woodbridge",
            "responsible": "Leonardo Nunes Dalla Costa",
            "address": "12608 Darby Brooke Court  , , Woodbridge, VA, United States of America",
            "website": "www.leodalla.com"
        },
        {
            "id": 7792,
            "name": "Leo Sousa BJJ",
            "federationAbbr": "CBJJ",
            "country": "Brasil",
            "countryAbbr": "BR",
            "city": "Ipatinga",
            "responsible": "Leonardo de Sousa Oliveira",
            "address": "Avenida Londrina 630 - Veneza 2, Ipatinga, Minas Gerais, Brasil",
            "website": null
        },
        {
            "id": 9151,
            "name": "Leões Abc",
            "federationAbbr": "CBJJ",
            "country": "Brasil",
            "countryAbbr": "BR",
            "city": "Santo Andre",
            "responsible": "Diogo Rodrigues Dias",
            "address": "Rua Jorge Beretta 559, Salão De Cima, Santo Andre, Sao Paulo, Brasil",
            "website": null
        },
        {
            "id": 9602,
            "name": "Leões De Cristo BJJ",
            "federationAbbr": "CBJJ",
            "country": "Brasil",
            "countryAbbr": "BR",
            "city": "Rio De Janeiro",
            "responsible": "Jaime Teixeira da Costa",
            "address": "Rua Irajuba, 755, Rio De Janeiro, Rio De Janeiro, Brasil",
            "website": null
        },
        {
            "id": 2799,
            "name": "Leon Jiu Jitsu",
            "federationAbbr": "USBJJF",
            "country": "United States of America",
            "countryAbbr": "US",
            "city": "Los Alamitos",
            "responsible": "William Dion Tetsch",
            "address": "3351 Katella Ave  , , Los Alamitos, CA, United States of America",
            "website": "www.leonjiujitsu.com"
        },
        {
            "id": 7682,
            "name": "Leonardo González - Leão BJJ",
            "federationAbbr": "IBJJF",
            "country": "Panama",
            "countryAbbr": "PA",
            "city": "Panama",
            "responsible": "Leonardo Enrique Gonzalez Mendieta",
            "address": "Parque Lefebre, Panama, Panama",
            "website": "www.leaobjj.com"
        },
        {
            "id": 9595,
            "name": "Leonardo Rodrigues Jiu Jitsu School",
            "federationAbbr": "CBJJ",
            "country": "Brasil",
            "countryAbbr": "BR",
            "city": "Rio De Janeiro",
            "responsible": "Leonardo da Silva Rodrigues",
            "address": "Rua Araújo Leitão, 1145, Casa 102, Engenho Novo, Rio De Janeiro, Rj, Brasil",
            "website": null
        },
        {
            "id": 8761,
            "name": "Leontes Martial Arts",
            "federationAbbr": "IBJJF",
            "country": "Greece",
            "countryAbbr": "GR",
            "city": "Asprópirgos",
            "responsible": "Giagkos Polatidis",
            "address": "Nikis 8, Germanika, Asprópirgos, Attiki, Greece",
            "website": "leontesdraculinoteam@hotmail.com"
        },
        {
            "id": 6499,
            "name": "Lepri BJJ Montreal",
            "federationAbbr": "IBJJF",
            "country": "Canada",
            "countryAbbr": "CA",
            "city": "Montreal",
            "responsible": "Gabriel Trepanier",
            "address": "5842 Boul. St-Laurent, Montreal, QC, Canada",
            "website": "BrazilianJiuJitsuMontreal.com"
        },
        {
            "id": 6855,
            "name": "Lepribjj Beijing",
            "federationAbbr": "IBJJF",
            "country": "China",
            "countryAbbr": "CN",
            "city": "Beijing",
            "responsible": "Lucas Alves Lepri",
            "address": "2nd Floor, Zhongyu Building, Chaoyang District, Beijing, Beijing, China",
            "website": null
        },
        {
            "id": 629,
            "name": "Leste Clube",
            "federationAbbr": "CBJJ",
            "country": "Brasil",
            "countryAbbr": "BR",
            "city": "São Gonçalo",
            "responsible": "Celio Caneca",
            "address": "Av. Izaura Santarem Q. 236 Lote 24, Jardim Catarina, São Gonçalo, RJ, Brasil",
            "website": null
        },
        {
            "id": 7755,
            "name": "Leteri Team Jiu Jitsu",
            "federationAbbr": "CBJJ",
            "country": "Brasil",
            "countryAbbr": "BR",
            "city": "São Paulo",
            "responsible": "Leonardo Leteri Sasso de Oliveira",
            "address": "Rua Capital Federal, 444, Sumaré, São Paulo, São Paulo, Brasil",
            "website": "www.leteriteam.com"
        },
        {
            "id": 5319,
            "name": "Lethal Team BJJ",
            "federationAbbr": "CBJJ",
            "country": "Brasil",
            "countryAbbr": "BR",
            "city": "Rio de Janeiro",
            "responsible": "Thiago Teixeira do Nascimento",
            "address": "Estrada de Jacarepaguá 5007, Anil (Academia CTAM em frente a Praça), Rio de Janeiro, RJ, Brasil",
            "website": null
        },
        {
            "id": 9220,
            "name": "Level Up Brasil",
            "federationAbbr": "CBJJ",
            "country": "Brasil",
            "countryAbbr": "BR",
            "city": "São Paulo",
            "responsible": "Wilton  Alves de Carvalho",
            "address": "Av Boturussu 1775, Casa, São Paulo, São Paulo, Brasil",
            "website": "@levelupbrasil"
        },
        {
            "id": 6090,
            "name": "Level Up Brazilian Jiu-Jitsu",
            "federationAbbr": "USBJJF",
            "country": "United States of America",
            "countryAbbr": "US",
            "city": "Los Angeles",
            "responsible": "Erik Robert Klinger",
            "address": "11551 Santa Monica Blvd #4, Los Angeles, CA, United States of America",
            "website": "www.levelupjiujitsu.com"
        },
        {
            "id": 9212,
            "name": "Level Up Europe",
            "federationAbbr": "IBJJF",
            "country": "Spain",
            "countryAbbr": "ES",
            "city": "Collaldo Villalba",
            "responsible": "Ricardo Loureiro de Oliveira",
            "address": "Calle Azuela, 69, Collaldo Villalba, Madrid, Spain",
            "website": "https://www.facebook.com/robjjteam/"
        },
        {
            "id": 10331,
            "name": "Lever Brazilian Jiu-Jitsu",
            "federationAbbr": "CBJJ",
            "country": "Brasil",
            "countryAbbr": "BR",
            "city": "Rio De Janeiro",
            "responsible": "Marcio Paixão Carvalho da Costa",
            "address": "Estrada Dos Bandeirantes 7700, Bloco 4 / 405, Rio De Janeiro, Rio De Janeiro, Brasil",
            "website": null
        },
        {
            "id": 8164,
            "name": "Leverage Jiu-Jitsu",
            "federationAbbr": "USBJJF",
            "country": "United States of America",
            "countryAbbr": "US",
            "city": "Grand Prairie",
            "responsible": "Mario Espindola",
            "address": "200 N Carrier Parkway Ste 109, Grand Prairie, Texas, United States of America",
            "website": "www.leverage-jiujitsu.com"
        },
        {
            "id": 7096,
            "name": "Leviathan Academy",
            "federationAbbr": "USBJJF",
            "country": "United States of America",
            "countryAbbr": "US",
            "city": "Cleveland",
            "responsible": "Breck Layne Still",
            "address": "450 Broad St SW, Cleveland, TN, United States of America",
            "website": "www.LeviathanAcademy.com"
        },
        {
            "id": 6773,
            "name": "LFT Brazilian Jiu-Jitsu Academy",
            "federationAbbr": "CBJJ",
            "country": "Brasil",
            "countryAbbr": "BR",
            "city": "Mostardas",
            "responsible": "Diego Rocha Louzada",
            "address": "Rua Almirante Tamandaré n: 1136, Mostardas, RS, Brasil",
            "website": null
        }
    ]
}