{
    "pagination": {
        "page": 287,
        "from": 5720,
        "to": 5740,
        "pageSize": 20,
        "lastPage": 358,
        "totalRecords": 7149
    },
    "list": [
        {
            "id": 3926,
            "name": "Roy Dean Academy International",
            "federationAbbr": "IBJJF",
            "country": "United Kingdom",
            "countryAbbr": "GB",
            "city": "Poole",
            "responsible": "Roy Dean",
            "address": "40 St. Osmunds Road  , , Poole, Parkstone, United Kingdom",
            "website": "www.roydeanacademy.com"
        },
        {
            "id": 9503,
            "name": "Royal Black Jiu-jitsu",
            "federationAbbr": "CBJJ",
            "country": "Brasil",
            "countryAbbr": "BR",
            "city": "Rio De Janeiro",
            "responsible": "Marcelo Andrade Baez Garcia",
            "address": "Av. Das Américas, Rio De Janeiro, Rj, Brasil",
            "website": null
        },
        {
            "id": 8765,
            "name": "Royal Jiu-Jitsu",
            "federationAbbr": "IBJJF",
            "country": "United Kingdom",
            "countryAbbr": "GB",
            "city": "London",
            "responsible": "Bradley  Hill",
            "address": "9-11 Hessel St, London, London, United Kingdom",
            "website": null
        },
        {
            "id": 9234,
            "name": "Royal Palm Jiu-Jitsu",
            "federationAbbr": "USBJJF",
            "country": "United States of America",
            "countryAbbr": "US",
            "city": "Royal Palm Beach",
            "responsible": "Pedro Flores Barbosa Ramos",
            "address": "634 West Ilex Drive Lake Park, Royal Palm Beach, Florida, United States of America",
            "website": null
        },
        {
            "id": 8082,
            "name": "Rpm",
            "federationAbbr": "CBJJ",
            "country": "Brasil",
            "countryAbbr": "BR",
            "city": "Duque De Caxias",
            "responsible": "Ruan Pépe Machado",
            "address": "Rua Maria Quitéria, Lt 9, Qd 51, Duque De Caxias, Rj, Brasil",
            "website": null
        },
        {
            "id": 10490,
            "name": "RPSA JJ",
            "federationAbbr": "IBJJF",
            "country": "France",
            "countryAbbr": "FR",
            "city": "Sartrouville",
            "responsible": "Bruno Filipe Santos Lima",
            "address": "167 Avenue De La République, Sartrouville, France",
            "website": null
        },
        {
            "id": 4494,
            "name": "RPuleo Fight Club",
            "federationAbbr": "CBJJ",
            "country": "Brasil",
            "countryAbbr": "BR",
            "city": "Ponta Porã",
            "responsible": "Ricardo Puléo Souza",
            "address": "Rua Antônio João  836 Fundos, Centro, Ponta Porã, MS, Brasil",
            "website": ""
        },
        {
            "id": 5423,
            "name": "RRT",
            "federationAbbr": "JBJJF",
            "country": "Japan",
            "countryAbbr": "JP",
            "city": "Fuji-shi",
            "responsible": "Rangel Yamaguchi Rodrigues",
            "address": "Hiromi higashi honcho 34-1 Ken-ei yoshiwara danchi 7-102, Fuji-shi, Shizuoka, Japan",
            "website": null
        },
        {
            "id": 5522,
            "name": "RS Jiu-Jitsu",
            "federationAbbr": "CBJJ",
            "country": "Brasil",
            "countryAbbr": "BR",
            "city": "Manaus",
            "responsible": "João Ricardo Sena de Souza",
            "address": "Conjunto Ajuricaba  Rua B/35 - 867, Alvorada, Manaus, AM, Brasil",
            "website": null
        },
        {
            "id": 9217,
            "name": "Rs Team - Robson Siqueira Brazilian Jiu-Jitsu",
            "federationAbbr": "CBJJ",
            "country": "Brasil",
            "countryAbbr": "BR",
            "city": "Ariquemes",
            "responsible": "Robson Siqueira da Silva",
            "address": "Rua Natal 2311, Setor 03, Ariquemes, Rondonia, Brasil",
            "website": null
        },
        {
            "id": 4460,
            "name": "RSM - Helio Soneca BJJ Team",
            "federationAbbr": "CBJJ",
            "country": "Brasil",
            "countryAbbr": "BR",
            "city": "Vila Velha",
            "responsible": "Robson dos Santos Silva Motta",
            "address": "Rua Luiz Fernando Reis 270, 1003, Praia da Costa, Vila Velha, ES, Brasil",
            "website": "www.heliosoneca.com"
        },
        {
            "id": 7047,
            "name": "RTS Brazilian Jiu-Jitsu",
            "federationAbbr": "CBJJ",
            "country": "Brasil",
            "countryAbbr": "BR",
            "city": "Rio de Janeiro",
            "responsible": "Priscila Bispo Borges de Almeida",
            "address": "Rua Lígia, 255, Bairro: Olaria, Rio de Janeiro, Rio de Janeiro, Brasil",
            "website": null
        },
        {
            "id": 7420,
            "name": "Ruan Quintanilha BJJ",
            "federationAbbr": "CBJJ",
            "country": "Brasil",
            "countryAbbr": "BR",
            "city": "Magé",
            "responsible": "Ruan Quintanilha da Silva",
            "address": "Av. Automóvel Club, 3127, Loja, Magé, Rio de Janeiro, Brasil",
            "website": "Av. Automóvel Club, 3127"
        },
        {
            "id": 2118,
            "name": "Rubao Carioca",
            "federationAbbr": "USBJJF",
            "country": "United States of America",
            "countryAbbr": "US",
            "city": "Mebane",
            "responsible": "Rubens Ricardo Rodrigues",
            "address": "3417 Parker Farm Road, , Mebane, Nc, United States of America",
            "website": "Teamrubaocariocabjj"
        },
        {
            "id": 6158,
            "name": "Rubik Jiu-Jitsu - Flavio Vieira",
            "federationAbbr": "FPJJB",
            "country": "Portugal",
            "countryAbbr": "PT",
            "city": "Almada/Charneca",
            "responsible": "Flávio Celso Gonçalves Vieira",
            "address": "R. Manuel Da Fonseca n 14, 2800 Alwada/R. Eugonio Salvador s/n 2820 Charneca caramca, Almada/Charneca, --, Portugal",
            "website": "www.facebook.com/rubik-jiujitsu"
        },
        {
            "id": 8697,
            "name": "Rudy Bears Brazilian Jiu-Jitsu",
            "federationAbbr": "USBJJF",
            "country": "United States of America",
            "countryAbbr": "US",
            "city": "Kansas City",
            "responsible": "Rudy Lee Bears",
            "address": "4030 Broadway, Kansas City, Mo, United States of America",
            "website": null
        },
        {
            "id": 2618,
            "name": "Ruffhouse",
            "federationAbbr": "USBJJF",
            "country": "United States of America",
            "countryAbbr": "US",
            "city": "Mesa",
            "responsible": "Arthur Ward Ruff",
            "address": "1305 West Guadawpe   , , Mesa, AZ, United States of America",
            "website": "www.ruffhousejiujitsu.com"
        },
        {
            "id": 7981,
            "name": "Russell BJJ",
            "federationAbbr": "USBJJF",
            "country": "United States of America",
            "countryAbbr": "US",
            "city": "Trenton",
            "responsible": "Jennifer L. Russell",
            "address": "5 Green Ct, Trenton, NJ, United States of America",
            "website": null
        },
        {
            "id": 6824,
            "name": "Russian Budo-Center",
            "federationAbbr": "IBJJF",
            "country": "Russia",
            "countryAbbr": "RU",
            "city": "Perm",
            "responsible": "Lev Gladkikh",
            "address": "Selo Froli, ul. Centralnaya 11 - 22, Perm, Russia",
            "website": null
        },
        {
            "id": 9218,
            "name": "Russo 7AM",
            "federationAbbr": "CBJJ",
            "country": "Brasil",
            "countryAbbr": "BR",
            "city": "São Paulo",
            "responsible": "Carlos Alberto Vieira Júnior",
            "address": "Rua Diana, 512, Perdizes, São Paulo, Sp, Brasil",
            "website": null
        }
    ]
}