{
    "pagination": {
        "page": 356,
        "from": 7100,
        "to": 7120,
        "pageSize": 20,
        "lastPage": 358,
        "totalRecords": 7149
    },
    "list": [
        {
            "id": 3350,
            "name": "Zero Fighter Club",
            "federationAbbr": "JBJJF",
            "country": "Japan",
            "countryAbbr": "JP",
            "city": "Okayama-shi",
            "responsible": "Shiro Kageyama",
            "address": "2-13-8 Noda Kita-ku, Nodapa-kubiru2f, Okayama-shi, Okayama-ken, Japan",
            "website": "ww.zerofc.web.fcz.com"
        },
        {
            "id": 8374,
            "name": "Zero85 Jiu-Jitsu",
            "federationAbbr": "CBJJ",
            "country": "Brasil",
            "countryAbbr": "BR",
            "city": "Fortaleza",
            "responsible": "Daniel Silveira",
            "address": "Eduardo Bezerra 320, 320, Fortaleza, Ce, Brasil",
            "website": null
        },
        {
            "id": 2084,
            "name": "Zingano Brazilian Jiu-Jitsu",
            "federationAbbr": "USBJJF",
            "country": "United States of America",
            "countryAbbr": "US",
            "city": "Broomfield",
            "responsible": "Matthew Adam Simms",
            "address": "2790 Industrial Ln.  , , Broomfield, CO, United States of America",
            "website": "www.zinganobjj.com"
        },
        {
            "id": 7031,
            "name": "Zit Independente",
            "federationAbbr": "CBJJ",
            "country": "Brasil",
            "countryAbbr": "BR",
            "city": "Teresina",
            "responsible": "Ayrton de Sousa Gomes",
            "address": "Quadra 03 Casa 11 Setor C, moçambinho I, Teresina, Piaui, Brasil",
            "website": null
        },
        {
            "id": 5223,
            "name": "ZMT Jiu-Jitsu",
            "federationAbbr": "CBJJ",
            "country": "Brasil",
            "countryAbbr": "BR",
            "city": "Lauro de Freitas",
            "responsible": "Andre Gomes Costa",
            "address": "Rua Paulo dos Santos Ferreira n: 792, Bairro: Ipitanga, Lauro de Freitas, BA, Brasil",
            "website": "zemarioteam.blogspot.com.br"
        },
        {
            "id": 5672,
            "name": "Zoo Brazilian Jiu-Jitsu",
            "federationAbbr": "USBJJF",
            "country": "United States of America",
            "countryAbbr": "US",
            "city": "Missoula",
            "responsible": "Robert Reed Brown",
            "address": "2926 S. 3rd St. W., Missoula, MT, United States of America",
            "website": "www.zoobjj.com"
        },
        {
            "id": 5152,
            "name": "Zova BJJ",
            "federationAbbr": "CBJJ",
            "country": "Brasil",
            "countryAbbr": "BR",
            "city": "Balneário Camboriú",
            "responsible": "Oswaldo Silva Lima Neto",
            "address": "Rua 3300 n: 300 Academia Wave Barra Sul, Centro, Balneário Camboriú, SC, Brasil",
            "website": null
        },
        {
            "id": 5952,
            "name": "ZR Team Alagoas",
            "federationAbbr": "CBJJ",
            "country": "Brasil",
            "countryAbbr": "BR",
            "city": "Maceió",
            "responsible": "Erick Costa da Silva",
            "address": "Av. Comendador Gustavo Paiva 436, Cruz das Almas, Maceió, AL, Brasil",
            "website": null
        },
        {
            "id": 9584,
            "name": "Zr Team Anápolis-go",
            "federationAbbr": "CBJJ",
            "country": "Brasil",
            "countryAbbr": "BR",
            "city": "2420",
            "responsible": "Juliano de Rezende Mendes Vieira",
            "address": "Av. Presidente Kennedy, Qd. 21 Lt 08, 2420, Goias, Brasil",
            "website": null
        },
        {
            "id": 8539,
            "name": "ZR Team Association Capim Macio - Natal/RN",
            "federationAbbr": "CBJJ",
            "country": "Brasil",
            "countryAbbr": "BR",
            "city": "Natal",
            "responsible": "Daniel Carlos de Macedo Borba",
            "address": "Av. Ayrton Senna, 1148, Neópolis, Natal, Rio Grande Do Norte, Brasil",
            "website": "@zrteam_rn"
        },
        {
            "id": 5467,
            "name": "ZR Team Austria",
            "federationAbbr": "IBJJF",
            "country": "Austria",
            "countryAbbr": "AT",
            "city": "Vienna",
            "responsible": "Petar Pecija",
            "address": "Grundsteingasse 18, Vienna, Austria",
            "website": "www.zrteam.at"
        },
        {
            "id": 9775,
            "name": "ZR Team Brasília",
            "federationAbbr": "CBJJ",
            "country": "Brasil",
            "countryAbbr": "BR",
            "city": "Brasília",
            "responsible": "José Carlos do Nascimento",
            "address": "Sclrn 716 Broco  H Loja 46, Em Frente Ao Sindicato De Polícia Cível, Brasília, Distrito Federal, Brasil",
            "website": null
        },
        {
            "id": 2553,
            "name": "ZR Team California",
            "federationAbbr": "USBJJF",
            "country": "United States of America",
            "countryAbbr": "US",
            "city": "Arcadia",
            "responsible": "Lucas Rocha de Freitas",
            "address": "113 E.  Huntington Dr  , , Arcadia, CA, United States of America",
            "website": ""
        },
        {
            "id": 10364,
            "name": "Zr Team Campina Grande",
            "federationAbbr": "CBJJ",
            "country": "Brasil",
            "countryAbbr": "BR",
            "city": "Campina Grande",
            "responsible": "Tony Herbet Alves da Silva",
            "address": "Rua Severino Pimentel 24, Bairro Liberdade, Campina Grande, Paraiba, Brasil",
            "website": null
        },
        {
            "id": 7382,
            "name": "ZR Team Casal de Cambra",
            "federationAbbr": "FPJJB",
            "country": "Portugal",
            "countryAbbr": "PT",
            "city": "Casal De Cambra",
            "responsible": "José Olimpio da Rocha Neto",
            "address": "Av. De Lisboa n:120 103A esp, Casal De Cambra, --, Portugal",
            "website": null
        },
        {
            "id": 7381,
            "name": "ZR Team Cascais",
            "federationAbbr": "FPJJB",
            "country": "Portugal",
            "countryAbbr": "PT",
            "city": "Cascais",
            "responsible": "José Olimpio da Rocha Neto",
            "address": "Rua Dos Navegantes, 368 A, Cascais, --, Portugal",
            "website": null
        },
        {
            "id": 7013,
            "name": "ZR Team Centro Paulo Afonso",
            "federationAbbr": "CBJJ",
            "country": "Brasil",
            "countryAbbr": "BR",
            "city": "Paulo Afonso",
            "responsible": "Jose Giorgeno de Queiroz Lima",
            "address": "Rua dos Navegantes n: 559, Centro, Paulo Afonso, Bahia, Brasil",
            "website": null
        },
        {
            "id": 6560,
            "name": "ZR Team Esperança PB",
            "federationAbbr": "CBJJ",
            "country": "Brasil",
            "countryAbbr": "BR",
            "city": "Esperança",
            "responsible": "Tony Herbet Alves da Silva",
            "address": "Praça Presidente João Pessoa Número 83 Ao Lado Do Batalhão Da Rotam, Centro, Esperança, PB, Brasil",
            "website": null
        },
        {
            "id": 5275,
            "name": "ZR Team Estoril",
            "federationAbbr": "FPJJB",
            "country": "Portugal",
            "countryAbbr": "PT",
            "city": "Estoril",
            "responsible": "José Olimpio da Rocha Neto",
            "address": "Avenida Florinda Leal, 2032, Estoril, Portugal",
            "website": null
        },
        {
            "id": 8733,
            "name": "ZR Team Gaibu",
            "federationAbbr": "CBJJ",
            "country": "Brasil",
            "countryAbbr": "BR",
            "city": "Cabo De Santo Agostinho",
            "responsible": "Aroldo Gregório Nascimento Júnior",
            "address": "Avenida Joaquim Rodrigues, 09., Gaibu, Cabo De Santo Agostinho, Pernambuco, Brasil",
            "website": "GAIBU - CABO DE SANTO AGOSTINHO - PE"
        }
    ]
}