{
    "pagination": {
        "page": 14,
        "from": 260,
        "to": 280,
        "pageSize": 20,
        "lastPage": 358,
        "totalRecords": 7149
    },
    "list": [
        {
            "id": 9601,
            "name": "Águia Jiu-Jitsu Cathedral City",
            "federationAbbr": "USBJJF",
            "country": "United States of America",
            "countryAbbr": "US",
            "city": "Cathedral City, Ca 92234",
            "responsible": "Romel Arquimides Fuentes, Jr.",
            "address": "68100 Ramon Rd. Ste A-6, Cathedral City, Ca 92234, Ca, United States of America",
            "website": "https://aguia-jiu-jitsu.business.site/"
        },
        {
            "id": 7833,
            "name": "Aguiar BJJ",
            "federationAbbr": "CBJJ",
            "country": "Brasil",
            "countryAbbr": "BR",
            "city": "Mãe Do Rio",
            "responsible": "Eduardo da Silva Conceição",
            "address": "Rua Francisco Pedro De Lima, N°499, Bairro: Centro / Mercado Ale Mix Alimentos, Mãe Do Rio, Pará, Brasil",
            "website": null
        },
        {
            "id": 10124,
            "name": "Águila Jiu-Jitsu",
            "federationAbbr": "USBJJF",
            "country": "United States of America",
            "countryAbbr": "US",
            "city": "Midland",
            "responsible": "Cyril Jeffrey Smith Jr.",
            "address": "3218 Baumann Avenue, Midland, Tx, United States of America",
            "website": null
        },
        {
            "id": 5595,
            "name": "Aguilera BJJ-Ricardo Cavalcanti Luxembourg",
            "federationAbbr": "IBJJF",
            "country": "Luxembourg",
            "countryAbbr": "LU",
            "city": "Livange",
            "responsible": "Ricardo Cavalcanti",
            "address": "26, rue geespelt, Livange, Luxembourg",
            "website": "www.fightteamimpact.com"
        },
        {
            "id": 9992,
            "name": "AIM Jiu-Jitsu",
            "federationAbbr": "USBJJF",
            "country": "United States of America",
            "countryAbbr": "US",
            "city": "Sacramento",
            "responsible": "Louie Moreno III",
            "address": "5801 Power Inn Rd Unit C, Sacramento, Ca, United States of America",
            "website": null
        },
        {
            "id": 5568,
            "name": "Ainara Team",
            "federationAbbr": "IBJJF",
            "country": "Mexico",
            "countryAbbr": "MX",
            "city": "Cancun",
            "responsible": "Facundo Ponce Aramburu",
            "address": "Av. La Luna SM 47 MZA 4 Lote 15, Cancun, QROO, Mexico",
            "website": "Cancun"
        },
        {
            "id": 7326,
            "name": "Aiseiri Kombat Jiu-Jitsu",
            "federationAbbr": "IBJJF",
            "country": "Ireland",
            "countryAbbr": "IE",
            "city": "Derry City ",
            "responsible": "Stephen Coll",
            "address": "Unit 6 - Swilly House, Springtown Ind Est, Derry City , Ireland",
            "website": null
        },
        {
            "id": 7238,
            "name": "AIT - Jiu-Jitsu",
            "federationAbbr": "CBJJ",
            "country": "Brasil",
            "countryAbbr": "BR",
            "city": "Araguaina",
            "responsible": "José Augusto Rodrigues Neto",
            "address": "Rua Pires do Rio, 263, Loteamento: Dona Nelcia, Araguaina, Tocantins, Brasil",
            "website": null
        },
        {
            "id": 5226,
            "name": "AJ Team",
            "federationAbbr": "CBJJ",
            "country": "Brasil",
            "countryAbbr": "BR",
            "city": "Manaus",
            "responsible": "Paulo Eduardo G. Brandão",
            "address": "Rua 21 de Abril 30 , São Jorge, Manaus, AM, Brasil",
            "website": null
        },
        {
            "id": 7495,
            "name": "Aja Jiu-Jitsu Association",
            "federationAbbr": "FPJJB",
            "country": "Portugal",
            "countryAbbr": "PT",
            "city": "Ramalde",
            "responsible": "David Mendes de Lima",
            "address": "Rua De João De Deus, 627/ 5º Andar, Ramalde, Porto, Portugal",
            "website": null
        },
        {
            "id": 8468,
            "name": "AJJC - Aces Jiu Jitsu Club",
            "federationAbbr": "USBJJF",
            "country": "United States of America",
            "countryAbbr": "US",
            "city": "Pflugerville ",
            "responsible": "Mikal Abdullah",
            "address": "1700 Grand Avenue Parkway #220 , Pflugerville , Tx , United States of America",
            "website": null
        },
        {
            "id": 2890,
            "name": "AJJK",
            "federationAbbr": "IBJJF",
            "country": "Germany",
            "countryAbbr": "DE",
            "city": "Karlsruhe",
            "responsible": "Sven Rug",
            "address": "PSV Karlsruhe, Edgar-Heller-Str. 19  , Karlsruhe, GE, Germany",
            "website": null
        },
        {
            "id": 8619,
            "name": "AJJMT",
            "federationAbbr": "CBJJ",
            "country": "Brasil",
            "countryAbbr": "BR",
            "city": "Bayeux",
            "responsible": "Ricardo José Pereira da Silva Costa",
            "address": "Data Saraiva, 612, Bayeux, Paraíba, Brasil",
            "website": null
        },
        {
            "id": 7677,
            "name": "AJR Jiu-Jitsu",
            "federationAbbr": "IBJJF",
            "country": "Costa Rica",
            "countryAbbr": "CR",
            "city": "San José ",
            "responsible": "Jose Arimateia Lima Barbosa Junior",
            "address": "Centro Comercial Plaza Real de Alajuela, Sótano 2 , San José , Costa Rica",
            "website": null
        },
        {
            "id": 10367,
            "name": "AK Dojo Jiu-Jitsu Escola",
            "federationAbbr": "CBJJ",
            "country": "Brasil",
            "countryAbbr": "BR",
            "city": "Uberlândia",
            "responsible": "José Eduardo de Oliveira",
            "address": "Av. Afonso Pena, 4064, Uberlândia, Minas Gerais, Brasil",
            "website": null
        },
        {
            "id": 7250,
            "name": "Akamat",
            "federationAbbr": "IBJJF",
            "country": "France",
            "countryAbbr": "FR",
            "city": "Chambly ",
            "responsible": null,
            "address": "50 Rue Des Eglantiers , Chambly , France",
            "website": null
        },
        {
            "id": 3147,
            "name": "Akatsuki",
            "federationAbbr": "JBJJF",
            "country": "Japan",
            "countryAbbr": "JP",
            "city": "Osaka",
            "responsible": "Naofumi Higuchi",
            "address": "2-5-1 Uenohigashi Toyonaka  , Osaka, --, Japan",
            "website": "https://akatukibjj.wordpress.com/"
        },
        {
            "id": 7749,
            "name": "AKBJJ",
            "federationAbbr": "CBJJ",
            "country": "Brasil",
            "countryAbbr": "BR",
            "city": "Pântano Grande RS",
            "responsible": "Alexandre Krauze Cabeçudo",
            "address": "Rua Tiradentes número 403, Casa, Pântano Grande RS, Rio Grande do Sul, Brasil",
            "website": null
        },
        {
            "id": 9645,
            "name": "Akela",
            "federationAbbr": "IBJJF",
            "country": "France",
            "countryAbbr": "FR",
            "city": "Rouen",
            "responsible": "Lecocq Sébastien",
            "address": "30 Rue Damiette, Rouen, France",
            "website": null
        },
        {
            "id": 7947,
            "name": "Aken  Studio",
            "federationAbbr": "IBJJF",
            "country": "Korea, South",
            "countryAbbr": "KR",
            "city": "Seoul",
            "responsible": "Seung-Jae Lee",
            "address": "#402(aken Studio), 4f, 35, Dongnam-ro 4-gil, Songpa-gu, Seoul, Korea, South",
            "website": null
        }
    ]
}