{
    "pagination": {
        "page": 273,
        "from": 5440,
        "to": 5460,
        "pageSize": 20,
        "lastPage": 358,
        "totalRecords": 7149
    },
    "list": [
        {
            "id": 10031,
            "name": "Regensburg Fight Fusion",
            "federationAbbr": "IBJJF",
            "country": "Germany",
            "countryAbbr": "DE",
            "city": "Regensburg",
            "responsible": "Jan Victor Zander",
            "address": "Nelkenweg 3b, Regensburg, Germany",
            "website": "www.fight-fusion.de"
        },
        {
            "id": 5813,
            "name": "Régis Oliveira BJJ",
            "federationAbbr": "CBJJ",
            "country": "Brasil",
            "countryAbbr": "BR",
            "city": "Itajaí",
            "responsible": "Reginaldo de Oliveira",
            "address": "Rua Cesário Chaves, 149 - Bairro Fazenda, Arena Combate, Itajaí, Santa Catarina, Brasil",
            "website": null
        },
        {
            "id": 10569,
            "name": "Régis Sanson Team Gravataí",
            "federationAbbr": "CBJJ",
            "country": "Brasil",
            "countryAbbr": "BR",
            "city": "Gravataí",
            "responsible": "Régis Leiria Sanson",
            "address": "Ângelo Dourado 429 Morada Do Vale 3, Gravataí, Rs, Brasil",
            "website": null
        },
        {
            "id": 7864,
            "name": "Reign Jiu-Jitsu",
            "federationAbbr": "USBJJF",
            "country": "United States of America",
            "countryAbbr": "US",
            "city": "Katy",
            "responsible": "Moon Kyung Kim",
            "address": "1648a S Mason, Katy, Tx, United States of America",
            "website": null
        },
        {
            "id": 2459,
            "name": "Reinaldo Ribeiro Team BJJ Association",
            "federationAbbr": "IBJJF",
            "country": "Spain",
            "countryAbbr": "ES",
            "city": "Torello",
            "responsible": "Reinaldo Augusto Ribeiro",
            "address": "Carrer Sant Bartomeu, 28  , , Torello, --, Spain",
            "website": "www.reinaldoribeiroteam.com"
        },
        {
            "id": 6151,
            "name": "Reinaldo Ribeiro Team BJJ Portugal",
            "federationAbbr": "FPJJB",
            "country": "Portugal",
            "countryAbbr": "PT",
            "city": "Lisboa",
            "responsible": "Reinaldo Augusto Ribeiro",
            "address": "Rue Sociedade Farmaceutica N 21 R/D, Lisboa, --, Portugal",
            "website": null
        },
        {
            "id": 8825,
            "name": "Reinel Spyker Jiu Jitsu",
            "federationAbbr": "CBJJ",
            "country": "Brasil",
            "countryAbbr": "BR",
            "city": "Balneário Camboriú",
            "responsible": "Ricardo Sanches Pinheiro",
            "address": "Rua 2100 Nº99, Sala 02, Balneário Camboriú, Santa Catarina, Brasil",
            "website": "www.reinelspyker.com.br"
        },
        {
            "id": 6766,
            "name": "Relaxin'BJJ",
            "federationAbbr": "JBJJF",
            "country": "Japan",
            "countryAbbr": "JP",
            "city": "Kumagaya",
            "responsible": "Yoshinobu Kakizawa",
            "address": "IShihara 2-55 1F, Kumagaya, Saitama, Japan",
            "website": null
        },
        {
            "id": 8421,
            "name": "Relentless Fight Team",
            "federationAbbr": "FPJJB",
            "country": "Portugal",
            "countryAbbr": "PT",
            "city": "Porto",
            "responsible": "David André Pinto de Abreu",
            "address": "Rua Manuel Carqueja N 50, Porto, Portugal",
            "website": null
        },
        {
            "id": 2545,
            "name": "Relson Gracie",
            "federationAbbr": "USBJJF",
            "country": "United States of America",
            "countryAbbr": "US",
            "city": "Aiea",
            "responsible": null,
            "address": "98-109 Kamehameha, ` 208 A , , Aiea, HI, United States of America",
            "website": "www.relsosongracie.com"
        },
        {
            "id": 831,
            "name": "Relson Gracie Brasil",
            "federationAbbr": "CBJJ",
            "country": "Brasil",
            "countryAbbr": "BR",
            "city": "Rio de Janeiro",
            "responsible": "Jean Vandesteen de C. Bragança",
            "address": "Rua Humberto de Campus n: 774, Leblon, Rio de Janeiro, RJ, Brasil",
            "website": "www.relsongraciejj.com"
        },
        {
            "id": 8085,
            "name": "Renato \"Buiu\" Garcia",
            "federationAbbr": "CBJJ",
            "country": "Brasil",
            "countryAbbr": "BR",
            "city": "Pinhais",
            "responsible": "Renato Dantas Garcia",
            "address": "Avenida Jacob Macanhan 3199, Otica, Pinhais, Paraná, Brasil",
            "website": null
        },
        {
            "id": 1057,
            "name": "Renato Ferro Jiu-Jitsu",
            "federationAbbr": "CBJJ",
            "country": "Brasil",
            "countryAbbr": "BR",
            "city": "Macé",
            "responsible": "Renato de Almeida Ferro Neto",
            "address": "Rua Jade 57 Loja, Sol e Mar, Macé, Rj, Brasil",
            "website": ""
        },
        {
            "id": 9655,
            "name": "Renato Soares \"shimu\"",
            "federationAbbr": "CBJJ",
            "country": "Brasil",
            "countryAbbr": "BR",
            "city": "Campos Dos Goytacazes",
            "responsible": "Renato Pereira Soares",
            "address": "Rua Aurélio Francisco Gomes, 96, Aptº 602 - Bairro: Flamboyant, Campos Dos Goytacazes, Rio De Janeiro, Brasil",
            "website": null
        },
        {
            "id": 832,
            "name": "Renato Tavares",
            "federationAbbr": "CBJJ",
            "country": "Brasil",
            "countryAbbr": "BR",
            "city": "Parana",
            "responsible": "Renato Sampaio Tavares Filho",
            "address": "  , Parana, PR, Brasil",
            "website": null
        },
        {
            "id": 2432,
            "name": "Renato Tavares Association",
            "federationAbbr": "USBJJF",
            "country": "United States of America",
            "countryAbbr": "US",
            "city": "Vero Beach",
            "responsible": "Renato Sampaio Tavares Filho",
            "address": "6200 20th Street suite 210, Vero Beach, FL, United States of America",
            "website": null
        },
        {
            "id": 6791,
            "name": "Renato Tavares Azerbaijan Association",
            "federationAbbr": "IBJJF",
            "country": "Azerbaijan",
            "countryAbbr": "AZ",
            "city": "Baku",
            "responsible": "Renato Sampaio Tavares Filho",
            "address": "1st Residential Array, 262A, Badamdar, Baku, Azerbaijan",
            "website": null
        },
        {
            "id": 3280,
            "name": "Renatus Jiu-Jitsu Academy",
            "federationAbbr": "JBJJF",
            "country": "Japan",
            "countryAbbr": "JP",
            "city": "Niigata",
            "responsible": "Takashi Sato",
            "address": "53-15  Asahi Akiha-hu Niggata-shi  , , Niigata, --, Japan",
            "website": "www.renatusbjj.com"
        },
        {
            "id": 9524,
            "name": "Renegades",
            "federationAbbr": "IBJJF",
            "country": "Nicaragua",
            "countryAbbr": "NI",
            "city": "Managua",
            "responsible": "Roberto Carlos Callejas Saballos",
            "address": "Resd. Santo Domingo, Calle Los Andes Casa n.30, Managua, Managua, Nicaragua",
            "website": null
        },
        {
            "id": 10715,
            "name": "Rensen Shaka",
            "federationAbbr": "IBJJF",
            "country": "Italy",
            "countryAbbr": "IT",
            "city": "Arenzano",
            "responsible": "Rita Tana",
            "address": "Via Carlin 55/a - 59, Arenzano, Genova, Italy",
            "website": null
        }
    ]
}