{
    "pagination": {
        "page": 183,
        "from": 3640,
        "to": 3660,
        "pageSize": 20,
        "lastPage": 358,
        "totalRecords": 7149
    },
    "list": [
        {
            "id": 8983,
            "name": "Haven Jiu-Jitsu",
            "federationAbbr": "USBJJF",
            "country": "United States of America",
            "countryAbbr": "US",
            "city": "Baldwinsville",
            "responsible": "Benjamin Tallini",
            "address": "2265 Downer Street Unit 600, Baldwinsville, Ny, United States of America",
            "website": "cnyjiujitsu.com"
        },
        {
            "id": 7566,
            "name": "Hawaii United BJJ",
            "federationAbbr": "USBJJF",
            "country": "United States of America",
            "countryAbbr": "US",
            "city": "Waipahu",
            "responsible": "Bruno Francisco Vicentini Pucci",
            "address": "94-530 Uke'e Street, Waipahu, HI, United States of America",
            "website": "www.unitedbjjhawaii.com"
        },
        {
            "id": 6272,
            "name": "Hayastan MMA Academy",
            "federationAbbr": "USBJJF",
            "country": "United States of America",
            "countryAbbr": "US",
            "city": "North Hollywood",
            "responsible": "Gokor Chivichyan",
            "address": "7229 Atoll Ave, North Hollywood, CA, United States of America",
            "website": "www.gokor.com"
        },
        {
            "id": 7539,
            "name": "Hayastan MMA Academy International",
            "federationAbbr": "IBJJF",
            "country": "Germany",
            "countryAbbr": "DE",
            "city": "Braunschweig",
            "responsible": "Gokor Chivichyan",
            "address": "Salzdahlumer Str. 137, Braunschweig, Germany",
            "website": "imb-braunschweig.de"
        },
        {
            "id": 533,
            "name": "HBJ de Jiu-Jitsu",
            "federationAbbr": "CBJJ",
            "country": "Brasil",
            "countryAbbr": "BR",
            "city": "Manaus",
            "responsible": "Humberto Assunção Barbosa Junior",
            "address": "Rua Tancredo Neves 13 Pq. Nova Jerusalem, D. Pedro, Manaus, AM, Brasil",
            "website": null
        },
        {
            "id": 535,
            "name": "HBT Jiu-Jitsu",
            "federationAbbr": "CBJJ",
            "country": "Brasil",
            "countryAbbr": "BR",
            "city": "Rio De Janeiro",
            "responsible": "Hércules Baptista",
            "address": "Rua Rio Da Prata, 529 - Sala 201, Bloco 02 / 307, Rio De Janeiro, RJ, Brasil",
            "website": "www.hbtjiujitsu.com"
        },
        {
            "id": 9267,
            "name": "HC Top Team BJJ",
            "federationAbbr": "CBJJ",
            "country": "Brasil",
            "countryAbbr": "BR",
            "city": "Ananindeua",
            "responsible": "Heraldo Antonio Andrade da Costa",
            "address": "Rua Manoel De Oliveira, 504, Ananindeua, Pará, Brasil",
            "website": null
        },
        {
            "id": 6742,
            "name": "Head Hunters Brazilian Jiu-Jitsu",
            "federationAbbr": "CBJJ",
            "country": "Brasil",
            "countryAbbr": "BR",
            "city": "Porto Seguro",
            "responsible": "Jhonathan Pio Seara da Silva",
            "address": "Av Ayrton Senna 02, Cambolo, Porto Seguro, Bahia, Brasil",
            "website": null
        },
        {
            "id": 7671,
            "name": "Headquarters CobraTeam Argentina",
            "federationAbbr": "IBJJF",
            "country": "Argentina",
            "countryAbbr": "AR",
            "city": "la plata",
            "responsible": "German Damian Leder",
            "address": "44 20 y 21, N°1260, la plata, Buenos Aires, Argentina",
            "website": "www.cobrateamonline.com.ar"
        },
        {
            "id": 5085,
            "name": "Headstrong Team Association",
            "federationAbbr": "CBJJ",
            "country": "Brasil",
            "countryAbbr": "BR",
            "city": "São Gonçalo",
            "responsible": "Daniel Vianna Barboza",
            "address": "Rua Palmira Lima dos Santos 100 Casa, Pacheco, São Gonçalo, RJ, Brasil",
            "website": "danielvianna@blogsbt.com.br"
        },
        {
            "id": 9426,
            "name": "Heart \u0026 Dagger Martial Arts",
            "federationAbbr": "USBJJF",
            "country": "United States of America",
            "countryAbbr": "US",
            "city": "Mineral Wells",
            "responsible": "Robert Clayton Hantz",
            "address": "216 Sw 26th Ave, Mineral Wells, Texas, United States of America",
            "website": "heartanddaggerbjj.com"
        },
        {
            "id": 8095,
            "name": "Heath Jiu-Jitsu",
            "federationAbbr": "USBJJF",
            "country": "United States of America",
            "countryAbbr": "US",
            "city": "Carlsbad",
            "responsible": "Kevin J. Heath",
            "address": "4003 Pat Garrett Ct, Carlsbad, Nm, United States of America",
            "website": null
        },
        {
            "id": 9010,
            "name": "Hebrom Jiu-Jitsu",
            "federationAbbr": "CBJJ",
            "country": "Brasil",
            "countryAbbr": "BR",
            "city": "Macaé",
            "responsible": "Fábio Ernesto de O. Nobre",
            "address": "Av Atlântica Nr 2150 Loja 2, Macaé, Rio De Janeiro, Brasil",
            "website": null
        },
        {
            "id": 8780,
            "name": "Heights Academy Guam",
            "federationAbbr": "IBJJF",
            "country": "Guam",
            "countryAbbr": "GU",
            "city": "Hagatna",
            "responsible": "Charles Omar C. Damian",
            "address": "347 W. O\u0019brien Drive, Suite 202, Hagatna, Guam, Guam",
            "website": null
        },
        {
            "id": 1099,
            "name": "Heleno Maia JJ",
            "federationAbbr": "CBJJ",
            "country": "Brasil",
            "countryAbbr": "BR",
            "city": "Cabo Frio",
            "responsible": "Heleno de Souza Maia",
            "address": "Rua Veneza N: 11, Jardim Excelsior, Cabo Frio, Rio de Janeiro, Brasil",
            "website": "Cabo Frio-RJ"
        },
        {
            "id": 2518,
            "name": "Helio Soneca BJJ",
            "federationAbbr": "USBJJF",
            "country": "United States of America",
            "countryAbbr": "US",
            "city": "Louisuille",
            "responsible": "Helio Moreira",
            "address": "13124 Eastpoint park blvd  , Louisuille, KY, United States of America",
            "website": "www.heliosoneca.com"
        },
        {
            "id": 557,
            "name": "Hélio Soneca Brazilian JJ",
            "federationAbbr": "CBJJ",
            "country": "Brasil",
            "countryAbbr": "BR",
            "city": null,
            "responsible": null,
            "address": "Brasil",
            "website": null
        },
        {
            "id": 2070,
            "name": "Helio Vigio",
            "federationAbbr": "CBJJ",
            "country": "Brasil",
            "countryAbbr": "BR",
            "city": "Rio de Janeiro",
            "responsible": "Fábio Ernesto de O. Nobre",
            "address": ", Rio de Janeiro, RJ, Brasil",
            "website": null
        },
        {
            "id": 4906,
            "name": "Helsigin Paini-Miehet",
            "federationAbbr": "IBJJF",
            "country": "Finland",
            "countryAbbr": "FI",
            "city": "Espoo",
            "responsible": "Jari Pere",
            "address": "Aseveljentie 26B  , , Espoo, Finland",
            "website": "www.painimiehet.f"
        },
        {
            "id": 9028,
            "name": "Helsinki Dojo - Hilti BJJ",
            "federationAbbr": "IBJJF",
            "country": "Finland",
            "countryAbbr": "FI",
            "city": "Helsinki",
            "responsible": "Marko Leisten",
            "address": "Kankkurinkatu 7, Helsinki, Etelä-suomi, Finland",
            "website": "www.dojohelsinki.fi"
        }
    ]
}