{
    "pagination": {
        "page": 188,
        "from": 3740,
        "to": 3760,
        "pageSize": 20,
        "lastPage": 358,
        "totalRecords": 7149
    },
    "list": [
        {
            "id": 5368,
            "name": "Hypermodern",
            "federationAbbr": "USBJJF",
            "country": "United States of America",
            "countryAbbr": "US",
            "city": "Costa Mesa",
            "responsible": "John P. Morgan",
            "address": "2930 Grace Lane, #B, Costa Mesa, Ca, United States of America",
            "website": "jmjiujitsu.com"
        },
        {
            "id": 7366,
            "name": "I\u0026I MMA Academy",
            "federationAbbr": "USBJJF",
            "country": "United States of America",
            "countryAbbr": "US",
            "city": "Wailuku",
            "responsible": "Rafael Lovato Jr.",
            "address": "401 Hookahi St., Wailuku, HI, United States of America",
            "website": null
        },
        {
            "id": 5673,
            "name": "I.M.A. Jiu-Jitsu",
            "federationAbbr": "USBJJF",
            "country": "United States of America",
            "countryAbbr": "US",
            "city": "Millville",
            "responsible": "Dan I. Dixon",
            "address": "207 Bogden Blvd Suite F, Millville, NJ, United States of America",
            "website": "www.impactbjj.net"
        },
        {
            "id": 6101,
            "name": "I9FBBJJ Inove Academia Fight Brasil BJJ",
            "federationAbbr": "CBJJ",
            "country": "Brasil",
            "countryAbbr": "BR",
            "city": "Macapá",
            "responsible": "Flávio Alex Rodrigues da Silva",
            "address": "Rua: Turíbio Oriovaldo Guimarães 1460, Bairro Cidade Nova I, Macapá, Amapá, Brasil",
            "website": null
        },
        {
            "id": 4017,
            "name": "IAM, Instituto de Artes Marciales",
            "federationAbbr": "IBJJF",
            "country": "Spain",
            "countryAbbr": "ES",
            "city": "Madrid",
            "responsible": "Davi Emanuel de Souza Cavalcante",
            "address": "P.º De La Ermita Del Santo, 48, Local 13, 28011 Madrid, , Madrid, --madrid, Spain",
            "website": "www.institutodeartesmarciales.com"
        },
        {
            "id": 2007,
            "name": "IBCC Brazilian Jiu-Jitsu",
            "federationAbbr": "CBJJ",
            "country": "Brasil",
            "countryAbbr": "BR",
            "city": "Rio De Janeiro",
            "responsible": "Ricardo Rodrigues Vicente",
            "address": "Praia De Olaria 727 Cocota Ilha Do Governador, Casa 14-101 - Ilha Do Governador, Rio De Janeiro, Rio De Janeiro, Brasil",
            "website": null
        },
        {
            "id": 8235,
            "name": "Ibrajj - Instituto Brasileiro De Jiu-Jitsu",
            "federationAbbr": "CBJJ",
            "country": "Brasil",
            "countryAbbr": "BR",
            "city": "Joao Pessoa",
            "responsible": "Helder Medeiros da Silva",
            "address": "Avenida Esperança 117, Bairro Manaíra, Joao Pessoa, Paraíba, Brasil",
            "website": "www.ibrajj.com / www.ibrajj.com.br"
        },
        {
            "id": 3573,
            "name": "ICABJJ Academy",
            "federationAbbr": "USBJJF",
            "country": "United States of America",
            "countryAbbr": "US",
            "city": "Torrance",
            "responsible": "Jose Ricardo Medina",
            "address": "3817 West 184th Street  , , Torrance, CA, United States of America",
            "website": "http://www.icabjj.tripod.com/"
        },
        {
            "id": 3403,
            "name": "Ichiryo Gusoku",
            "federationAbbr": "JBJJF",
            "country": "Japan",
            "countryAbbr": "JP",
            "city": "Kochi",
            "responsible": "Kuniaki Hamajima",
            "address": "2264 Hirookashimo Harunotyo Kochishi, Kochi, --, Japan",
            "website": "geocities.jp/sjgky763/index0.htm"
        },
        {
            "id": 2495,
            "name": "Icon BJJ",
            "federationAbbr": "IBJJF",
            "country": "United Kingdom",
            "countryAbbr": "GB",
            "city": "Milton Keynes",
            "responsible": "José Marcello Figueira Rodrigues",
            "address": "39 Perivale - Monkston Park  , , Milton Keynes, BUCR, United Kingdom",
            "website": "www.iconbjj.com"
        },
        {
            "id": 8236,
            "name": "Icon Jiu-Jitsu PVC",
            "federationAbbr": "CBJJ",
            "country": "Brasil",
            "countryAbbr": "BR",
            "city": "Sao Gonçalo",
            "responsible": "Marco Aurelio de Souza Barros",
            "address": "Rua Simplicio Da Veiga Lt 12 Qd 7, Pacheco, Sao Gonçalo, Rj, Brasil",
            "website": "Não tenho"
        },
        {
            "id": 4756,
            "name": "Icon Jiu-jitsu Team - Algarve",
            "federationAbbr": "FPJJB",
            "country": "Portugal",
            "countryAbbr": "PT",
            "city": "Silves",
            "responsible": "Sergio Eduardo Vita de Morais",
            "address": "Rua Álvaro Gomes, Apartado 309 . ., ., Silves, 1, Portugal",
            "website": ""
        },
        {
            "id": 3363,
            "name": "Icon Jiu-Jitsu Team - HongKong China",
            "federationAbbr": "IBJJF",
            "country": "Hong Kong",
            "countryAbbr": "HK",
            "city": "Hong Kong",
            "responsible": "Thomas Wai Kong Fan",
            "address": "Flat A, 1/F Kam Sing Mansion. 151 Jaffe Road, Wan Chai, Hong Kong, Hong Kong",
            "website": "www.kylinbjj.com"
        },
        {
            "id": 10658,
            "name": "Icon Jiu-Jitsu Team - Les Acacias",
            "federationAbbr": "IBJJF",
            "country": "Switzerland",
            "countryAbbr": "CH",
            "city": "Les Acacias",
            "responsible": "Ilke Kubilay Bulut",
            "address": "Chemin De La Gravière 4, Les Acacias, Genève, Switzerland",
            "website": "https://www.dojoassociation.ch"
        },
        {
            "id": 5121,
            "name": "Icon Jiu-Jitsu Team - Macuco - RJ",
            "federationAbbr": "CBJJ",
            "country": "Brasil",
            "countryAbbr": "BR",
            "city": "Macuco",
            "responsible": "Edwand Brito Reis Junior",
            "address": "Rua Jaques de Mello 61 , Centro, Macuco, RJ, Brasil",
            "website": ""
        },
        {
            "id": 4382,
            "name": "Icon Jiu-Jitsu Team - Maringa",
            "federationAbbr": "CBJJ",
            "country": "Brasil",
            "countryAbbr": "BR",
            "city": "Maringa",
            "responsible": "José Marcello Figueira Rodrigues",
            "address": "Av.Joao Palino Vieira Filho 729 , Novo Centro, Maringa, PR, Brasil",
            "website": null
        },
        {
            "id": 6281,
            "name": "Icon Jiu-Jitsu Team - Moçambique",
            "federationAbbr": "IBJJF",
            "country": "Mozambique",
            "countryAbbr": "MZ",
            "city": "Maputo",
            "responsible": "Miguel Maria L. R. Gonçalves",
            "address": "Clube Naval De Maputo - Moçambique - Av. Marginal 1877, Maputo, --, Mozambique",
            "website": null
        },
        {
            "id": 2695,
            "name": "Icon Jiu-Jitsu Team - Niteroi",
            "federationAbbr": "CBJJ",
            "country": "Brasil",
            "countryAbbr": "BR",
            "city": "Niteroi",
            "responsible": "José Marcello Figueira Rodrigues",
            "address": "Rua Lemos Cunha 438 , , Niteroi, RJ, Brasil",
            "website": "www.adrianolucio.com"
        },
        {
            "id": 9722,
            "name": "Icon Jiu-Jitsu Team - Projeto Guarda Municipal Sg",
            "federationAbbr": "CBJJ",
            "country": "Brasil",
            "countryAbbr": "BR",
            "city": "São Gonçalo",
            "responsible": "Diego Ferreira Arrenta",
            "address": "Rua Dr. Porciúncula, 395 - Venda Da Cruz, Ginásio Henrique Lage, São Gonçalo, Rio De Janeiro, Brasil",
            "website": null
        },
        {
            "id": 4946,
            "name": "Icon Jiu-Jitsu Team - Rio de Janeiro",
            "federationAbbr": "CBJJ",
            "country": "Brasil",
            "countryAbbr": "BR",
            "city": "São Gonçalo",
            "responsible": "Fabiano Oliveira de Freitas",
            "address": "Rua Mucuri  LT 05, QD 89, Jardim Catarina, São Gonçalo, RJ, Brasil",
            "website": ""
        }
    ]
}