{
    "pagination": {
        "page": 293,
        "from": 5840,
        "to": 5860,
        "pageSize": 20,
        "lastPage": 358,
        "totalRecords": 7149
    },
    "list": [
        {
            "id": 6099,
            "name": "SBG Swords",
            "federationAbbr": "IBJJF",
            "country": "Ireland",
            "countryAbbr": "IE",
            "city": "Swords",
            "responsible": "Thomas John King",
            "address": "unit 5 34 Main Street, Swords, Dublin, Ireland",
            "website": "sbgswords.com"
        },
        {
            "id": 7225,
            "name": "SBG Tullamore",
            "federationAbbr": "IBJJF",
            "country": "Ireland",
            "countryAbbr": "IE",
            "city": "Tullamore",
            "responsible": "Kieran Davern",
            "address": "Kilcruttin Business Park, Tullamore, Offaly, Ireland",
            "website": "www.sbgtullamore.com"
        },
        {
            "id": 9940,
            "name": "SC Team 2022",
            "federationAbbr": "CBJJ",
            "country": "Brasil",
            "countryAbbr": "BR",
            "city": "Rio De Janeiro",
            "responsible": "Silvio Luiz Costa",
            "address": "R José Silton Pinheiro 627, Rio De Janeiro, Rj, Brasil",
            "website": null
        },
        {
            "id": 6907,
            "name": "Schell Shock BJJ",
            "federationAbbr": "USBJJF",
            "country": "United States of America",
            "countryAbbr": "US",
            "city": "Fuquay",
            "responsible": "John Raub Schell Jr",
            "address": "6109 NC55 HWY, Suit 133, Fuquay, NC, United States of America",
            "website": "schellshockbjj.com"
        },
        {
            "id": 4854,
            "name": "Schlosser BJJ",
            "federationAbbr": "USBJJF",
            "country": "United States of America",
            "countryAbbr": "US",
            "city": "Juno Beach",
            "responsible": "Marcel Ferreira",
            "address": "827 Donald Ross Rd  , Juno Beach, FL, United States of America",
            "website": "schlosserbjj.com"
        },
        {
            "id": 2377,
            "name": "Schmitz Fighting Team",
            "federationAbbr": "IBJJF",
            "country": "France",
            "countryAbbr": "FR",
            "city": "Guebwiller",
            "responsible": "Raphael Schmitz",
            "address": "153 rue Theodore Deck, Guebwiller, France",
            "website": null
        },
        {
            "id": 10681,
            "name": "Scholars Academy",
            "federationAbbr": "USBJJF",
            "country": "United States of America",
            "countryAbbr": "US",
            "city": "Clearwater",
            "responsible": "Jeffrey Michael Houghtaling",
            "address": "27380 Us-19 Frontage Rd N, Clearwater, Fl, United States of America",
            "website": null
        },
        {
            "id": 4339,
            "name": "Schon BJJ",
            "federationAbbr": "IBJJF",
            "country": "Mexico",
            "countryAbbr": "MX",
            "city": "Mexico D.F.",
            "responsible": "Dan Schon",
            "address": "Topoglafos 7 1 piso Col. Condesa  , , Mexico D.F., D.F., Mexico",
            "website": ""
        },
        {
            "id": 4957,
            "name": "SCHOOL BJJ LA",
            "federationAbbr": "USBJJF",
            "country": "United States of America",
            "countryAbbr": "US",
            "city": "Arcadia",
            "responsible": "Ben Y. Zhuang",
            "address": "310 S. First Ave  , , Arcadia, CA, United States of America",
            "website": "schoolbjj.com"
        },
        {
            "id": 8414,
            "name": "School Bugre Jiu-Jitsu",
            "federationAbbr": "CBJJ",
            "country": "Brasil",
            "countryAbbr": "BR",
            "city": "Joinville",
            "responsible": "André Pacheco de Jesus",
            "address": "Rua Dionisio Girardi 281, Rio Bonito Sc, Joinville, Sc, Brasil",
            "website": null
        },
        {
            "id": 8378,
            "name": "School of Champs",
            "federationAbbr": "IBJJF",
            "country": "France",
            "countryAbbr": "FR",
            "city": "Paris ",
            "responsible": "Emerson Cassio Monteiro Da Silva",
            "address": "16 Rue Robert Fleury , Paris , Île De France , France",
            "website": null
        },
        {
            "id": 8666,
            "name": "School of Jiu-Jitsu and Self-Defense Helder Palma",
            "federationAbbr": "CBJJ",
            "country": "Brasil",
            "countryAbbr": "BR",
            "city": "Maringa",
            "responsible": "Helder Palma dos Santos",
            "address": "Av.das Industrias 89, Av.das Industrias 89, Maringa, Parana, Brasil",
            "website": null
        },
        {
            "id": 2706,
            "name": "Schubert Jiu-Jitsu",
            "federationAbbr": "CBJJ",
            "country": "Brasil",
            "countryAbbr": "BR",
            "city": "Curitiba",
            "responsible": "Marcos Roberto Schubert",
            "address": "Rua Paulo Rodrigues Simões, 105, Barreirinha, Curitiba, PR, Brasil",
            "website": "www.schubertbjj.com"
        },
        {
            "id": 9222,
            "name": "Schubert Jiu-jitsu Piraquara",
            "federationAbbr": "CBJJ",
            "country": "Brasil",
            "countryAbbr": "BR",
            "city": "Piraquara",
            "responsible": "Marcos Roberto Schubert",
            "address": "Rua Tibagi, 180, Planta Araçatuba, Piraquara, Paraná, Brasil",
            "website": null
        },
        {
            "id": 3275,
            "name": "Scorpion Gym",
            "federationAbbr": "JBJJF",
            "country": "Japan",
            "countryAbbr": "JP",
            "city": "Ikedashi",
            "responsible": "Yoshinori Tsunetomi",
            "address": "2-8-16-A Scorpion Gym Toyoshimaminami  , Ikedashi, Osaka, Japan",
            "website": "s-gym.com"
        },
        {
            "id": 2173,
            "name": "Scorpyon Jiu-Jitsu",
            "federationAbbr": "CBJJ",
            "country": "Brasil",
            "countryAbbr": "BR",
            "city": "Porto Alegre",
            "responsible": "Regis Alexandre S. da Silva",
            "address": "Rua Adda Mascarenhas de Moraes 297 1º Andar, Jd. Itu Sabará, Porto Alegre, RS, Brasil",
            "website": null
        },
        {
            "id": 10587,
            "name": "Scott Audas Jiu-Jitsu Academy",
            "federationAbbr": "USBJJF",
            "country": "United States of America",
            "countryAbbr": "US",
            "city": "Henderson",
            "responsible": "Scott Raymond Audas",
            "address": "238 N Main St., Henderson, Ky, United States of America",
            "website": "ScottAudas Jiu-Jitsu.com"
        },
        {
            "id": 5202,
            "name": "Scott Ramsay Brazilian Jiu-Jitsu",
            "federationAbbr": "IBJJF",
            "country": "United Kingdom",
            "countryAbbr": "GB",
            "city": "Jarrow",
            "responsible": "Scott Kenneth Ramsay",
            "address": "50 Ullswater Avenue  , , Jarrow, United Kingdom",
            "website": "www.scottramsaybjj.com"
        },
        {
            "id": 3131,
            "name": "Scott Schilling Brazilian Jiu Jitsu",
            "federationAbbr": "IBJJF",
            "country": "Canada",
            "countryAbbr": "CA",
            "city": "Mississauga",
            "responsible": "Scott J Schilling",
            "address": "2359 Royal Windsor Drive Unit #11  , , Mississauga, ON, Canada",
            "website": "www.scott-schilling.com"
        },
        {
            "id": 8787,
            "name": "Scott Thompson Jiu-Jitsu",
            "federationAbbr": "USBJJF",
            "country": "United States of America",
            "countryAbbr": "US",
            "city": "Logan",
            "responsible": "Scott Gregory Thompson",
            "address": "112 S 4th Ave, Logan, Ia, United States of America",
            "website": null
        }
    ]
}