{
    "pagination": {
        "page": 143,
        "from": 2840,
        "to": 2860,
        "pageSize": 20,
        "lastPage": 358,
        "totalRecords": 7149
    },
    "list": [
        {
            "id": 8463,
            "name": "GFTeam Joinville",
            "federationAbbr": "CBJJ",
            "country": "Brasil",
            "countryAbbr": "BR",
            "city": "Joinville ",
            "responsible": "Wilson Akihiro Pinheiro Kawakami",
            "address": "Rua São Paulo 2709, Floresta, Joinville , Santas Catarina , Brasil",
            "website": null
        },
        {
            "id": 7673,
            "name": "GFTeam Joondalup",
            "federationAbbr": "IBJJF",
            "country": "Australia",
            "countryAbbr": "AU",
            "city": "Joondalup",
            "responsible": "Marcelo Da Costa Guimaraes",
            "address": "4/89 winton rd, Joondalup, WA, Australia",
            "website": "www.gfteamjoondalup.com.au"
        },
        {
            "id": 7712,
            "name": "GFTeam Kansas",
            "federationAbbr": "USBJJF",
            "country": "United States of America",
            "countryAbbr": "US",
            "city": "junction city",
            "responsible": "Huanderson Serafim Pavão",
            "address": "121 east 6th street junction city, ks , junction city, kansas, United States of America",
            "website": null
        },
        {
            "id": 5371,
            "name": "GFTeam London",
            "federationAbbr": "IBJJF",
            "country": "United Kingdom",
            "countryAbbr": "GB",
            "city": "London",
            "responsible": "Pedro Garcia Santisteban",
            "address": "Nuffield Health Wandsworth Southside Fitness \u0026 Wellbeing Gym, Buckhold Rd, London, United Kingdom",
            "website": "www.sw18bjj.com"
        },
        {
            "id": 5692,
            "name": "GFTeam Melbourne",
            "federationAbbr": "IBJJF",
            "country": "Australia",
            "countryAbbr": "AU",
            "city": "Ravenhall",
            "responsible": "Julio Cesar Pereira",
            "address": "U 14/29-39 Westwood Drive, Ravenhall, VIC, Australia",
            "website": null
        },
        {
            "id": 10365,
            "name": "GFTeam Miguel Couto",
            "federationAbbr": "CBJJ",
            "country": "Brasil",
            "countryAbbr": "BR",
            "city": "Nova Iguaçu",
            "responsible": "Sidnei de Souza Alencar",
            "address": "Estrada do Baby, 679 Loja, Miguel Couto, Nova Iguaçu, RJ, Brasil",
            "website": null
        },
        {
            "id": 8680,
            "name": "GFTeam Minas Gerais",
            "federationAbbr": "CBJJ",
            "country": "Brasil",
            "countryAbbr": "BR",
            "city": "Bandeira Do Sul",
            "responsible": "Fabricio Lima Bianchi",
            "address": "Rua Doutor Afonso Dias De Araújo, 19, Centro, Casa, Bandeira Do Sul, Minas Gerais, Brasil",
            "website": "bianchibjj.webnode.com.br"
        },
        {
            "id": 7662,
            "name": "GFTeam Minnesota",
            "federationAbbr": "USBJJF",
            "country": "United States of America",
            "countryAbbr": "US",
            "city": "Apple Valley",
            "responsible": "João Alfredo Tavares Marinho",
            "address": "6950 146th st W, #118, Apple Valley, Minnesota, United States of America",
            "website": "www.riojitsu.com"
        },
        {
            "id": 5160,
            "name": "GFTeam Moraes",
            "federationAbbr": "CBJJ",
            "country": "Brasil",
            "countryAbbr": "BR",
            "city": "Cordeiro",
            "responsible": "Julio Cesar Moraes Rufino",
            "address": "Rua José Teixeira Portugal 160 A, Centro, Cordeiro, RJ, Brasil",
            "website": ""
        },
        {
            "id": 9649,
            "name": "GFTeam New Jersey",
            "federationAbbr": "USBJJF",
            "country": "United States of America",
            "countryAbbr": "US",
            "city": "Warren",
            "responsible": "Gialysson Adão Silva Freitas",
            "address": "101 Mt Bethel Rd, Warren, New Jersey, United States of America",
            "website": "www.allstarmmawarren.com"
        },
        {
            "id": 9982,
            "name": "GFTeam Niterói",
            "federationAbbr": "CBJJ",
            "country": "Brasil",
            "countryAbbr": "BR",
            "city": "Niteroi",
            "responsible": "Marcelo de Freitas Ferreira",
            "address": "Rua Gaviao Peixoto, 144, Sobreloja, Niteroi, Rio De Janeiro, Brasil",
            "website": "http://www.gfteamniteroi.com.br"
        },
        {
            "id": 10257,
            "name": "GFTeam Niterói Santa Rosa",
            "federationAbbr": "CBJJ",
            "country": "Brasil",
            "countryAbbr": "BR",
            "city": "Niterói",
            "responsible": "Rolf Preben Schmidt",
            "address": "Noronha Torrezão,  Santa Rosa ,  Np 23, Niterói - Rj, Academia Elitte 3p Andar, Niterói, Rj, Brasil",
            "website": null
        },
        {
            "id": 9172,
            "name": "GFTeam Norte Fight",
            "federationAbbr": "CBJJ",
            "country": "Brasil",
            "countryAbbr": "BR",
            "city": "Manaus",
            "responsible": "Robert Faulkner de Castro",
            "address": "Av Margarita 14, Nova Cidade, Próximo Ao Posto Atem, Manaus, Am, Brasil",
            "website": null
        },
        {
            "id": 7248,
            "name": "Gfteam Northwest",
            "federationAbbr": "USBJJF",
            "country": "United States of America",
            "countryAbbr": "US",
            "city": "Tacoma",
            "responsible": "Pedro Henrique da Silva Pardal",
            "address": "5015 Tacoma Mall Blvd Suit, Tacoma, WA, United States of America",
            "website": null
        },
        {
            "id": 4659,
            "name": "GFTeam Palmas",
            "federationAbbr": "CBJJ",
            "country": "Brasil",
            "countryAbbr": "BR",
            "city": "Palmas",
            "responsible": "Gene Kelly Souza do Vale",
            "address": "Quadra 1201 Sul Residêncial Malbec Apt 602 B, Plano Diretor Sul, Palmas, To, Brasil",
            "website": null
        },
        {
            "id": 5195,
            "name": "GFTeam Pernambuco",
            "federationAbbr": "CBJJ",
            "country": "Brasil",
            "countryAbbr": "BR",
            "city": "Jaboatão dos Guararapes",
            "responsible": "Emerson de Lima Martins",
            "address": "Rua Um 9A, Cajueiro Seco, Jaboatão dos Guararapes, PE, Brasil",
            "website": "gfteampernambuco.com.br"
        },
        {
            "id": 6161,
            "name": "GFTeam Pittsburgh",
            "federationAbbr": "USBJJF",
            "country": "United States of America",
            "countryAbbr": "US",
            "city": "Pittsburgh",
            "responsible": "John Jacob Miclot",
            "address": "3356 Spring Way, Pittsburgh, PA, United States of America",
            "website": "www.gfteampgh.com"
        },
        {
            "id": 5312,
            "name": "GFTeam Porto",
            "federationAbbr": "FPJJB",
            "country": "Portugal",
            "countryAbbr": "PT",
            "city": "Maia - Porto",
            "responsible": "Julio Cesar Pereira",
            "address": "Praga Almada Negreiros, LJ 47, Maia - Porto, Portugal",
            "website": null
        },
        {
            "id": 3428,
            "name": "GFTeam Porto - Paranhos",
            "federationAbbr": "FPJJB",
            "country": "Portugal",
            "countryAbbr": "PT",
            "city": "Porto",
            "responsible": "Julio Cesar Pereira",
            "address": "Travessa De Santo Isidoro, 122 Porto, Porto, --, Portugal",
            "website": "@gfteamporto"
        },
        {
            "id": 10613,
            "name": "Gfteam Portugal",
            "federationAbbr": "FPJJB",
            "country": "Portugal",
            "countryAbbr": "PT",
            "city": "Ermesinde",
            "responsible": "Nuno André Pereira Sampaio",
            "address": "Praceta Rainha Mariana Vitória, 35, Ermesinde, Porto, Portugal",
            "website": "https://www.instagram.com/gfteamcpn/"
        }
    ]
}