{
    "pagination": {
        "page": 306,
        "from": 6100,
        "to": 6120,
        "pageSize": 20,
        "lastPage": 358,
        "totalRecords": 7149
    },
    "list": [
        {
            "id": 3630,
            "name": "Star Brazilian Jiu Jitsu",
            "federationAbbr": "USBJJF",
            "country": "United States of America",
            "countryAbbr": "US",
            "city": "Carrollton",
            "responsible": "Kenneth Allen McClure Jr.",
            "address": "3030 N. Josey Lane Suite 133  , , Carrollton, TX, United States of America",
            "website": "www.starbjj.com/"
        },
        {
            "id": 3962,
            "name": "Start Brazilian Jiu-Jitsu",
            "federationAbbr": "USBJJF",
            "country": "United States of America",
            "countryAbbr": "US",
            "city": "Pembroke Pines",
            "responsible": "Rafael Corrêa de Lima",
            "address": "12335 Pembroke Rd  , Pembroke Pines, FL, United States of America",
            "website": "startjiujitsu.com"
        },
        {
            "id": 9918,
            "name": "Start Combat",
            "federationAbbr": "CBJJ",
            "country": "Brasil",
            "countryAbbr": "BR",
            "city": "Salvador",
            "responsible": "Andre Gomes Costa",
            "address": "Av. Oceano Pacífico, Np 83,  Recanto Das Ilhas, São  Rafael, Salvador, Bahia, Brasil",
            "website": null
        },
        {
            "id": 8287,
            "name": "Start Doing",
            "federationAbbr": "CBJJ",
            "country": "Brasil",
            "countryAbbr": "BR",
            "city": "Florianópolis ",
            "responsible": "Luciano de Macedo Bernert",
            "address": "Rua Paula Ramos, 108 , Capoeiras , Florianópolis , Santa Catarina , Brasil",
            "website": "Startdoing.com.br"
        },
        {
            "id": 9852,
            "name": "Statera Jiu-Jitsu",
            "federationAbbr": "IBJJF",
            "country": "France",
            "countryAbbr": "FR",
            "city": "Nanterre",
            "responsible": "Dioume Garvey Sangare",
            "address": "29 Terrasses De L'université, Nanterre, France",
            "website": null
        },
        {
            "id": 9365,
            "name": "Station 1939",
            "federationAbbr": "CBJJ",
            "country": "Brasil",
            "countryAbbr": "BR",
            "city": "São Paulo",
            "responsible": "Wesley Souza Santos",
            "address": "Rua Augusta, 1939, São Paulo, São Paulo, Sp, Brasil",
            "website": "http://stationjiujitsu.com.br"
        },
        {
            "id": 2869,
            "name": "Stealth BJJ",
            "federationAbbr": "IBJJF",
            "country": "United Kingdom",
            "countryAbbr": "GB",
            "city": "Manchester",
            "responsible": "Steven Campbell",
            "address": "4A Ash Street, Middleton  , , Manchester, United Kingdom",
            "website": "www.stealthbjj.com"
        },
        {
            "id": 9156,
            "name": "Stealth BJJ Bolton",
            "federationAbbr": "IBJJF",
            "country": "United Kingdom",
            "countryAbbr": "GB",
            "city": "Bolton",
            "responsible": "Wing Chau Cheung",
            "address": "105 Halliwell Road, Stealth Bjj Bolton, Bolton, Greater Manchester, United Kingdom",
            "website": "www.stealthbjjbolton.com"
        },
        {
            "id": 10524,
            "name": "Stealth BJJ San Sebastián",
            "federationAbbr": "IBJJF",
            "country": "Spain",
            "countryAbbr": "ES",
            "city": "Donostia-san Sebastián",
            "responsible": "Jakub Alchimowicz",
            "address": "Iribar Kalea 6 , C-14, Donostia-san Sebastián, Spain",
            "website": null
        },
        {
            "id": 4420,
            "name": "Steel Fighters Brazilian Jiu-Jitsu",
            "federationAbbr": "FPJJB",
            "country": "Portugal",
            "countryAbbr": "PT",
            "city": "Lisboa",
            "responsible": "Jeferson da Silva",
            "address": "Rua Almirante Campos Rodrigues, Nº 7, 5-a Benfica, , Lisboa, Lisboa, Portugal",
            "website": "www.instagram.com/steelfightersbjj"
        },
        {
            "id": 6219,
            "name": "Steel Team",
            "federationAbbr": "CBJJ",
            "country": "Brasil",
            "countryAbbr": "BR",
            "city": "São Paulo",
            "responsible": "Sergio  Antonini Filho",
            "address": "Rua Guiara 71, Vila Pompéia, São Paulo, São Paulo, Brasil",
            "website": null
        },
        {
            "id": 8009,
            "name": "Stefano Correa Jiu-Jitsu",
            "federationAbbr": "CBJJ",
            "country": "Brasil",
            "countryAbbr": "BR",
            "city": "Itu",
            "responsible": "Stéfano Fernando Corrêa",
            "address": "Rua Celso Gonçalves Dias, 160, Itu Novo Centro, Itu, Sao Paulo, Brasil",
            "website": "https://www.bjjheroes.com/bjj-fighters/stefano-correa"
        },
        {
            "id": 2782,
            "name": "Stephan Goyne Bay Jiu-Jitsu",
            "federationAbbr": "USBJJF",
            "country": "United States of America",
            "countryAbbr": "US",
            "city": "San Francisco",
            "responsible": "Stephan Luther Goyne",
            "address": "1628 Post Street, , San Francisco, Ca, United States of America",
            "website": "www.bayjiujitsu.com"
        },
        {
            "id": 10622,
            "name": "Stewie's House Of BJJ",
            "federationAbbr": "IBJJF",
            "country": "Australia",
            "countryAbbr": "AU",
            "city": "East Bendigo",
            "responsible": "Stewart A. Moulden",
            "address": "12b Roanoak Court, East Bendigo, Victoria, Australia",
            "website": null
        },
        {
            "id": 9738,
            "name": "Stockholm Competition Team",
            "federationAbbr": "IBJJF",
            "country": "Sweden",
            "countryAbbr": "SE",
            "city": "Sollentuna",
            "responsible": "Fabio Paganotti Luz",
            "address": "Kuskvägen 2b, Sollentuna, Sweden",
            "website": "graciestockholm.com"
        },
        {
            "id": 8455,
            "name": "Stockton Jiu-Jitsu Academy",
            "federationAbbr": "USBJJF",
            "country": "United States of America",
            "countryAbbr": "US",
            "city": "Stockton ",
            "responsible": "Richard Anthony Flores",
            "address": "2222 Grand Canal Blvd , Suite 9,10, Stockton , California , United States of America",
            "website": "https://stocktonjiujitsuvalleyfit.com/"
        },
        {
            "id": 8590,
            "name": "Stoic Brazilian Jiu-Jitsu",
            "federationAbbr": "USBJJF",
            "country": "United States of America",
            "countryAbbr": "US",
            "city": "Mansfield",
            "responsible": "Jordan Alan Shepler",
            "address": "1910 Lone Star Rd., Suite A., Mansfield, Tx, United States of America",
            "website": "www.stoicjj.com"
        },
        {
            "id": 3865,
            "name": "Stone Fight",
            "federationAbbr": "IBJJF",
            "country": "Russia",
            "countryAbbr": "RU",
            "city": "St. Petersburg",
            "responsible": "Fabio José de Oliveira",
            "address": "59 Kamennoostrovsky Ave.  , St. Petersburg, --, Russia",
            "website": "www.stonefight.ru"
        },
        {
            "id": 8311,
            "name": "Stoneman BJJ",
            "federationAbbr": "CBJJ",
            "country": "Brasil",
            "countryAbbr": "BR",
            "city": "Rio Do Sul",
            "responsible": "Igor Alves dos Santos ",
            "address": "Rua Augusto Munzfeld, 605, Fundo Canoas, Rio Do Sul, Santa Catarina, Brasil",
            "website": "https://stoneman-bjj.negocio.site/"
        },
        {
            "id": 9972,
            "name": "Stoughton BJJ",
            "federationAbbr": "USBJJF",
            "country": "United States of America",
            "countryAbbr": "US",
            "city": "Stoughton",
            "responsible": "Joseph Roy Miller",
            "address": "2125 Mccomb Road Suite 100, Stoughton, Wisconsin, United States of America",
            "website": "www.stoughtonbjj.com"
        }
    ]
}