{
    "pagination": {
        "page": 130,
        "from": 2580,
        "to": 2600,
        "pageSize": 20,
        "lastPage": 358,
        "totalRecords": 7149
    },
    "list": [
        {
            "id": 9178,
            "name": "Flowing Wolf Brazilian Jiu-Jitsu",
            "federationAbbr": "USBJJF",
            "country": "United States of America",
            "countryAbbr": "US",
            "city": "Granger",
            "responsible": "Casey Pielemeier",
            "address": "51099 Bittersweet Rd, Suite K, Granger, In, United States of America",
            "website": "https://flowingwolfbjj.squarespace.com/"
        },
        {
            "id": 10707,
            "name": "Fluir Jiu-Jitsu",
            "federationAbbr": "CBJJ",
            "country": "Brasil",
            "countryAbbr": "BR",
            "city": "Londrina",
            "responsible": "Joaquim Dias de Lima Neto",
            "address": "Av Paul Harris 198, Ap 503 Bl 2, Londrina, Parana, Brasil",
            "website": null
        },
        {
            "id": 8243,
            "name": "Flux MMA",
            "federationAbbr": "USBJJF",
            "country": "United States of America",
            "countryAbbr": "US",
            "city": "Haltom City",
            "responsible": "Kyle James Short",
            "address": "5413 Stanley Keller Rd, Haltom City, Texas, United States of America",
            "website": null
        },
        {
            "id": 9806,
            "name": "FM United Gym",
            "federationAbbr": "JBJJF",
            "country": "Japan",
            "countryAbbr": "JP",
            "city": "Bunkyo-ku",
            "responsible": "Daisuke Nakamura",
            "address": "Yushima 3-24-13, Tokyo Kagu Kaikan B1f, Bunkyo-ku, Tokyo, Japan",
            "website": "https://www.unitedgymtokyo.jp/"
        },
        {
            "id": 4816,
            "name": "Fn Fight.co Europa",
            "federationAbbr": "UIJJ",
            "country": "Italy",
            "countryAbbr": "IT",
            "city": "Sant'egidio Alla Vibrata",
            "responsible": null,
            "address": "VIA ANTONIO CANOVA 9  , , Sant'egidio Alla Vibrata, ., Italy",
            "website": "www.fabricionascimento.com"
        },
        {
            "id": 4747,
            "name": "FN Fight.Co World",
            "federationAbbr": "IBJJF",
            "country": "Switzerland",
            "countryAbbr": "CH",
            "city": "Nyon",
            "responsible": "Fabrício Nascimento de Moraes",
            "address": "Route de L'Etraz, 20, Nyon, Switzerland",
            "website": "www.fabricionascimento.com"
        },
        {
            "id": 4864,
            "name": "FN Fight.Co World Brasil",
            "federationAbbr": "CBJJ",
            "country": "Brasil",
            "countryAbbr": "BR",
            "city": "Teresopolis",
            "responsible": "Fabrício Nascimento de Moraes",
            "address": "Travessa Rubem Santo Rocha Casa 58  - Comary, Bairro: Alto, Teresopolis, RJ, Brasil",
            "website": "www.fnfight.com / www.fabricionascimento.com"
        },
        {
            "id": 4248,
            "name": "FNJJ",
            "federationAbbr": "CBJJ",
            "country": "Brasil",
            "countryAbbr": "BR",
            "city": "Osasco",
            "responsible": "Ricardo de Matos Houba",
            "address": "Av. Dos Autonomistas 3217, Centro - Sala 3 E 4, Osasco, Sp, Brasil",
            "website": "fusionjiujitsu.com.br"
        },
        {
            "id": 9497,
            "name": "Foco BJJ",
            "federationAbbr": "USBJJF",
            "country": "United States of America",
            "countryAbbr": "US",
            "city": "Fort Collins",
            "responsible": "Troy Patrick Thomas",
            "address": "353 W Drake Rd, Suite 140, Fort Collins, Colorado, United States of America",
            "website": "www.focobjj.com"
        },
        {
            "id": 2451,
            "name": "Focus Jiu-Jitsu",
            "federationAbbr": "FPJJB",
            "country": "Portugal",
            "countryAbbr": "PT",
            "city": "Matosinhos",
            "responsible": "Manoel de Albuquerque Neto",
            "address": "Rua Dr. Afonso Cordeiro, 711  , Matosinhos, Portugal",
            "website": "www.focusjiujitsuhq.com"
        },
        {
            "id": 6152,
            "name": "Focus Jiu-Jitsu - Vitória SC",
            "federationAbbr": "FPJJB",
            "country": "Portugal",
            "countryAbbr": "PT",
            "city": "Guimarato",
            "responsible": "João Manuel de Freitas Castro",
            "address": "Rua De Sao Goncalo, 4810-914, Guimarato, --, Portugal",
            "website": null
        },
        {
            "id": 5883,
            "name": "Focus Jiu-Jitsu Espanha",
            "federationAbbr": "IBJJF",
            "country": "Spain",
            "countryAbbr": "ES",
            "city": "Santiago de Compostela",
            "responsible": "Manoel de Albuquerque Neto",
            "address": "Ponte do Romaño number 19, Santiago de Compostela, LA Coruna, Spain",
            "website": "www.FocusJiuJitsuHQ.com"
        },
        {
            "id": 4445,
            "name": "Focused Fight Team",
            "federationAbbr": "USBJJF",
            "country": "United States of America",
            "countryAbbr": "US",
            "city": "Cincinnati",
            "responsible": "John Bernard Will",
            "address": "5724 Harrison Ave  , Cincinnati, OH, United States of America",
            "website": "www.club-mma.com"
        },
        {
            "id": 9780,
            "name": "FOKUS Jiu Jitsu",
            "federationAbbr": "CBJJ",
            "country": "Brasil",
            "countryAbbr": "BR",
            "city": "Diadema",
            "responsible": "André Sales da Silva",
            "address": "Rua Bandeirantes,260, Diadema, São Paulo, Brasil",
            "website": null
        },
        {
            "id": 6265,
            "name": "Foran Premier BJJ",
            "federationAbbr": "IBJJF",
            "country": "United Kingdom",
            "countryAbbr": "GB",
            "city": "Harrow",
            "responsible": "Christopher Alan Foran",
            "address": "Trident Point, 19 Pinner Road, Harrow, Middlesex, United Kingdom",
            "website": "premierbjj.co.uk"
        },
        {
            "id": 8510,
            "name": "Força e Coragem Brazilian Jiu Jitsu",
            "federationAbbr": "CBJJ",
            "country": "Brasil",
            "countryAbbr": "BR",
            "city": "São Paulo",
            "responsible": "Flávio Márcio Lima Caminha",
            "address": "Rua Antônio João De Medeiros, 1049, São Paulo, São Paulo, Brasil",
            "website": null
        },
        {
            "id": 376,
            "name": "Força e Potência",
            "federationAbbr": "CBJJ",
            "country": "Brasil",
            "countryAbbr": "BR",
            "city": "Belo Horizonte",
            "responsible": "Carlos Alberto Ribeiro",
            "address": "Rua Palestina, 537 , São Salvador, Belo Horizonte, MG, Brasil",
            "website": ""
        },
        {
            "id": 5309,
            "name": "Força Nacional Brazilian Jiu-Jitsu - FN/BJJ",
            "federationAbbr": "CBJJ",
            "country": "Brasil",
            "countryAbbr": "BR",
            "city": "Gama",
            "responsible": "Iranilson Lima de Medeiros",
            "address": "Batalhão da Força Nacional Gama - DF S/N, Área Especial Quadra 5 e 13 Setor Sul, Gama, DF, Brasil",
            "website": "http://www.justica.gov.br"
        },
        {
            "id": 4655,
            "name": "Força Paralela Jiu-Jitsu",
            "federationAbbr": "CBJJ",
            "country": "Brasil",
            "countryAbbr": "BR",
            "city": "Campo Grande",
            "responsible": "Elton Hideaki Yoshinaga",
            "address": "R. Joaquim Murtinho 360 , Centro, Campo Grande, MS, Brasil",
            "website": ""
        },
        {
            "id": 9388,
            "name": "Foreveryone Brazilian Jiu-Jitsu",
            "federationAbbr": "IBJJF",
            "country": "Germany",
            "countryAbbr": "DE",
            "city": "Ludwigsburg",
            "responsible": "Diogo Fregonese",
            "address": "Osterholzallee 144, Sirius Gewerbe Park, Ludwigsburg, Bw, Germany",
            "website": "https://foreveryonebjj.de"
        }
    ]
}