{
    "pagination": {
        "page": 327,
        "from": 6520,
        "to": 6540,
        "pageSize": 20,
        "lastPage": 358,
        "totalRecords": 7149
    },
    "list": [
        {
            "id": 10130,
            "name": "The Fighting Society",
            "federationAbbr": "USBJJF",
            "country": "United States of America",
            "countryAbbr": "US",
            "city": "Hillsborough",
            "responsible": "Mary Trimigan Holmes",
            "address": "404 W King St, Hillsborough, Nc, United States of America",
            "website": null
        },
        {
            "id": 8551,
            "name": "The First Order of Jiu-Jitsu",
            "federationAbbr": "USBJJF",
            "country": "United States of America",
            "countryAbbr": "US",
            "city": "Miami",
            "responsible": "Michael A. Fernandez",
            "address": "12039 Sw 132nd Ct, Unit 26, Miami, Florida, United States of America",
            "website": "firstorderjiujitsu.com"
        },
        {
            "id": 4146,
            "name": "The Forge Brazilian Jiu-Jitsu",
            "federationAbbr": "USBJJF",
            "country": "United States of America",
            "countryAbbr": "US",
            "city": "Edmond",
            "responsible": "Robert Oron Harper",
            "address": "1125 S Broadway, , Edmond, OK, United States of America",
            "website": "www.theforgebjj.com"
        },
        {
            "id": 8655,
            "name": "The Grounds",
            "federationAbbr": "USBJJF",
            "country": "United States of America",
            "countryAbbr": "US",
            "city": "Bonita Springs",
            "responsible": "Joshua D Frye",
            "address": "24600 South Tamiami Trail, Unit 800, Bonita Springs, Fl, United States of America",
            "website": "www.traininggroundsma.com"
        },
        {
            "id": 4109,
            "name": "The Hive Martial Arts Academy",
            "federationAbbr": "USBJJF",
            "country": "United States of America",
            "countryAbbr": "US",
            "city": "Manahawkin",
            "responsible": "Jason Scully",
            "address": "291 Rt. 72 East  , Manahawkin, NJ, United States of America",
            "website": "www.thehivemartialarts.com"
        },
        {
            "id": 5452,
            "name": "The Inferno Training and Performance Center",
            "federationAbbr": "USBJJF",
            "country": "United States of America",
            "countryAbbr": "US",
            "city": "Marlboro",
            "responsible": "Steven R Barnett",
            "address": "52 North Main Street , Suite 7-8, Marlboro, NJ, United States of America",
            "website": "infernotpc.com"
        },
        {
            "id": 9593,
            "name": "The Institute Of Grappling",
            "federationAbbr": "IBJJF",
            "country": "United Kingdom",
            "countryAbbr": "GB",
            "city": "Watford",
            "responsible": "Edward Ingamells",
            "address": "50 Baxter Road, Watford, United Kingdom",
            "website": "www.instituteofgrappling.com"
        },
        {
            "id": 2369,
            "name": "The Jiu-Jitsu Academy",
            "federationAbbr": "USBJJF",
            "country": "United States of America",
            "countryAbbr": "US",
            "city": "Evansville",
            "responsible": "William Bruce Shepherd",
            "address": "2100 Maxwel Avenue  , , Evansville, IN, United States of America",
            "website": "www.jiujitsuacademy.com"
        },
        {
            "id": 4979,
            "name": "The Jiu-Jitsu Mill",
            "federationAbbr": "USBJJF",
            "country": "United States of America",
            "countryAbbr": "US",
            "city": "Port Chester",
            "responsible": "Jordan Samuel Lutsky",
            "address": "141 Willett Ave  , , Port Chester, NY, United States of America",
            "website": "thejiujitsumill.com"
        },
        {
            "id": 7498,
            "name": "The Jiu-Jitsu Studio Darwin",
            "federationAbbr": "IBJJF",
            "country": "Australia",
            "countryAbbr": "AU",
            "city": "Yarrawonga",
            "responsible": "Anthony Thomas Byron Lange",
            "address": "2/19 Toupein Rd. , Yarrawonga, Northern Territory , Australia",
            "website": "theJiu-JitsuStudioDarwin.com"
        },
        {
            "id": 10208,
            "name": "The Kings",
            "federationAbbr": "CBJJ",
            "country": "Brasil",
            "countryAbbr": "BR",
            "city": "São Gonçalo",
            "responsible": "Diego Gomes P. da Fonseca",
            "address": "Travessa Lauro Corrêa ,51, São Gonçalo, Rio De Janeiro, Brasil",
            "website": null
        },
        {
            "id": 3493,
            "name": "The Lab MMA",
            "federationAbbr": "USBJJF",
            "country": "United States of America",
            "countryAbbr": "US",
            "city": "Spotsylvia ",
            "responsible": "Chad R Lebrun",
            "address": "10412 Breckonridge Drive  , , Spotsylvia , VA, United States of America",
            "website": "http://www.thelabmartialarts.com/"
        },
        {
            "id": 3825,
            "name": "The Match Champ",
            "federationAbbr": "CBJJ",
            "country": "Brasil",
            "countryAbbr": "BR",
            "city": "Blumenau",
            "responsible": "Marcos Vinicius da Silva Cunha",
            "address": "Rua Cristina n: 23 casa, Bairro: Vila Central , Blumenau, SC, Brasil",
            "website": null
        },
        {
            "id": 4254,
            "name": "The MMA Academy Liverpool",
            "federationAbbr": "IBJJF",
            "country": "United Kingdom",
            "countryAbbr": "GB",
            "city": "Liverpool",
            "responsible": null,
            "address": "37-39 Great Howard Street  , , Liverpool, --, United Kingdom",
            "website": "mmaliverpool.com"
        },
        {
            "id": 6174,
            "name": "The Next Element Academy",
            "federationAbbr": "USBJJF",
            "country": "United States of America",
            "countryAbbr": "US",
            "city": "Myrtle Beach",
            "responsible": "Derrick Gordon Kennington",
            "address": "3811 W. Kings Hwy. #30, Myrtle Beach, SC, United States of America",
            "website": "www.thenextelementacademy.com"
        },
        {
            "id": 10026,
            "name": "The OGC",
            "federationAbbr": "USBJJF",
            "country": "United States of America",
            "countryAbbr": "US",
            "city": "Orlando",
            "responsible": "Matthew Lee Drinnan",
            "address": "515 West Central Boulevard, Orlando, FL, United States of America",
            "website": "www.orlandograpplingclub.com"
        },
        {
            "id": 9859,
            "name": "The Other Guys BJJ",
            "federationAbbr": "IBJJF",
            "country": "Saudi Arabia",
            "countryAbbr": "SA",
            "city": "Riyadh",
            "responsible": "Faris Khalid Kashmeeri",
            "address": "Riyadh, Riyadh, Saudi Arabia",
            "website": null
        },
        {
            "id": 4226,
            "name": "The Paraestra Okinawa",
            "federationAbbr": "JBJJF",
            "country": "Japan",
            "countryAbbr": "JP",
            "city": "Okinawa",
            "responsible": "Ryota Matsune",
            "address": "2-21-1 Yogi Nahashi  , Okinawa, --, Japan",
            "website": "theparaestra.jp"
        },
        {
            "id": 5287,
            "name": "The Pit Martial Arts",
            "federationAbbr": "USBJJF",
            "country": "United States of America",
            "countryAbbr": "US",
            "city": "Arroyo Grande",
            "responsible": "Adrian Iriarte",
            "address": "1106 E. Grand Ave, Arroyo Grande, CA, United States of America",
            "website": "www.thepitmma.com"
        },
        {
            "id": 8926,
            "name": "The Place Of Peace Brazilian Jiu-Jitsu",
            "federationAbbr": "USBJJF",
            "country": "United States of America",
            "countryAbbr": "US",
            "city": "Riverton",
            "responsible": "Desmond W Mcdonald",
            "address": "600 Main St, #2 And #1, Riverton, Nj, United States of America",
            "website": "Placeofpeacebjj.com"
        }
    ]
}