{
    "pagination": {
        "page": 33,
        "from": 640,
        "to": 660,
        "pageSize": 20,
        "lastPage": 358,
        "totalRecords": 7149
    },
    "list": [
        {
            "id": 4726,
            "name": "Ataque Duplo Hannover",
            "federationAbbr": "IBJJF",
            "country": "Germany",
            "countryAbbr": "DE",
            "city": "Hannover",
            "responsible": "Douglas Mayer",
            "address": "Lister Meile 47,, Hannover, Germany",
            "website": "www.ataqueduplo.de"
        },
        {
            "id": 4769,
            "name": "ATC BJJ",
            "federationAbbr": "USBJJF",
            "country": "United States of America",
            "countryAbbr": "US",
            "city": "Chula Vista",
            "responsible": "Emiliano Mauricio Ferrandis",
            "address": "795 3rd Ave  , , Chula Vista, CA, United States of America",
            "website": "www.alliancegym.com"
        },
        {
            "id": 2938,
            "name": "A-Team Jiu Jitsu",
            "federationAbbr": "USBJJF",
            "country": "United States of America",
            "countryAbbr": "US",
            "city": "Westminster",
            "responsible": "Ali Alex Saleh",
            "address": "6330 Westminster Ave  , , Westminster, CA, United States of America",
            "website": "www.a-teambjj.com"
        },
        {
            "id": 7255,
            "name": "Athenaeum BJJ",
            "federationAbbr": "UIJJ",
            "country": "Italy",
            "countryAbbr": "IT",
            "city": "Riposto",
            "responsible": "Vincent Mattei",
            "address": "Via Galliano 55, Riposto, --, Italy",
            "website": null
        },
        {
            "id": 10447,
            "name": "Athlas Training Team",
            "federationAbbr": "USBJJF",
            "country": "United States of America",
            "countryAbbr": "US",
            "city": "Fort Lauderdale",
            "responsible": "Jorge Luiz de Mello Fernandes Junior",
            "address": "582 Sw Flager Ave, Fort Lauderdale, Florida, United States of America",
            "website": "WWW.ATTFTL.COM"
        },
        {
            "id": 6262,
            "name": "Athletic Advance",
            "federationAbbr": "IBJJF",
            "country": "Costa Rica",
            "countryAbbr": "CR",
            "city": "MonteS De Oca",
            "responsible": "Javier Valenciano Yamuni",
            "address": "San Pedro, MonteS De Oca, SJ, Costa Rica",
            "website": null
        },
        {
            "id": 4487,
            "name": "Athlon",
            "federationAbbr": "UIJJ",
            "country": "Italy",
            "countryAbbr": "IT",
            "city": "Savona",
            "responsible": "Mirko Ercole",
            "address": "VIA BARTOLI 17  , , Savona, ., Italy",
            "website": "www.athlonsv.com"
        },
        {
            "id": 8688,
            "name": "Atitude BJJ Málaga (Spain)",
            "federationAbbr": "IBJJF",
            "country": "Spain",
            "countryAbbr": "ES",
            "city": "Malaga",
            "responsible": "Claudio Roberto Souza da Silva",
            "address": "Calle lima n°7, Poligono viso, (Head Way Dance Studio), Malaga, Málaga, Spain",
            "website": null
        },
        {
            "id": 10481,
            "name": "Atitude Lutas E Companhia",
            "federationAbbr": "CBJJ",
            "country": "Brasil",
            "countryAbbr": "BR",
            "city": "Goiania",
            "responsible": "Rômulo Rodrigues Sousa",
            "address": "Rua Vc 86, Qd.175 Lt.23, Goiania, Go, Brasil",
            "website": null
        },
        {
            "id": 10292,
            "name": "Atlab",
            "federationAbbr": "IBJJF",
            "country": "Colombia",
            "countryAbbr": "CO",
            "city": "Medellin",
            "responsible": "Yijad Moussa El Charif",
            "address": "Cra 32 N 2 Sur 47, Medellin, Antioquia, Colombia",
            "website": "https://www.instagram.com/atlab.official/"
        },
        {
            "id": 7029,
            "name": "Atlan Brazilian Jiu-Jitsu",
            "federationAbbr": "CBJJ",
            "country": "Brasil",
            "countryAbbr": "BR",
            "city": "Castanhal",
            "responsible": "Danilo da Silva Sousa",
            "address": "Rua Francisco José da Silva n: 20, São José, Castanhal, Pará, Brasil",
            "website": null
        },
        {
            "id": 9259,
            "name": "Atlantic Jiu-Jitsu",
            "federationAbbr": "IBJJF",
            "country": "Ireland",
            "countryAbbr": "IE",
            "city": "Sligo",
            "responsible": "Ryan Smyth",
            "address": "Unit 9b Cleveragh Business Centre, First Sea Road, Sligo, Sligo, Ireland",
            "website": "www.sligobjj.com"
        },
        {
            "id": 2787,
            "name": "Atlas Jiu-Jitsu - BJJ Revolution Team",
            "federationAbbr": "USBJJF",
            "country": "United States of America",
            "countryAbbr": "US",
            "city": "Albany",
            "responsible": "Edward Anthony",
            "address": "61 Colvin Avenue, , Albany, NY, United States of America",
            "website": "www.atlasjiujitsu.com"
        },
        {
            "id": 8883,
            "name": "Atlas Katame",
            "federationAbbr": "CBJJ",
            "country": "Brasil",
            "countryAbbr": "BR",
            "city": "Brasília",
            "responsible": "Charle Braga Vieira",
            "address": "Quadra 02 Conjunto I Casa 37 Fazendinha, 14, Brasília, Distrito Federal, Brasil",
            "website": null
        },
        {
            "id": 9330,
            "name": "Atliens Odyssey",
            "federationAbbr": "USBJJF",
            "country": "United States of America",
            "countryAbbr": "US",
            "city": "Atlanta",
            "responsible": "Gregory Sirico",
            "address": "1530 Carroll Dr Nw, Ste 105, Atlanta, Ga, United States of America",
            "website": "www.odysseybjj.com"
        },
        {
            "id": 9211,
            "name": "Atom BJJ",
            "federationAbbr": "USBJJF",
            "country": "United States of America",
            "countryAbbr": "US",
            "city": "Avon",
            "responsible": "Daniel Quilici Mola",
            "address": "66 Malley Ave, Avon, Ma, United States of America",
            "website": null
        },
        {
            "id": 7681,
            "name": "Atos Atlanta BJJ",
            "federationAbbr": "USBJJF",
            "country": "United States of America",
            "countryAbbr": "US",
            "city": "Marietta",
            "responsible": "Bruno Frazatto X. C. Barbosa",
            "address": "3101 Roswell Road Suite H, Marietta, GA, United States of America",
            "website": "www.atosbjj-atl.com"
        },
        {
            "id": 8384,
            "name": "Atos Austin Jiu Jitsu",
            "federationAbbr": "USBJJF",
            "country": "United States of America",
            "countryAbbr": "US",
            "city": "Lakeway ",
            "responsible": "Guilherme Ramos Campos",
            "address": "1508 Ranch Road 620 S #103, Lakeway , Texas , United States of America",
            "website": "www.atosaustinbjj.com"
        },
        {
            "id": 10088,
            "name": "Atos Brisbane",
            "federationAbbr": "IBJJF",
            "country": "Australia",
            "countryAbbr": "AU",
            "city": "Brisbane",
            "responsible": "Antonio  Mota",
            "address": "Suite 2 530 Milton Rd, Brisbane, Queensland, Australia",
            "website": "Atosbjjbrisbane.com.au"
        },
        {
            "id": 5829,
            "name": "Atos Canberra",
            "federationAbbr": "IBJJF",
            "country": "Australia",
            "countryAbbr": "AU",
            "city": "Braddon",
            "responsible": "Andre Luiz Leite Galvão",
            "address": "24 Mort Street, Braddon, ACT, Australia",
            "website": "http://elementsfitnessact.com.au"
        }
    ]
}