{
    "pagination": {
        "page": 13,
        "from": 240,
        "to": 260,
        "pageSize": 20,
        "lastPage": 358,
        "totalRecords": 7149
    },
    "list": [
        {
            "id": 6872,
            "name": "Advantage Jiu-Jitsu",
            "federationAbbr": "USBJJF",
            "country": "United States of America",
            "countryAbbr": "US",
            "city": "Marietta",
            "responsible": "Nathaniel Richard K. Mann",
            "address": "3951 Mary Eliza Trace, Marietta, GA, United States of America",
            "website": null
        },
        {
            "id": 5791,
            "name": "AEG",
            "federationAbbr": "USBJJF",
            "country": "United States of America",
            "countryAbbr": "US",
            "city": "San Jose",
            "responsible": "Ronald A. Keslar Jr.",
            "address": "7012 Realm Dr., San Jose, CA, United States of America",
            "website": "elitegrappling.com"
        },
        {
            "id": 6908,
            "name": "Aegis Jiu-Jitsu",
            "federationAbbr": "USBJJF",
            "country": "United States of America",
            "countryAbbr": "US",
            "city": "Richmond",
            "responsible": "David P. Kenworthy",
            "address": "200 Towne Center West Blvd., Suit 605, Richmond, VA, United States of America",
            "website": "www.aegisjj.com"
        },
        {
            "id": 9562,
            "name": "AEJJ - ACADEMIA DE JIU JITSU",
            "federationAbbr": "CBJJ",
            "country": "Brasil",
            "countryAbbr": "BR",
            "city": "Coronel Fabriciano",
            "responsible": "Igor Gatto Gomes",
            "address": "Rua Copacabana, 1475, Geovannini, Coronel Fabriciano, Minas Gerais, Brasil",
            "website": "https://aejj.webnode.page/"
        },
        {
            "id": 2793,
            "name": "Aeterna Jiu-Jitsu",
            "federationAbbr": "UIJJ",
            "country": "Italy",
            "countryAbbr": "IT",
            "city": "Rome",
            "responsible": "Luca Anacoreta",
            "address": "Viale Don Pasquino Borghi 96  , , Rome, IT, Italy",
            "website": "aeternajiujitsu.com"
        },
        {
            "id": 10276,
            "name": "Affinity Studios Colombia",
            "federationAbbr": "IBJJF",
            "country": "Colombia",
            "countryAbbr": "CO",
            "city": "Bogota",
            "responsible": "Carlos Andres Quintero Sanchez",
            "address": "Carrera 13a 87-81, Bogota, Cundinamarca, Colombia",
            "website": "https://www.affinitystudios.com.co"
        },
        {
            "id": 4184,
            "name": "A-Force Brazilian Jiu-Jitsu",
            "federationAbbr": "USBJJF",
            "country": "United States of America",
            "countryAbbr": "US",
            "city": "New York",
            "responsible": "Andre Carvalho Monteiro",
            "address": "344 Great Neck Road, New York, NY, United States of America",
            "website": "www.aforcebjj.com"
        },
        {
            "id": 4185,
            "name": "A-Force Brazilian Jiu-Jitsu International",
            "federationAbbr": "IBJJF",
            "country": "United Kingdom",
            "countryAbbr": "GB",
            "city": "London",
            "responsible": "Andre Carvalho Monteiro",
            "address": "24 Woolcombes Court, Princess Riverside Road  , London, --, United Kingdom",
            "website": "www.aforcebjj.com"
        },
        {
            "id": 7321,
            "name": "A-Force Italy",
            "federationAbbr": "UIJJ",
            "country": "Italy",
            "countryAbbr": "IT",
            "city": "Ravenna",
            "responsible": "Andre Carvalho Monteiro",
            "address": "V. Verdi 1, Ravenna, Italy",
            "website": "-"
        },
        {
            "id": 9302,
            "name": "Afrobraz Project",
            "federationAbbr": "IBJJF",
            "country": "Canada",
            "countryAbbr": "CA",
            "city": "Montreal",
            "responsible": "Francois Konan Banny",
            "address": "3575 Rue Davidson, Montreal, Québec, Canada",
            "website": null
        },
        {
            "id": 6603,
            "name": "AFT Brazilian Jiu-Jitsu",
            "federationAbbr": "CBJJ",
            "country": "Brasil",
            "countryAbbr": "BR",
            "city": "Araguaina",
            "responsible": "Roniedson Andrade de Oliveira",
            "address": "Av. Prefeito João de Sousa Lima n: 216, Acima da Star Music, Araguaina, To, Brasil",
            "website": null
        },
        {
            "id": 8241,
            "name": "Aftermath BJJ",
            "federationAbbr": "USBJJF",
            "country": "United States of America",
            "countryAbbr": "US",
            "city": "Poway",
            "responsible": "Jason Gregory Cook",
            "address": "12643 Poway Road, Poway, California, United States of America",
            "website": "Www.aftermathbjj.com"
        },
        {
            "id": 6743,
            "name": "Agape Jiu-Jitsu",
            "federationAbbr": "USBJJF",
            "country": "United States of America",
            "countryAbbr": "US",
            "city": "Lawndale",
            "responsible": "Anthony Manuel Jimenez Jr.",
            "address": "14617 Firmona Avenue, Lawndale, CA, United States of America",
            "website": "www.AgapeJiuJitsu.org"
        },
        {
            "id": 9516,
            "name": "Agata Jiu-Jitsu Team",
            "federationAbbr": "CBJJ",
            "country": "Brasil",
            "countryAbbr": "BR",
            "city": "Londrina",
            "responsible": "Ricardo Koji Agata",
            "address": "Av Luis Rosseto, 123, Caravelle, Londrina, Parana, Brasil",
            "website": null
        },
        {
            "id": 14,
            "name": "Agnaldo Góes Jiu-Jitsu",
            "federationAbbr": "CBJJ",
            "country": "Brasil",
            "countryAbbr": "BR",
            "city": "Cariacica",
            "responsible": "Agnaldo da Silva Góes",
            "address": "Rua Alfredo Chaves, 05 Academia Show Mil, Vila Capixaba, Cariacica, ES, Brasil",
            "website": "@mestreagnaldogoes"
        },
        {
            "id": 10700,
            "name": "Agnelo Top Team",
            "federationAbbr": "CBJJ",
            "country": "Brasil",
            "countryAbbr": "BR",
            "city": "Manaus",
            "responsible": "Agnelo Braule Pinto Junior",
            "address": "Rua Cedro Branco, 165 - Novo Aleixo, Manaus, Amazonas, Brasil",
            "website": null
        },
        {
            "id": 6655,
            "name": "Agogê Team Jiu-Jitsu",
            "federationAbbr": "CBJJ",
            "country": "Brasil",
            "countryAbbr": "BR",
            "city": "São José",
            "responsible": "Guilherme Silveira",
            "address": "Rua Urano Pires N: 483 Casa 01, Bairro: Forquilhas, São José, SC, Brasil",
            "website": null
        },
        {
            "id": 10157,
            "name": "Agon Jiu-Jitsu",
            "federationAbbr": "USBJJF",
            "country": "United States of America",
            "countryAbbr": "US",
            "city": "Ropesville",
            "responsible": "Cory Heath Johnson",
            "address": "P.o.box 355, Ropesville, Tx, United States of America",
            "website": "www.umatc.net"
        },
        {
            "id": 8006,
            "name": "AGTT - Roberto Pedro",
            "federationAbbr": "CBJJ",
            "country": "Brasil",
            "countryAbbr": "BR",
            "city": "Anchieta",
            "responsible": "Roberto Pedro de Oliveira",
            "address": "Rua Atauba 68, Anchieta, Rio De Janeiro, Brasil",
            "website": null
        },
        {
            "id": 3520,
            "name": "Aguia Dourada",
            "federationAbbr": "CBJJ",
            "country": "Brasil",
            "countryAbbr": "BR",
            "city": "Formiga",
            "responsible": "Fabiano Rodrigues de Souza",
            "address": "Rua José Elízio Ribeiro Mendes n: 35, Centro, Formiga, MG, Brasil",
            "website": "aguiadouradaequipe.website"
        }
    ]
}