{
    "pagination": {
        "page": 288,
        "from": 5740,
        "to": 5760,
        "pageSize": 20,
        "lastPage": 358,
        "totalRecords": 7149
    },
    "list": [
        {
            "id": 7352,
            "name": "Russo BJJ International",
            "federationAbbr": "IBJJF",
            "country": "United Arab Emirates",
            "countryAbbr": "AE",
            "city": "Al Mussalah / Khorfakkan",
            "responsible": "Mauricio Gomes Pereira",
            "address": "Doctor Nasser Building - Ground Floor / Flat 2, Al Mussalah / Khorfakkan, SH, United Arab Emirates",
            "website": null
        },
        {
            "id": 5049,
            "name": "RVJJ Rio Vermelho Jiu-Jitsu",
            "federationAbbr": "CBJJ",
            "country": "Brasil",
            "countryAbbr": "BR",
            "city": "Florianopolis",
            "responsible": "Paulo Henrique Vieira Stadler",
            "address": "Servidão Anjos E Arcanjos 407 , Rio Vermelho, Florianopolis, SC, Brasil",
            "website": "Facebook-RVJJ"
        },
        {
            "id": 8303,
            "name": "Rvteam",
            "federationAbbr": "CBJJ",
            "country": "Brasil",
            "countryAbbr": "BR",
            "city": "Manaus",
            "responsible": "Rudrigo Matos Silva Vasconcelos",
            "address": "Rua Sicília, Casa 20, Manaus, Amazonas, Brasil",
            "website": null
        },
        {
            "id": 2073,
            "name": "Ryan Gracie Team",
            "federationAbbr": "CBJJ",
            "country": "Brasil",
            "countryAbbr": "BR",
            "city": "São Paulo",
            "responsible": "Renzo Gracie",
            "address": "Rua Agostinho Gomes, 3197, Bairro: Campestre, São Paulo, SP, Brasil",
            "website": null
        },
        {
            "id": 8954,
            "name": "Rysk Brazilian Jiu-Jitsu",
            "federationAbbr": "USBJJF",
            "country": "United States of America",
            "countryAbbr": "US",
            "city": "Laguna Hills",
            "responsible": "Francisco de Assis M. Campos de Lima",
            "address": "26548 Moulton Parkway Unit 48-d, Laguna Hills, California, United States of America",
            "website": "http://ryskbjj.com"
        },
        {
            "id": 10591,
            "name": "Ryu Brazilian Jiu-Jitsu",
            "federationAbbr": "CBJJ",
            "country": "Brasil",
            "countryAbbr": "BR",
            "city": "Goiânia",
            "responsible": "Matheus Barros Fernandes",
            "address": "R C59 Setor Sudoeste, 640, Goiânia, Go, Brasil",
            "website": null
        },
        {
            "id": 6750,
            "name": "Ryujin BJJ",
            "federationAbbr": "IBJJF",
            "country": "Canada",
            "countryAbbr": "CA",
            "city": "Kitimat",
            "responsible": "John Michael Nicolai",
            "address": "34 Grouse Street, Kitimat, British Columbia, Canada",
            "website": null
        },
        {
            "id": 9509,
            "name": "S\u0026G Brazilian Jiu-Jitsu",
            "federationAbbr": "USBJJF",
            "country": "United States of America",
            "countryAbbr": "US",
            "city": "Dayton",
            "responsible": "Sean Patrick Gray",
            "address": "2050 S Alex Road, Dayton, Oh, United States of America",
            "website": "www.sgbjj.com"
        },
        {
            "id": 9402,
            "name": "S.F.I.T.",
            "federationAbbr": "JBJJF",
            "country": "Japan",
            "countryAbbr": "JP",
            "city": "Sapporo",
            "responsible": "Hisashi Ezaki",
            "address": "Kita 15 Johigashi 6-chome Extreme Dia Palace Section 15, Sapporo, Hokkaido, Japan",
            "website": null
        },
        {
            "id": 8174,
            "name": "S.S. Procasa BJJ",
            "federationAbbr": "CBJJ",
            "country": "Brasil",
            "countryAbbr": "BR",
            "city": "São José",
            "responsible": "Erick dos Santos da Rosa",
            "address": "Rua Otto Julio Malina, 1609, São José, Sc, Brasil",
            "website": null
        },
        {
            "id": 6391,
            "name": "S/wells Jiu-Jitsu Gym",
            "federationAbbr": "JBJJF",
            "country": "Japan",
            "countryAbbr": "JP",
            "city": "Tokyo ",
            "responsible": "Kazutada Yokoyama",
            "address": "2-20-0 Hinoki Bldg 202, Takaban Meguroku, Tokyo , Tokyo, Japan",
            "website": "s-wells-jiujitsu.com"
        },
        {
            "id": 2376,
            "name": "SA Brazilian Jiu-Jitsu",
            "federationAbbr": "IBJJF",
            "country": "Australia",
            "countryAbbr": "AU",
            "city": "Klemzig ",
            "responsible": "Cleber Luciano Costa",
            "address": "290 NE Rd  , , Klemzig , SA, Australia",
            "website": "sabjj.com.au"
        },
        {
            "id": 868,
            "name": "Sá Team",
            "federationAbbr": "CBJJ",
            "country": "Brasil",
            "countryAbbr": "BR",
            "city": "Fortaleza",
            "responsible": null,
            "address": "Rua Antonio Augusto 520 , Praia de Iracema, Fortaleza, CE, Brasil",
            "website": ""
        },
        {
            "id": 9357,
            "name": "Sabaoth Elite Jiu-Jitsu Team (S.E.T)",
            "federationAbbr": "IBJJF",
            "country": "France",
            "countryAbbr": "FR",
            "city": "Choisy Le Roi",
            "responsible": "Frédéric Manuel Hermin",
            "address": "Pavillion Des Lions -  1 Place Pierre Semard, Choisy Le Roi, Val De Marne, France",
            "website": null
        },
        {
            "id": 6398,
            "name": "Sabato Jiu-Jitsu",
            "federationAbbr": "CBJJ",
            "country": "Brasil",
            "countryAbbr": "BR",
            "city": "São Paulo",
            "responsible": "Otávio de Almeida Júnior",
            "address": "Avenida José Maria Whitaker n: 953, Planalto Paulista, São Paulo, São Paulo, Brasil",
            "website": null
        },
        {
            "id": 6724,
            "name": "Saber Brazilian Jiu-Jitsu",
            "federationAbbr": "IBJJF",
            "country": "Australia",
            "countryAbbr": "AU",
            "city": "Geilston Bay",
            "responsible": "Paul Howard Sayers",
            "address": "23 Takone St, Geilston Bay, Tasmania, Australia",
            "website": "www.saberbjj.com"
        },
        {
            "id": 9676,
            "name": "Sabha Jiu-Jitsu",
            "federationAbbr": "USBJJF",
            "country": "United States of America",
            "countryAbbr": "US",
            "city": "Buena Park",
            "responsible": "Omar Sabha",
            "address": "8575 1/2 Knott Ave, Buena Park, Ca, United States of America",
            "website": "Buena Park"
        },
        {
            "id": 5538,
            "name": "Sabre Jiu-Jitsu Academy",
            "federationAbbr": "USBJJF",
            "country": "United States of America",
            "countryAbbr": "US",
            "city": "Concord",
            "responsible": "Bryant Scot Pangelinan",
            "address": "930 Detroit Ave, Suite F, Concord, CA, United States of America",
            "website": "www.sabrebjj.com"
        },
        {
            "id": 9029,
            "name": "Sacamp",
            "federationAbbr": "IBJJF",
            "country": "France",
            "countryAbbr": "FR",
            "city": "Paris",
            "responsible": "Alexandre R. Maurice Dabadie",
            "address": "75 Rue De L Ourcq, Paris, France, France",
            "website": null
        },
        {
            "id": 10516,
            "name": "Saibert Brazilian Jiu-jitsu",
            "federationAbbr": "CBJJ",
            "country": "Brasil",
            "countryAbbr": "BR",
            "city": "Palhoça",
            "responsible": "Ledemir José Saibert",
            "address": "195 Rua Das Goiabeiras, Casa, Palhoça, Sc, Brasil",
            "website": null
        }
    ]
}