{
    "pagination": {
        "page": 159,
        "from": 3160,
        "to": 3180,
        "pageSize": 20,
        "lastPage": 358,
        "totalRecords": 7149
    },
    "list": [
        {
            "id": 5777,
            "name": "Gracie Barra Guarulhos",
            "federationAbbr": "CBJJ",
            "country": "Brasil",
            "countryAbbr": "BR",
            "city": "Guarulhos",
            "responsible": "Giovane Gioli Pereira",
            "address": "Av. Tiradentes - n: 4065, Bom Clima, Guarulhos, São Paulo, Brasil",
            "website": null
        },
        {
            "id": 5826,
            "name": "Gracie Barra Guarulhos Bom Clima",
            "federationAbbr": "CBJJ",
            "country": "Brasil",
            "countryAbbr": "BR",
            "city": "Guarulhos",
            "responsible": "Giovane Gioli Pereira",
            "address": "Avenida Tiradentes n: 4065, Bairro: Bom Clima, Guarulhos, São Paulo, Brasil",
            "website": null
        },
        {
            "id": 4703,
            "name": "Gracie Barra Hallandale Beach",
            "federationAbbr": "USBJJF",
            "country": "United States of America",
            "countryAbbr": "US",
            "city": "Hallandale Beach",
            "responsible": "Cristiano Freire Dantas",
            "address": "648 West Hallandale Beach Blvd  , Hallandale Beach, FL, United States of America",
            "website": "www.gbhallandale.com"
        },
        {
            "id": 3464,
            "name": "Gracie Barra Hamburg City",
            "federationAbbr": "IBJJF",
            "country": "Germany",
            "countryAbbr": "DE",
            "city": "Hamburg",
            "responsible": "Andre Luis Nunes Almeida",
            "address": "Mendelssohnstrasse 15b, , Hamburg, --, Germany",
            "website": "www.graciebarrahamburg.com"
        },
        {
            "id": 6248,
            "name": "Gracie Barra Hannibal",
            "federationAbbr": "USBJJF",
            "country": "United States of America",
            "countryAbbr": "US",
            "city": "Hannibal",
            "responsible": "Beau L. Viehmann",
            "address": "2905 St. Marys Ave, Hannibal, MO, United States of America",
            "website": "www.graciebarra.com/hannibalmo"
        },
        {
            "id": 2977,
            "name": "Gracie Barra Haringey UK",
            "federationAbbr": "IBJJF",
            "country": "United Kingdom",
            "countryAbbr": "GB",
            "city": "London",
            "responsible": "Henrique Bispo Santana",
            "address": "203a Langham Road, London, United Kingdom",
            "website": "www.gbnl.uk"
        },
        {
            "id": 9237,
            "name": "Gracie Barra Harrogate",
            "federationAbbr": "IBJJF",
            "country": "United Kingdom",
            "countryAbbr": "GB",
            "city": "Harrogate",
            "responsible": "Lewis Hobson Matthews",
            "address": "Unit 8b, Valley House, Harrogate, North Yorkshire, United Kingdom",
            "website": "www.gbharrogate.com"
        },
        {
            "id": 7813,
            "name": "Gracie Barra Heights",
            "federationAbbr": "USBJJF",
            "country": "United States of America",
            "countryAbbr": "US",
            "city": "Houston",
            "responsible": "Pedro Lucas Aguiar Araujo",
            "address": "4721 N. Main St Suite T, Houston, Texas, United States of America",
            "website": "www.gbheights.com"
        },
        {
            "id": 6906,
            "name": "Gracie Barra Henrique Jorge",
            "federationAbbr": "CBJJ",
            "country": "Brasil",
            "countryAbbr": "BR",
            "city": "Fortaleza",
            "responsible": "Hélio Timbo Mourão",
            "address": "Rua Vitoria n: 659, Bairro: Henrique Jorge, Fortaleza, Ceará, Brasil",
            "website": null
        },
        {
            "id": 8099,
            "name": "Gracie Barra Homestead",
            "federationAbbr": "USBJJF",
            "country": "United States of America",
            "countryAbbr": "US",
            "city": "Homestead",
            "responsible": "Daniel Carvalho da S. Rego",
            "address": "13400 Sw 288th St, Gracie Barra, Homestead, Florida, United States of America",
            "website": null
        },
        {
            "id": 7214,
            "name": "Gracie Barra Hornsby",
            "federationAbbr": "IBJJF",
            "country": "Australia",
            "countryAbbr": "AU",
            "city": "Hornsby",
            "responsible": "Anderson Marcio da Silva Lemos",
            "address": "2/138-140 George St, Hornsby, NSW, Australia",
            "website": "www.gbhornsby.com.au"
        },
        {
            "id": 6981,
            "name": "Gracie Barra Huddersfield",
            "federationAbbr": "IBJJF",
            "country": "United Kingdom",
            "countryAbbr": "GB",
            "city": "Meltham",
            "responsible": "Jamie Brian Paxman",
            "address": "Meltham Mills Industrial Estate, Unit K5, Meltham, Holmfirth, United Kingdom",
            "website": "www.graciebarrahuddersfield.co.uk"
        },
        {
            "id": 9754,
            "name": "Gracie Barra Hunter Valley",
            "federationAbbr": "IBJJF",
            "country": "Australia",
            "countryAbbr": "AU",
            "city": "Rutherford",
            "responsible": "Gene-Paul De Crewis",
            "address": "4/51 Shipley Drive, Rutherford, Nsw, Australia",
            "website": "http://www.gbhuntervalley.com.au"
        },
        {
            "id": 2552,
            "name": "Gracie Barra Huntington Beach",
            "federationAbbr": "USBJJF",
            "country": "United States of America",
            "countryAbbr": "US",
            "city": "Huntington Beach",
            "responsible": "Otavio Ferreira de Sousa",
            "address": "16889 Beach Blvd   , , Huntington Beach, CA, United States of America",
            "website": "www.graciebarrahb.com"
        },
        {
            "id": 8169,
            "name": "Gracie Barra Ibaiti - Pr",
            "federationAbbr": "CBJJ",
            "country": "Brasil",
            "countryAbbr": "BR",
            "city": "Ibaiti",
            "responsible": "Vinicius Tadeu Leal",
            "address": "Av Governador Paulo Da Cruz Pimentel 720, Ibaiti, Pr, Brasil",
            "website": null
        },
        {
            "id": 8060,
            "name": "Gracie Barra Ibura",
            "federationAbbr": "CBJJ",
            "country": "Brasil",
            "countryAbbr": "BR",
            "city": "Recife",
            "responsible": "Fabricio Pepiliasco Bartholo",
            "address": "Rua Rio Xingu 653, Recife, Pernambuco, Brasil",
            "website": null
        },
        {
            "id": 6687,
            "name": "Gracie Barra Icaraí",
            "federationAbbr": "CBJJ",
            "country": "Brasil",
            "countryAbbr": "BR",
            "city": "Rio de Janeiro",
            "responsible": "Seidler Rodrigo S. Ziser",
            "address": "Rua Doutor Tavares Macedo n: 96 - 202/203, Bairro: Icarai, Rio de Janeiro, Rio de Janeiro, Brasil",
            "website": "Icarai.gbniteroi.com.br"
        },
        {
            "id": 9117,
            "name": "Gracie Barra Ilda Ap De Goiania",
            "federationAbbr": "CBJJ",
            "country": "Brasil",
            "countryAbbr": "BR",
            "city": "Aparecida De Goiania",
            "responsible": "Heliovanio Batista da Silva",
            "address": "Aparecida De Goiania, Goiás, Brasil",
            "website": null
        },
        {
            "id": 7325,
            "name": "Gracie Barra Illovo",
            "federationAbbr": "IBJJF",
            "country": "South Africa",
            "countryAbbr": "ZA",
            "city": "Johannesburg",
            "responsible": "Rodrigo Fajardo",
            "address": "Melrose Crossing Centre, Cnr Corlett Drive \u0026 Delta Road, Sandton, Melrose, Johannesburg, Gauteng, South Africa",
            "website": "www.graciebarra.co.za"
        },
        {
            "id": 7646,
            "name": "Gracie Barra Infantado",
            "federationAbbr": "FPJJB",
            "country": "Portugal",
            "countryAbbr": "PT",
            "city": "Infantado, Loures",
            "responsible": "Pedro Miguel M. M. Lucas Coelho",
            "address": "Avenida Diogo Cão, n° 7, loja B,, Infantado, Loures, Lisboa, Portugal",
            "website": "https://www.gbinfantado.com/"
        }
    ]
}