{
    "pagination": {
        "page": 244,
        "from": 4860,
        "to": 4880,
        "pageSize": 20,
        "lastPage": 358,
        "totalRecords": 7149
    },
    "list": [
        {
            "id": 6618,
            "name": "Nine Nine Kiko Fonseca",
            "federationAbbr": "CBJJ",
            "country": "Brasil",
            "countryAbbr": "BR",
            "city": "Belém",
            "responsible": "Raymundo Kiko Martins da Fonseca ",
            "address": "TV Sao Francisco 213, Bairro: Campina, Belém, Para, Brasil",
            "website": "www.nineninekikofonseca.com.br"
        },
        {
            "id": 4869,
            "name": "Ninja Team Jiu-Jitsu",
            "federationAbbr": "CBJJ",
            "country": "Brasil",
            "countryAbbr": "BR",
            "city": "Porto Belo",
            "responsible": "Junior Cesar de Lima",
            "address": "Rua Hartur Guerreiro  122 Casa, Perequê, Porto Belo, SC, Brasil",
            "website": ""
        },
        {
            "id": 2450,
            "name": "Nino Schembri Team",
            "federationAbbr": "USBJJF",
            "country": "United States of America",
            "countryAbbr": "US",
            "city": "--",
            "responsible": "Antonio Schembri Filho",
            "address": "  , , --, --, United States of America",
            "website": ""
        },
        {
            "id": 10549,
            "name": "Nirvana Brazilian Jiu-Jitsu",
            "federationAbbr": "IBJJF",
            "country": "Taiwan",
            "countryAbbr": "TW",
            "city": "Taichung",
            "responsible": "Tien Yu Lee",
            "address": "5f., No. 296, Dadun 12th St., Nantun Dist., Taichung City õ^@_ , Taiwan (r.o.c.), Taichung, Taiwan, Taiwan",
            "website": "https://twbjjtc.com/"
        },
        {
            "id": 3251,
            "name": "Niwaka Grapple",
            "federationAbbr": "JBJJF",
            "country": "Japan",
            "countryAbbr": "JP",
            "city": "Mie",
            "responsible": "Harunobu Tani",
            "address": "4422 Sakakibara-cho Tsu-shi  , , Mie, --, Japan",
            "website": "www.nwkgp.web.fc2.com"
        },
        {
            "id": 9421,
            "name": "Nizio Negão Jiu-Jitsu Cuiaba/MT",
            "federationAbbr": "CBJJ",
            "country": "Brasil",
            "countryAbbr": "BR",
            "city": "Cuiabá",
            "responsible": "Elonizio Oliveira Silva",
            "address": "Rua Trezentos E Sete, 17, Cuiabá, Mt, Brasil",
            "website": "https://nizio-negao-jiu-jitsu-wrestling-school.negocio.site/"
        },
        {
            "id": 6600,
            "name": "NL Team Agua Holland",
            "federationAbbr": "IBJJF",
            "country": "Netherlands",
            "countryAbbr": "NL",
            "city": "Ryswyk ",
            "responsible": "Kenan Bajramovic",
            "address": "General Spoorlaan 87, Ryswyk , ZH, Netherlands",
            "website": "www.teamagua.com"
        },
        {
            "id": 9755,
            "name": "NLJJA Fortitude Jiu-Jitsu",
            "federationAbbr": "IBJJF",
            "country": "Australia",
            "countryAbbr": "AU",
            "city": "Melbourne",
            "responsible": "Jihad Bekai",
            "address": "7/20 Graduate Rd, Bundoora Vic 3083, Melbourne, Victoria, Australia",
            "website": null
        },
        {
            "id": 10608,
            "name": "NMA BJJ",
            "federationAbbr": "IBJJF",
            "country": "Canada",
            "countryAbbr": "CA",
            "city": "Brampton",
            "responsible": "Patrick Teruel",
            "address": "12 Fisherman Dr. Unit 2, Brampton, Ontario, Canada",
            "website": null
        },
        {
            "id": 4778,
            "name": "Nobre Brazilian Jiu-Jitsu",
            "federationAbbr": "CBJJ",
            "country": "Brasil",
            "countryAbbr": "BR",
            "city": "João Pessoa",
            "responsible": "Carlos Alexandre Nobrega Brito",
            "address": "Rua Coronel Aristarco Pessoa 565, Jaguaribe, João Pessoa, PB, Brasil",
            "website": null
        },
        {
            "id": 2469,
            "name": "Nóbrega Team",
            "federationAbbr": "FPJJB",
            "country": "Portugal",
            "countryAbbr": "PT",
            "city": "Benfica",
            "responsible": "Vitor Nóbrega do Nascimento",
            "address": "Av Gomes Pereira 41, Benfica, xx, Portugal",
            "website": null
        },
        {
            "id": 10309,
            "name": "Noel Smith Brazilian Jiu-Jitsu",
            "federationAbbr": "USBJJF",
            "country": "United States of America",
            "countryAbbr": "US",
            "city": "Glen Burnie",
            "responsible": "Noel Jermy Smith",
            "address": "7478 Baltimore Annapolis Blvd, Glen Burnie, Md, United States of America",
            "website": "www.noelsmithbjj.com"
        },
        {
            "id": 10406,
            "name": "Noil Jiu Jitsu School",
            "federationAbbr": "CBJJ",
            "country": "Brasil",
            "countryAbbr": "BR",
            "city": "Londrina",
            "responsible": "Rafael Luis Bispo Marcolino",
            "address": "Rua Professora Kazuco Ohara 28, Londrina, Paraná, Brasil",
            "website": null
        },
        {
            "id": 6576,
            "name": "Nokido",
            "federationAbbr": "USBJJF",
            "country": "United States of America",
            "countryAbbr": "US",
            "city": "North Port",
            "responsible": "Earl Richard DelValle II",
            "address": "1050 Innovation Ave., #109, North Port, Fl, United States of America",
            "website": "www.Nokido.com"
        },
        {
            "id": 2241,
            "name": "NOLA Brazilian Jiu-Jitsu",
            "federationAbbr": "USBJJF",
            "country": "United States of America",
            "countryAbbr": "US",
            "city": "New Orleans",
            "responsible": "Matthias Meister",
            "address": "4521 Magazine St  , New Orleans, LA, United States of America",
            "website": "www.nolabjj.com"
        },
        {
            "id": 3442,
            "name": "Nomad Brazilian Jiu-Jitsu",
            "federationAbbr": "IBJJF",
            "country": "Canada",
            "countryAbbr": "CA",
            "city": "Sherbrooke",
            "responsible": "Richard Martens",
            "address": "1581 Rue Denault, , Sherbrooke, Quebec, Canada",
            "website": "www.nomadbjj.com"
        },
        {
            "id": 10464,
            "name": "Nomadas Ab",
            "federationAbbr": "IBJJF",
            "country": "Spain",
            "countryAbbr": "ES",
            "city": "Ginestar",
            "responsible": "Manuel Basco Martinez",
            "address": "Balmes N9, Ginestar, Tarragona, Spain",
            "website": null
        },
        {
            "id": 3930,
            "name": "Nono's MMA Academy",
            "federationAbbr": "USBJJF",
            "country": "United States of America",
            "countryAbbr": "US",
            "city": "Hermosa Beach",
            "responsible": "Nono Lebosnoyani",
            "address": "137 Pier Avenue  , , Hermosa Beach, CA, United States of America",
            "website": "nonoshapkido.com"
        },
        {
            "id": 2361,
            "name": "Nordeste Fight",
            "federationAbbr": "CBJJ",
            "country": "Brasil",
            "countryAbbr": "BR",
            "city": "Recife",
            "responsible": "Derval Luciano Rêgo",
            "address": "Rua José Benedito Mouri Fernandes 361, Apt.201 - Bl.02 - Barro, Recife, PE, Brasil",
            "website": null
        },
        {
            "id": 3449,
            "name": "Norfight",
            "federationAbbr": "CBJJ",
            "country": "Brasil",
            "countryAbbr": "BR",
            "city": "Belém",
            "responsible": "Marcus Vinicius Barros Norat",
            "address": "Travessa Bom Jardim, 705 , Jurunas, Belém, PA, Brasil",
            "website": "www.norfight.com"
        }
    ]
}