{
    "pagination": {
        "page": 137,
        "from": 2720,
        "to": 2740,
        "pageSize": 20,
        "lastPage": 358,
        "totalRecords": 7149
    },
    "list": [
        {
            "id": 9506,
            "name": "Garuda Mongolia",
            "federationAbbr": "IBJJF",
            "country": "Mongolia",
            "countryAbbr": "MN",
            "city": "Ulaanbaatar",
            "responsible": "Bolderdene Odsuren",
            "address": "Chinngis Ave 14, Ulaanbaatar, Mongolia",
            "website": null
        },
        {
            "id": 9745,
            "name": "Gary Grate Brazilian Jiu-Jitsu",
            "federationAbbr": "USBJJF",
            "country": "United States of America",
            "countryAbbr": "US",
            "city": "Reno",
            "responsible": "Gary Lee Grate",
            "address": "1335 Airmotive Way, Reno, Nevada, United States of America",
            "website": "www.bjjreno.com"
        },
        {
            "id": 10287,
            "name": "GAT",
            "federationAbbr": "CBJJ",
            "country": "Brasil",
            "countryAbbr": "BR",
            "city": "Nilópolis",
            "responsible": "Gabriel Alves de Lima",
            "address": "Avenida Getúlio Vargas,  1601, Nilópolis, Brasil",
            "website": null
        },
        {
            "id": 10175,
            "name": "Gaúcho Top Team - GTT",
            "federationAbbr": "CBJJ",
            "country": "Brasil",
            "countryAbbr": "BR",
            "city": "Manaus",
            "responsible": "Rodrigo Medeiros  Santos",
            "address": "Avenida Edmundo Soares, 317 - Quadra D - Flores, Manaus, Amazonas, Brasil",
            "website": null
        },
        {
            "id": 2153,
            "name": "Gavião Jiu-Jitsu RS",
            "federationAbbr": "CBJJ",
            "country": "Brasil",
            "countryAbbr": "BR",
            "city": "Pelotas",
            "responsible": "Antonio Henrique Cury Coufal",
            "address": "Rua Padre Felício, 530, Centro, Pelotas, RS, Brasil",
            "website": null
        },
        {
            "id": 403,
            "name": "Gavião SC",
            "federationAbbr": "CBJJ",
            "country": "Brasil",
            "countryAbbr": "BR",
            "city": "Pelotas ",
            "responsible": "Antonio Henrique Cury Coufal",
            "address": "Andrade Neves 1335 , Centro, Pelotas , SC, Brasil",
            "website": ""
        },
        {
            "id": 2112,
            "name": "Gazze Academy",
            "federationAbbr": "USBJJF",
            "country": "United States of America",
            "countryAbbr": "US",
            "city": "Huntingon Beach",
            "responsible": "Paulo Sergio Gazze Jr.",
            "address": "119308 Beach Blvd, Units A \u0026 B  , , Huntingon Beach, CA, United States of America",
            "website": "www.gazzemmaacademy.com"
        },
        {
            "id": 5520,
            "name": "GB Centro Feira De Santana",
            "federationAbbr": "CBJJ",
            "country": "Brasil",
            "countryAbbr": "BR",
            "city": "Feira de Santana",
            "responsible": "Samuel Silva Carvalho Junior",
            "address": "Av. Francisco Fraga Maia, 6730, 1º Andar - Mangabeira, Feira de Santana, BA, Brasil",
            "website": "www.graciebarra.com.br"
        },
        {
            "id": 10742,
            "name": "GB Cohabinal - Parnamirim",
            "federationAbbr": "CBJJ",
            "country": "Brasil",
            "countryAbbr": "BR",
            "city": "Parnamirim",
            "responsible": "Bruno de Aguiar Ramos",
            "address": "Avenida Presidente Castelo Branco, 66, Parnamirim, Rn, Brasil",
            "website": null
        },
        {
            "id": 9463,
            "name": "GB Jd Paulistano - Campina Grande - Pb",
            "federationAbbr": "CBJJ",
            "country": "Brasil",
            "countryAbbr": "BR",
            "city": "Campina Grande",
            "responsible": "Wilson Camara Filho",
            "address": "Rua Isaac Catão, 530, Academia, Campina Grande, Pb, Brasil",
            "website": "Graciebarra.com.br"
        },
        {
            "id": 6148,
            "name": "GB Termini - Gracie Barra Roma",
            "federationAbbr": "UIJJ",
            "country": "Italy",
            "countryAbbr": "IT",
            "city": "Roma",
            "responsible": "Alexandre Ranieri do Carmo",
            "address": "Viale Castro Pretorio N.88, Roma, --, Italy",
            "website": "www.GracieBarraRoma.it"
        },
        {
            "id": 8662,
            "name": "GBK Aegis Brazilian Jiu-Jitsu",
            "federationAbbr": "IBJJF",
            "country": "Korea, South",
            "countryAbbr": "KR",
            "city": "Incheon",
            "responsible": "Sang Kon Lee",
            "address": "15, Anaji-ro 299beon-gil, Gyeyang-gu, Incheon, Republic Of Korea, Incheon, Korea, South",
            "website": "aegisbjj.co.kr"
        },
        {
            "id": 10349,
            "name": "GC Team Association NZ Limited",
            "federationAbbr": "IBJJF",
            "country": "New Zealand",
            "countryAbbr": "NZ",
            "city": "Auckland",
            "responsible": "Gledson Lopes da Silva",
            "address": "228 Marua Road, Auckland, New Zealand",
            "website": null
        },
        {
            "id": 2056,
            "name": "GD Jiu-Jitsu Association",
            "federationAbbr": "USBJJF",
            "country": "United States of America",
            "countryAbbr": "US",
            "city": "Tempe",
            "responsible": "Gustavo Dantas",
            "address": "1848 East University Drive 108  , Tempe, AZ, United States of America",
            "website": "www.gdjiujitsu.com"
        },
        {
            "id": 10120,
            "name": "GDC BJJ",
            "federationAbbr": "USBJJF",
            "country": "United States of America",
            "countryAbbr": "US",
            "city": "Dade City",
            "responsible": "Mark Andrew Ferran Bond",
            "address": "41537 6th Street, Dade City, Fl, United States of America",
            "website": null
        },
        {
            "id": 5830,
            "name": "Gean Magalhães JJ",
            "federationAbbr": "CBJJ",
            "country": "Brasil",
            "countryAbbr": "BR",
            "city": "São João da Barra",
            "responsible": "Gean Neves Magalhães",
            "address": "Avenida Rotary n: 625, Centro, São João da Barra, Rio de Janeiro, Brasil",
            "website": null
        },
        {
            "id": 9737,
            "name": "Gemina Sports",
            "federationAbbr": "IBJJF",
            "country": "Australia",
            "countryAbbr": "AU",
            "city": "Kelmscott",
            "responsible": "Josephine Masiello",
            "address": "Unit 3 61 Owen Rd, Kelmscott, Wa, Australia",
            "website": null
        },
        {
            "id": 8097,
            "name": "Genesis Jiu-Jitsu",
            "federationAbbr": "USBJJF",
            "country": "United States of America",
            "countryAbbr": "US",
            "city": "River Oaks",
            "responsible": "Albert Allen Hughes",
            "address": "5512 River Oaks Blvd, River Oaks, Tx, United States of America",
            "website": "www.genesisjiujitsu.com"
        },
        {
            "id": 10527,
            "name": "Genesis Jiu-Jitsu Azle",
            "federationAbbr": "USBJJF",
            "country": "United States of America",
            "countryAbbr": "US",
            "city": "Azle",
            "responsible": "Rachel Karen Banes",
            "address": "13551 S. Fm 730, Azle, Texas, United States of America",
            "website": "Azle, Texas"
        },
        {
            "id": 3188,
            "name": "Gentel Arts Nagoya Brazilian Jiu-Jitsu Club",
            "federationAbbr": "JBJJF",
            "country": "Japan",
            "countryAbbr": "JP",
            "city": "Aichi",
            "responsible": "Masaki Hayakawa",
            "address": "2-6-15 Ozone, Higashi-ku Nagoya-shi  , , Aichi, --, Japan",
            "website": "www.nbjc.jp"
        }
    ]
}