{
    "pagination": {
        "page": 325,
        "from": 6480,
        "to": 6500,
        "pageSize": 20,
        "lastPage": 358,
        "totalRecords": 7149
    },
    "list": [
        {
            "id": 10628,
            "name": "Templários Brazilian Jiu-Jitsu",
            "federationAbbr": "CBJJ",
            "country": "Brasil",
            "countryAbbr": "BR",
            "city": "Tijucas",
            "responsible": "Franck Rennãn Gama de Souza",
            "address": "Rua Capitão Amorim, 1344 - Praça, Tijucas, Santa Catarina, Brasil",
            "website": null
        },
        {
            "id": 7861,
            "name": "Temple Jiu-Jitsu",
            "federationAbbr": "USBJJF",
            "country": "United States of America",
            "countryAbbr": "US",
            "city": "Delray Beach",
            "responsible": "Shawn R. Ambrosino",
            "address": "2 Eastview Ave, Delray Beach, United States of America",
            "website": "templedelray.com"
        },
        {
            "id": 9111,
            "name": "Templo Da Luta BJJ",
            "federationAbbr": "CBJJ",
            "country": "Brasil",
            "countryAbbr": "BR",
            "city": "Arroio Dos Ratos",
            "responsible": "Alexandre Souza de Souza",
            "address": "Antônio Pinhatti, Casa, Arroio Dos Ratos, Rs, Brasil",
            "website": null
        },
        {
            "id": 7310,
            "name": "Templo JJ",
            "federationAbbr": "CBJJ",
            "country": "Brasil",
            "countryAbbr": "BR",
            "city": "São Paulo",
            "responsible": "Jurandir Vieira da Conceição",
            "address": "Av. Nova Independência n: 708, Bairro: Brooklin, São Paulo, SP, Brasil",
            "website": "www.academiatemplo.com"
        },
        {
            "id": 10445,
            "name": "Tempo Jiu-Jitsu",
            "federationAbbr": "IBJJF",
            "country": "Hong Kong",
            "countryAbbr": "HK",
            "city": "Hong Kong",
            "responsible": "David Nicholas Marinakis",
            "address": "2f, 3 Staunton St, Central, Hong Kong, Hong Kong",
            "website": "tempojj.com"
        },
        {
            "id": 6546,
            "name": "Ten Chi Budokan",
            "federationAbbr": "IBJJF",
            "country": "France",
            "countryAbbr": "FR",
            "city": "La Courneuve",
            "responsible": "Fousi Mezouari",
            "address": "25 Sente de I'Esseau, La Courneuve, --, France",
            "website": null
        },
        {
            "id": 10390,
            "name": "Tension Tribe Jiu-Jitsu",
            "federationAbbr": "USBJJF",
            "country": "United States of America",
            "countryAbbr": "US",
            "city": "Fort Worth",
            "responsible": "Carlos Mauricio Chavez",
            "address": "5470 E. Loop 820 S., 160, Fort Worth, Tx, United States of America",
            "website": "http://tensiontribe.com/"
        },
        {
            "id": 10623,
            "name": "Teragi Academy",
            "federationAbbr": "USBJJF",
            "country": "United States of America",
            "countryAbbr": "US",
            "city": "Fullerton",
            "responsible": "Johnvicem Del Rosario Ramos",
            "address": "2271 W Malvern Ave #471, Fullerton, Ca, United States of America",
            "website": "https://teragi.academy"
        },
        {
            "id": 3116,
            "name": "Terra Guerra Jiu-Jitsu",
            "federationAbbr": "USBJJF",
            "country": "United States of America",
            "countryAbbr": "US",
            "city": "Augusta",
            "responsible": "Joshua James Miller",
            "address": "266 Bobby Jones Expressway #13, , Augusta, GA, United States of America",
            "website": "terraguerrajj.com"
        },
        {
            "id": 10739,
            "name": "Terraço 14 BJJ",
            "federationAbbr": "CBJJ",
            "country": "Brasil",
            "countryAbbr": "BR",
            "city": "Manaus",
            "responsible": "Augusto Ferreira de Albuquerque Júnior",
            "address": "Avenida Nhamundá 298, Manaus, Amazonas, Brasil",
            "website": null
        },
        {
            "id": 5419,
            "name": "Testudo BJJ",
            "federationAbbr": "USBJJF",
            "country": "United States of America",
            "countryAbbr": "US",
            "city": "Alexandria",
            "responsible": "Ervin Israel Brandon",
            "address": "2731 Mt. Vernon Ave. B1, Alexandria, VA, United States of America",
            "website": "testudobjj.com"
        },
        {
            "id": 4235,
            "name": "Tetris",
            "federationAbbr": "CBJJ",
            "country": "Brasil",
            "countryAbbr": "BR",
            "city": "São Paulo",
            "responsible": "Andrei Osti Andrezzo",
            "address": "Rua Gomes de Carvalho n: 127, Vila Olimpia, São Paulo, SP, Brasil",
            "website": null
        },
        {
            "id": 6852,
            "name": "Texas - Warrior Martial Arts Academy",
            "federationAbbr": "USBJJF",
            "country": "United States of America",
            "countryAbbr": "US",
            "city": "Frisco",
            "responsible": "Joseph Danial Shelley",
            "address": "8822 Teel Pkwy Suite 400, Frisco, TX, United States of America",
            "website": null
        },
        {
            "id": 5321,
            "name": "Texas Jiu-Jitsu",
            "federationAbbr": "CBJJ",
            "country": "Brasil",
            "countryAbbr": "BR",
            "city": "Araguari",
            "responsible": "Evaldo Rodrigues",
            "address": "Rua Olga Daher, 54, Sibipiruna, Araguari, MG, Brasil",
            "website": null
        },
        {
            "id": 2111,
            "name": "Texas Punishment Crew",
            "federationAbbr": "USBJJF",
            "country": "United States of America",
            "countryAbbr": "US",
            "city": "Mesquite",
            "responsible": "Jason Paul Ebarb",
            "address": "  , , Mesquite, TX, United States of America",
            "website": ""
        },
        {
            "id": 9600,
            "name": "Texas Top Team",
            "federationAbbr": "USBJJF",
            "country": "United States of America",
            "countryAbbr": "US",
            "city": "Round Rock",
            "responsible": "Marcos Vinicius Oliveira",
            "address": "602 Mcneil Rd, Round Rock, Tx, United States of America",
            "website": "www.TexasTopTeam.com"
        },
        {
            "id": 3083,
            "name": "TFV BJJ",
            "federationAbbr": "CBJJ",
            "country": "Brasil",
            "countryAbbr": "BR",
            "city": "Recife",
            "responsible": "Thiago Fernandes Vieira",
            "address": "Av. Boa Viagem 9 andar Nº2978 , Boa Viagem, Recife, PE, Brasil",
            "website": ""
        },
        {
            "id": 4999,
            "name": "Thaiboxetorino",
            "federationAbbr": "UIJJ",
            "country": "Italy",
            "countryAbbr": "IT",
            "city": "Torino",
            "responsible": "Alberto Ceretto",
            "address": "Via Pietro Giuria 30 Bis  , Torino, Italy",
            "website": "www.bjjitaly.com"
        },
        {
            "id": 10328,
            "name": "Thárros Jiu-Jitsu Academy",
            "federationAbbr": "USBJJF",
            "country": "United States of America",
            "countryAbbr": "US",
            "city": "Delray Beach",
            "responsible": "Kelly Ann Beringson",
            "address": "600 N Congress Ave, #350, Delray Beach, Fl, United States of America",
            "website": null
        },
        {
            "id": 7577,
            "name": "The Academy Byron Bay",
            "federationAbbr": "IBJJF",
            "country": "Australia",
            "countryAbbr": "AU",
            "city": "Byron Bay",
            "responsible": "Thalison Vitorino Soares",
            "address": "12/74 Centennial Circuit, Byron Bay, NSW, Australia",
            "website": "academybyronbay.com.au"
        }
    ]
}