{
    "pagination": {
        "page": 236,
        "from": 4700,
        "to": 4720,
        "pageSize": 20,
        "lastPage": 358,
        "totalRecords": 7149
    },
    "list": [
        {
            "id": 4600,
            "name": "Moncaio Brothers BJJ",
            "federationAbbr": "USBJJF",
            "country": "United States of America",
            "countryAbbr": "US",
            "city": "Oakland Park",
            "responsible": "Joao G. Moncaio",
            "address": "1594 E. Commercial BLVD  , , Oakland Park, FL, United States of America",
            "website": "bjjbrothers.com"
        },
        {
            "id": 6149,
            "name": "Mondovi BJJ - Predator Jiu-Jitsu Team",
            "federationAbbr": "UIJJ",
            "country": "Italy",
            "countryAbbr": "IT",
            "city": "Mondovi",
            "responsible": "Octavio Henrique Couto da Silva Jr.",
            "address": "Via Asti 14, Mondovi, Cuneo, Italy",
            "website": "www.evogym.it"
        },
        {
            "id": 3407,
            "name": "Mongolian BJJ",
            "federationAbbr": "IBJJF",
            "country": "Mongolia",
            "countryAbbr": "MN",
            "city": "Ulaanbaatar",
            "responsible": null,
            "address": "Chingeltei 5 Khoroo 6 Khoroolol 11-39 Mongolia Ways Co  , , Ulaanbaatar, --, Mongolia",
            "website": ""
        },
        {
            "id": 5873,
            "name": "Monroe Jiu-Jitsu",
            "federationAbbr": "USBJJF",
            "country": "United States of America",
            "countryAbbr": "US",
            "city": "Monroe",
            "responsible": "Todd Dwayne Williams",
            "address": "11 East Second Street, Monroe, MI, United States of America",
            "website": "www.MonroeJiuJitsu.com"
        },
        {
            "id": 8772,
            "name": "Monster  BJJ  Network",
            "federationAbbr": "IBJJF",
            "country": "Korea, South",
            "countryAbbr": "KR",
            "city": "Goyang-si",
            "responsible": "Seung-Jae Lee",
            "address": "#310, Lafesta F, 20-11, Mugunghwa-ro, Ilsandong-gu, Goyang-si, Gyeonggi-do, Korea, South",
            "website": null
        },
        {
            "id": 4209,
            "name": "Monster Brazilian Jiu Jitsu and MMA",
            "federationAbbr": "USBJJF",
            "country": "United States of America",
            "countryAbbr": "US",
            "city": "Smithtown",
            "responsible": "Derek P S Mangi",
            "address": "24 Bellemeade Ave  unit D , , Smithtown, NY, United States of America",
            "website": "www.monsterbjjmma.com"
        },
        {
            "id": 3229,
            "name": "Monster House",
            "federationAbbr": "JBJJF",
            "country": "Japan",
            "countryAbbr": "JP",
            "city": "Minoh",
            "responsible": "Hideyuki Ito",
            "address": "Senba-nishi 3-8-8-201, Minoh, Osaka, Japan",
            "website": "www.monster-house.net"
        },
        {
            "id": 2091,
            "name": "Monte Jiu-Jitsu Team",
            "federationAbbr": "CBJJ",
            "country": "Brasil",
            "countryAbbr": "BR",
            "city": "Blumenau",
            "responsible": "Wellington Monte de Alcantara",
            "address": "Rua Germando Roeder 110 , Progresso, Blumenau, SC, Brasil",
            "website": "www.montejj.com.br"
        },
        {
            "id": 8947,
            "name": "Montevideo MLDT",
            "federationAbbr": "IBJJF",
            "country": "Uruguai",
            "countryAbbr": "UY",
            "city": "Montevideo",
            "responsible": "Mauro Jorge Lago e Campos",
            "address": "Cidade Veja, 8, Montevideo, Capital, Uruguai",
            "website": "MONTEVIDEO"
        },
        {
            "id": 9797,
            "name": "Montgeron Art Martiaux",
            "federationAbbr": "IBJJF",
            "country": "France",
            "countryAbbr": "FR",
            "city": "Montgeron",
            "responsible": "Franck Jean Lucien Norbert",
            "address": "C.o.s.e.c Avenue Charles De Gaulle, Montgeron, France, France",
            "website": "MAM91"
        },
        {
            "id": 7708,
            "name": "Montpellier Arte Suave Union (M.A.S.U)",
            "federationAbbr": "IBJJF",
            "country": "France",
            "countryAbbr": "FR",
            "city": "Montpellier",
            "responsible": "Francisco Nonato Holanda Barroso",
            "address": "ZAC de Rieucoulon, 440, Rue alexander fleming 34430 saint jean de vedas, Montpellier, Occitanie, France",
            "website": "Fight force montpellier"
        },
        {
            "id": 7695,
            "name": "Monument Jiu-Jitsu",
            "federationAbbr": "USBJJF",
            "country": "United States of America",
            "countryAbbr": "US",
            "city": "Monument",
            "responsible": "Thomas E. Lynn",
            "address": "The Academy of Martial Arts, 1435 Cipriani Loop, Monument, CO, United States of America",
            "website": "www.monumentjiujitsu.com"
        },
        {
            "id": 8276,
            "name": "Moonbjj",
            "federationAbbr": "IBJJF",
            "country": "Korea, South",
            "countryAbbr": "KR",
            "city": "Daejeon",
            "responsible": "Jangwon Byeon",
            "address": "4f, 65, Gyeryong-ro 553beonan-gil, Seo-gu, Daejeon, Korea, South",
            "website": "https://blog.naver.com/dunsanbjj"
        },
        {
            "id": 6016,
            "name": "Morcegão Jiu-Jitsu",
            "federationAbbr": "CBJJ",
            "country": "Brasil",
            "countryAbbr": "BR",
            "city": "Conceição de Macabu",
            "responsible": "Evandro Viveiros Vieira",
            "address": "Rua Amaro Benito Daumas n: 217, Vila Nova, Conceição de Macabu, Rio de Janeiro, Brasil",
            "website": null
        },
        {
            "id": 7229,
            "name": "Moreno Brazilian Jiu-Jitsu Wildsharks",
            "federationAbbr": "USBJJF",
            "country": "United States of America",
            "countryAbbr": "US",
            "city": "Humacao",
            "responsible": "Rafael Moreno",
            "address": "Calle dolores cabrera #16, Humacao, PR, United States of America",
            "website": "bjjhumacao.com"
        },
        {
            "id": 6409,
            "name": "Mores Jiu-Jitsu",
            "federationAbbr": "CBJJ",
            "country": "Brasil",
            "countryAbbr": "BR",
            "city": "Fortaleza",
            "responsible": "Fernando Araújo de Sousa",
            "address": "Rua Coronel Nunes de Melo n: 1481, Rodolfo Teófilo, Fortaleza, Ceará, Brasil",
            "website": null
        },
        {
            "id": 9507,
            "name": "Mori Dojo",
            "federationAbbr": "IBJJF",
            "country": "Switzerland",
            "countryAbbr": "CH",
            "city": "Lausanne",
            "responsible": "Sadayoshi Roberto Mota Kurimori",
            "address": "Chem. Du Martinet 28, Lausanne, Switzerland",
            "website": null
        },
        {
            "id": 6947,
            "name": "Morizi Jiu-Jitsu",
            "federationAbbr": "USBJJF",
            "country": "United States of America",
            "countryAbbr": "US",
            "city": "Hermiston",
            "responsible": "Brian J. Morizi",
            "address": "80872 N. Hwy 395, Hermiston, OR, United States of America",
            "website": "morizijiujitsu.com"
        },
        {
            "id": 7559,
            "name": "Morro dos Campeões",
            "federationAbbr": "CBJJ",
            "country": "Brasil",
            "countryAbbr": "BR",
            "city": "Rio de Janeiro",
            "responsible": "José Carlos Dias",
            "address": "Rua Santo Amaro: 349, Bairro: Gloria, Rio de Janeiro, Rio de Janeiro, Brasil",
            "website": null
        },
        {
            "id": 5388,
            "name": "Morumbi Jiu-Jitsu Academy",
            "federationAbbr": "CBJJ",
            "country": "Brasil",
            "countryAbbr": "BR",
            "city": "São Paulo",
            "responsible": "Fabio Leopoldo e Silva Neto",
            "address": "Av. Giovanni Gronchi 5174, Vila Andrade , São Paulo, SP, Brasil",
            "website": "www.graciemorumbi.com.br"
        }
    ]
}