{
    "pagination": {
        "page": 41,
        "from": 800,
        "to": 820,
        "pageSize": 20,
        "lastPage": 358,
        "totalRecords": 7149
    },
    "list": [
        {
            "id": 9109,
            "name": "Battousai Escola De Jiu-Jitsu",
            "federationAbbr": "CBJJ",
            "country": "Brasil",
            "countryAbbr": "BR",
            "city": "Juiz De Fora",
            "responsible": "Luiz Alberto Mariano da Silva",
            "address": "R. Luiz Fellet - Santo Antônio., Loja 01 - 380 - Cxpst 2, Juiz De Fora, Minas Gerais, Brasil",
            "website": "battousaiescoladejiujitsujf@gmail.com"
        },
        {
            "id": 128,
            "name": "Bauer Sport",
            "federationAbbr": "CBJJ",
            "country": "Brasil",
            "countryAbbr": "BR",
            "city": "São João Del Rei",
            "responsible": null,
            "address": "Rua Herculano Veloso  711 , Matozinhos, São João Del Rei, MG, Brasil",
            "website": "www.bauersport.com.br"
        },
        {
            "id": 120,
            "name": "Bauer Team",
            "federationAbbr": "CBJJ",
            "country": "Brasil",
            "countryAbbr": "BR",
            "city": "São João Del Rei",
            "responsible": "Ronald Bauer Assunção",
            "address": "Avenida Trinta E Um De Março N°2299, Colônia Do Marçal, São João Del Rei, MG, Brasil",
            "website": null
        },
        {
            "id": 6344,
            "name": "Bay Area Fight Academy",
            "federationAbbr": "USBJJF",
            "country": "United States of America",
            "countryAbbr": "US",
            "city": "Hayward",
            "responsible": "Charles Gracie",
            "address": "1625 Industrial Pkwy West, Hayward, CA, United States of America",
            "website": "www.BayAreaFighter.com"
        },
        {
            "id": 3727,
            "name": "Baynes Martial Arts / Megalodon Gym",
            "federationAbbr": "USBJJF",
            "country": "United States of America",
            "countryAbbr": "US",
            "city": "Watkinsville",
            "responsible": "James Cason Baynes Jr.",
            "address": "1071 Jamestown Blvd.  Unit E-7 , , Watkinsville, GA, United States of America",
            "website": "wwww.megalodonmma.com"
        },
        {
            "id": 5878,
            "name": "Bayou Jiu-Jitsu \u0026 Self Defense",
            "federationAbbr": "USBJJF",
            "country": "United States of America",
            "countryAbbr": "US",
            "city": "Baton Rouge",
            "responsible": "Kevin Bellard",
            "address": "9681 Airline Hwy, Suite #B, Baton Rouge, LA, United States of America",
            "website": "bayoujiujitsu.com"
        },
        {
            "id": 3041,
            "name": "BBJJC Black Belt Jiu-Jitsu Club",
            "federationAbbr": "CBJJ",
            "country": "Brasil",
            "countryAbbr": "BR",
            "city": "Bauru",
            "responsible": "Fabio Ferreira Marmontel",
            "address": "Rua Campos Sales 3-80, Vila Falcão, Bauru, SP, Brasil",
            "website": null
        },
        {
            "id": 6553,
            "name": "BCJJ Betinho Correa MG",
            "federationAbbr": "CBJJ",
            "country": "Brasil",
            "countryAbbr": "BR",
            "city": "Ibirité",
            "responsible": "Alberto Rosemback Correia Teixeira ",
            "address": "Rua Bela Petruschy n: 295, Palmares B, Ibirité, Minas Gerais, Brasil",
            "website": null
        },
        {
            "id": 10722,
            "name": "BCJJ Betinho Correia Arena Trancoso",
            "federationAbbr": "CBJJ",
            "country": "Brasil",
            "countryAbbr": "BR",
            "city": "Trancoso",
            "responsible": "Alberto Rosemback Correia Teixeira ",
            "address": "Rua Getúlio, 17, Centro, Trancoso, Bahia, Brasil",
            "website": null
        },
        {
            "id": 6538,
            "name": "BCJJ Betinho Correia France",
            "federationAbbr": "IBJJF",
            "country": "France",
            "countryAbbr": "FR",
            "city": "Paris",
            "responsible": "Alberto Rosemback Correia Teixeira ",
            "address": "68 Rue Jea Jaures, Paris, --, France",
            "website": null
        },
        {
            "id": 4678,
            "name": "B-Clan Jiu-Jitsu",
            "federationAbbr": "CBJJ",
            "country": "Brasil",
            "countryAbbr": "BR",
            "city": "Vitória ",
            "responsible": "Bruno de Paula Pires",
            "address": "Avenida Joubert de Barros 680 , Bento Ferreira, Vitória , ES, Brasil",
            "website": "www.brunodepaula.com.br"
        },
        {
            "id": 7299,
            "name": "Bcn AA Jiu-Jitsu",
            "federationAbbr": "IBJJF",
            "country": "Spain",
            "countryAbbr": "ES",
            "city": "Barcelona ",
            "responsible": "Adrià Pérez Carne",
            "address": "c/ maresme 24-28 , Barcelona , Spain",
            "website": "www.aajiujitsu.com"
        },
        {
            "id": 2572,
            "name": "BD Team Hunters BJJ",
            "federationAbbr": "CBJJ",
            "country": "Brasil",
            "countryAbbr": "BR",
            "city": "Fortaleza",
            "responsible": "Burton Deyves Gomes de Araujo",
            "address": "Rua 218 Número 390 Altos, 2ª Etapa - Conjunto Ceará, Fortaleza, CE, Brasil",
            "website": "http://www.bdteam.com.br"
        },
        {
            "id": 10064,
            "name": "Bd-kraken BJJ",
            "federationAbbr": "IBJJF",
            "country": "Spain",
            "countryAbbr": "ES",
            "city": "Zaragoza",
            "responsible": "Ionut Bogdan Dinu",
            "address": "Felix Latassa  Nr 10  ,2dcha, Zaragoza, Zaragoza, Spain",
            "website": null
        },
        {
            "id": 8496,
            "name": "Be Brave Jiu-Jitsu",
            "federationAbbr": "IBJJF",
            "country": "Korea, South",
            "countryAbbr": "KR",
            "city": "Daejeon",
            "responsible": "Jangwon Byeon",
            "address": "3rd Floor, 48, Boksudong-ro, Seo-gu, Daejeon, Korea, South",
            "website": null
        },
        {
            "id": 2122,
            "name": "Be One Jiu-Jitsu Academy",
            "federationAbbr": "CBJJ",
            "country": "Brasil",
            "countryAbbr": "BR",
            "city": "Francisco Beltrão",
            "responsible": "Fabio José de Oliveira",
            "address": "Rua Tenente Camargo n: 1385/24, Centro, Francisco Beltrão, Paraná, Brasil",
            "website": null
        },
        {
            "id": 10624,
            "name": "Beach Cities Brazilian Jiu-Jitsu",
            "federationAbbr": "USBJJF",
            "country": "United States of America",
            "countryAbbr": "US",
            "city": "Lomita",
            "responsible": "Rinaldo Aparecido Antônio",
            "address": "25927 S Western Ave, Lomita, Ca, United States of America",
            "website": null
        },
        {
            "id": 7257,
            "name": "Bear BJJ",
            "federationAbbr": "UIJJ",
            "country": "Italy",
            "countryAbbr": "IT",
            "city": "Osimo",
            "responsible": "Frederico Marcio Linhares Amiuna",
            "address": "Via Aiannunzio 30, Osimo, --, Italy",
            "website": null
        },
        {
            "id": 7818,
            "name": "Bear's Den Grappling Center",
            "federationAbbr": "USBJJF",
            "country": "United States of America",
            "countryAbbr": "US",
            "city": "Wyandotte",
            "responsible": "Jeffrey Alan Maloney",
            "address": "2101 Grove, Wyandotte, Mi, United States of America",
            "website": "bearsdengrapplingcenter.com"
        },
        {
            "id": 8426,
            "name": "Beast Wanki Bjj",
            "federationAbbr": "IBJJF",
            "country": "Korea, South",
            "countryAbbr": "KR",
            "city": "Goyang-si",
            "responsible": "Wanki Chae",
            "address": "20, Chungjang-ro, Deogyang-gu, 3rd Floor, 302, Beast Gym Jiu-jitsu, Goyang-si, Gyeonggi-do, Korea, South",
            "website": null
        }
    ]
}