{
    "pagination": {
        "page": 353,
        "from": 7040,
        "to": 7060,
        "pageSize": 20,
        "lastPage": 358,
        "totalRecords": 7149
    },
    "list": [
        {
            "id": 971,
            "name": "Yamasaki JJ",
            "federationAbbr": "CBJJ",
            "country": "Brasil",
            "countryAbbr": "BR",
            "city": "Rockville / Maryland",
            "responsible": null,
            "address": "Rockville / Maryland, Brasil",
            "website": null
        },
        {
            "id": 9847,
            "name": "Yamasaki Korea",
            "federationAbbr": "IBJJF",
            "country": "Korea, South",
            "countryAbbr": "KR",
            "city": "Gunsan-si",
            "responsible": "Fernando Yamasaki",
            "address": "2f 261, Wolmyeong-ro, Gunsan-si, Jeollabuk-do, Gunsan-si, Jeollabuk-do, Korea, South",
            "website": "www.grappling.com"
        },
        {
            "id": 4757,
            "name": "Yamasaki Spain",
            "federationAbbr": "IBJJF",
            "country": "Spain",
            "countryAbbr": "ES",
            "city": "Malaga",
            "responsible": "Fernando Yamasaki",
            "address": "Vrgen de la Paz 1  , , Malaga, Spain",
            "website": "www.fearthefighter.es"
        },
        {
            "id": 3596,
            "name": "Yamato Milano",
            "federationAbbr": "IBJJF",
            "country": "Italy",
            "countryAbbr": "IT",
            "city": "Milano",
            "responsible": "Christian Varsi",
            "address": "Via Bengasi 2, , Milano, ., Italy",
            "website": "http://www.yamatomilano.it"
        },
        {
            "id": 8459,
            "name": "Yanagisawa Jiu-Jitsu",
            "federationAbbr": "JBJJF",
            "country": "Japan",
            "countryAbbr": "JP",
            "city": "Kasukabe-shi",
            "responsible": "Tomoya Yanagisawa",
            "address": "1-4-1 Kasukabe, #5f Ichikawabiru, Kasukabe-shi, Saitama-ken, Japan",
            "website": "https://yanagisawa-jiujitsu.jimdosite.com/"
        },
        {
            "id": 9274,
            "name": "Yawara Harajuku Jiu-Jitsu Academy",
            "federationAbbr": "JBJJF",
            "country": "Japan",
            "countryAbbr": "JP",
            "city": "Shibuya-ku",
            "responsible": "Ryozo Murata",
            "address": "Jingumae 1-8-10, The Ice Cubes 8e9f, Shibuya-ku, Tokyo-to, Japan",
            "website": "https://yawara.fit/"
        },
        {
            "id": 5476,
            "name": "Yawaraya",
            "federationAbbr": "JBJJF",
            "country": "Japan",
            "countryAbbr": "JP",
            "city": "Fukuoka",
            "responsible": "Yuki Nakai",
            "address": "4-2-39 Wakamiya, Higasi-ku, Fukuoka, Japan",
            "website": "http://www.vitoria-fukuoka.com/"
        },
        {
            "id": 3692,
            "name": "Yaware",
            "federationAbbr": "IBJJF",
            "country": "Belgium",
            "countryAbbr": "BE",
            "city": "Hemelveerdegem",
            "responsible": "Evert Deweer",
            "address": "Putse 3A, , Hemelveerdegem, --, Belgium",
            "website": "www.yaware.be"
        },
        {
            "id": 9394,
            "name": "Yaway Jiu-Jitsu Academy",
            "federationAbbr": "JBJJF",
            "country": "Japan",
            "countryAbbr": "JP",
            "city": "Miyazaki",
            "responsible": "Joao Carlos Hiroshi Kuraoka",
            "address": "4-1-27\u0000komura Bld 3f, Tachibanadorihigashi, Miyazaki, Miyazaki, Japan",
            "website": "https://yaway.jp/"
        },
        {
            "id": 9568,
            "name": "YBJJ Academy",
            "federationAbbr": "IBJJF",
            "country": "France",
            "countryAbbr": "FR",
            "city": "Guethary",
            "responsible": "Yannick Beven",
            "address": "260 Chemin Laperia, Guethary, France",
            "website": null
        },
        {
            "id": 6563,
            "name": "Yel Training Club",
            "federationAbbr": "UIJJ",
            "country": "Italy",
            "countryAbbr": "IT",
            "city": "Asti",
            "responsible": "Reald Turja",
            "address": "Strada Valmanera, Asti, Italy",
            "website": null
        },
        {
            "id": 2798,
            "name": "Yemaso Brazilian Jiu-Jitsu",
            "federationAbbr": "USBJJF",
            "country": "United States of America",
            "countryAbbr": "US",
            "city": "Sacramento",
            "responsible": "Marcos Alejandro Torregrosa",
            "address": "3021 65th Street  , , Sacramento, CA, United States of America",
            "website": "www.yemasobjj.com"
        },
        {
            "id": 9767,
            "name": "Yoda Fight School",
            "federationAbbr": "IBJJF",
            "country": "France",
            "countryAbbr": "FR",
            "city": "Angers",
            "responsible": "Souksavanh Francis Som Khampasath",
            "address": "88 Bd Albert Camus, Apt 112, Angers, France",
            "website": "www.yodafightschool.com"
        },
        {
            "id": 9015,
            "name": "Yogui Bjj Nyköping",
            "federationAbbr": "IBJJF",
            "country": "Sweden",
            "countryAbbr": "SE",
            "city": "Nyköping",
            "responsible": "Jörgen Anders Peter Flink",
            "address": "Nytorget 7, Nyköping, Sweden",
            "website": null
        },
        {
            "id": 3081,
            "name": "Yogui Brazilian Jiu-Jitsu Academy",
            "federationAbbr": "IBJJF",
            "country": "Sweden",
            "countryAbbr": "SE",
            "city": "Gothenbourg",
            "responsible": "Marcelo Galvão Santiago",
            "address": "Hangarvagen 3-B, Gothenbourg, Sweden",
            "website": "www.yoguibjj.com"
        },
        {
            "id": 2888,
            "name": "Yoneda Team BJJ",
            "federationAbbr": "IBJJF",
            "country": "Paraguay",
            "countryAbbr": "PY",
            "city": "Salto Del Guaira",
            "responsible": "Rodolfo Garcia de Morais",
            "address": "Rua Bernardino Cabaleros s/n  , Bairro Villa Florida, Salto Del Guaira, Canindeyu, Paraguay",
            "website": ""
        },
        {
            "id": 4733,
            "name": "Youngzilion Jiu-Jitsu",
            "federationAbbr": "FPJJB",
            "country": "Portugal",
            "countryAbbr": "PT",
            "city": "Lisboa",
            "responsible": "Vladimiro Miguel G.V.S. Afonso",
            "address": "Rua João Amaral 14 1, 1, Lisboa, 11, Portugal",
            "website": ""
        },
        {
            "id": 10677,
            "name": "Yuan",
            "federationAbbr": "IBJJF",
            "country": "China",
            "countryAbbr": "CN",
            "city": "Beijing",
            "responsible": "Li Shiyuan",
            "address": "No.110 Frist Floor Jinxiuyuan Towera Xingfucun Middle Rd Chaoyang District Beijing, Beijing, China",
            "website": null
        },
        {
            "id": 4253,
            "name": "Yun Shou - Grey Wolf Jiu-Jitsu Bergamo",
            "federationAbbr": "IBJJF",
            "country": "Italy",
            "countryAbbr": "IT",
            "city": "Bergamo",
            "responsible": "Massimiliano Sbergia",
            "address": "via Val d'Ossola 10 , , Bergamo, Italy, Italy",
            "website": "www.yunshou.it"
        },
        {
            "id": 7855,
            "name": "Yuri Gomes BJJ",
            "federationAbbr": "CBJJ",
            "country": "Brasil",
            "countryAbbr": "BR",
            "city": "Coronel Ezequiel",
            "responsible": "Francisco Nildo Ferreira",
            "address": "Rua José Maurício De Andrade N°80, Coronel Ezequiel, Rn, Brasil",
            "website": "Coronel Ezequiel/RN"
        }
    ]
}