{
    "pagination": {
        "page": 110,
        "from": 2180,
        "to": 2200,
        "pageSize": 20,
        "lastPage": 358,
        "totalRecords": 7149
    },
    "list": [
        {
            "id": 6110,
            "name": "Equipe Igreja no Tatame",
            "federationAbbr": "CBJJ",
            "country": "Brasil",
            "countryAbbr": "BR",
            "city": "Rio de Janeiro",
            "responsible": "Jose Carlos Matos dos Santos",
            "address": "Avenida Pastor Martin Luther King n: 11812, Bairro: Acari, Rio de Janeiro, RJ, Brasil",
            "website": null
        },
        {
            "id": 7635,
            "name": "Equipe IlhaBela Jiu-Jitsu",
            "federationAbbr": "CBJJ",
            "country": "Brasil",
            "countryAbbr": "BR",
            "city": "IlhaBela",
            "responsible": "Marcelo de Siqueira Santos",
            "address": "R. Prefeito Mariano Procópio de Araújo Carvalho, 86 - Perequê , IlhaBela, S\u0001o Paulo, Brasil",
            "website": "www.ilhabela.sp.gov.br"
        },
        {
            "id": 8211,
            "name": "Equipe Joel Bombeiro / JB",
            "federationAbbr": "CBJJ",
            "country": "Brasil",
            "countryAbbr": "BR",
            "city": "Castanhal",
            "responsible": "Joel Chagas de Araujo",
            "address": "Rua Ix N 27, Castanhal, Pará, Brasil",
            "website": null
        },
        {
            "id": 9973,
            "name": "Equipe JS Mudando Vidas Jiu-Jitsu",
            "federationAbbr": "CBJJ",
            "country": "Brasil",
            "countryAbbr": "BR",
            "city": "Santa Rita Do Sapucaí",
            "responsible": "Fabio Dias Soares",
            "address": "Rua Dr Jose De Abreu 145, Santa Rita Do Sapucaí, Minas Gerais, Brasil",
            "website": null
        },
        {
            "id": 5040,
            "name": "Equipe Jucão Brazilian Jiu-Jitsu Brasil",
            "federationAbbr": "CBJJ",
            "country": "Brasil",
            "countryAbbr": "BR",
            "city": "Brasilia",
            "responsible": "Ailson Henrique Brites",
            "address": "SQS 315 BL \"C\" Apartamento 404 Nº 404 , Asa Sul, Brasilia, DF, Brasil",
            "website": null
        },
        {
            "id": 4666,
            "name": "Equipe Jullierme Ribeiro Jiu-Jitsu Team",
            "federationAbbr": "CBJJ",
            "country": "Brasil",
            "countryAbbr": "BR",
            "city": "Itanhandu",
            "responsible": "Jullierme Anderson Ribeiro Rosa",
            "address": "Rua Joaquim Jose Ribeiro 432, Centro, Itanhandu, Minas Gerais, Brasil",
            "website": null
        },
        {
            "id": 6515,
            "name": "Equipe Juquinha",
            "federationAbbr": "CBJJ",
            "country": "Brasil",
            "countryAbbr": "BR",
            "city": "Brasilia",
            "responsible": "Adimilson da Rosa Brites",
            "address": "SGAS 18 de Grandes Areas n: 909, Caseb Bairro: Asa Sul, Brasilia, DF, Brasil",
            "website": null
        },
        {
            "id": 9786,
            "name": "Equipe Kaique Freitas Jiu-Jitsu",
            "federationAbbr": "CBJJ",
            "country": "Brasil",
            "countryAbbr": "BR",
            "city": "Pombal",
            "responsible": "José Kaique de Lima Freitas",
            "address": "Casa, Centro, Centro, Pombal, Paraíba, Brasil",
            "website": "@equipekf_pombal"
        },
        {
            "id": 6454,
            "name": "Equipe Karla Araujo de Jiu-Jitsu",
            "federationAbbr": "CBJJ",
            "country": "Brasil",
            "countryAbbr": "BR",
            "city": "Dores Do Indaiá",
            "responsible": "Karla Francisca  Vieira  Araujo",
            "address": "Rua Edgar Pinto Fiuza, 251, Centro, Dores Do Indaiá, Minas Gerais, Brasil",
            "website": null
        },
        {
            "id": 7970,
            "name": "Equipe Kiti Jiu-Jitsu",
            "federationAbbr": "CBJJ",
            "country": "Brasil",
            "countryAbbr": "BR",
            "city": "Jaru",
            "responsible": "Christian Novaes Schotten",
            "address": "Avenida Padre Chiquinho, N 2955, Jaru, Rondonia, Brasil",
            "website": null
        },
        {
            "id": 7794,
            "name": "Equipe Koinonya De Jiu Jitsu",
            "federationAbbr": "CBJJ",
            "country": "Brasil",
            "countryAbbr": "BR",
            "city": "Belo Horizonte",
            "responsible": "Antonio Carlos de Abreu Evangelista",
            "address": "Rua Palestina, Casa, Belo Horizonte, Minas Gerais, Brasil",
            "website": null
        },
        {
            "id": 9011,
            "name": "Equipe L.H BJJ",
            "federationAbbr": "CBJJ",
            "country": "Brasil",
            "countryAbbr": "BR",
            "city": "Manaus",
            "responsible": "Luiz Henrique Oliveira do Nascimento",
            "address": "Rua Delfin De Souza Numero 728 \"b\" Bairro Petrópolis, Próximo Ao Posto De Saúde Ubs, Manaus, Amazonas, Brasil",
            "website": null
        },
        {
            "id": 612,
            "name": "Equipe LB - Laerte Barcelos",
            "federationAbbr": "CBJJ",
            "country": "Brasil",
            "countryAbbr": "BR",
            "city": "Rio de Janeiro",
            "responsible": "Laerte Santos Barcelos",
            "address": "Rua Brigadeiro Delamare 322, Bairro: Marechal Hermes, Rio de Janeiro, RJ, Brasil",
            "website": null
        },
        {
            "id": 6703,
            "name": "Equipe Lebeis",
            "federationAbbr": "CBJJ",
            "country": "Brasil",
            "countryAbbr": "BR",
            "city": "Rio de Janeiro",
            "responsible": "Fernando Lebeis Pires",
            "address": "Av. Rio Branco n: 120/2 andar , Centro, Rio de Janeiro, Rio de Janeiro, Brasil",
            "website": null
        },
        {
            "id": 4860,
            "name": "Equipe Liga Jiu-Jitsu",
            "federationAbbr": "CBJJ",
            "country": "Brasil",
            "countryAbbr": "BR",
            "city": "São José dos Campos",
            "responsible": "Erivaldo Gomes Flor Junior",
            "address": "Rua Tijuca 351 , Jardim Satélite, São José dos Campos, SP, Brasil",
            "website": null
        },
        {
            "id": 6980,
            "name": "Equipe Liga Jiu-Jitsu International",
            "federationAbbr": "IBJJF",
            "country": "Canada",
            "countryAbbr": "CA",
            "city": "Toronto ",
            "responsible": "Erivaldo Gomes Flor Junior",
            "address": "357 Rusholme Rd. Apt. 710 , Toronto , ON, Canada",
            "website": "www.ligajiujitsu.com.br"
        },
        {
            "id": 3127,
            "name": "Equipe Liga Oeste",
            "federationAbbr": "CBJJ",
            "country": "Brasil",
            "countryAbbr": "BR",
            "city": "São Paulo",
            "responsible": "Francisco Santana Souza Junior",
            "address": "Avenida Elisio Cordeiro De Siqueira, 1246, Pirituba, São Paulo, Sp, Brasil",
            "website": "www.ligaoeste.com.br"
        },
        {
            "id": 10264,
            "name": "Equipe Lucivam Araújo",
            "federationAbbr": "CBJJ",
            "country": "Brasil",
            "countryAbbr": "BR",
            "city": "Manaus",
            "responsible": "Lucivam Pereira de Araujo",
            "address": "Rua Antônio José Saraiva Compensa 3, Vila Marinho, Manaus, Amazonas, Brasil",
            "website": null
        },
        {
            "id": 8144,
            "name": "Equipe Luiz Paulo Jiu-Jitsu Nordeste",
            "federationAbbr": "CBJJ",
            "country": "Brasil",
            "countryAbbr": "BR",
            "city": "Paulo Afonso",
            "responsible": "Luiz Paulo B. de Oliveira",
            "address": "Av Apolônio Sales 714 Centro, Paulo Afonso, Bahia, Brasil",
            "website": "www.dionizionetojj.wordpress.com"
        },
        {
            "id": 7799,
            "name": "Equipe Lutando Pela Educação",
            "federationAbbr": "CBJJ",
            "country": "Brasil",
            "countryAbbr": "BR",
            "city": "Centro",
            "responsible": "Blasco Luiz de Souza Braga",
            "address": "Rua Xavier Fernandes ,34, Centro, Rio Grande Do Norte, Brasil",
            "website": null
        }
    ]
}