{
    "pagination": {
        "page": 226,
        "from": 4500,
        "to": 4520,
        "pageSize": 20,
        "lastPage": 358,
        "totalRecords": 7149
    },
    "list": [
        {
            "id": 10007,
            "name": "Marcelo Saporito Jiu-Jitsu France",
            "federationAbbr": "IBJJF",
            "country": "France",
            "countryAbbr": "FR",
            "city": "Amiens",
            "responsible": "Marcelo Rodrigues Saporito",
            "address": "106 Rue Simone Signoret, Halle Des Sports L'atlantic, Amiens, Somme, France",
            "website": null
        },
        {
            "id": 3531,
            "name": "Marcelo Tubarão",
            "federationAbbr": "CBJJ",
            "country": "Brasil",
            "countryAbbr": "BR",
            "city": "Porto Velho",
            "responsible": "Marcelo Alves Cardoso",
            "address": "Luis De Camões 6600, Aponiã, Porto Velho, RO, Brasil",
            "website": "https://cttubarao.negocio.site/?fbclid=PAAaaF6NoXdCPN055zQE1jviQzWgPTWF7snHig_aLkeupwBL2oiaP89VP0lvc"
        },
        {
            "id": 9783,
            "name": "Marcilio Medeiros Bjj Cascão",
            "federationAbbr": "CBJJ",
            "country": "Brasil",
            "countryAbbr": "BR",
            "city": "João Pessoa",
            "responsible": "Marcílio Medeiros da Silva",
            "address": "Av. Nilo Peçanha, 75, João Pessoa, Paraiba, Brasil",
            "website": "https://cascaobjj.com.br/"
        },
        {
            "id": 7108,
            "name": "Marcio Andre Association",
            "federationAbbr": "USBJJF",
            "country": "United States of America",
            "countryAbbr": "US",
            "city": "Phoenix",
            "responsible": "Marcio Andre da Costa Barbosa Junior",
            "address": "14647 S. 50th  St., Suite B172, Phoenix, AZ, United States of America",
            "website": "www.marcioandrejiujitsu.com"
        },
        {
            "id": 2323,
            "name": "Marcio Cruz Brazilian Jiu-Jitsu",
            "federationAbbr": "USBJJF",
            "country": "United States of America",
            "countryAbbr": "US",
            "city": "Tampa",
            "responsible": null,
            "address": "20733 Center Oak Dr  , , Tampa, FL, United States of America",
            "website": "www.marciocruzbjj.com"
        },
        {
            "id": 3499,
            "name": "Marcio Jordão",
            "federationAbbr": "CBJJ",
            "country": "Brasil",
            "countryAbbr": "BR",
            "city": "Rio de Janeiro",
            "responsible": "Márcio Jordão Reis",
            "address": "Rua José Francisco Lobo 210 , Santíssimo, Rio de Janeiro, RJ, Brasil",
            "website": ""
        },
        {
            "id": 9688,
            "name": "Marcio Silva Brazilian Jiu-Jitsu Team",
            "federationAbbr": "IBJJF",
            "country": "United Arab Emirates",
            "countryAbbr": "AE",
            "city": "Dubai",
            "responsible": "Marcio Eduardo Silva",
            "address": "Silverene Tower B 1110 - Dubai Marina, Dubai, Dubai, United Arab Emirates",
            "website": null
        },
        {
            "id": 6537,
            "name": "Marcio Soares Brazilian Jiu-Jitsu",
            "federationAbbr": "CBJJ",
            "country": "Brasil",
            "countryAbbr": "BR",
            "city": "Manaus",
            "responsible": "Luiz Marcio Marques Soares",
            "address": "Rua Nilo Geber, 45 - Coroado 3, Ouro Verde, Manaus, AM, Brasil",
            "website": null
        },
        {
            "id": 2332,
            "name": "Marco Nascimento BJJ",
            "federationAbbr": "USBJJF",
            "country": "United States of America",
            "countryAbbr": "US",
            "city": "San Mateo",
            "responsible": "Marco Antonio do Nascimento",
            "address": "1717 S. El Camino Real, San Mateo, CA, United States of America",
            "website": "www.mn-bjj.com"
        },
        {
            "id": 10288,
            "name": "Marco Oliveira BJJ",
            "federationAbbr": "IBJJF",
            "country": "Malaysia",
            "countryAbbr": "MY",
            "city": "Petaling Jaya",
            "responsible": "Marco Antonio de Oliveira",
            "address": "5-1, 1st Floor, Jalan Pju 5/20b The Strand,, Kota Damansara, Petaling Jaya, Selangor, Malaysia",
            "website": "mybjjacademy.com"
        },
        {
            "id": 4926,
            "name": "Marcos Almeida JJ",
            "federationAbbr": "CBJJ",
            "country": "Brasil",
            "countryAbbr": "BR",
            "city": "Porto Alegre",
            "responsible": "Marcos Odirlei Lopes Almeida",
            "address": "Rua Professor João de Souza Ribeiro n: 859/209, Humaitá, Porto Alegre, RS, Brasil",
            "website": null
        },
        {
            "id": 10247,
            "name": "Marcos Couto Jiu-Jitsu Brejetuba",
            "federationAbbr": "CBJJ",
            "country": "Brasil",
            "countryAbbr": "BR",
            "city": "Brejetuba",
            "responsible": "Marcos Dias Couto",
            "address": "Praça Celestina Xista Badaró 121, Proximo Ao Detran, Brejetuba, Brasil (+55), Brasil",
            "website": null
        },
        {
            "id": 6935,
            "name": "Marcos Dunker BJJ",
            "federationAbbr": "CBJJ",
            "country": "Brasil",
            "countryAbbr": "BR",
            "city": "Itapema",
            "responsible": "Marcos Floriano Dunker",
            "address": "Rua 250 Número 496, Bairro: Meia Praia, Itapema, Santa Catarina, Brasil",
            "website": null
        },
        {
            "id": 5074,
            "name": "Marcos Escobar Brazilian Jiu-Jitsu",
            "federationAbbr": "IBJJF",
            "country": "Malaysia",
            "countryAbbr": "MY",
            "city": "Petaling Jaya",
            "responsible": "Marcos Escobar Saad",
            "address": "B-16-1, Zenith Corporate Park, Jalan 7/26 Kelana Jaya  , Petaling Jaya, KL, Malaysia",
            "website": "www.escobarbjj.com"
        },
        {
            "id": 6731,
            "name": "Marcos Machado Jiu-Jitsu",
            "federationAbbr": "CBJJ",
            "country": "Brasil",
            "countryAbbr": "BR",
            "city": "Macaé",
            "responsible": "Marcos José de Matos Machado",
            "address": "Av. Lagomar n: 207 fundos, Engenho da Praia, Macaé, Rio de Janeiro, Brasil",
            "website": null
        },
        {
            "id": 10267,
            "name": "Marcos Muller Jiu-Jitsu",
            "federationAbbr": "CBJJ",
            "country": "Brasil",
            "countryAbbr": "BR",
            "city": "Sao Jose",
            "responsible": "Marcos Adriano Lima Machado Muller",
            "address": "Rua Vereador Pedro Medeiros, 398, Serraria, Sao Jose, Santa Catarina, Brasil",
            "website": "@MADUREIRA_MULLER"
        },
        {
            "id": 7379,
            "name": "Marcos Romario Academy",
            "federationAbbr": "FPJJB",
            "country": "Portugal",
            "countryAbbr": "PT",
            "city": "Sao Pedro do Estoril",
            "responsible": "Marcos Antonio Lins Machado Filho",
            "address": "Rua Sacadura Cabral 197A, Bloco B, Sao Pedro do Estoril, Portugal",
            "website": null
        },
        {
            "id": 8175,
            "name": "Marcos Venicius  BJJ",
            "federationAbbr": "CBJJ",
            "country": "Brasil",
            "countryAbbr": "BR",
            "city": "Fortaleza",
            "responsible": "Marcos Venicius Bezerra Almeida",
            "address": "Rua Cazuza Ferreira 835, Fortaleza, Ce, Brasil",
            "website": "Área Verde JIU JITSU"
        },
        {
            "id": 8807,
            "name": "Marcos William Brazilian Jiu-Jitsu",
            "federationAbbr": "USBJJF",
            "country": "United States of America",
            "countryAbbr": "US",
            "city": "Winter Garden",
            "responsible": "Marcos William Pereira",
            "address": "3072 Cherry Orchard Ln, Winter Garden, Fl, United States of America",
            "website": null
        },
        {
            "id": 5744,
            "name": "Marculino Top Team",
            "federationAbbr": "CBJJ",
            "country": "Brasil",
            "countryAbbr": "BR",
            "city": "Rio de Janeiro",
            "responsible": "Claudio Cordeiro Marculino",
            "address": "Rua 21, lote 32 QD 33, Santa Cruz da Serra - Duque de Caxias, Rio de Janeiro, Rio de Janeiro, Brasil",
            "website": "www.marculinotopteam.com"
        }
    ]
}