{
    "pagination": {
        "page": 357,
        "from": 7120,
        "to": 7140,
        "pageSize": 20,
        "lastPage": 358,
        "totalRecords": 7149
    },
    "list": [
        {
            "id": 6860,
            "name": "ZR Team Greece",
            "federationAbbr": "IBJJF",
            "country": "Greece",
            "countryAbbr": "GR",
            "city": "Katerini ",
            "responsible": "Maximiliano de Figueiredo Carvalho",
            "address": "7hs Merarxias L8, Katerini , Greece",
            "website": null
        },
        {
            "id": 9575,
            "name": "ZR Team Guadeloupe",
            "federationAbbr": "IBJJF",
            "country": "France",
            "countryAbbr": "FR",
            "city": "Le Gosier",
            "responsible": "Charles Bucher",
            "address": "205 Résidence Grand Cap, Le Gosier, France",
            "website": null
        },
        {
            "id": 2298,
            "name": "ZR Team Hungary",
            "federationAbbr": "IBJJF",
            "country": "Hungary",
            "countryAbbr": "HU",
            "city": "Budapest",
            "responsible": "Maximiliano de Figueiredo Carvalho",
            "address": "1067 Budapest, Eötvös Utca 11 / A, , Budapest, --, Hungary",
            "website": ""
        },
        {
            "id": 6198,
            "name": "ZR Team Joaquin Távora - Fortaleza - CE",
            "federationAbbr": "CBJJ",
            "country": "Brasil",
            "countryAbbr": "BR",
            "city": "Fortaleza",
            "responsible": "Cristovão de Souza Balieiro",
            "address": "Rua Joaquim Torres, 823, Bairro Joaquim Távora, Fortaleza, Ceará, Brasil",
            "website": "https://www.zrjtfortalezace.com/"
        },
        {
            "id": 7854,
            "name": "Zr Team Lyon",
            "federationAbbr": "IBJJF",
            "country": "France",
            "countryAbbr": "FR",
            "city": "Lyon",
            "responsible": "Douglas Felippe Barcelos",
            "address": "79 Rue Du Pessionnat, Lyon, France",
            "website": null
        },
        {
            "id": 8608,
            "name": "ZR Team Maracanaú",
            "federationAbbr": "CBJJ",
            "country": "Brasil",
            "countryAbbr": "BR",
            "city": "Maracanaú",
            "responsible": "Pedro da Silva Souza Júnior",
            "address": "Rua Marajó 303, Maracanaú, Ceará, Brasil",
            "website": null
        },
        {
            "id": 6326,
            "name": "ZR Team Marinha Grande",
            "federationAbbr": "FPJJB",
            "country": "Portugal",
            "countryAbbr": "PT",
            "city": "Marinha Grande",
            "responsible": "José Olimpio da Rocha Neto",
            "address": "Rua Diogo Stephens N-25, Marinha Grande, Portugal",
            "website": null
        },
        {
            "id": 6739,
            "name": "ZR Team Moldova",
            "federationAbbr": "IBJJF",
            "country": "Moldova, Republic of",
            "countryAbbr": "MD",
            "city": "Chisinau",
            "responsible": "Maximiliano de Figueiredo Carvalho",
            "address": "str. Cuza-Voda 1/2 ap.14, Chisinau, Moldova, Republic of",
            "website": "www.jiu-jitsu.md"
        },
        {
            "id": 7801,
            "name": "ZR Team NC",
            "federationAbbr": "USBJJF",
            "country": "United States of America",
            "countryAbbr": "US",
            "city": "Spring Lake",
            "responsible": "Diego Dias Ramalho",
            "address": "1113 N Bragg Blvd, #68, Spring Lake, NC, United States of America",
            "website": null
        },
        {
            "id": 3679,
            "name": "ZR Team Nice",
            "federationAbbr": "IBJJF",
            "country": "France",
            "countryAbbr": "FR",
            "city": "Nice",
            "responsible": "José Olimpio da Rocha Neto",
            "address": "3, rue Pertinax  , , Nice, --, France",
            "website": ""
        },
        {
            "id": 6269,
            "name": "ZR Team Pará",
            "federationAbbr": "CBJJ",
            "country": "Brasil",
            "countryAbbr": "BR",
            "city": "Castanhal",
            "responsible": "Elvis Marlon da Costa Cavalcante",
            "address": "Rua Antônio Porpino da Silva n: 57, Conj. Cohab Bairro: Saudade II, Castanhal, Pará, Brasil",
            "website": null
        },
        {
            "id": 5352,
            "name": "ZR Team Paris",
            "federationAbbr": "IBJJF",
            "country": "France",
            "countryAbbr": "FR",
            "city": "Lieusaint",
            "responsible": "Maximiliano de Figueiredo Carvalho",
            "address": "Gymnase Lavoisier rue des Grands Champs, Lieusaint, France",
            "website": null
        },
        {
            "id": 454,
            "name": "ZR Team Pernambuco",
            "federationAbbr": "CBJJ",
            "country": "Brasil",
            "countryAbbr": "BR",
            "city": "Jaboatão dos Guararapes",
            "responsible": "José Olimpio da Rocha Neto",
            "address": "Rua Felício Barros de Medeiros Correia 4240 , Piedade, Jaboatão dos Guararapes, PE, Brasil",
            "website": "www.zeradiolateam.com.br"
        },
        {
            "id": 2072,
            "name": "ZR Team Piauí",
            "federationAbbr": "CBJJ",
            "country": "Brasil",
            "countryAbbr": "BR",
            "city": "Teresina",
            "responsible": "Marcelo Castro Aguiar",
            "address": "Avenida Jóquei Clube,  625, Jóquei, Teresina, PI, Brasil",
            "website": null
        },
        {
            "id": 8776,
            "name": "ZR Team Pirangi do Norte",
            "federationAbbr": "CBJJ",
            "country": "Brasil",
            "countryAbbr": "BR",
            "city": "Parnamirim",
            "responsible": "José Márcio Alves dos Santos",
            "address": "Rua Francisco Gonzaga Xavier, Parnamirim, Rio Grande Do Norte, Brasil",
            "website": null
        },
        {
            "id": 7387,
            "name": "ZR team Póvoa do Varzim",
            "federationAbbr": "FPJJB",
            "country": "Portugal",
            "countryAbbr": "PT",
            "city": "Póvoa do Varzim",
            "responsible": "José Olimpio da Rocha Neto",
            "address": "Rua - Alm. Reis, 13B, Póvoa do Varzim, --, Portugal",
            "website": null
        },
        {
            "id": 8948,
            "name": "ZR Team RCA",
            "federationAbbr": "IBJJF",
            "country": "France",
            "countryAbbr": "FR",
            "city": "Rennes",
            "responsible": "Yvan Andre Eugene Chalonny",
            "address": "35 Rue Du Manoir De Servigné, Rennes, France, France",
            "website": "https://rennescombat.fr/"
        },
        {
            "id": 4994,
            "name": "ZR Team Rennes",
            "federationAbbr": "IBJJF",
            "country": "France",
            "countryAbbr": "FR",
            "city": "Rennes",
            "responsible": "Julien Roger Louis Fouché",
            "address": "26 rue Saint Georges  , Rennes, France",
            "website": "zrteam-rennes.fr"
        },
        {
            "id": 4643,
            "name": "Zr Team Sanremo / Daruma BJJ",
            "federationAbbr": "IBJJF",
            "country": "Italy",
            "countryAbbr": "IT",
            "city": "Sanremo",
            "responsible": "Davide Berardi",
            "address": "Corso degli Inglesi n.230, Sanremo, ., Italy",
            "website": null
        },
        {
            "id": 9045,
            "name": "ZR Team Santa Rita",
            "federationAbbr": "CBJJ",
            "country": "Brasil",
            "countryAbbr": "BR",
            "city": "Santa Rita",
            "responsible": "Youkim Rodrigues da Silva",
            "address": "Rua Vinte E Nove De Julho , 09, Centro, Santa Rita, Paraíba, Brasil",
            "website": "Santa Rita - Pb"
        }
    ]
}