{
    "pagination": {
        "page": 82,
        "from": 1620,
        "to": 1640,
        "pageSize": 20,
        "lastPage": 358,
        "totalRecords": 7149
    },
    "list": [
        {
            "id": 5386,
            "name": "Clóvis Brito",
            "federationAbbr": "CBJJ",
            "country": "Brasil",
            "countryAbbr": "BR",
            "city": "Cambuí",
            "responsible": "Clóvis de Souza Brito",
            "address": "Rua João Moreira Salles, 591 - Apt 3º andar, Centro, Cambuí, MG, Brasil",
            "website": null
        },
        {
            "id": 8277,
            "name": "Club Artes Marciales Milenarias - AMM Team",
            "federationAbbr": "IBJJF",
            "country": "Ecuador",
            "countryAbbr": "EC",
            "city": "Samborondon ",
            "responsible": "James Robert Saa Marin",
            "address": "Cdla. Entrerios Calle 4ta Mz. S1 Villa 6, Samborondon , Guayas , Ecuador",
            "website": null
        },
        {
            "id": 3170,
            "name": "Club Barbarian",
            "federationAbbr": "JBJJF",
            "country": "Japan",
            "countryAbbr": "JP",
            "city": "Toyama",
            "responsible": "Yoshinori Fukumoto",
            "address": "287-3 O-machi 2  , Toyama, --, Japan",
            "website": "www.club-barbarian.com"
        },
        {
            "id": 3940,
            "name": "Club Ne-Waza BJJ",
            "federationAbbr": "USBJJF",
            "country": "United States of America",
            "countryAbbr": "US",
            "city": "Fitchburg",
            "responsible": "Rogerio Sena Dos Santos",
            "address": "489 Electric Ave, Fitchburg, MA, United States of America",
            "website": "www.newazabjj.com"
        },
        {
            "id": 2645,
            "name": "Club Pina Brazilian Jiu-Jitsu",
            "federationAbbr": "CBJJ",
            "country": "Brasil",
            "countryAbbr": "BR",
            "city": "Manaus",
            "responsible": "Faustino Martins Neto",
            "address": "Avenida Fernando Pessoa, 1339 - Japiim 2, Japiim 2, Manaus, AM, Brasil",
            "website": null
        },
        {
            "id": 7187,
            "name": "Club Pina International",
            "federationAbbr": "IBJJF",
            "country": "Germany",
            "countryAbbr": "DE",
            "city": "Goppingen",
            "responsible": "Faustino Martins Neto",
            "address": "Daimlerstrasse 15, Goppingen, Germany",
            "website": "www.impactoteam-goeppingen.de"
        },
        {
            "id": 4489,
            "name": "Clube Condor de Jiu Jitsu Spain",
            "federationAbbr": "IBJJF",
            "country": "Spain",
            "countryAbbr": "ES",
            "city": "San Sebastian ",
            "responsible": "Cirval Justino da Silva",
            "address": "C/Calzada Vieja De Ategorrieta 57-5 B , , San Sebastian , Spain , Spain",
            "website": ""
        },
        {
            "id": 1049,
            "name": "Clube Condor de Jiu-Jitsu",
            "federationAbbr": "CBJJ",
            "country": "Brasil",
            "countryAbbr": "BR",
            "city": "São Gonçalo",
            "responsible": "Cirval Justino da Silva",
            "address": " 574 academia ponto do atleta, Sacramento, São Gonçalo, RJ, Brasil",
            "website": ""
        },
        {
            "id": 254,
            "name": "Clube Curitibano",
            "federationAbbr": "CBJJ",
            "country": "Brasil",
            "countryAbbr": "BR",
            "city": "Curitiba",
            "responsible": "Rodrigo Fajardo",
            "address": "Av. Getúlio Vargas 2857 , Água Verde, Curitiba, PR, Brasil",
            "website": "www.clubecuritibano.com.br"
        },
        {
            "id": 4317,
            "name": "Clube de Jiu Jitsu Pitbull SP",
            "federationAbbr": "CBJJ",
            "country": "Brasil",
            "countryAbbr": "BR",
            "city": "São Paulo",
            "responsible": "Robson Medeiros Escaleira",
            "address": "Rua Carneiro da Cunha  162 , Saúde, São Paulo, SP, Brasil",
            "website": "www.pitbullgraciesp.com"
        },
        {
            "id": 6271,
            "name": "Clube de Jiu-Jitsu Filipinas",
            "federationAbbr": "IBJJF",
            "country": "Philippines",
            "countryAbbr": "PH",
            "city": "Cavite",
            "responsible": "John Baylon",
            "address": "Sbm. Eliserio G. Tagle, Dasmarinas, Cavite, Philippines",
            "website": "clubedejiujitsu-filipinas.com"
        },
        {
            "id": 3862,
            "name": "Clube de Jiu-Jitsu Pitbull Czech Republic",
            "federationAbbr": "IBJJF",
            "country": "Czech Republic",
            "countryAbbr": "CZ",
            "city": "Prague",
            "responsible": "Adilson Jorge de Lima",
            "address": "Osamocena 789/15  , , Prague, --, Czech Republic",
            "website": "www.graciejiujitsu.cz"
        },
        {
            "id": 8139,
            "name": "Clube De Jiu-Jitsu Pitbull Rio Das Ostras",
            "federationAbbr": "CBJJ",
            "country": "Brasil",
            "countryAbbr": "BR",
            "city": "Río Das Ostras",
            "responsible": "Thiago de Carvalho Nogueira",
            "address": "Rua Macaé 393, Sobreloja, Río Das Ostras, Rj, Brasil",
            "website": null
        },
        {
            "id": 9830,
            "name": "Clube de Jiu-Jitsu Pitbull Slovakia",
            "federationAbbr": "IBJJF",
            "country": "Slovakia",
            "countryAbbr": "SK",
            "city": "Hrubý `úr",
            "responsible": "Martin Sitar",
            "address": "341, Hrubý `úr, Slovakia",
            "website": null
        },
        {
            "id": 7654,
            "name": "Clube de Jiu-Jitsu Pitbull UAE",
            "federationAbbr": "IBJJF",
            "country": "United Arab Emirates",
            "countryAbbr": "AE",
            "city": "Abu Dhabi ",
            "responsible": "Adilson Jorge de Lima",
            "address": "Shams Meera tower  al reem island , Abu Dhabi , Abu Dhabi , United Arab Emirates",
            "website": null
        },
        {
            "id": 6496,
            "name": "Clube de Lutas Australia",
            "federationAbbr": "IBJJF",
            "country": "Australia",
            "countryAbbr": "AU",
            "city": "Sydney",
            "responsible": "Alex de Araújo Paz",
            "address": "B210 2-4 Darley Street Forestville, Sydney, NSW, Australia",
            "website": "clubedelutas.com.au"
        },
        {
            "id": 2001,
            "name": "Clube Feijão de Jiu-Jitsu",
            "federationAbbr": "CBJJ",
            "country": "Brasil",
            "countryAbbr": "BR",
            "city": "Maringá",
            "responsible": "Rodrigo Antonio Garcia da Silva",
            "address": "Rua Saldanha Marinho n: 623, Zona 07, Maringá, PR, Brasil",
            "website": null
        },
        {
            "id": 257,
            "name": "Clube Ferroviário do Recife/PE JJ",
            "federationAbbr": "CBJJ",
            "country": "Brasil",
            "countryAbbr": "BR",
            "city": "Recife",
            "responsible": "Derval Luciano Rêgo",
            "address": "Rua José Nunes da Cunha n: 4728, casa A - Candeias - Joboatão dos Guararapes, Recife, PE, Brasil",
            "website": null
        },
        {
            "id": 1061,
            "name": "Clube Gonçalense JJ",
            "federationAbbr": "CBJJ",
            "country": "Brasil",
            "countryAbbr": "BR",
            "city": "São Gonçalo",
            "responsible": "Juarez Soares da Costa",
            "address": "Avenida Olindo Pereira  339 , Neves, São Gonçalo, RJ, Brasil",
            "website": ""
        },
        {
            "id": 7652,
            "name": "Clube Gonzaga de Jiu-Jitsu e MMA",
            "federationAbbr": "CBJJ",
            "country": "Brasil",
            "countryAbbr": "BR",
            "city": "Goiania",
            "responsible": "Jean Gonzaga",
            "address": "C 104 QD.335 LT. 1-3 EDIFÍCIO FÁTIMA DANTAS, 1236, Goiania, Goias, Brasil",
            "website": null
        }
    ]
}