{
    "pagination": {
        "page": 89,
        "from": 1760,
        "to": 1780,
        "pageSize": 20,
        "lastPage": 358,
        "totalRecords": 7149
    },
    "list": [
        {
            "id": 9580,
            "name": "CROWN BJJ",
            "federationAbbr": "CBJJ",
            "country": "Brasil",
            "countryAbbr": "BR",
            "city": "Manaus",
            "responsible": "Luis Faustino da Costa Neto",
            "address": "Rua José Belmonte, 26, Conjunto Jardim De Versalles 2, Planalto, Manaus, Amazonas, Brasil",
            "website": null
        },
        {
            "id": 10425,
            "name": "Crown BJJ Bluffdale",
            "federationAbbr": "USBJJF",
            "country": "United States of America",
            "countryAbbr": "US",
            "city": "Bluffdale",
            "responsible": "Julio Andrade Viotti",
            "address": "14719 S 855 W, Bluffdale, Ut, United States of America",
            "website": "www.crownbjj.com"
        },
        {
            "id": 4590,
            "name": "Crunk Jiu-Jitsu",
            "federationAbbr": "USBJJF",
            "country": "United States of America",
            "countryAbbr": "US",
            "city": "Port Orange",
            "responsible": "Richard Allan Crunkilton Jr.",
            "address": "707 Samms Ave Units F \u0026 G  , , Port Orange, FL, United States of America",
            "website": "www.armorydaytona.com"
        },
        {
            "id": 3354,
            "name": "CSA BJJ",
            "federationAbbr": "IBJJF",
            "country": "United Kingdom",
            "countryAbbr": "GB",
            "city": "Strood",
            "responsible": "Lee Johnstone",
            "address": "Unit 1 Cuxton Road Industrial Estate, Cuxton Road  , , Strood, Kent, United Kingdom",
            "website": "www.combatsportsacademy.net"
        },
        {
            "id": 5418,
            "name": "CSW",
            "federationAbbr": "USBJJF",
            "country": "United States of America",
            "countryAbbr": "US",
            "city": "Fullerton",
            "responsible": "Rigan Machado",
            "address": "CSW Training Center, 4080 N. Palm St. #801, Fullerton, CA, United States of America",
            "website": "https://cswfullerton.com"
        },
        {
            "id": 6781,
            "name": "CSW United Studios Brazilian Jiu-Jitsu",
            "federationAbbr": "USBJJF",
            "country": "United States of America",
            "countryAbbr": "US",
            "city": "Miller Place",
            "responsible": "Bryan Fabros Clavecilla",
            "address": "347a Rt25a, Miller Place, NY, United States of America",
            "website": "www.tryusbjj.com"
        },
        {
            "id": 9146,
            "name": "Ct Aglaub Oliveira Jiu Jitsu",
            "federationAbbr": "CBJJ",
            "country": "Brasil",
            "countryAbbr": "BR",
            "city": "Novo Progresso",
            "responsible": "Aglaub Barros Oliveira",
            "address": "Rua Monte Castelo Com Sontos Dumont, C.t Alta Performance, Novo Progresso, Para, Brasil",
            "website": "https://instagram.com/ct_crossfighter.team"
        },
        {
            "id": 4844,
            "name": "CT Alan Galvão",
            "federationAbbr": "CBJJ",
            "country": "Brasil",
            "countryAbbr": "BR",
            "city": "Capão Bonito",
            "responsible": "Alan de Souza Galvão",
            "address": "Rua Francisco Barreto 944 Galpão, Centro, Capão Bonito, SP, Brasil",
            "website": null
        },
        {
            "id": 9828,
            "name": "CT Amilton Brazilian Jiu-Jitsu",
            "federationAbbr": "CBJJ",
            "country": "Brasil",
            "countryAbbr": "BR",
            "city": "Buriticupu",
            "responsible": "Amilton Soares da Silva",
            "address": "Rua Dos Carpinteiros    N: 286, Barrio Colégio Agricula, Buriticupu, Maranhão, Brasil",
            "website": null
        },
        {
            "id": 10369,
            "name": "CT Antonio Sampaio BJJ",
            "federationAbbr": "CBJJ",
            "country": "Brasil",
            "countryAbbr": "BR",
            "city": "Belém",
            "responsible": "Antonio Ricardo Alves Sampaio",
            "address": "Travessa 14 De Abril, 1161., Passagem Alvino E Passagem Vinte E Um De Abril, Belém, Pará, Brasil",
            "website": null
        },
        {
            "id": 8373,
            "name": "Ct Antunes Brothers",
            "federationAbbr": "CBJJ",
            "country": "Brasil",
            "countryAbbr": "BR",
            "city": "Brasília",
            "responsible": "Domicio da Conceição Antunes",
            "address": "Shces 803 Bloco C Loja 21, Brasília, Distrito Federal, Brasil",
            "website": null
        },
        {
            "id": 7742,
            "name": "Ct Atraídos Por Deus",
            "federationAbbr": "CBJJ",
            "country": "Brasil",
            "countryAbbr": "BR",
            "city": "Manaus",
            "responsible": "Fabrício Almeida Bruce",
            "address": "Rua 08, 243 - Flores, Comunidade Mundo Novo, Manaus, Amazonas, Brasil",
            "website": null
        },
        {
            "id": 7621,
            "name": "CT Bairros Junior",
            "federationAbbr": "CBJJ",
            "country": "Brasil",
            "countryAbbr": "BR",
            "city": "Passo Fundo",
            "responsible": "Edevar de Bairros Junior ",
            "address": "Rua Placido de Castro, 135, Vila Rodrigues , Passo Fundo, RS, Brasil",
            "website": null
        },
        {
            "id": 10342,
            "name": "Ct Broka Jiu-jitsu",
            "federationAbbr": "CBJJ",
            "country": "Brasil",
            "countryAbbr": "BR",
            "city": "Macapá",
            "responsible": "Angelo Sergio Ferreira da Silva",
            "address": "Avenida Jose Goncalves Picanço, N639, Bairro: Novo Buritizal, Macapá, Amapá, Brasil",
            "website": null
        },
        {
            "id": 5171,
            "name": "CT Caveira",
            "federationAbbr": "CBJJ",
            "country": "Brasil",
            "countryAbbr": "BR",
            "city": "São José dos Campos",
            "responsible": "Sérgio Luis Almeida Lisboa",
            "address": "Av. Saga 74 , Jardim Oriente, São José dos Campos, SP, Brasil",
            "website": ""
        },
        {
            "id": 9098,
            "name": "Ct Chapada Sports",
            "federationAbbr": "CBJJ",
            "country": "Brasil",
            "countryAbbr": "BR",
            "city": "Seabra",
            "responsible": "Pedro Augusto Jesus",
            "address": "Rua Ana Neri, Numero 35 Primeiro Andar, Seabra, Ba, Brasil",
            "website": "SEABRA"
        },
        {
            "id": 10298,
            "name": "CT Chardson Amâncio",
            "federationAbbr": "CBJJ",
            "country": "Brasil",
            "countryAbbr": "BR",
            "city": "Manaus",
            "responsible": "Chardison da Fonseca Amâncio",
            "address": "Rua Inácio Guimarães Beco São José, Atras Da Luanjo, Manaus, Amazonas, Brasil",
            "website": null
        },
        {
            "id": 8522,
            "name": "CT Chimango BJJ",
            "federationAbbr": "CBJJ",
            "country": "Brasil",
            "countryAbbr": "BR",
            "city": "Petrópolis",
            "responsible": "Irineu Ravelli Junior",
            "address": "Rua Barão De Águas Claras, 89, Centro, Petrópolis, Rj, Brasil",
            "website": null
        },
        {
            "id": 5260,
            "name": "CT Christiano Vianna JJ Club",
            "federationAbbr": "CBJJ",
            "country": "Brasil",
            "countryAbbr": "BR",
            "city": "São Luis",
            "responsible": "Christiany Neves Viana",
            "address": "Rua Antonio Bayma 166 , João Paulo, São Luis, MA, Brasil",
            "website": "www.facebook.com/ChristianoJiuJitsuClub"
        },
        {
            "id": 8070,
            "name": "Ct Cristiano Tchê",
            "federationAbbr": "CBJJ",
            "country": "Brasil",
            "countryAbbr": "BR",
            "city": "Natal",
            "responsible": "Cristiano Silveira da Silva",
            "address": "Rua José Farache, 34 B, Lagoa Seca, Natal, Rn, Brasil",
            "website": null
        }
    ]
}