{
    "pagination": {
        "page": 271,
        "from": 5400,
        "to": 5420,
        "pageSize": 20,
        "lastPage": 358,
        "totalRecords": 7149
    },
    "list": [
        {
            "id": 8125,
            "name": "Ramon Rost Equipe",
            "federationAbbr": "CBJJ",
            "country": "Brasil",
            "countryAbbr": "BR",
            "city": "Osorio",
            "responsible": "Ramon Coelho Rost",
            "address": "Rs 030 - 2815, Rs 030 - 2865, Osorio, Rs, Brasil",
            "website": null
        },
        {
            "id": 6802,
            "name": "Ramona BJJ",
            "federationAbbr": "USBJJF",
            "country": "United States of America",
            "countryAbbr": "US",
            "city": "Ramona ",
            "responsible": "Kevin Hosseini",
            "address": "2102 Main Street #2, Ramona , CA, United States of America",
            "website": "www.RamonaBJJ.com"
        },
        {
            "id": 4686,
            "name": "Rampini Brazilian Jiu-Jitsu",
            "federationAbbr": "CBJJ",
            "country": "Brasil",
            "countryAbbr": "BR",
            "city": "São Jose do V. do Rio Preto",
            "responsible": "Gustavo Rampini Furtado",
            "address": "Rua Paulo Franco Werneck  338, Centro, São Jose do V. do Rio Preto, RJ, Brasil",
            "website": ""
        },
        {
            "id": 7872,
            "name": "Rangers Jiu-Jitsu",
            "federationAbbr": "CBJJ",
            "country": "Brasil",
            "countryAbbr": "BR",
            "city": "Barbacena",
            "responsible": "Cleberson Luiz Farias",
            "address": "Rua: Amilcar Savassi, 454, Bairro Campo, Barbacena, Minas Gerais, Brasil",
            "website": null
        },
        {
            "id": 6670,
            "name": "Rani Yahya BJJ",
            "federationAbbr": "CBJJ",
            "country": "Brasil",
            "countryAbbr": "BR",
            "city": "Brasilia",
            "responsible": "Rani Ahmad Yahya",
            "address": "Academia ACM G10 Sul n: SQS610, Bairro: Asa Sul, Brasilia, Distrito Federal, Brasil",
            "website": null
        },
        {
            "id": 7350,
            "name": "Rapel BJJ",
            "federationAbbr": "JBJJF",
            "country": "Japan",
            "countryAbbr": "JP",
            "city": "Tagawa-shi",
            "responsible": "Takanori Tokugawa",
            "address": "4265 Ita, Tagawa-shi, Fukuoka, Japan",
            "website": null
        },
        {
            "id": 9269,
            "name": "Raphael Colona BJJ",
            "federationAbbr": "CBJJ",
            "country": "Brasil",
            "countryAbbr": "BR",
            "city": "Vila Velha",
            "responsible": "Raphael Hequer Colona",
            "address": "Rua Assunção , 322, Bairro Araçás, Vila Velha, Es, Brasil",
            "website": null
        },
        {
            "id": 3513,
            "name": "Raphael Pessôa Jiu-Jitsu",
            "federationAbbr": "CBJJ",
            "country": "Brasil",
            "countryAbbr": "BR",
            "city": "João Neiva",
            "responsible": "Raphael Jossiê Mattos Pessôa",
            "address": "Rua Sarcinelli Antônio 45, Centro, João Neiva, ES, Brasil",
            "website": "www.rpjiujitsu.com.br"
        },
        {
            "id": 10028,
            "name": "Raposo BJJ / Checkmat Slidell",
            "federationAbbr": "USBJJF",
            "country": "United States of America",
            "countryAbbr": "US",
            "city": "Slidell",
            "responsible": "Erick Vinicius Raposo",
            "address": "1000 Caruso Blvd, Suite 245, Slidell, Louisiana, United States of America",
            "website": "Raposobjjacademy.com"
        },
        {
            "id": 10155,
            "name": "Raptors Combat Sports",
            "federationAbbr": "CBJJ",
            "country": "Brasil",
            "countryAbbr": "BR",
            "city": "Tijucas",
            "responsible": "Luiz Ricardo Flôres",
            "address": "Rua Pará, 368, Bairro Universitário, Tijucas, Santa Catarina, Brasil",
            "website": null
        },
        {
            "id": 10194,
            "name": "Rasai Jiu-Jitsu",
            "federationAbbr": "USBJJF",
            "country": "United States of America",
            "countryAbbr": "US",
            "city": "San Diego",
            "responsible": "Sergio Raimundo Rios da Silva",
            "address": "7343 Ronson Rd Unit P, San Diego, Ca, United States of America",
            "website": "www.rasaijiujitsu.com"
        },
        {
            "id": 8888,
            "name": "Ratão Jiu-Jitsu",
            "federationAbbr": "CBJJ",
            "country": "Brasil",
            "countryAbbr": "BR",
            "city": "Porto Alegre",
            "responsible": "Ricardo Mesquita Pinheiro",
            "address": "Rua Barbedo 484, Porto Alegre, Rio Grande Do Sul, Brasil",
            "website": null
        },
        {
            "id": 3726,
            "name": "Ratel Yellow Jiu Jitsu Academy",
            "federationAbbr": "IBJJF",
            "country": "Korea, South",
            "countryAbbr": "KR",
            "city": "Seoul",
            "responsible": "Kuk Joo Kim",
            "address": "Yang Cheon-Gu Mok 1 Dong 404-97 3rd Floor  , , Seoul, --, Korea, South",
            "website": "http://cafe.daum.net/ratelbjj"
        },
        {
            "id": 10745,
            "name": "Rato Team Bjj",
            "federationAbbr": "CBJJ",
            "country": "Brasil",
            "countryAbbr": "BR",
            "city": "São Paulo",
            "responsible": "Rodolfo Garcia de Morais",
            "address": "Avenida Casa Verde 2299, Casa Verde, São Paulo, São Paulo, Brasil",
            "website": "www.ratoteam.com.br"
        },
        {
            "id": 4245,
            "name": "Ratos De Tatâme Team",
            "federationAbbr": "CBJJ",
            "country": "Brasil",
            "countryAbbr": "BR",
            "city": "Ubatuba",
            "responsible": "Fernando Luiz Costa Ferreira",
            "address": "Av. Ruth Marques do Valle 207, Estufa I, Ubatuba, SP, Brasil",
            "website": "www.equiperatosdetatame.com.br"
        },
        {
            "id": 2673,
            "name": "Raul Castillo Martial Arts",
            "federationAbbr": "USBJJF",
            "country": "United States of America",
            "countryAbbr": "US",
            "city": "Half Moon Bay",
            "responsible": "Raul Christopher N. Castillo",
            "address": "765 Main st  , , Half Moon Bay, CA, United States of America",
            "website": "hmbmma.com"
        },
        {
            "id": 9042,
            "name": "Raullen Nunes Academy",
            "federationAbbr": "CBJJ",
            "country": "Brasil",
            "countryAbbr": "BR",
            "city": "Teresopolis",
            "responsible": "Raullen Nunes Serra",
            "address": "Rua Alfredo Rebelo Filho Numero 357 Alto- Teresopolis, Teresopolis, Rj, Brasil",
            "website": null
        },
        {
            "id": 5445,
            "name": "RB7 Islands Jiu-Jitsu Team",
            "federationAbbr": "CBJJ",
            "country": "Brasil",
            "countryAbbr": "BR",
            "city": "Belém ",
            "responsible": "Antonio Gadelha da Conceição",
            "address": "Avenida José Bonifácio, 1260 Vila Rosana Casa 9 , São Braz, Belém , PA, Brasil",
            "website": null
        },
        {
            "id": 8339,
            "name": "RBT Academy",
            "federationAbbr": "IBJJF",
            "country": "Spain",
            "countryAbbr": "ES",
            "city": "Colloto, Oviedo",
            "responsible": "Pablo Jose Diaz Delgado",
            "address": "Camino Real Nº22, 1ºf, Colloto, Oviedo, Asturias, Spain",
            "website": "ESPAÑA"
        },
        {
            "id": 8531,
            "name": "RC North Studio Jiu-Jitsu",
            "federationAbbr": "CBJJ",
            "country": "Brasil",
            "countryAbbr": "BR",
            "city": "Manaus",
            "responsible": "Romulo Cesar Reis da Silva",
            "address": "Rua Bangui, N 08, Quadra 75, Conjunto Nova Cidade, Manaus, Amazonas, Brasil",
            "website": null
        }
    ]
}