{
    "pagination": {
        "page": 128,
        "from": 2540,
        "to": 2560,
        "pageSize": 20,
        "lastPage": 358,
        "totalRecords": 7149
    },
    "list": [
        {
            "id": 5127,
            "name": "First BJJ Team Canada",
            "federationAbbr": "IBJJF",
            "country": "Canada",
            "countryAbbr": "CA",
            "city": "Kamloops",
            "responsible": "Carlos Alberto Firmino dos Santos",
            "address": "340 12 Ave  , , Kamloops, BC, Canada",
            "website": "firstbjj.com"
        },
        {
            "id": 5188,
            "name": "First Fight Center",
            "federationAbbr": "CBJJ",
            "country": "Brasil",
            "countryAbbr": "BR",
            "city": "Brasilia",
            "responsible": "Rodney Guiot de Souza",
            "address": "SCRN 710/711 Bloco B N: 31 , Asa Norte, Brasilia, DF, Brasil",
            "website": null
        },
        {
            "id": 9329,
            "name": "Fishhawk BJJ",
            "federationAbbr": "USBJJF",
            "country": "United States of America",
            "countryAbbr": "US",
            "city": "Lithia",
            "responsible": "Travis Jacob Baumgardner",
            "address": "16637 Fishhawk Blvd, Ste 105, Lithia, Florida, United States of America",
            "website": "Graciefishhawk@.com"
        },
        {
            "id": 4834,
            "name": "Fit Combat - BJJ",
            "federationAbbr": "CBJJ",
            "country": "Brasil",
            "countryAbbr": "BR",
            "city": "Aracaju",
            "responsible": "Bruno Campos Fernandes de Souza",
            "address": "Rua Estrada Da Cabrita, 722, Cond. Reserva Alto Verde, Bloco 04 Ap 202 Bairro Jabotiana, Aracaju, Sergipe, Brasil",
            "website": "www.fitcombatbjj.com.br"
        },
        {
            "id": 7273,
            "name": "Fit Combat - BJJ Alagoas",
            "federationAbbr": "CBJJ",
            "country": "Brasil",
            "countryAbbr": "BR",
            "city": "Aracaju",
            "responsible": "Bruno Campos Fernandes de Souza",
            "address": "Rua Estrada Da Cabrita, 722, Cond. Reserva Alto Verde, Bloco 04 Ap 202 Bairro Jabotiana, Aracaju, Sergipe, Brasil",
            "website": "www.fitcombatbjj.com.br"
        },
        {
            "id": 6236,
            "name": "Fit Combat - BJJ Bahia",
            "federationAbbr": "CBJJ",
            "country": "Brasil",
            "countryAbbr": "BR",
            "city": "Salvador",
            "responsible": "Bruno Campos Fernandes de Souza",
            "address": "Rua Visconde De Itaborahy, 110 Amaralina, Galeria Vieira Melo, Loja 08, Salvador, Bahia, Brasil",
            "website": "www.fitcombatbjj.com.br"
        },
        {
            "id": 9901,
            "name": "Fit Combat - BJJ Estância",
            "federationAbbr": "CBJJ",
            "country": "Brasil",
            "countryAbbr": "BR",
            "city": "Estância",
            "responsible": "Douglas de Melo dos Santos",
            "address": "Rua Gal. Pedra, 325 Bairro Centro, Estância, Sergipe, Brasil",
            "website": "www.fitcombatbjj.com.br"
        },
        {
            "id": 9673,
            "name": "FIT Grappling-lab Brazilian Jiu-Jitsu Club",
            "federationAbbr": "IBJJF",
            "country": "New Zealand",
            "countryAbbr": "NZ",
            "city": "Auckland",
            "responsible": "Hasan Jamal Chahoud",
            "address": "563 Pakuranga Road, Howick, Auckland, Auckland, New Zealand",
            "website": "www.grapplinglabbjj.co.nz"
        },
        {
            "id": 8670,
            "name": "Fit Power Artes Marciais",
            "federationAbbr": "CBJJ",
            "country": "Brasil",
            "countryAbbr": "BR",
            "city": "Aparecida De Goiânia",
            "responsible": "Sergio Franco Govetri",
            "address": "Av. Alberto José De Souza - Parque Rio Das Pedras, Qd. 3, Lt. 1 E 2 Loja 5, Aparecida De Goiânia, Goias, Brasil",
            "website": null
        },
        {
            "id": 2904,
            "name": "Fit Sid Jacintho - International",
            "federationAbbr": "IBJJF",
            "country": "United Arab Emirates",
            "countryAbbr": "AE",
            "city": "Khalifa City",
            "responsible": "Sid Jacintho de Oliveira Junior",
            "address": "Al Raha Beach, Al Muneera, Al Nada 1A, 212, Khalifa City, AD, United Arab Emirates",
            "website": "www.sidjacintho.blogspot.com"
        },
        {
            "id": 3058,
            "name": "Fit Sid Jacintho Brasil",
            "federationAbbr": "CBJJ",
            "country": "Brasil",
            "countryAbbr": "BR",
            "city": "Cabo Frio",
            "responsible": "Sid Jacintho de Oliveira Junior",
            "address": "Rua São Luiz, 24, Palmeiras, Novo Portinho, Cabo Frio, RJ, Brasil",
            "website": "www.sidjacintho.blogspot.com"
        },
        {
            "id": 6820,
            "name": "Fit4Fight (Doda Jiu-Jitsu)",
            "federationAbbr": "UIJJ",
            "country": "Italy",
            "countryAbbr": "IT",
            "city": "Milano",
            "responsible": "Carlos Eduardo Pereira de Souza Oliveira",
            "address": "Via Bisceglie, 74, Milano, IT, Italy",
            "website": "www.fit4fight.it"
        },
        {
            "id": 2465,
            "name": "Five Elements Jiu-Jitsu",
            "federationAbbr": "FPJJB",
            "country": "Portugal",
            "countryAbbr": "PT",
            "city": "lisboa",
            "responsible": "Helio Perdigao",
            "address": "Rua Joao dos Santos, Lote 2, rio seco, Ajuda, lisboa, Portugal",
            "website": "fiveelementsjiujitsu.com"
        },
        {
            "id": 2337,
            "name": "Five Rings Jiu-Jitsu",
            "federationAbbr": "USBJJF",
            "country": "United States of America",
            "countryAbbr": "US",
            "city": "Portland",
            "responsible": "Thomas Scott Oberhue",
            "address": "8775 SW Canyon Lane, Portland, OR, United States of America",
            "website": "www.5rjj.com"
        },
        {
            "id": 3698,
            "name": "Five Rounds",
            "federationAbbr": "CBJJ",
            "country": "Brasil",
            "countryAbbr": "BR",
            "city": "Brasília",
            "responsible": "Pedro Galiza de Oliveira",
            "address": "SIG Q06 Lote 1375, Setor das Indústrias Gráficas, Brasília, DF, Brasil",
            "website": "www.fiverounds.com.br"
        },
        {
            "id": 9224,
            "name": "Fivestembjj",
            "federationAbbr": "CBJJ",
            "country": "Brasil",
            "countryAbbr": "BR",
            "city": "Brasilia",
            "responsible": "Guilherme Martins Santos",
            "address": "Scln 116 Bl D, Loja 23, Asa Norte, Brasilia, Df, Brasil",
            "website": "@fivestembjj"
        },
        {
            "id": 9872,
            "name": "FJJ Oceania",
            "federationAbbr": "IBJJF",
            "country": "Australia",
            "countryAbbr": "AU",
            "city": "Ashfield",
            "responsible": "Daniel Ung",
            "address": "267a Liverpool Road, Ashfield, Nsw, Australia",
            "website": "www.forzajiujitsu.com.au"
        },
        {
            "id": 8194,
            "name": "Fl Centro De Treinamento E Bem Estar",
            "federationAbbr": "CBJJ",
            "country": "Brasil",
            "countryAbbr": "BR",
            "city": "Damolandia",
            "responsible": "Fabio Milhomens",
            "address": "Rua Joaquim Camara Filho Numero 10, Vila São Sebastião, Damolandia, Goias, Brasil",
            "website": null
        },
        {
            "id": 370,
            "name": "Flavio Aleluia",
            "federationAbbr": "CBJJ",
            "country": null,
            "countryAbbr": null,
            "city": null,
            "responsible": null,
            "address": "",
            "website": null
        },
        {
            "id": 9923,
            "name": "Flavio Behring Association - Cyprus",
            "federationAbbr": "IBJJF",
            "country": "Turkey",
            "countryAbbr": "TR",
            "city": "Mersin 10",
            "responsible": "Flavio Schmidt Behring",
            "address": "Alpay Kelami Sokak, No:1 Ortakoy, Nicosia, Mersin 10, Turkey, Mersin 10, Nicosia, Turkey",
            "website": "Turkey"
        }
    ]
}