{
    "pagination": {
        "page": 213,
        "from": 4240,
        "to": 4260,
        "pageSize": 20,
        "lastPage": 358,
        "totalRecords": 7149
    },
    "list": [
        {
            "id": 8214,
            "name": "Las Vegas Atlas Grappling",
            "federationAbbr": "USBJJF",
            "country": "United States of America",
            "countryAbbr": "US",
            "city": "Las Vegas",
            "responsible": "Damien Aaron Nitkin",
            "address": "9272 Tamarus Street #115, Las Vegas, Nevada, United States of America",
            "website": "atlasgrappling.com"
        },
        {
            "id": 6873,
            "name": "Las Vegas Jiu-Jitsu",
            "federationAbbr": "USBJJF",
            "country": "United States of America",
            "countryAbbr": "US",
            "city": "North Las Vegas",
            "responsible": "Cresencio Zamora",
            "address": "6925 Boulder View St., North Las Vegas, NV, United States of America",
            "website": null
        },
        {
            "id": 2392,
            "name": "Laselva MMA",
            "federationAbbr": "USBJJF",
            "country": "United States of America",
            "countryAbbr": "US",
            "city": "Wichita",
            "responsible": "Marcio Vieira Laselva",
            "address": "1836 S. Woodlawn St.  , , Wichita, KS, United States of America",
            "website": ""
        },
        {
            "id": 7737,
            "name": "Lashley Training Center",
            "federationAbbr": "USBJJF",
            "country": "United States of America",
            "countryAbbr": "US",
            "city": "Mt Vernon",
            "responsible": "David J Lashley",
            "address": "14261 Parrot ext,, Mt Vernon, Ohio, United States of America",
            "website": "www.lashleytrainingcenter.com"
        },
        {
            "id": 6963,
            "name": "Latini Jiu-Jitsu",
            "federationAbbr": "FPJJB",
            "country": "Portugal",
            "countryAbbr": "PT",
            "city": "Cascais",
            "responsible": "Fabio Latini de Souza",
            "address": "Avenida 25 de Abril 1011C-101A 62, Cascais, Portugal",
            "website": null
        },
        {
            "id": 2341,
            "name": "Latitude",
            "federationAbbr": "IBJJF",
            "country": "Puerto Rico",
            "countryAbbr": "PR",
            "city": "Trujillo Alto",
            "responsible": "Luis Santiago",
            "address": "Urb. Encantada Montecillo I Apt. 1606  , , Trujillo Alto, --, Puerto Rico",
            "website": "www.jiujitsupr.com"
        },
        {
            "id": 6053,
            "name": "Lauro Figueiroa Team Brasil",
            "federationAbbr": "CBJJ",
            "country": "Brasil",
            "countryAbbr": "BR",
            "city": "Recife",
            "responsible": "Lauro de Figueirôa Faria Netto",
            "address": "Rua Frei Vabatão n: 280 bloco D APT 502 Torre, Recife, Pernambuco, Brasil",
            "website": null
        },
        {
            "id": 2215,
            "name": "LBLA",
            "federationAbbr": "CBJJ",
            "country": "Brasil",
            "countryAbbr": "BR",
            "city": "Rio de Janeiro",
            "responsible": "Nilton Pereira da Silva",
            "address": "Rua Prof. Clemente Ferreira 1341 , Bangu, Rio de Janeiro, RJ, Brasil",
            "website": ""
        },
        {
            "id": 8920,
            "name": "LCCT Midsouth",
            "federationAbbr": "USBJJF",
            "country": "United States of America",
            "countryAbbr": "US",
            "city": "Millington",
            "responsible": "Stanford Eugene White III",
            "address": "5103 Easley Ave., Millington, Tennessee, United States of America",
            "website": "www.midsouthlcct.com"
        },
        {
            "id": 2715,
            "name": "LCCT USA",
            "federationAbbr": "USBJJF",
            "country": "United States of America",
            "countryAbbr": "US",
            "city": "Chicago",
            "responsible": "Luiz Claudio Gonçalves Augusto",
            "address": "5714 West Grover St.  BSMT , , Chicago, IL, United States of America",
            "website": ""
        },
        {
            "id": 9994,
            "name": "Le Labo BJJ",
            "federationAbbr": "IBJJF",
            "country": "France",
            "countryAbbr": "FR",
            "city": "La Courneuve",
            "responsible": "Khrissi Nabil",
            "address": "17 Rue Mail De Fontenay, La Courneuve, France",
            "website": null
        },
        {
            "id": 8587,
            "name": "Lealdade Team",
            "federationAbbr": "CBJJ",
            "country": "Brasil",
            "countryAbbr": "BR",
            "city": "Rio De Janeiro",
            "responsible": "Wagner Machado Silva",
            "address": "Avenida Dom Helder Câmara 7656, Sobreloja, Rio De Janeiro, Rio De Janeiro, Brasil",
            "website": "@FIGHTSKULLCT"
        },
        {
            "id": 8159,
            "name": "Leandro Bezerra Brazilian Jiu-Jitsu",
            "federationAbbr": "CBJJ",
            "country": "Brasil",
            "countryAbbr": "BR",
            "city": "Caruaru",
            "responsible": "Leandro Bezerra Santos",
            "address": "Av. Caruaru, Bairro Maria Auxiliadora, 1040, Terrio, Caruaru, Pernambuco, Brasil",
            "website": null
        },
        {
            "id": 4847,
            "name": "Leandro Brassoloto Association",
            "federationAbbr": "CBJJ",
            "country": "Brasil",
            "countryAbbr": "BR",
            "city": "Rio Claro",
            "responsible": "Paulo Leandro Brassoloto",
            "address": "Avenida 05, 1033, Centro, Rio Claro, SP, Brasil",
            "website": null
        },
        {
            "id": 9411,
            "name": "Leandro Buda BJJ",
            "federationAbbr": "CBJJ",
            "country": "Brasil",
            "countryAbbr": "BR",
            "city": "São Lourenço",
            "responsible": "Leandro Carvalho da Silva",
            "address": "Rua Antônio Luis De Souza, Casa, São Lourenço, Minas Gerais, Brasil",
            "website": null
        },
        {
            "id": 10666,
            "name": "Leandro Lucas Brazilian Jiu-Jitsu",
            "federationAbbr": "CBJJ",
            "country": "Brasil",
            "countryAbbr": "BR",
            "city": "Manaus",
            "responsible": "Leandro Lucas Alves",
            "address": "Rua Washington Luiz 268 Dom Pedro I, Manaus, Amazonas, Brasil",
            "website": null
        },
        {
            "id": 9363,
            "name": "Leandro Teixeira Jiu-Jitsu",
            "federationAbbr": "CBJJ",
            "country": "Brasil",
            "countryAbbr": "BR",
            "city": "Barbalha",
            "responsible": "Leandro de Almeida Teixeira",
            "address": "Vila Santa Terezinha Rua T 12 N 98, , Barbalha, Ceara, Brasil",
            "website": null
        },
        {
            "id": 8542,
            "name": "Leandro Wilkomm Fight Team",
            "federationAbbr": "CBJJ",
            "country": "Brasil",
            "countryAbbr": "BR",
            "city": "Santa Rosa",
            "responsible": "Leandro Wilkomm",
            "address": "Rua Três De Outubro, 1686, Santa Rosa, Rio Grande Do Sul, Brasil",
            "website": "Rua três de outubro"
        },
        {
            "id": 617,
            "name": "Leão Dourado",
            "federationAbbr": "CBJJ",
            "country": "Brasil",
            "countryAbbr": "BR",
            "city": "Belo Horizonte",
            "responsible": "Hilton Leão da Silva",
            "address": "Rua João Donada 135 , Serrano, Belo Horizonte, MG, Brasil",
            "website": "www.leaodourado.com"
        },
        {
            "id": 5858,
            "name": "Leao Dourado Canada",
            "federationAbbr": "IBJJF",
            "country": "Canada",
            "countryAbbr": "CA",
            "city": "Kingston",
            "responsible": "Hilton Leão da Silva",
            "address": "85 York Street, Kingston, ON, Canada",
            "website": "-"
        }
    ]
}