{
    "pagination": {
        "page": 123,
        "from": 2440,
        "to": 2460,
        "pageSize": 20,
        "lastPage": 358,
        "totalRecords": 7149
    },
    "list": [
        {
            "id": 4013,
            "name": "Fatjo's Mixed Martial Arts",
            "federationAbbr": "USBJJF",
            "country": "United States of America",
            "countryAbbr": "US",
            "city": "Morganville",
            "responsible": "Jose Fernando Sarmento Jr",
            "address": "479 State route 79 ste 11  , , Morganville, NJ, United States of America",
            "website": "fmacworld.com"
        },
        {
            "id": 9219,
            "name": "Fator Dojo Escola De Jiu - Jitsu",
            "federationAbbr": "CBJJ",
            "country": "Brasil",
            "countryAbbr": "BR",
            "city": "São Paulo",
            "responsible": "Victor Hugo Loureiro Viana Sobral",
            "address": "Clemente Pereira 28 , 2°andar , Ipiranga, São Paulo, São Paulo, Brasil",
            "website": null
        },
        {
            "id": 4432,
            "name": "Faz Forca Team",
            "federationAbbr": "IBJJF",
            "country": "Greece",
            "countryAbbr": "GR",
            "city": "Athens",
            "responsible": "Konstantinos Nikolopoulos",
            "address": "Karaiskaki 16, Athens, --, Greece",
            "website": "www.fazforca.gr"
        },
        {
            "id": 8809,
            "name": "FBJJ Monte Alegre",
            "federationAbbr": "CBJJ",
            "country": "Brasil",
            "countryAbbr": "BR",
            "city": "Montes Claros",
            "responsible": "Farley Frederico P. de Freitas",
            "address": "Rua Rio Verde, 315 Monte Algre, Montes Claros, Minas Gerais, Brasil",
            "website": null
        },
        {
            "id": 5525,
            "name": "FCT/Denis Pires",
            "federationAbbr": "CBJJ",
            "country": "Brasil",
            "countryAbbr": "BR",
            "city": "Aguas Lindas",
            "responsible": "Denis Pires da Silva",
            "address": "Quadra 41 numero 5 - Loja 01, Jardim Barragem II, Aguas Lindas, GO, Brasil",
            "website": null
        },
        {
            "id": 10332,
            "name": "Feijó Brothers Jiu-Jitsu School",
            "federationAbbr": "CBJJ",
            "country": "Brasil",
            "countryAbbr": "BR",
            "city": "Maceió",
            "responsible": "Sergio Henrique Batista Feijó",
            "address": "Avenida Doutor Fábio Wanderley, 25, Avenida, Maceió, Al, Brasil",
            "website": null
        },
        {
            "id": 10255,
            "name": "Felipe Bomba Brazilian Jiu-Jitsu",
            "federationAbbr": "CBJJ",
            "country": "Brasil",
            "countryAbbr": "BR",
            "city": "Guarulhos",
            "responsible": "Felipe de Oliveira Lima",
            "address": "Rua Charqueada, 243, Casa, Guarulhos, Sp, Brasil",
            "website": null
        },
        {
            "id": 8354,
            "name": "Felipe Carvalho Team",
            "federationAbbr": "CBJJ",
            "country": "Brasil",
            "countryAbbr": "BR",
            "city": "Sapucaia Do Sul",
            "responsible": "Luiz Felipe Silva de Carvalho",
            "address": "Av Lucio Bittencourt, 1921, Centro, Sapucaia Do Sul, Rio Grande Do Sul, Brasil",
            "website": "www.carvalhoteam.com.br"
        },
        {
            "id": 6630,
            "name": "Felipe Siqueira Brazilian Jiu-Jitsu",
            "federationAbbr": "CBJJ",
            "country": "Brasil",
            "countryAbbr": "BR",
            "city": "Teófilo Otoni",
            "responsible": "Felipe Arueira de Siqueira",
            "address": "Av Getúlio Vargas, 1133, Teófilo Otoni, MG, Brasil",
            "website": "facebook/academiafelipesiqueirabjj"
        },
        {
            "id": 6069,
            "name": "Felipe Vidal",
            "federationAbbr": "CBJJ",
            "country": "Brasil",
            "countryAbbr": "BR",
            "city": "Piracicaba ",
            "responsible": "Felipe Carlos Vidal",
            "address": "Rua Bom Jesus n: 928, Cidade Alta, Piracicaba , São Paulo, Brasil",
            "website": null
        },
        {
            "id": 6565,
            "name": "Felsina Jiu Jitsu Bologna",
            "federationAbbr": "IBJJF",
            "country": "Italy",
            "countryAbbr": "IT",
            "city": "Bologna",
            "responsible": "Matteo Bonini",
            "address": "via Stalingrado 12, Bologna, IT, Italy",
            "website": "www.bjjbologna.com"
        },
        {
            "id": 2727,
            "name": "Fenix BJJ Woburn",
            "federationAbbr": "USBJJF",
            "country": "United States of America",
            "countryAbbr": "US",
            "city": "Woburn",
            "responsible": "Raphael B. Carneiro Fischetti",
            "address": "35B industrial park way 01801  , , Woburn, MA, United States of America",
            "website": "www.fenixfightclub.com"
        },
        {
            "id": 5644,
            "name": "Fênix Patola Jiu-Jitsu",
            "federationAbbr": "CBJJ",
            "country": "Brasil",
            "countryAbbr": "BR",
            "city": "Rio Verde",
            "responsible": "Elbert Wander Cantão",
            "address": "Rua Nizo Jaime de Gusmão, 501, Vila Santo Antõnio, Rio Verde, GO, Brasil",
            "website": null
        },
        {
            "id": 9007,
            "name": "Fennec Jiu-Jitsu",
            "federationAbbr": "IBJJF",
            "country": "Germany",
            "countryAbbr": "DE",
            "city": "Magdeburg",
            "responsible": "Mourad Smail Benabdallah",
            "address": "Boelschestrasse 1a, Magdeburg, Germany",
            "website": null
        },
        {
            "id": 5507,
            "name": "Fermino Jiu-Jitsu",
            "federationAbbr": "CBJJ",
            "country": "Brasil",
            "countryAbbr": "BR",
            "city": "Curitibanos",
            "responsible": "Paulo Cesar Poeta Fermino Junior",
            "address": "Estrada Municipal Ulysses Gaboardi, 181, Pinheiro Tênis Clube - São José, Curitibanos, SC, Brasil",
            "website": null
        },
        {
            "id": 10097,
            "name": "Fernando Amaral BJJ",
            "federationAbbr": "CBJJ",
            "country": "Brasil",
            "countryAbbr": "BR",
            "city": "São Bernardo Do Campo",
            "responsible": "Fernando do Amaral Lima",
            "address": "Rua Tiradentes, 233, Sala 22, São Bernardo Do Campo, São Paulo, Brasil",
            "website": null
        },
        {
            "id": 7663,
            "name": "Fernando Ataide Team",
            "federationAbbr": "CBJJ",
            "country": "Brasil",
            "countryAbbr": "BR",
            "city": "Jacarei",
            "responsible": "Fernando Augusto Peres de Ataide",
            "address": "Rua Gerônimo 410, Ao Lado Esquerdo Do Muro 712, Jacarei, São Paulo, Brasil",
            "website": "www.fernandoataidejiujitsu.com"
        },
        {
            "id": 8367,
            "name": "Fernando Banhara Jiu-Jitsu",
            "federationAbbr": "CBJJ",
            "country": "Brasil",
            "countryAbbr": "BR",
            "city": "Taubaté",
            "responsible": "Luiz Fernando Banhara Mendes",
            "address": "Rua Marquês Do Herval, 400, Centro, Taubaté, São Paulo, Brasil",
            "website": null
        },
        {
            "id": 985,
            "name": "Fernando Boi JJ",
            "federationAbbr": "CBJJ",
            "country": "Brasil",
            "countryAbbr": "BR",
            "city": null,
            "responsible": "Fernando Marques Faustino",
            "address": "DF, Brasil",
            "website": null
        },
        {
            "id": 5528,
            "name": "Fernando Boi JJ International",
            "federationAbbr": "IBJJF",
            "country": "Belgium",
            "countryAbbr": "BE",
            "city": "Brussels",
            "responsible": "Fernando Marques Faustino",
            "address": "Rue Reimond Stijns 99, Brussels, Belgium",
            "website": null
        }
    ]
}