{
    "pagination": {
        "page": 320,
        "from": 6380,
        "to": 6400,
        "pageSize": 20,
        "lastPage": 358,
        "totalRecords": 7149
    },
    "list": [
        {
            "id": 2022,
            "name": "Team Lloyd Irvin",
            "federationAbbr": "USBJJF",
            "country": "United States of America",
            "countryAbbr": "US",
            "city": "Camp Springs",
            "responsible": "Lloyd Irvin",
            "address": "6333 Old Branch Ave. #302  , , Camp Springs, MD, United States of America",
            "website": ""
        },
        {
            "id": 5607,
            "name": "Team Lloyd Irvin Brazil",
            "federationAbbr": "CBJJ",
            "country": "Brasil",
            "countryAbbr": "BR",
            "city": "-",
            "responsible": "Lloyd Irvin",
            "address": "Brasil",
            "website": null
        },
        {
            "id": 5619,
            "name": "Team Lloyd Irvin International",
            "federationAbbr": "IBJJF",
            "country": "Mexico",
            "countryAbbr": "MX",
            "city": "-",
            "responsible": "Lloyd Irvin",
            "address": "Mexico",
            "website": null
        },
        {
            "id": 8431,
            "name": "Team Lloyd Irvin Thailand",
            "federationAbbr": "IBJJF",
            "country": "Thailand",
            "countryAbbr": "TH",
            "city": "Bang Lamung District",
            "responsible": "Lloyd Irvin",
            "address": "179/185-212 North Pattayaroad, Bang Lamung District, Chon Buri, Thailand",
            "website": null
        },
        {
            "id": 10108,
            "name": "Team Lopes Jiu-Jitsu",
            "federationAbbr": "CBJJ",
            "country": "Brasil",
            "countryAbbr": "BR",
            "city": "RIO DE JANEIRO",
            "responsible": "Jhonatan Costa Lopes",
            "address": "Rua General Savaget 196, Loja A, RIO DE JANEIRO, RJ, Brasil",
            "website": null
        },
        {
            "id": 8124,
            "name": "Team LR BJJ Palmas",
            "federationAbbr": "CBJJ",
            "country": "Brasil",
            "countryAbbr": "BR",
            "city": "Palmas",
            "responsible": "Jefferson Costa Pinto",
            "address": "104 Sul Rua Se 05, Lt 38 Sala 02, Palmas, Tocantins, Brasil",
            "website": null
        },
        {
            "id": 7827,
            "name": "Team Luzitano - Escola De Jiu Jitsu",
            "federationAbbr": "CBJJ",
            "country": "Brasil",
            "countryAbbr": "BR",
            "city": "Barretos",
            "responsible": "Italo Luzitano Prieto",
            "address": "Rua Jose Norberto Girardi, 198, Nobre Ville, Barretos, SP, Brasil",
            "website": "www.instagram.com/teamluzitano/"
        },
        {
            "id": 8760,
            "name": "Team Madrile BJJ",
            "federationAbbr": "IBJJF",
            "country": "Spain",
            "countryAbbr": "ES",
            "city": "Las Palmas De Gran Canaria",
            "responsible": "Carlos Javier Rodríguez Santana",
            "address": "Maninidra 52, Mimosas 35a, Las Palmas De Gran Canaria, Gran Canaria, Spain",
            "website": "Gran canaria"
        },
        {
            "id": 5506,
            "name": "Team Mamutte Jiu-Jitsu",
            "federationAbbr": "CBJJ",
            "country": "Brasil",
            "countryAbbr": "BR",
            "city": "Jahu",
            "responsible": "Emerson Fernando Chrispim",
            "address": "Rua Saldanha Marinho 1.804, Vila Buscariolo, Jahu, SP, Brasil",
            "website": "www.mamutte.com"
        },
        {
            "id": 9606,
            "name": "Team Manchinha",
            "federationAbbr": "CBJJ",
            "country": "Brasil",
            "countryAbbr": "BR",
            "city": "Cabuçu",
            "responsible": "Vinicius dos Santos Fonseca",
            "address": "Rua Tuiuti 105, Cabuçu, Rio De Janeiro, Brasil",
            "website": null
        },
        {
            "id": 4861,
            "name": "Team Manell",
            "federationAbbr": "CBJJ",
            "country": "Brasil",
            "countryAbbr": "BR",
            "city": "Rio de Janeiro",
            "responsible": "Sandro Soares Barbosa",
            "address": "Rua Ibitiuva n: 377, Padre Miguel, Rio de Janeiro, RJ, Brasil",
            "website": null
        },
        {
            "id": 8829,
            "name": "Team Manjado",
            "federationAbbr": "IBJJF",
            "country": "Germany",
            "countryAbbr": "DE",
            "city": "Bocholt",
            "responsible": "Rodrigo Queiroz da Silva",
            "address": "Saarstr 19, Bocholt, Nrw, Germany",
            "website": "www.bjj-germany.de"
        },
        {
            "id": 10515,
            "name": "Team Marcio Ferreira",
            "federationAbbr": "CBJJ",
            "country": "Brasil",
            "countryAbbr": "BR",
            "city": "Lauro De Freitas",
            "responsible": "Andre Gomes Costa",
            "address": "Conjunto Parque Santa Rita Cam 59, Casa17 - Itinga, Lauro De Freitas, Bahia, Brasil",
            "website": null
        },
        {
            "id": 8380,
            "name": "Team Marino Junior",
            "federationAbbr": "CBJJ",
            "country": "Brasil",
            "countryAbbr": "BR",
            "city": "Ouro Preto Do Oeste",
            "responsible": "Marino Schotten Junior",
            "address": "Rua Aloisio Ferreira 0329, Ouro Preto Do Oeste, Rondônia, Brasil",
            "website": "https://cutt.ly/YfA2Jwj"
        },
        {
            "id": 7542,
            "name": "Team Mastery Florida",
            "federationAbbr": "USBJJF",
            "country": "United States of America",
            "countryAbbr": "US",
            "city": "Bradenton",
            "responsible": "Eduardo Xiomar Martinez",
            "address": "13820 American Prairie Place, Bradenton, FL, United States of America",
            "website": "kickinitkarate.com"
        },
        {
            "id": 8556,
            "name": "Team Max Fernandes Jiu-Jitsu",
            "federationAbbr": "CBJJ",
            "country": "Brasil",
            "countryAbbr": "BR",
            "city": "Cuiabá",
            "responsible": "Max Robson Fernandes",
            "address": "Rua São Mateus 301, Bairro: Santa Marta, Cuiabá, Mt, Brasil",
            "website": null
        },
        {
            "id": 6298,
            "name": "Team Maximo",
            "federationAbbr": "CBJJ",
            "country": "Brasil",
            "countryAbbr": "BR",
            "city": "Araraquara",
            "responsible": "Vinicius Reame Maximo",
            "address": "Av. Brasil numero: 377, Proximo a Igreja Matriz - Centro, Araraquara, São Paulo, Brasil",
            "website": "facebook.com/teammaximoararaquara"
        },
        {
            "id": 3488,
            "name": "Team Maxwell",
            "federationAbbr": "USBJJF",
            "country": "United States of America",
            "countryAbbr": "US",
            "city": "Sacramento",
            "responsible": "Terry Lee Maxwell",
            "address": "7311 Lawnwood Dr., Sacramento, CA, United States of America",
            "website": "www.sacbjj.com"
        },
        {
            "id": 4568,
            "name": "Team Medeiros",
            "federationAbbr": "CBJJ",
            "country": "Brasil",
            "countryAbbr": "BR",
            "city": "Chapeco",
            "responsible": "Deoclecio Mendes de Medeiros",
            "address": "Rua Imbituba 369 E, Cristo Rei, Chapeco, SC, Brasil",
            "website": ""
        },
        {
            "id": 3358,
            "name": "Team Mercurio JJ",
            "federationAbbr": "CBJJ",
            "country": "Brasil",
            "countryAbbr": "BR",
            "city": "Paranavaí",
            "responsible": "Rodolfo Garcia de Morais",
            "address": "Rua Josia Soares de Lima 147 , São Sebastião, Paranavaí, PR, Brasil",
            "website": ""
        }
    ]
}