{
    "pagination": {
        "page": 77,
        "from": 1520,
        "to": 1540,
        "pageSize": 20,
        "lastPage": 358,
        "totalRecords": 7149
    },
    "list": [
        {
            "id": 4080,
            "name": "Checkmat Manaíra",
            "federationAbbr": "CBJJ",
            "country": "Brasil",
            "countryAbbr": "BR",
            "city": "João Pessoa",
            "responsible": "Paulo Tarcisio Pessoa Jardim",
            "address": "Rua Nicola Porto 214 , Manaíra, João Pessoa, PB, Brasil",
            "website": "www.checkmanaira.com.br"
        },
        {
            "id": 2662,
            "name": "Checkmat Millennia",
            "federationAbbr": "USBJJF",
            "country": "United States of America",
            "countryAbbr": "US",
            "city": "Rancho Cucamonga",
            "responsible": "Ramin Aram",
            "address": "8423 Rochester Ave - Suite 102  , Rancho Cucamonga, CA, United States of America",
            "website": "www.millenniamma.com"
        },
        {
            "id": 4669,
            "name": "Checkmat Minneapolis",
            "federationAbbr": "USBJJF",
            "country": "United States of America",
            "countryAbbr": "US",
            "city": "Minneapolis",
            "responsible": "Mauricio Carra",
            "address": "2828 Anthony Lane South  , , Minneapolis, MN, United States of America",
            "website": "www.TheCellarGym.com"
        },
        {
            "id": 5590,
            "name": "Checkmat Murfreesboro",
            "federationAbbr": "USBJJF",
            "country": "United States of America",
            "countryAbbr": "US",
            "city": "Murfreesboro",
            "responsible": "Gabriel Rial D. da Silva",
            "address": "220 Veterans Parkway, Suite D, Murfreesboro, TN, United States of America",
            "website": "legionjj.com"
        },
        {
            "id": 7496,
            "name": "CheckMat Nashville",
            "federationAbbr": "USBJJF",
            "country": "United States of America",
            "countryAbbr": "US",
            "city": "Nashville",
            "responsible": "Gabriel Rial D. da Silva",
            "address": "1056 East Trinity Lane, #104, Nashville, TN, United States of America",
            "website": "legionjj.com"
        },
        {
            "id": 9190,
            "name": "Checkmat Neezam Anaheim",
            "federationAbbr": "USBJJF",
            "country": "United States of America",
            "countryAbbr": "US",
            "city": "Anaheim",
            "responsible": "Said Dunkaev",
            "address": "1142 N Brookhurst St, Ste 106, Anaheim, CA, United States of America",
            "website": "Neezamjj.com"
        },
        {
            "id": 7814,
            "name": "Checkmat New Jersey - Protasio BJJ",
            "federationAbbr": "USBJJF",
            "country": "United States of America",
            "countryAbbr": "US",
            "city": "Toms River ",
            "responsible": "Bruno Menezes Protasio",
            "address": "1001 Fisher Blvd , Toms River , New Jersey , United States of America",
            "website": "Checkmatbjj.com"
        },
        {
            "id": 2131,
            "name": "Checkmat New York",
            "federationAbbr": "USBJJF",
            "country": "United States of America",
            "countryAbbr": "US",
            "city": "New York",
            "responsible": "Fábio Toscano Clemente",
            "address": "123 East 12th St.  , New York, NY, United States of America",
            "website": "fabioclemente.com"
        },
        {
            "id": 5877,
            "name": "CheckMat North Carolina",
            "federationAbbr": "USBJJF",
            "country": "United States of America",
            "countryAbbr": "US",
            "city": "Mint Hill",
            "responsible": "Francisco Ramos Mendes Neto",
            "address": "9229 Lawyers Road, Suite L, Mint Hill, NC, United States of America",
            "website": "www.corfitnessMMA.com"
        },
        {
            "id": 4792,
            "name": "Checkmat Northridge",
            "federationAbbr": "USBJJF",
            "country": "United States of America",
            "countryAbbr": "US",
            "city": "Northridge",
            "responsible": "Arnaldo Maidana de Oliveira",
            "address": "8415 Reseda Blvd, Suite 11, Northridge, CA, United States of America",
            "website": "www.checkmatnorthridge.com"
        },
        {
            "id": 5862,
            "name": "CheckMat Passo Fundo RS",
            "federationAbbr": "CBJJ",
            "country": "Brasil",
            "countryAbbr": "BR",
            "city": "Passo Fundo",
            "responsible": "Roger Roberto Ribas dos Santos",
            "address": "Rua Independência n: 537, Guerton AC. - Centro, Passo Fundo, RS, Brasil",
            "website": null
        },
        {
            "id": 10502,
            "name": "Checkmat Portland",
            "federationAbbr": "USBJJF",
            "country": "United States of America",
            "countryAbbr": "US",
            "city": "Gresham",
            "responsible": "Antonio Roberto Crivelari Junior",
            "address": "400 Nw Eastman Pkwy, Gresham, Oregon, United States of America",
            "website": "www.checkmatportland.com"
        },
        {
            "id": 9603,
            "name": "Checkmat Pure Brazilian Jiu-Jitsu",
            "federationAbbr": "USBJJF",
            "country": "United States of America",
            "countryAbbr": "US",
            "city": "Chicago",
            "responsible": "Catherine Fuhro Perret",
            "address": "6093 N Northwest Hwy, Chicago, IL, United States of America",
            "website": "www.purebrazilianjujitsu.com"
        },
        {
            "id": 9081,
            "name": "Checkmat Qatar",
            "federationAbbr": "IBJJF",
            "country": "Qatar",
            "countryAbbr": "QA",
            "city": "Doha",
            "responsible": "Matheus Felipe da Silva Xavier",
            "address": "118 Al Bustan Street, Checkmat, Doha, Doha, Qatar",
            "website": null
        },
        {
            "id": 4156,
            "name": "Checkmat Reunion",
            "federationAbbr": "IBJJF",
            "country": "Reunion",
            "countryAbbr": "RE",
            "city": "La Possession",
            "responsible": "Emmanuel Joseph Cascade",
            "address": "47 Bis, Rue Andre le Toullec - ste therese  , , La Possession, --, Reunion",
            "website": ""
        },
        {
            "id": 8180,
            "name": "Checkmat Riverview",
            "federationAbbr": "USBJJF",
            "country": "United States of America",
            "countryAbbr": "US",
            "city": "Gibsonton",
            "responsible": "Mauricio Carra",
            "address": "11106 US Highway 41 South, Gibsonton, Fl, United States of America",
            "website": "Checkmatriverview.com"
        },
        {
            "id": 5481,
            "name": "Checkmat San Benedetto del Tronto",
            "federationAbbr": "UIJJ",
            "country": "Italy",
            "countryAbbr": "IT",
            "city": "San Benedetto del Tronto",
            "responsible": "Leonardo Alcantara Vieira",
            "address": "via Venezia Giulia, San Benedetto del Tronto, Italy",
            "website": null
        },
        {
            "id": 6098,
            "name": "Checkmat Santa Ana / Hustle BJJ",
            "federationAbbr": "USBJJF",
            "country": "United States of America",
            "countryAbbr": "US",
            "city": "Santa Ana",
            "responsible": "Russell Delacruz Cantorna",
            "address": "1631 E. 17th Street Ste G, Santa Ana, CA, United States of America",
            "website": "hustlebrazilianjiujitsu.com"
        },
        {
            "id": 9359,
            "name": "Checkmat Santa Rosa",
            "federationAbbr": "USBJJF",
            "country": "United States of America",
            "countryAbbr": "US",
            "city": "Santa Rosa",
            "responsible": "Rafael de Arruda Japur",
            "address": "2122 Corby Avenue, Santa Rosa, California, United States of America",
            "website": "www.checkmatsantarosa.com"
        },
        {
            "id": 8754,
            "name": "Checkmat Santo André",
            "federationAbbr": "CBJJ",
            "country": "Brasil",
            "countryAbbr": "BR",
            "city": "Santo André",
            "responsible": "Wilson Bueno de Moraes Júnior",
            "address": "Rua Oratório 118\u0019sala 3, Santo André, São Paulo, Brasil",
            "website": null
        }
    ]
}