{
    "pagination": {
        "page": 314,
        "from": 6260,
        "to": 6280,
        "pageSize": 20,
        "lastPage": 358,
        "totalRecords": 7149
    },
    "list": [
        {
            "id": 7129,
            "name": "TBN Jiu-Jitsu",
            "federationAbbr": "CBJJ",
            "country": "Brasil",
            "countryAbbr": "BR",
            "city": "Niterói",
            "responsible": "Marcio da Cruz Costa",
            "address": "Rua Saldanha Marinho n:94, Centro, Niterói, Rio de Janeiro, Brasil",
            "website": "https://www.facebook.com/teambrothersbjjNiteroi"
        },
        {
            "id": 4497,
            "name": "TC BJJ",
            "federationAbbr": "CBJJ",
            "country": "Brasil",
            "countryAbbr": "BR",
            "city": "Florianópolis",
            "responsible": "Júlio César Galdino Borges",
            "address": "Rua João Motta Espesim 363 Sala 1, Saco dos Limões, Florianópolis, SC, Brasil",
            "website": null
        },
        {
            "id": 3755,
            "name": "TDBJJ",
            "federationAbbr": "USBJJF",
            "country": "United States of America",
            "countryAbbr": "US",
            "city": "Forked Drive",
            "responsible": "Thomas D. DeBlass",
            "address": "401 Holland Ave., , Forked Drive, NJ, United States of America",
            "website": "www.oceancountybjj.com"
        },
        {
            "id": 10678,
            "name": "TDBJJ Philippines",
            "federationAbbr": "IBJJF",
            "country": "Philippines",
            "countryAbbr": "PH",
            "city": "Bloomingdale",
            "responsible": "Sean Patrick Stoopman",
            "address": "18 Bloomingdale Ave, Bloomingdale, Agnona, Philippines",
            "website": "https://www.instagram.com/rizaljiujitsu"
        },
        {
            "id": 7954,
            "name": "Te Manawa Jiu-Jitsu",
            "federationAbbr": "IBJJF",
            "country": "New Zealand",
            "countryAbbr": "NZ",
            "city": "Queenstown",
            "responsible": "Brent Te Kawa",
            "address": "103 Glenda Drive, Frankton, Queenstown, South Island, New Zealand",
            "website": "www.temanawajiujitsu.co.nz"
        },
        {
            "id": 6693,
            "name": "Teachings Of Josef",
            "federationAbbr": "CBJJ",
            "country": "Brasil",
            "countryAbbr": "BR",
            "city": "Belo Horizonte",
            "responsible": "Jose  Lucas Menezes Amorim",
            "address": "Rua Jurema n: 169 casa, Bairro: da Graca, Belo Horizonte, MG, Brasil",
            "website": null
        },
        {
            "id": 7377,
            "name": "Team - Choco Germany",
            "federationAbbr": "IBJJF",
            "country": "Germany",
            "countryAbbr": "DE",
            "city": "Griesheim",
            "responsible": "Vincent Angelo Carlucci",
            "address": "Kirschberg 27, Griesheim, Germany",
            "website": "http://www.teamchoco.net"
        },
        {
            "id": 3042,
            "name": "Team 1 BJJ",
            "federationAbbr": "USBJJF",
            "country": "United States of America",
            "countryAbbr": "US",
            "city": "Elizabeth Town",
            "responsible": "Joshua Lewis Johnson",
            "address": "306 Whitehall  , , Elizabeth Town, KY, United States of America",
            "website": "www.team1bjj.com"
        },
        {
            "id": 8514,
            "name": "Team 100",
            "federationAbbr": "CBJJ",
            "country": "Brasil",
            "countryAbbr": "BR",
            "city": "Rio De Janeiro",
            "responsible": "Pedro Borges dos Santos",
            "address": "Avenida Gilka Machado, 900, Rio De Janeiro, Rio De Janeiro, Brasil",
            "website": null
        },
        {
            "id": 8753,
            "name": "Team 304 Old Skool BJJ Academy",
            "federationAbbr": "USBJJF",
            "country": "United States of America",
            "countryAbbr": "US",
            "city": "Logan",
            "responsible": "Thomas Franklin Murphy Jr",
            "address": "2769 Jerry West Hwy, Logan, Wv, United States of America",
            "website": null
        },
        {
            "id": 5240,
            "name": "Team 443",
            "federationAbbr": "IBJJF",
            "country": "France",
            "countryAbbr": "FR",
            "city": "Nantes",
            "responsible": "David Giorsetti",
            "address": "1 Avenue de L'Engoulevent  , , Nantes, France",
            "website": "www.team443bjj.fr"
        },
        {
            "id": 4141,
            "name": "Team Alexandre Xuxa",
            "federationAbbr": "CBJJ",
            "country": "Brasil",
            "countryAbbr": "BR",
            "city": "Guanhães",
            "responsible": "Alexandre Passos Nunes",
            "address": "Rua Barão do Rio Branco n: 204, Bairro: Centro, Guanhães, MG, Brasil",
            "website": null
        },
        {
            "id": 2631,
            "name": "Team Alves Pagels Jiu-Jitsu",
            "federationAbbr": "USBJJF",
            "country": "United States of America",
            "countryAbbr": "US",
            "city": "Sarasota",
            "responsible": "Emmanuel Maielo Maximiano Alves",
            "address": "5210 Cedar Hammock, Sarasota, FL, United States of America",
            "website": "http://thealvesjiujitsu.com/"
        },
        {
            "id": 5389,
            "name": "Team Balloutta",
            "federationAbbr": "CBJJ",
            "country": "Brasil",
            "countryAbbr": "BR",
            "city": "Governador Valadares",
            "responsible": "Diego Ballouta Cardoso Braz",
            "address": "Rua Marechal Deodoro, 403 - 4º andar, Centro, Governador Valadares, MG, Brasil",
            "website": null
        },
        {
            "id": 6697,
            "name": "Team Balloutta - Mexico",
            "federationAbbr": "IBJJF",
            "country": "Mexico",
            "countryAbbr": "MX",
            "city": "Villahermosa",
            "responsible": "Diego Ballouta Cardoso Braz",
            "address": "Av. Industrial Nacional Mexicana #214, Villahermosa, Tabasco, Mexico",
            "website": "www.garrafightclub.com.mx"
        },
        {
            "id": 7449,
            "name": "Team Balloutta USA",
            "federationAbbr": "USBJJF",
            "country": "United States of America",
            "countryAbbr": "US",
            "city": "Pompano Beach",
            "responsible": "Diego Ballouta Cardoso Braz",
            "address": "1310 S. Oakland Forest Dr. #306, Pompano Beach, FL, United States of America",
            "website": ""
        },
        {
            "id": 8444,
            "name": "Team Batata Brazilian Jiu Jitsu",
            "federationAbbr": "CBJJ",
            "country": "Brasil",
            "countryAbbr": "BR",
            "city": "Porto Alegre",
            "responsible": "Guilherme Chagas da Silveira",
            "address": "Avenida Gomes De Carvalho, 442, Porto Alegre, Rs, Brasil",
            "website": null
        },
        {
            "id": 2342,
            "name": "Team Believe",
            "federationAbbr": "USBJJF",
            "country": "United States of America",
            "countryAbbr": "US",
            "city": "Bayside",
            "responsible": "Mark A. Staniszewski",
            "address": "203-18 35th Ave, , Bayside, NY, United States of America",
            "website": "teambelievebjj.com"
        },
        {
            "id": 6901,
            "name": "Team Born to Roll France",
            "federationAbbr": "IBJJF",
            "country": "France",
            "countryAbbr": "FR",
            "city": "Le Revest Les Eaux",
            "responsible": "David Giorsetti",
            "address": "242 Chemin Du Val D'Ardenne, Le Revest Les Eaux, France",
            "website": "www.jiujitsubresilien-toulon.com"
        },
        {
            "id": 7316,
            "name": "Team Bressan BJJ",
            "federationAbbr": "CBJJ",
            "country": "Brasil",
            "countryAbbr": "BR",
            "city": "Criciúma",
            "responsible": "Patrique Damasio Bressan",
            "address": "Rua: Dalcizio Agostinho da Silva  Número: 310, Complemento: próximo a igreja católica, Criciúma, SC, Brasil",
            "website": null
        }
    ]
}