{
    "pagination": {
        "page": 46,
        "from": 900,
        "to": 920,
        "pageSize": 20,
        "lastPage": 358,
        "totalRecords": 7149
    },
    "list": [
        {
            "id": 6714,
            "name": "BJJ Lab Naperville",
            "federationAbbr": "USBJJF",
            "country": "United States of America",
            "countryAbbr": "US",
            "city": "Naperville",
            "responsible": "Mark Thomas Turner",
            "address": "1701 Quincy Ave STE 26, Naperville, IL, United States of America",
            "website": "www.BJJLabNaperville.com"
        },
        {
            "id": 9986,
            "name": "BJJ Laguna",
            "federationAbbr": "CBJJ",
            "country": "Brasil",
            "countryAbbr": "BR",
            "city": "Laguna",
            "responsible": "Andrey Martins de Andrade",
            "address": "Avenida João Pinho 235, Laguna, Santa Catarina, Brasil",
            "website": null
        },
        {
            "id": 2360,
            "name": "BJJ Lifestyle Academy",
            "federationAbbr": "USBJJF",
            "country": "United States of America",
            "countryAbbr": "US",
            "city": "St Louis",
            "responsible": "Michael W. Rethmeyer Jr",
            "address": "4280 Telegraph Rd  , , St Louis, MO, United States of America",
            "website": "www.BJJLifestyleAcademy.com"
        },
        {
            "id": 4528,
            "name": "BJJ Lifestyle Academy Belleville",
            "federationAbbr": "USBJJF",
            "country": "United States of America",
            "countryAbbr": "US",
            "city": "Belleville",
            "responsible": "Michael W. Rethmeyer Jr",
            "address": "5308 North Belt West  , , Belleville, IL, United States of America",
            "website": "www.BJJlifestyleacademy.com"
        },
        {
            "id": 8817,
            "name": "BJJ Neutron Academy",
            "federationAbbr": "CBJJ",
            "country": "Brasil",
            "countryAbbr": "BR",
            "city": "Rio Do Sul",
            "responsible": "Francisco Egídio Demmer",
            "address": "Avenida Oscar Barcelos 2360 Sala 01, Rua Francisco De Carvalho, 150, Rio Do Sul, Santa Catarina, Brasil",
            "website": null
        },
        {
            "id": 9866,
            "name": "BJJ Pretorian Johan Sifontes",
            "federationAbbr": "IBJJF",
            "country": "Spain",
            "countryAbbr": "ES",
            "city": "La Coruña",
            "responsible": "Johan Gabriel Sifontes Leon",
            "address": "Calle San Jorge 16, 2do D., La Coruña, La Coruña, Spain",
            "website": "www.pretorianescueladelucha.com"
        },
        {
            "id": 2024,
            "name": "BJJ Revolution Team",
            "federationAbbr": "USBJJF",
            "country": "United States of America",
            "countryAbbr": "US",
            "city": "San Diego",
            "responsible": "Rodrigo Medeiros",
            "address": "4878 Cass st  , , San Diego, CA, United States of America",
            "website": ""
        },
        {
            "id": 2346,
            "name": "BJJ Revolution Team - International",
            "federationAbbr": "IBJJF",
            "country": "Ireland",
            "countryAbbr": "IE",
            "city": "Dublin ",
            "responsible": "Rodrigo Medeiros",
            "address": "Unit 5a Finglas Business Centre, Jamestown Rd, Dublin , Leinster, Ireland",
            "website": null
        },
        {
            "id": 3012,
            "name": "BJJ Revolution Team Vermont",
            "federationAbbr": "USBJJF",
            "country": "United States of America",
            "countryAbbr": "US",
            "city": "South Burlington",
            "responsible": "Julio Cesar Fernandez Nunes",
            "address": "238 Park Road  , , South Burlington, VT, United States of America",
            "website": "www.bjjrevolutionteam.com"
        },
        {
            "id": 6577,
            "name": "BJJ Sarande",
            "federationAbbr": "IBJJF",
            "country": "Albania",
            "countryAbbr": "AL",
            "city": "Sarande",
            "responsible": "Dorian Lapaj",
            "address": "Rruga Telat Noga Nr. 10 Kati I, Sarande, Vlore County, Albania",
            "website": null
        },
        {
            "id": 6375,
            "name": "BJJ School Belfast",
            "federationAbbr": "IBJJF",
            "country": "United Kingdom",
            "countryAbbr": "GB",
            "city": "Belfast",
            "responsible": "Alan Lowry",
            "address": "Lough Moss Centre Carryduff, Belfast, Belfast, --, United Kingdom",
            "website": "www.bjj-school-belfast.com"
        },
        {
            "id": 5977,
            "name": "BJJ Senegal",
            "federationAbbr": "IBJJF",
            "country": "Senegal",
            "countryAbbr": "SN",
            "city": "Dakar",
            "responsible": "Thiago de Guimarães",
            "address": "Bp 4332, Dakar, --, Senegal",
            "website": null
        },
        {
            "id": 10551,
            "name": "BJJ Social Club",
            "federationAbbr": "USBJJF",
            "country": "United States of America",
            "countryAbbr": "US",
            "city": "Scottsdale",
            "responsible": "Estrella Moreno",
            "address": "7607 E Mcdowell Rd, Ste 109, Scottsdale, Arizona, United States of America",
            "website": null
        },
        {
            "id": 3800,
            "name": "BJJ Switzerland",
            "federationAbbr": "IBJJF",
            "country": "Switzerland",
            "countryAbbr": "CH",
            "city": "Lausanne",
            "responsible": "Patrick DeCaro",
            "address": "24 Avenue des Bergieres, , Lausanne, VD, Switzerland",
            "website": "www.sites.google.com/site/bjjlausanne/"
        },
        {
            "id": 4291,
            "name": "BJJ Team Basel",
            "federationAbbr": "IBJJF",
            "country": "Switzerland",
            "countryAbbr": "CH",
            "city": "Basel",
            "responsible": "Claude Jager",
            "address": "Efringerstrasse 79, , Basel, --, Switzerland",
            "website": "www.bjj.ch"
        },
        {
            "id": 2895,
            "name": "BJJ Team Marshmallow/Akita-Inu Do e.V.",
            "federationAbbr": "IBJJF",
            "country": "Germany",
            "countryAbbr": "DE",
            "city": "Prum",
            "responsible": "Jorg Lothmann",
            "address": "St-Vither-Strabe 97  , , Prum, RLP, Germany",
            "website": "www.fit-fun-fight.info"
        },
        {
            "id": 9200,
            "name": "BJJ UNIÃO DLC",
            "federationAbbr": "CBJJ",
            "country": "Brasil",
            "countryAbbr": "BR",
            "city": "Campina Grande",
            "responsible": "Luciano Correia de Souza",
            "address": "Rua Sergipe,1882, Liberdade, Campina Grande, Paraíba, Brasil",
            "website": "Campina Grande-PB"
        },
        {
            "id": 7456,
            "name": "BJJ Valdecir Tegoni Team",
            "federationAbbr": "CBJJ",
            "country": "Brasil",
            "countryAbbr": "BR",
            "city": "Cascavel",
            "responsible": "Valdecir da Silva Tegoni",
            "address": "Rua General Osório n: 1289, Comercial - Parque São Paulo, Cascavel, PR, Brasil",
            "website": null
        },
        {
            "id": 10552,
            "name": "Bjj Warriors Club Florianópolis",
            "federationAbbr": "CBJJ",
            "country": "Brasil",
            "countryAbbr": "BR",
            "city": "Balneario",
            "responsible": "Gustavo Pacheco Aguiar",
            "address": "Rua Jose Candido Da Silva, 512, Balneario, Santa Catarina, Brasil",
            "website": null
        },
        {
            "id": 9438,
            "name": "BJJ4ALL",
            "federationAbbr": "CBJJ",
            "country": "Brasil",
            "countryAbbr": "BR",
            "city": "Florianópolis",
            "responsible": "Fabiano Lima Monteiro da Silva",
            "address": "Rua Do Gramal 599, Campeche, Florianópolis, Santa Catarina, Brasil",
            "website": null
        }
    ]
}