{
    "pagination": {
        "page": 207,
        "from": 4120,
        "to": 4140,
        "pageSize": 20,
        "lastPage": 358,
        "totalRecords": 7149
    },
    "list": [
        {
            "id": 2152,
            "name": "Kihon Dojo B9",
            "federationAbbr": "CBJJ",
            "country": "Brasil",
            "countryAbbr": "BR",
            "city": "São Bernardo do Campo",
            "responsible": "Diego Martins Lopes",
            "address": "Rua Imperatriz Leopoldina 925, Nova Petrópolis, São Bernardo do Campo, SP, Brasil",
            "website": "www.kihon.com.br"
        },
        {
            "id": 8246,
            "name": "Kijuukai",
            "federationAbbr": "JBJJF",
            "country": "Japan",
            "countryAbbr": "JP",
            "city": "Yokkaichi",
            "responsible": "Yoshihito Hamazaki",
            "address": "30-47-304 Maedacho, Yokkaichi, Mie, Japan",
            "website": "https://kijuukai.wixsite.com/website?fbclid=IwAR2F2ZnaTvBsoJoIlXpzRf3PJH7HkHsf4R3ax78iYbxdUT_kbuXHxjPXSdo"
        },
        {
            "id": 8728,
            "name": "Kiko France BJJ",
            "federationAbbr": "USBJJF",
            "country": "United States of America",
            "countryAbbr": "US",
            "city": "Scottsdale",
            "responsible": "Francisco Bernardo France",
            "address": "8029 E Roosevelt St, Scottsdale, Az, United States of America",
            "website": "kikofrancebjj.com"
        },
        {
            "id": 2204,
            "name": "Kikojiu",
            "federationAbbr": "FPJJB",
            "country": "Portugal",
            "countryAbbr": "PT",
            "city": "Lisbon",
            "responsible": "Augusto Pedro Oliveira A. da Silva",
            "address": "Rua Sanches Coelho 4-C, Lisbon, xx, Portugal",
            "website": null
        },
        {
            "id": 3556,
            "name": "Killer Bees BJJ College",
            "federationAbbr": "USBJJF",
            "country": "United States of America",
            "countryAbbr": "US",
            "city": "Melbourne",
            "responsible": "Israel Gomes de Oliveira",
            "address": "249 N Babcock St, , Melbourne, Fl, United States of America",
            "website": "www.americankillerbeesfitness.com"
        },
        {
            "id": 9038,
            "name": "Killer Bees South Florida",
            "federationAbbr": "USBJJF",
            "country": "United States of America",
            "countryAbbr": "US",
            "city": "Coral Springs",
            "responsible": "Andres Camilo Mahecha",
            "address": "10381 Nw 42nd Drive, Coral Springs, Fl, United States of America",
            "website": "killerbeessouthflorida.com"
        },
        {
            "id": 2338,
            "name": "Kimura BJJ USA",
            "federationAbbr": "USBJJF",
            "country": "United States of America",
            "countryAbbr": "US",
            "city": "Boca Raton",
            "responsible": "Jean Kleber M. de Freitas",
            "address": "23269 State Rd 7, Suite 117, Boca Raton, FL, United States of America",
            "website": "www.kimurabjj.com"
        },
        {
            "id": 8953,
            "name": "Kindred Jiu-Jitsu",
            "federationAbbr": "USBJJF",
            "country": "United States of America",
            "countryAbbr": "US",
            "city": "Edmonds",
            "responsible": "John Michael Sylvester",
            "address": "9681 Firdale Ave, Edmonds, Washington, United States of America",
            "website": "kindredjj.com"
        },
        {
            "id": 8762,
            "name": "Kinetic Grappling",
            "federationAbbr": "USBJJF",
            "country": "United States of America",
            "countryAbbr": "US",
            "city": "College Station",
            "responsible": "James H. Clingerman",
            "address": "12700 Sh 30, #201, College Station, Tx, United States of America",
            "website": "www.kineticgrappling.com"
        },
        {
            "id": 8896,
            "name": "King Of Glory Academy",
            "federationAbbr": "CBJJ",
            "country": "Brasil",
            "countryAbbr": "BR",
            "city": "Bauru",
            "responsible": "Marcio Antonio Pires Junior",
            "address": "Rua Antônio Garbe De Mattos 7-84, Bauru, Sp, Brasil",
            "website": null
        },
        {
            "id": 8026,
            "name": "King of the Mat BJJ",
            "federationAbbr": "CBJJ",
            "country": "Brasil",
            "countryAbbr": "BR",
            "city": "Juiz De Fora ",
            "responsible": "Thiago Dias D. Narciso",
            "address": "Rua Maria Aparecida Martins 117- Vale Verde, Juiz De Fora , Minas Gerais, Brasil",
            "website": null
        },
        {
            "id": 5548,
            "name": "Kingdom Jiu-Jitsu",
            "federationAbbr": "IBJJF",
            "country": "Korea, South",
            "countryAbbr": "KR",
            "city": "Daegu",
            "responsible": "Bokook Seo",
            "address": "460-6, Bokhyeon-dong, Buk-gu, Daegu, Korea, South",
            "website": null
        },
        {
            "id": 5775,
            "name": "Kings Academy Australia",
            "federationAbbr": "IBJJF",
            "country": "Australia",
            "countryAbbr": "AU",
            "city": "Moorebank",
            "responsible": "Elvis Sinosic",
            "address": "Unit 2 / 331 Newbridge Rd, Moorebank, NSW, Australia",
            "website": "www.kingsacademy.com.au"
        },
        {
            "id": 5028,
            "name": "Kings Brasil BJJ",
            "federationAbbr": "CBJJ",
            "country": "Brasil",
            "countryAbbr": "BR",
            "city": "Santos",
            "responsible": "Roberto Alves da Silva",
            "address": "Praça Primeiro de Maio S/N, Ponta da Praia, Santos, SP, Brasil",
            "website": "www.kingsbjj.com.br"
        },
        {
            "id": 3135,
            "name": "Kings Jiu Jitsu",
            "federationAbbr": "USBJJF",
            "country": "United States of America",
            "countryAbbr": "US",
            "city": "Huntington Beach",
            "responsible": "Ricardo Alexandre Testai Maia",
            "address": "7391 Warner Ave   , , Huntington Beach, CA, United States of America",
            "website": "www.kingsmma.com"
        },
        {
            "id": 5197,
            "name": "Kings MMA Anaheim",
            "federationAbbr": "USBJJF",
            "country": "United States of America",
            "countryAbbr": "US",
            "city": "Anaheim",
            "responsible": "Beneil Dariush",
            "address": "4388 E. La Palma Ave  , , Anaheim, Ca, United States of America",
            "website": "kingsanaheim.com"
        },
        {
            "id": 6232,
            "name": "Kingsbridge BJJ",
            "federationAbbr": "USBJJF",
            "country": "United States of America",
            "countryAbbr": "US",
            "city": "Orlando",
            "responsible": "Sean Richard Bansfield",
            "address": "6854 Fallbrook Place, 303, Orlando, FL, United States of America",
            "website": "kingsbridgebjj.com"
        },
        {
            "id": 2086,
            "name": "Kioto BJJ",
            "federationAbbr": "USBJJF",
            "country": "United States of America",
            "countryAbbr": "US",
            "city": "port jefferson state",
            "responsible": "Francisco Jose Mansor",
            "address": "512 route 112-suite 512  , , port jefferson state, NY, United States of America",
            "website": "www.kiotobjjusa.com"
        },
        {
            "id": 2340,
            "name": "Kioto BJJ - Sayville",
            "federationAbbr": "USBJJF",
            "country": "United States of America",
            "countryAbbr": "US",
            "city": "Sayville",
            "responsible": "Milton Regis de Almeida",
            "address": "205 W Main St.  , , Sayville, NY, United States of America",
            "website": "www.kiotobjj.com"
        },
        {
            "id": 609,
            "name": "Kioto Brazilian Jiu-Jitsu",
            "federationAbbr": "CBJJ",
            "country": "Brasil",
            "countryAbbr": "BR",
            "city": "Rio de Janeiro",
            "responsible": "Krauss Archanjo Mansor",
            "address": "Rua Jurupari 18 , Tijuca, Rio de Janeiro, RJ, Brasil",
            "website": null
        }
    ]
}