{
    "pagination": {
        "page": 31,
        "from": 600,
        "to": 620,
        "pageSize": 20,
        "lastPage": 358,
        "totalRecords": 7149
    },
    "list": [
        {
            "id": 52,
            "name": "Arte Livre Jiu-Jitsu",
            "federationAbbr": "CBJJ",
            "country": "Brasil",
            "countryAbbr": "BR",
            "city": "Vassouras",
            "responsible": "Jose Neury Gomes Junior",
            "address": "Rua Caetano Furquim n: 222, Centro, Vassouras, RJ, Brasil",
            "website": "www.artelivrejj.blogspot.com.br"
        },
        {
            "id": 5156,
            "name": "Arte Suave (Pty Ltd) - The Gentle Art",
            "federationAbbr": "IBJJF",
            "country": "Australia",
            "countryAbbr": "AU",
            "city": "Woolloongabba",
            "responsible": "Anker Simon Fuglsang",
            "address": "28 Wellington Road, Woolloongabba, QLD, Australia",
            "website": "www.artesuave.com.au"
        },
        {
            "id": 7846,
            "name": "Arte Suave Academy Iran BJJ",
            "federationAbbr": "IBJJF",
            "country": "Iran, Islamic Republic of",
            "countryAbbr": "IR",
            "city": "Tehran",
            "responsible": "Bardia Honardar",
            "address": "No 1, Delshad St, Niavaran Ave, Tehran, Iran, Islamic Republic of",
            "website": null
        },
        {
            "id": 6422,
            "name": "Arte Suave Acadepol  PC/RN",
            "federationAbbr": "CBJJ",
            "country": "Brasil",
            "countryAbbr": "BR",
            "city": "Natal",
            "responsible": "Carlos Alexander Freire Marques",
            "address": "Avenida Interventor Mario Camara 3532, Cidade da Esperança, Natal, RN, Brasil",
            "website": null
        },
        {
            "id": 4879,
            "name": "Arte Suave Venezuela",
            "federationAbbr": "IBJJF",
            "country": "Venezuela",
            "countryAbbr": "VE",
            "city": "Caracas",
            "responsible": "Eduardo Antonio Perez Mulki",
            "address": "Av. Lomas centrocomercial Terrazaz (Lomas de la lagunita)  , , Caracas, Miranda, Venezuela",
            "website": "www.arte-suave.com"
        },
        {
            "id": 5435,
            "name": "Artista Brazilian Jiu-Jitsu",
            "federationAbbr": "USBJJF",
            "country": "United States of America",
            "countryAbbr": "US",
            "city": "Nashville",
            "responsible": "Felix Garcia",
            "address": "4012 Hillsboro Pike, Nashville, TN, United States of America",
            "website": "artistabjjnashville.com"
        },
        {
            "id": 6571,
            "name": "ARTSU BJJ",
            "federationAbbr": "CBJJ",
            "country": "Brasil",
            "countryAbbr": "BR",
            "city": "Fazenda Rio grande",
            "responsible": "Julio Cezar Diedzits",
            "address": "Av. Paraguai n: 383, Bairro: Naçoes, Fazenda Rio grande, PR, Brasil",
            "website": null
        },
        {
            "id": 10394,
            "name": "Arujona Team",
            "federationAbbr": "IBJJF",
            "country": "Spain",
            "countryAbbr": "ES",
            "city": "Malaga",
            "responsible": "Jose Maria Arjona Caballero",
            "address": "22 Esquilo St, Floor 1, Door 4, Malaga, Málaga, Spain",
            "website": null
        },
        {
            "id": 8785,
            "name": "Árvore Jiu-Jitsu",
            "federationAbbr": "CBJJ",
            "country": "Brasil",
            "countryAbbr": "BR",
            "city": "Brasília",
            "responsible": "Fabiano Alves Valadares",
            "address": "Quadra Cls 108 Bloco A, 19, Brasília, Distrito Federal, Brasil",
            "website": "Brasília"
        },
        {
            "id": 10223,
            "name": "A's BJJ Club",
            "federationAbbr": "CBJJ",
            "country": "Brasil",
            "countryAbbr": "BR",
            "city": "Alvorada",
            "responsible": "Diego Zárate Trindade Geremias",
            "address": "Rua Tenente Eugênio Duarte, Número 761 , 2º Andar, Bairro Jardim Algarve, Alvorada, Rio Grande Do Sul, Brasil",
            "website": null
        },
        {
            "id": 6175,
            "name": "AS Mansur Team",
            "federationAbbr": "IBJJF",
            "country": "Kazakstan",
            "countryAbbr": "KZ",
            "city": "Sgmgy",
            "responsible": "Marcio Eduardo Silva",
            "address": "Sevastopolskaya Street 20, Sgmgy, EKR, Kazakstan",
            "website": null
        },
        {
            "id": 8850,
            "name": "Asa Jiu-Jitsu",
            "federationAbbr": "CBJJ",
            "country": "Brasil",
            "countryAbbr": "BR",
            "city": "São Paulo",
            "responsible": "Isaque Bahiense Braz",
            "address": "Rua Guaraiuva 249, São Paulo, São Paulo, Brasil",
            "website": "https://instagram.com/asajiujitsu.matriz?utm_medium=copy_link"
        },
        {
            "id": 9312,
            "name": "Asa Jiu-Jitsu International",
            "federationAbbr": "USBJJF",
            "country": "United States of America",
            "countryAbbr": "US",
            "city": "San Antonio",
            "responsible": "Igor Gregório Schneider",
            "address": "8749 Grissom Rd, San Antonio, Texas, United States of America",
            "website": "www.asabjj.com"
        },
        {
            "id": 5906,
            "name": "ASC 59",
            "federationAbbr": "IBJJF",
            "country": "France",
            "countryAbbr": "FR",
            "city": "HEM",
            "responsible": "Patrice Serge Delaby",
            "address": "41 Rue du Jura, HEM, --, France",
            "website": "www.ASC59.fr"
        },
        {
            "id": 10415,
            "name": "Ascension Martial Arts",
            "federationAbbr": "IBJJF",
            "country": "Canada",
            "countryAbbr": "CA",
            "city": "Port Coquitlam",
            "responsible": "Shawn Walter Michael Albrecht",
            "address": "109-1320 Kingsway Ave, Port Coquitlam, Canada",
            "website": null
        },
        {
            "id": 6562,
            "name": "ASDC Lavica Project",
            "federationAbbr": "IBJJF",
            "country": "Italy",
            "countryAbbr": "IT",
            "city": "Catania",
            "responsible": "Giuseppe Rodelli",
            "address": "Via Aosta 52, Catania, Sicily, Italy",
            "website": "https://www.instagram.com/lavicaproject/"
        },
        {
            "id": 9434,
            "name": "Ash",
            "federationAbbr": "JBJJF",
            "country": "Japan",
            "countryAbbr": "JP",
            "city": "Nishimurogunshirahamatyo",
            "responsible": "Masakazu Imanari",
            "address": "2787-1, Nishimurogunshirahamatyo, Wakayama, Japan",
            "website": null
        },
        {
            "id": 8973,
            "name": "Asl Team Brazilian Jiu Jitsu",
            "federationAbbr": "CBJJ",
            "country": "Brasil",
            "countryAbbr": "BR",
            "city": "Betim",
            "responsible": "Alberto Santos Dumont Lima da Cruz",
            "address": "Av. Belo Horizonte, 2124, Betim, Mg, Brasil",
            "website": "Betim Minas Gerais"
        },
        {
            "id": 2240,
            "name": "ASM BJJ Association - Brasil",
            "federationAbbr": "CBJJ",
            "country": "Brasil",
            "countryAbbr": "BR",
            "city": "Palhoça",
            "responsible": "Marcos Tulio Nunes da Rosa",
            "address": "Rua Valentim Camilo Garcia, 549, Ponte do Imaruim, Palhoça, SC, Brasil",
            "website": null
        },
        {
            "id": 8453,
            "name": "ASM BJJ Association - Korea",
            "federationAbbr": "IBJJF",
            "country": "Korea, South",
            "countryAbbr": "KR",
            "city": "Pohang-si",
            "responsible": "Soon-myung Yoon",
            "address": "Wabs Jiujitsu, 2nd Floor, Hae-deun Building, 114, Beobwon-ro, Buk-gu, Pohang-si, Gyeongsangbuk-do, Korea, South",
            "website": null
        }
    ]
}