{
    "pagination": {
        "page": 25,
        "from": 480,
        "to": 500,
        "pageSize": 20,
        "lastPage": 358,
        "totalRecords": 7149
    },
    "list": [
        {
            "id": 7819,
            "name": "AN TEAM",
            "federationAbbr": "CBJJ",
            "country": "Brasil",
            "countryAbbr": "BR",
            "city": "Toritama",
            "responsible": "Alberto dos Santos Leite",
            "address": "AV Jerusalém 85, Toritama, Pernambuco, Brasil",
            "website": null
        },
        {
            "id": 9937,
            "name": "AN Team BJJ",
            "federationAbbr": "CBJJ",
            "country": "Brasil",
            "countryAbbr": "BR",
            "city": "Antônio Prado",
            "responsible": "Andre Luiz Novello",
            "address": "Rua Do Lupi 63, Sala 2, Antônio Prado, Rio Grande Do Sul, Brasil",
            "website": null
        },
        {
            "id": 2894,
            "name": "Anaconda Brazilian Jiu -Jitsu SLU",
            "federationAbbr": "IBJJF",
            "country": "Spain",
            "countryAbbr": "ES",
            "city": "Barcelona",
            "responsible": "Almir Itajahy de Moraes",
            "address": "Calle, Ventallo - #4 Bajos  , , Barcelona, BCN, Spain",
            "website": "www.anacondajiujitsu.com"
        },
        {
            "id": 10161,
            "name": "Anacoreta Jiu-Jitsu",
            "federationAbbr": "IBJJF",
            "country": "Italy",
            "countryAbbr": "IT",
            "city": "Rome",
            "responsible": "Luca Anacoreta",
            "address": "Via Simone Martini 143, Rome, Rome, Italy",
            "website": "https://www.anacoretajiujitsu.it/"
        },
        {
            "id": 4483,
            "name": "Anchor Brazilian Jiu-Jitsu",
            "federationAbbr": "IBJJF",
            "country": "China",
            "countryAbbr": "CN",
            "city": "Haikou Shi",
            "responsible": "Timothy Earl Rogers",
            "address": "Haikou Haidiandao Meilanqu Wuxilu Huishangjie 2haodianti 2lou, Haikou Shi, Hainan Sheng, China",
            "website": null
        },
        {
            "id": 3533,
            "name": "Anchorage Brazilian Jiu Jitsu",
            "federationAbbr": "USBJJF",
            "country": "United States of America",
            "countryAbbr": "US",
            "city": "Anchorage ",
            "responsible": "Mason Ryder Spadafore",
            "address": "113 W. Northern Lights Blvd Suite I  , , Anchorage , AK, United States of America",
            "website": "www.anchoragebjj.com"
        },
        {
            "id": 6010,
            "name": "Anderson Almeida BJJ",
            "federationAbbr": "CBJJ",
            "country": "Brasil",
            "countryAbbr": "BR",
            "city": "Nilópolis",
            "responsible": "Andre Luiz Gomes Batista",
            "address": "Rua Fernando Gonçalves de Almeida n: 1340, casa 9 - Cabuis, Nilópolis, Rio de Janeiro, Brasil",
            "website": null
        },
        {
            "id": 6014,
            "name": "Anderson Gonçalves BJJ",
            "federationAbbr": "IBJJF",
            "country": "Canada",
            "countryAbbr": "CA",
            "city": "Calgary",
            "responsible": "Francisco Jose Mansor",
            "address": "#11, 2650-36 Street SE, Calgary, AB, Canada",
            "website": "www.agbjj.com"
        },
        {
            "id": 41,
            "name": "Andrade Caete MG",
            "federationAbbr": "CBJJ",
            "country": "Brasil",
            "countryAbbr": "BR",
            "city": "Caeté",
            "responsible": "João Andrade Batista",
            "address": "José Brandão, Caeté, MG, Brasil",
            "website": null
        },
        {
            "id": 42,
            "name": "Andrade Team BJJ",
            "federationAbbr": "CBJJ",
            "country": "Brasil",
            "countryAbbr": "BR",
            "city": "Caeté",
            "responsible": "João Andrade Batista",
            "address": "Rua Francisco Assunção Pedroso  32, José Brandão, Caeté, MG, Brasil",
            "website": null
        },
        {
            "id": 8148,
            "name": "André Bastos JJ",
            "federationAbbr": "CBJJ",
            "country": "Brasil",
            "countryAbbr": "BR",
            "city": "Rio De Janeiro ",
            "responsible": "Andre Machado Bastos",
            "address": "Rua Das Margaridas 90 Vila Valqueire , Rio De Janeiro , Rio De Janeiro , Brasil",
            "website": null
        },
        {
            "id": 7157,
            "name": "Andre Carvalho Jiu-Jitsu France",
            "federationAbbr": "IBJJF",
            "country": "France",
            "countryAbbr": "FR",
            "city": "Pontault Combault",
            "responsible": "Andre Garcia Carvalho",
            "address": "4 Allee Paul Elvard, Pontault Combault, France",
            "website": "fiftyfifty.jjb.fr"
        },
        {
            "id": 9416,
            "name": "André Guimarães Team",
            "federationAbbr": "CBJJ",
            "country": "Brasil",
            "countryAbbr": "BR",
            "city": "Jaboatão Dos Guararapes",
            "responsible": "André Luiz Guimarães",
            "address": "Rua - Antônio Ferreira Campos N-5170, Jaboatão Dos Guararapes, Pernambuco, Brasil",
            "website": null
        },
        {
            "id": 5908,
            "name": "Andre Machado Jiu-Jitsu",
            "federationAbbr": "CBJJ",
            "country": "Brasil",
            "countryAbbr": "BR",
            "city": "Rio de Janeiro",
            "responsible": "André Luís Machado Almeida",
            "address": "Rua General Belegardo n: 151, Engenho Novo, Rio de Janeiro, Rio de Janeiro, Brasil",
            "website": null
        },
        {
            "id": 10540,
            "name": "Andre Santos Fiight Team",
            "federationAbbr": "CBJJ",
            "country": "Brasil",
            "countryAbbr": "BR",
            "city": "Juiz De Fora",
            "responsible": "André Luis dos Santos",
            "address": "Rua Americo Lobo 1206, Juiz De Fora, Minas Gerais, Brasil",
            "website": null
        },
        {
            "id": 9656,
            "name": "André Sergipano JJ",
            "federationAbbr": "CBJJ",
            "country": "Brasil",
            "countryAbbr": "BR",
            "city": "Montes Claros",
            "responsible": "André Muniz de Aguiar",
            "address": "Avenida Professora Cota Athayde, Montes Claros, Minas Gerais, Brasil",
            "website": null
        },
        {
            "id": 9339,
            "name": "Andrei Jiu-Jitsu",
            "federationAbbr": "CBJJ",
            "country": "Brasil",
            "countryAbbr": "BR",
            "city": "São Paulo",
            "responsible": "Andrei Rodrigo Agostinho",
            "address": "Rua Minerva, 196, Sobreloja, São Paulo, Sp, Brasil",
            "website": "https://andreibjj.negocio.site/"
        },
        {
            "id": 2856,
            "name": "Andres Legallais BJJ",
            "federationAbbr": "IBJJF",
            "country": "Argentina",
            "countryAbbr": "AR",
            "city": "Santa Fe",
            "responsible": "Andres Esteban Legallais",
            "address": "Domingo Silva 3055  , , Santa Fe, CP, Argentina",
            "website": ""
        },
        {
            "id": 5408,
            "name": "Andrey Souza BJJ/NS Jiu-Jitsu",
            "federationAbbr": "CBJJ",
            "country": "Brasil",
            "countryAbbr": "BR",
            "city": "Campinas",
            "responsible": "Ademir Aparecido de Souza",
            "address": "Rua Carlos de Laet, 376, Jardim Maria Rosa, Campinas, SP, Brasil",
            "website": null
        },
        {
            "id": 2733,
            "name": "Andy Roberts BJJ",
            "federationAbbr": "IBJJF",
            "country": "United Kingdom",
            "countryAbbr": "GB",
            "city": "Farnborough",
            "responsible": "Andrew Paul Roberts",
            "address": "5a Queens Road, Farnborough, Hampshire, United Kingdom",
            "website": "www.andyrobertsbjj.com"
        }
    ]
}