{
    "pagination": {
        "page": 155,
        "from": 3080,
        "to": 3100,
        "pageSize": 20,
        "lastPage": 358,
        "totalRecords": 7149
    },
    "list": [
        {
            "id": 7400,
            "name": "Gracie Barra Cidade dos Funcionários",
            "federationAbbr": "CBJJ",
            "country": "Brasil",
            "countryAbbr": "BR",
            "city": "João Pessoa",
            "responsible": "Wellington  Costa Dantas",
            "address": "Rua Agente Fiscal Antonio Ladislau da Silva n: 49, Bairro: Funcionários II, João Pessoa, Paraíba, Brasil",
            "website": null
        },
        {
            "id": 8168,
            "name": "Gracie Barra Cidade Ocidental Go",
            "federationAbbr": "CBJJ",
            "country": "Brasil",
            "countryAbbr": "BR",
            "city": "Cidade Ocidental",
            "responsible": "Allan Andrade Felix",
            "address": "Sq 13 Quadra 06 Casa 01 Kit 02, Sq 13 Quadra 06 Casa 01 Kit 02, Cidade Ocidental, Goias, Brasil",
            "website": null
        },
        {
            "id": 2052,
            "name": "Gracie Barra Clearwater",
            "federationAbbr": "USBJJF",
            "country": "United States of America",
            "countryAbbr": "US",
            "city": "Clearwater",
            "responsible": "Randall Lee Huot",
            "address": "1490 N. Belcher Rd, Clearwater, FL, United States of America",
            "website": "www.gbclearwater.com"
        },
        {
            "id": 5045,
            "name": "Gracie Barra Clermont",
            "federationAbbr": "USBJJF",
            "country": "United States of America",
            "countryAbbr": "US",
            "city": "Clermont",
            "responsible": "Marcio Simas",
            "address": "16215 SR 50 Suite 301, Clermont, FL, United States of America",
            "website": "www.gbclermont.com"
        },
        {
            "id": 9758,
            "name": "Gracie Barra Cloverdale",
            "federationAbbr": "IBJJF",
            "country": "Canada",
            "countryAbbr": "CA",
            "city": "Surrey",
            "responsible": "Eduardo Jovel",
            "address": "#104 17720 65a Avenue, Surrey, British Columbia, Canada",
            "website": "gb-cloverdale.com"
        },
        {
            "id": 8509,
            "name": "Gracie Barra Coimbra - MG",
            "federationAbbr": "CBJJ",
            "country": "Brasil",
            "countryAbbr": "BR",
            "city": "Coimbra",
            "responsible": "Leonardo Bruno Paula Moura",
            "address": "Rua São Sebastião, 32, Loja 02, Coimbra, Minas Gerais, Brasil",
            "website": null
        },
        {
            "id": 9088,
            "name": "Gracie Barra College Station",
            "federationAbbr": "USBJJF",
            "country": "United States of America",
            "countryAbbr": "US",
            "city": "College Station",
            "responsible": "Milton Machado Filho",
            "address": "1702 George Bush Drive E, 102, College Station, Tx, United States of America",
            "website": "gbcollegestation.com"
        },
        {
            "id": 5637,
            "name": "Gracie Barra Colombo",
            "federationAbbr": "CBJJ",
            "country": "Brasil",
            "countryAbbr": "BR",
            "city": "Colombo",
            "responsible": "Ralfa Jonny dos Santos",
            "address": "Estrada Ribeira, 78, Maracana, Colombo, PR, Brasil",
            "website": "www.graciecolombo.com.br"
        },
        {
            "id": 5897,
            "name": "Gracie Barra Colorado Springs",
            "federationAbbr": "USBJJF",
            "country": "United States of America",
            "countryAbbr": "US",
            "city": "Colorado Springs",
            "responsible": "Bryan M. Waltz",
            "address": "1360 North Academy Blvd, Colorado Springs, CO, United States of America",
            "website": "www.gbcoloradosprings.com"
        },
        {
            "id": 9335,
            "name": "Gracie Barra Columbia",
            "federationAbbr": "USBJJF",
            "country": "United States of America",
            "countryAbbr": "US",
            "city": "Columbia",
            "responsible": "Mario F Sandoval",
            "address": "128 E Nifong Blvd, Suite E, Columbia, Mo, United States of America",
            "website": null
        },
        {
            "id": 3373,
            "name": "Gracie Barra Columbus",
            "federationAbbr": "USBJJF",
            "country": "United States of America",
            "countryAbbr": "US",
            "city": "Columbus",
            "responsible": "Fabio Ribeiro Costa Júnior",
            "address": "8075 Gilliam Ct.  , , Columbus, GA, United States of America",
            "website": "www.graciebarracolulmbus.com"
        },
        {
            "id": 5896,
            "name": "Gracie Barra Conjunto Ceará",
            "federationAbbr": "CBJJ",
            "country": "Brasil",
            "countryAbbr": "BR",
            "city": "Fortaleza",
            "responsible": "Clenio Orestes Pesqueira Monteiro",
            "address": "Av. F N: 700 - 1 Etapa, Conj. Ceará, Fortaleza, Ceará, Brasil",
            "website": null
        },
        {
            "id": 8039,
            "name": "Gracie Barra Copacabana",
            "federationAbbr": "CBJJ",
            "country": "Brasil",
            "countryAbbr": "BR",
            "city": "Rio De Janeiro",
            "responsible": "Rodrigo Prujansky dos Santos",
            "address": "Rua Barata Ribeiro 655, Rio De Janeiro, Brasil",
            "website": null
        },
        {
            "id": 10268,
            "name": "Gracie Barra Coqueiros - SC",
            "federationAbbr": "CBJJ",
            "country": "Brasil",
            "countryAbbr": "BR",
            "city": "Florianópolis",
            "responsible": "Marcelo Marinho Mendonça",
            "address": "Rua Doutor Abel Capela , 337, Casa, Florianópolis, Santa Catarina, Brasil",
            "website": null
        },
        {
            "id": 7028,
            "name": "Gracie Barra Coral Springs",
            "federationAbbr": "USBJJF",
            "country": "United States of America",
            "countryAbbr": "US",
            "city": "Margate",
            "responsible": "Sergio Santos da Costa Filho",
            "address": "3270 NW 62nd Ave, Margate, FL, United States of America",
            "website": "www.GBCoralSprings.com"
        },
        {
            "id": 2716,
            "name": "Gracie Barra Corona",
            "federationAbbr": "USBJJF",
            "country": "United States of America",
            "countryAbbr": "US",
            "city": "Corona",
            "responsible": "Thomas A. Reusing",
            "address": "280 Teller Street - Unit 100  , , Corona, CA, United States of America",
            "website": "www.graciebarracorona.com"
        },
        {
            "id": 5149,
            "name": "Gracie Barra Corumbá MS",
            "federationAbbr": "CBJJ",
            "country": "Brasil",
            "countryAbbr": "BR",
            "city": "Corumbá",
            "responsible": "Rogerio Caldeira",
            "address": "Av. General Rondon 1338 , Centro, Corumbá, MS, Brasil",
            "website": null
        },
        {
            "id": 8586,
            "name": "Gracie Barra Costa Da Caparica",
            "federationAbbr": "FPJJB",
            "country": "Portugal",
            "countryAbbr": "PT",
            "city": "Costa Da Caparica",
            "responsible": "Jorge Miguel Gonçalves Costa de Almeida Angélico",
            "address": "Av. Dom Sebastião 78, Costa Da Caparica, Setúbal, Portugal",
            "website": null
        },
        {
            "id": 6597,
            "name": "Gracie Barra Costa Esmeralda",
            "federationAbbr": "CBJJ",
            "country": "Brasil",
            "countryAbbr": "BR",
            "city": "Itapema",
            "responsible": "Ricardo da Rosa",
            "address": "Rua 624 n: 124, Taboleiros das Oliveiras, Itapema, Santa Catarina, Brasil",
            "website": "http://www.graciebarracostaesmeralda.com.br/"
        },
        {
            "id": 2057,
            "name": "Gracie Barra Costa Mesa",
            "federationAbbr": "USBJJF",
            "country": "United States of America",
            "countryAbbr": "US",
            "city": "Costa Mesa",
            "responsible": "Scott Gordon Carr",
            "address": "1304 Logan Ave. Suite J  , , Costa Mesa, CA, United States of America",
            "website": "www.graciebarra-costamesa.com"
        }
    ]
}