{
    "pagination": {
        "page": 310,
        "from": 6180,
        "to": 6200,
        "pageSize": 20,
        "lastPage": 358,
        "totalRecords": 7149
    },
    "list": [
        {
            "id": 2500,
            "name": "Suita Jiu-Jitsu",
            "federationAbbr": "JBJJF",
            "country": "Japan",
            "countryAbbr": "JP",
            "city": "Osaka",
            "responsible": "Takeshi Shinkawa",
            "address": "3-1-6 Maison Sakura 11, Higashi-mikuni, Yodogawa-ku  , , Osaka, --, Japan",
            "website": "www.suitajiujitsu.com"
        },
        {
            "id": 915,
            "name": "Sul Jiu-Jitsu",
            "federationAbbr": "CBJJ",
            "country": "Brasil",
            "countryAbbr": "BR",
            "city": "Caxias do Sul",
            "responsible": "Walter Mattos Filho",
            "address": "Rua Vereador Mario Pezzi n: 564, Bairro: Exposição, Caxias do Sul, RS, Brasil",
            "website": null
        },
        {
            "id": 8320,
            "name": "Sul Jiu-Jitsu Caxias",
            "federationAbbr": "CBJJ",
            "country": "Brasil",
            "countryAbbr": "BR",
            "city": "Caxias Do Sul ",
            "responsible": "Walter Mattos Filho",
            "address": "Rua Governador Roberto Silveira, Nº 1158 - Bairro: Santa Catarina , Caxias Do Sul , Rio Grande Do Sul - Rs, Brasil",
            "website": null
        },
        {
            "id": 2015,
            "name": "Sul JJ Caxias do Sul",
            "federationAbbr": "CBJJ",
            "country": null,
            "countryAbbr": null,
            "city": null,
            "responsible": null,
            "address": "",
            "website": null
        },
        {
            "id": 9781,
            "name": "Sul Tucuju Jiu-jitsu",
            "federationAbbr": "CBJJ",
            "country": "Brasil",
            "countryAbbr": "BR",
            "city": "Joaçaba",
            "responsible": "Renato dos Santos da Silva",
            "address": "Rua Duque De Caxias, 1064, Joaçaba, Santa Catarina, Brasil",
            "website": null
        },
        {
            "id": 3732,
            "name": "Sultatame BJJ",
            "federationAbbr": "CBJJ",
            "country": "Brasil",
            "countryAbbr": "BR",
            "city": "São José",
            "responsible": "Rogério Lima Santos",
            "address": "Rua Maria de Lourdes Martins, 504 casa 04, São José, SC, Brasil",
            "website": "rogerinhofpreta@hotmail.com"
        },
        {
            "id": 10021,
            "name": "Summit Jiu-Jitsu",
            "federationAbbr": "USBJJF",
            "country": "United States of America",
            "countryAbbr": "US",
            "city": "Norwalk",
            "responsible": "Julio Andrade Viotti",
            "address": "95 Silvermine Avenue, Norwalk, Ct, United States of America",
            "website": null
        },
        {
            "id": 10214,
            "name": "Summit Jiu-Jitsu Brazil",
            "federationAbbr": "CBJJ",
            "country": "Brasil",
            "countryAbbr": "BR",
            "city": "Jaguariuna",
            "responsible": "Diogo Felipe dos Santos Oliveira",
            "address": "Rua: Pedro Maion, 401, Parque Florianópolis, Jaguariuna, SP, Brasil",
            "website": null
        },
        {
            "id": 7863,
            "name": "Summus Jiu-Jitsu Academy",
            "federationAbbr": "USBJJF",
            "country": "United States of America",
            "countryAbbr": "US",
            "city": "Morristown",
            "responsible": null,
            "address": "173 Washington Street, Morristown, New Jersey, United States of America",
            "website": "https://summusjiujitsu.com/"
        },
        {
            "id": 8314,
            "name": "Sumner Grpl Club",
            "federationAbbr": "USBJJF",
            "country": "United States of America",
            "countryAbbr": "US",
            "city": "Sumner",
            "responsible": "Yan de Andrade Mccane",
            "address": "15714 Main Street E, Sumner, Wa, United States of America",
            "website": null
        },
        {
            "id": 10405,
            "name": "Sun Jiu-Jitsu",
            "federationAbbr": "CBJJ",
            "country": "Brasil",
            "countryAbbr": "BR",
            "city": "Porto Alegre",
            "responsible": "Jeferson Silva de Almeida",
            "address": "Av Assis Brasil, Do Ladodo Banco Do Brasil, Porto Alegre, Rio Grande Do Sul, Brasil",
            "website": null
        },
        {
            "id": 6502,
            "name": "Sunrise BJJ Team",
            "federationAbbr": "USBJJF",
            "country": "United States of America",
            "countryAbbr": "US",
            "city": "Palm Beach",
            "responsible": "Felipe Romano Liborio Reis",
            "address": "4200 S. Ocean Blvd, Palm Beach, FL, United States of America",
            "website": null
        },
        {
            "id": 8521,
            "name": "Supa Jiu-Jitsu RPBJJ",
            "federationAbbr": "CBJJ",
            "country": "Brasil",
            "countryAbbr": "BR",
            "city": "Manaus",
            "responsible": "Cleudo Lima Caldas",
            "address": "Raimundo Corrêa, 1102 - Japiim 2, Manaus, Amazonas, Brasil",
            "website": null
        },
        {
            "id": 8155,
            "name": "Super Heróis Artes Marciais",
            "federationAbbr": "CBJJ",
            "country": "Brasil",
            "countryAbbr": "BR",
            "city": "Santa Maria Do Pará",
            "responsible": "Sidney Roberto Lima Sanches",
            "address": "Rua Cesarino Doce, 227, Centro, Residência, Santa Maria Do Pará, Pará, Brasil",
            "website": null
        },
        {
            "id": 6026,
            "name": "Super System BJJ",
            "federationAbbr": "USBJJF",
            "country": "United States of America",
            "countryAbbr": "US",
            "city": "Dublin",
            "responsible": "Benjamin James Nelson",
            "address": "6365 Shier Rings Road, STE F, Dublin, OH, United States of America",
            "website": "www.supersystembjj.com"
        },
        {
            "id": 8685,
            "name": "SUPERAÇÃO JIU-JITSU / BA",
            "federationAbbr": "CBJJ",
            "country": "Brasil",
            "countryAbbr": "BR",
            "city": "Barreiras",
            "responsible": "Osmar Barbosa de Souza",
            "address": "Rua João Cândido Oliveira N.345 Bairro São Pedro, Barreiras, Bahia, Brasil",
            "website": null
        },
        {
            "id": 10645,
            "name": "Supremacia Trainning Jiu-Jitsu",
            "federationAbbr": "CBJJ",
            "country": "Brasil",
            "countryAbbr": "BR",
            "city": "Manaus",
            "responsible": "Levy Jackson Melo Ferreira",
            "address": "Rua Álvares De Azevedo 24, Quadra 02, Manaus, Amazonas, Brasil",
            "website": null
        },
        {
            "id": 4574,
            "name": "Supremacy Brazilian Jiu-Jitsu",
            "federationAbbr": "USBJJF",
            "country": "United States of America",
            "countryAbbr": "US",
            "city": "Largo",
            "responsible": "Rodrigo dos Santos Grenno",
            "address": "8888 Ulmerton Rd  , , Largo, FL, United States of America",
            "website": "supremacybjj.com"
        },
        {
            "id": 3526,
            "name": "Surfight Jiu-Jitsu",
            "federationAbbr": "USBJJF",
            "country": "United States of America",
            "countryAbbr": "US",
            "city": "Solana Beach",
            "responsible": "Joel Tudor",
            "address": "243 North Pacific Coast Hwy 101 Suite #3  , , Solana Beach, CA, United States of America",
            "website": "surfightbjj.com"
        },
        {
            "id": 3140,
            "name": "Suto Academy",
            "federationAbbr": "JBJJF",
            "country": "Japan",
            "countryAbbr": "JP",
            "city": "Toyama",
            "responsible": "Casimiro Katsumi Paes Suto",
            "address": "1817 Nomachi Namerikawa-shi  , , Toyama, Japan",
            "website": ""
        }
    ]
}