{
    "pagination": {
        "page": 97,
        "from": 1920,
        "to": 1940,
        "pageSize": 20,
        "lastPage": 358,
        "totalRecords": 7149
    },
    "list": [
        {
            "id": 7976,
            "name": "Decatur Brazilian Jiu-Jitsu",
            "federationAbbr": "USBJJF",
            "country": "United States of America",
            "countryAbbr": "US",
            "city": "Forsyth",
            "responsible": "Joshua A Hendricks",
            "address": "133 E Barnett Ave Ste 2, Forsyth, Il, United States of America",
            "website": null
        },
        {
            "id": 7372,
            "name": "Dedotsu Amsterdam",
            "federationAbbr": "IBJJF",
            "country": "Netherlands",
            "countryAbbr": "NL",
            "city": "Amsterdam",
            "responsible": "Walid A. H. Elsharkawy",
            "address": "Suze groenewegplantsoe n93, Amsterdam, Netherlands",
            "website": null
        },
        {
            "id": 10465,
            "name": "Defensive Edge",
            "federationAbbr": "USBJJF",
            "country": "United States of America",
            "countryAbbr": "US",
            "city": "Wakefield",
            "responsible": "Joshua A Johnson",
            "address": "18 Del Carmine St, Wakefield, Ma, United States of America",
            "website": "https://defensive-edge.com"
        },
        {
            "id": 9842,
            "name": "Deftac",
            "federationAbbr": "IBJJF",
            "country": "Philippines",
            "countryAbbr": "PH",
            "city": "Parañaque City",
            "responsible": "Arthur Alvin A. Aguilar",
            "address": "4 Doña Irenea St. Cor. Sucat Road, Parañaque City, Ncr, Philippines",
            "website": "deftac.university"
        },
        {
            "id": 9068,
            "name": "Deka Samuray Jiu-Jitsu",
            "federationAbbr": "CBJJ",
            "country": "Brasil",
            "countryAbbr": "BR",
            "city": "São José De Ribamar",
            "responsible": "José Antonio Pereira Filho",
            "address": "Rua 05 Quadra 06 Lote 22 Recanto Do Turu 1, Parque Vitória, São José De Ribamar, Ma, Brasil",
            "website": "Recanto do turu 1"
        },
        {
            "id": 4749,
            "name": "Del Mar Jiu-Jitsu Club",
            "federationAbbr": "USBJJF",
            "country": "United States of America",
            "countryAbbr": "US",
            "city": "Del Mar",
            "responsible": "Michael Neal Phelps",
            "address": "2120 Jimmy Durante Blvd #121  , , Del Mar, CA, United States of America",
            "website": "www.delmarjiujitsuclub.com"
        },
        {
            "id": 7553,
            "name": "Del Nova Martial Arts",
            "federationAbbr": "USBJJF",
            "country": "United States of America",
            "countryAbbr": "US",
            "city": "Vero Beach",
            "responsible": "Daniel Dias Nova",
            "address": "3270 Rockport St. SW, Vero Beach, Florida, United States of America",
            "website": null
        },
        {
            "id": 4138,
            "name": "Delegação Baiana de BJJ",
            "federationAbbr": "CBJJ",
            "country": "Brasil",
            "countryAbbr": "BR",
            "city": "Salvador",
            "responsible": "Andre Gomes Costa",
            "address": "Rua da Ilha S/N , Itapuã, Salvador, BA, Brasil",
            "website": ""
        },
        {
            "id": 9203,
            "name": "Delegação Paraense",
            "federationAbbr": "CBJJ",
            "country": "Brasil",
            "countryAbbr": "BR",
            "city": "Belém",
            "responsible": "Eduardo da Silva Conceição",
            "address": "Fjjp - Extreme Pro Sports, Belém, Pará, Brasil",
            "website": "http://extremeprosports.com.br"
        },
        {
            "id": 6518,
            "name": "Delgado Jiu-Jitsu Uruguay",
            "federationAbbr": "IBJJF",
            "country": "Uruguai",
            "countryAbbr": "UY",
            "city": "Montevideo",
            "responsible": "Alex Uchoa Pellejero",
            "address": "Bernardino Duhaide, 5065, Montevideo, Mo, Uruguai",
            "website": null
        },
        {
            "id": 9977,
            "name": "Delphi Jiu-Jitsu",
            "federationAbbr": "IBJJF",
            "country": "Spain",
            "countryAbbr": "ES",
            "city": "Alicante",
            "responsible": "Bruno Filipe Santos Lima",
            "address": "Avenida Las Palmas 40 1° 2, Teulada, Alicante, Spain, Spain",
            "website": null
        },
        {
            "id": 4064,
            "name": "Delta Gold Team CE",
            "federationAbbr": "CBJJ",
            "country": "Brasil",
            "countryAbbr": "BR",
            "city": "Fortaleza",
            "responsible": "Gabriel Souto Maior Arboes",
            "address": "Rua Miguel Gonsalves 182 , Montese, Fortaleza, CE, Brasil",
            "website": ""
        },
        {
            "id": 5182,
            "name": "Demetrio Team - BJJ",
            "federationAbbr": "CBJJ",
            "country": "Brasil",
            "countryAbbr": "BR",
            "city": "Niteroi",
            "responsible": "Thiago Demetrio Escaleira dos Santos",
            "address": "Rua Lemos Cunha 438 , Icarai, Niteroi, RJ, Brasil",
            "website": "facebook/demetrioteambjj"
        },
        {
            "id": 4348,
            "name": "Demian Maia Jiu-Jitsu",
            "federationAbbr": "CBJJ",
            "country": "Brasil",
            "countryAbbr": "BR",
            "city": "São Paulo",
            "responsible": "Demian Augusto Maia Baptista",
            "address": "Avenida Professor Francisco Morato, 479 Apt 13, Vila Leopoldina, São Paulo, Sp, Brasil",
            "website": "www.demianmaia.com.br"
        },
        {
            "id": 6550,
            "name": "Demian Maia Jiu-Jitsu Portugal",
            "federationAbbr": "FPJJB",
            "country": "Portugal",
            "countryAbbr": "PT",
            "city": "Lisboa",
            "responsible": "Demian Augusto Maia Baptista",
            "address": "Rua Belo Marques n5 10B, Lisboa, Portugal",
            "website": "www.demianmaiaportugal.com"
        },
        {
            "id": 10038,
            "name": "Demian Maia Jiu-Jitsu United Kingdom",
            "federationAbbr": "IBJJF",
            "country": "United Kingdom",
            "countryAbbr": "GB",
            "city": "High Wycombe",
            "responsible": "Demian Augusto Maia Baptista",
            "address": "3 Fryers Works Abercrombie Avenue, High Wycombe, Buckinghamshire, United Kingdom",
            "website": "demianmaia.com"
        },
        {
            "id": 4656,
            "name": "Demian Maia Jiu-Jitsu USA",
            "federationAbbr": "USBJJF",
            "country": "United States of America",
            "countryAbbr": "US",
            "city": "Miami",
            "responsible": "Daniel Amado Perez",
            "address": "8311 SW 142 Ave Apt i-101  , , Miami, FL, United States of America",
            "website": "sunset-mma.com"
        },
        {
            "id": 5252,
            "name": "Denis Morais Team/DMT",
            "federationAbbr": "CBJJ",
            "country": "Brasil",
            "countryAbbr": "BR",
            "city": "Angra dos Reis",
            "responsible": "Denis Morais dos Santos",
            "address": "Avenida Carlos Souza Gomes Borges N° 106, Frade, Angra dos Reis, RJ, Brasil",
            "website": null
        },
        {
            "id": 4104,
            "name": "Denis Wester Jiu-Jitsu",
            "federationAbbr": "CBJJ",
            "country": "Brasil",
            "countryAbbr": "BR",
            "city": "Manaus",
            "responsible": "Denis Wester de Oliveira Teixeira",
            "address": "Rua Ramos Ferreira n: 377 casa 120, Aparecida, Manaus, AM, Brasil",
            "website": null
        },
        {
            "id": 4020,
            "name": "Dennis Jiu-Jitsu Club",
            "federationAbbr": "CBJJ",
            "country": "Brasil",
            "countryAbbr": "BR",
            "city": "Maringá",
            "responsible": "Edenilson Roberto Siqueira de Lima",
            "address": "Av. Brasil 5593, Zona 5, Maringá, PR, Brasil",
            "website": "www.ctmaringa.com.br"
        }
    ]
}