{
    "pagination": {
        "page": 230,
        "from": 4580,
        "to": 4600,
        "pageSize": 20,
        "lastPage": 358,
        "totalRecords": 7149
    },
    "list": [
        {
            "id": 9395,
            "name": "Matt MacDonald BJJ",
            "federationAbbr": "IBJJF",
            "country": "Canada",
            "countryAbbr": "CA",
            "city": "Winnipeg",
            "responsible": "Matthew William Kendrick MacDonald",
            "address": "1000 Notre Dame Ave, Winnipeg, Manitoba, Canada",
            "website": "Winnipeg"
        },
        {
            "id": 9644,
            "name": "Matt Secor Brazilian Jiu-Jitsu",
            "federationAbbr": "USBJJF",
            "country": "United States of America",
            "countryAbbr": "US",
            "city": "South Glens Falls",
            "responsible": "Matthew Secor",
            "address": "131 Saratoga Avenue, South Glens Falls, Ny, United States of America",
            "website": "https://mattsecorjiujitsu.com/"
        },
        {
            "id": 8464,
            "name": "Matteh Escola De Jiu Jitsu",
            "federationAbbr": "CBJJ",
            "country": "Brasil",
            "countryAbbr": "BR",
            "city": "São Paulo",
            "responsible": "Vander Brandão Mattos Chechi",
            "address": "Avenida Do Cursino, 6313, São Paulo, São Paulo, Brasil",
            "website": null
        },
        {
            "id": 10397,
            "name": "Mattix Academy Davie",
            "federationAbbr": "USBJJF",
            "country": "United States of America",
            "countryAbbr": "US",
            "city": "Davie",
            "responsible": "Ricky Joey Semiglia",
            "address": "4301 South Flamingo Road Suite 103, Davie, Fl, United States of America",
            "website": "mattixacademy.com"
        },
        {
            "id": 9621,
            "name": "Mattix Academy Slovakia",
            "federationAbbr": "IBJJF",
            "country": "Slovakia",
            "countryAbbr": "SK",
            "city": "Presov",
            "responsible": "Matej Bocko",
            "address": "Namestie Mieru 1, Presov, Slovakia",
            "website": null
        },
        {
            "id": 2042,
            "name": "Maui Jiu-Jitsu",
            "federationAbbr": "USBJJF",
            "country": "United States of America",
            "countryAbbr": "US",
            "city": "Haiku",
            "responsible": "Luis Fernando Heredia",
            "address": "859 Peahl Rd  , , Haiku, HI, United States of America",
            "website": null
        },
        {
            "id": 5601,
            "name": "Maui Jiu-Jitsu Holland",
            "federationAbbr": "IBJJF",
            "country": "Netherlands",
            "countryAbbr": "NL",
            "city": "Arcen",
            "responsible": "Luis Fernando Heredia",
            "address": "Brandemolen 57, Arcen, Netherlands",
            "website": "www.egjjf.com"
        },
        {
            "id": 4550,
            "name": "Maurão Top Team",
            "federationAbbr": "CBJJ",
            "country": "Brasil",
            "countryAbbr": "BR",
            "city": "Mongaguá",
            "responsible": "Lucio Mauro Silva Lira",
            "address": "Av. Monteiro Lobato, 3228 - 2 Andar, Jd. Aguapehú, Mongaguá, SP, Brasil",
            "website": null
        },
        {
            "id": 5196,
            "name": "Mauricio Alonso BJJ",
            "federationAbbr": "USBJJF",
            "country": "United States of America",
            "countryAbbr": "US",
            "city": "Newark",
            "responsible": "Mauricio Antonio de Santos Alonso",
            "address": "5757 Stevenson Blvd  , Newark, CA, United States of America",
            "website": "MauricioAlonsoBJJ.com"
        },
        {
            "id": 5227,
            "name": "Mauricio Alonso BJJ - CWB",
            "federationAbbr": "CBJJ",
            "country": "Brasil",
            "countryAbbr": "BR",
            "city": "Curitiba",
            "responsible": "Mauricio Antonio de Santos Alonso",
            "address": "Rua Dr. Bronislau Ostoja Roguski 150 Acad. Stark, Jardim das Americas, Curitiba, PR, Brasil",
            "website": ""
        },
        {
            "id": 6997,
            "name": "Mauricio Gomes Legacy",
            "federationAbbr": "IBJJF",
            "country": "United Kingdom",
            "countryAbbr": "GB",
            "city": "Bilester",
            "responsible": "Maurício Motta Gomes",
            "address": "The Farm House, Hare Leys Farm , Bilester, Oxfordshire, United Kingdom",
            "website": "www.mauriciogomesbjj.com"
        },
        {
            "id": 2101,
            "name": "Mauricio Rizzada Gold Team",
            "federationAbbr": "USBJJF",
            "country": "United States of America",
            "countryAbbr": "US",
            "city": "la mesa",
            "responsible": null,
            "address": "5500 grossmont center dr  , , la mesa, ca, United States of America",
            "website": ""
        },
        {
            "id": 9508,
            "name": "Mauricio Santana Team",
            "federationAbbr": "IBJJF",
            "country": "Spain",
            "countryAbbr": "ES",
            "city": "Madrid",
            "responsible": "Mauricio Santana Junior",
            "address": "Calle Emiliana Del Zubeldia 10 Portal 3 3d, Madrid, Pinto, Spain",
            "website": null
        },
        {
            "id": 2261,
            "name": "Mauricio Ulloa BJJ",
            "federationAbbr": "IBJJF",
            "country": "Chile",
            "countryAbbr": "CL",
            "city": "Punta Arenas",
            "responsible": "Mauricio Fernando Ulloa Mensing",
            "address": "Pasaje Ona 0526, , Punta Arenas, , Chile",
            "website": ""
        },
        {
            "id": 4592,
            "name": "Mauritius Brazilian Jiu-Jitsu Academy",
            "federationAbbr": "IBJJF",
            "country": "Mauritius",
            "countryAbbr": "MU",
            "city": "Moka-Flacq",
            "responsible": "David Giorsetti",
            "address": "Avenue des Echassiers, Medine Camp de Masque, , Moka-Flacq, Mauritius",
            "website": ""
        },
        {
            "id": 5336,
            "name": "Mauro Ayres Brazilian Jiu-Jitsu",
            "federationAbbr": "CBJJ",
            "country": "Brasil",
            "countryAbbr": "BR",
            "city": "Rio de Janeiro",
            "responsible": "Mauro Henrique Ayres Junior",
            "address": "Rua Visconde de Pirajá 318, 205A, Ipanema, Rio de Janeiro, RJ, Brasil",
            "website": "mauroayresbjj.com"
        },
        {
            "id": 3964,
            "name": "Mauro Pedro Brazilian Jiu Jitsu",
            "federationAbbr": "IBJJF",
            "country": "Switzerland",
            "countryAbbr": "CH",
            "city": "St. Gallen",
            "responsible": "Mauro Pedro A. Costa Brogle",
            "address": "Steigerstasse 5A  , , St. Gallen, --, Switzerland",
            "website": "www.bjj-stgallen.ch"
        },
        {
            "id": 3577,
            "name": "Mauro Sergio BJJ",
            "federationAbbr": "IBJJF",
            "country": "Costa Rica",
            "countryAbbr": "CR",
            "city": "San Jose",
            "responsible": "Mauro Sergio de Oliveira",
            "address": "252-2150 Moravia , , San Jose, San Jose, Costa Rica",
            "website": "maurosergiobjj.com"
        },
        {
            "id": 9969,
            "name": "Maven Jiu-Jitsu Academy",
            "federationAbbr": "USBJJF",
            "country": "United States of America",
            "countryAbbr": "US",
            "city": "Spring",
            "responsible": "James Florentino Quan",
            "address": "538 Sawdust Road, Spring, Texas, United States of America",
            "website": "www.mavenbjj.com"
        },
        {
            "id": 10215,
            "name": "Maverick Martial Arts",
            "federationAbbr": "IBJJF",
            "country": "Singapore",
            "countryAbbr": "SG",
            "city": "Singapore",
            "responsible": "Rodrigo Gonçalves Martins Teixeira",
            "address": "322 Joo Chiat Rd, Singapore, Singapore, Singapore",
            "website": "https://www.facebook.com/maverickmartialartssg/"
        }
    ]
}