{
    "pagination": {
        "page": 133,
        "from": 2640,
        "to": 2660,
        "pageSize": 20,
        "lastPage": 358,
        "totalRecords": 7149
    },
    "list": [
        {
            "id": 7549,
            "name": "Fs Team BJJ",
            "federationAbbr": "CBJJ",
            "country": "Brasil",
            "countryAbbr": "BR",
            "city": "Francisco Beltrao",
            "responsible": "Fabio José de Oliveira",
            "address": "Av. Julio Assis Cavalheiro n: 22, 2 andar - Loja Eletro Beltrao, Francisco Beltrao, Paraná, Brasil",
            "website": null
        },
        {
            "id": 10308,
            "name": "FSA Switzerland",
            "federationAbbr": "IBJJF",
            "country": "Switzerland",
            "countryAbbr": "CH",
            "city": "Bern",
            "responsible": "Giuliano Haldimann",
            "address": "Freiburgstrasse 251, Bern, Bern, Switzerland",
            "website": "Bern"
        },
        {
            "id": 9771,
            "name": "FSB JJB",
            "federationAbbr": "IBJJF",
            "country": "France",
            "countryAbbr": "FR",
            "city": "Fontenay Sous Bois",
            "responsible": "Thanh Lam Hua",
            "address": "Avenue Charles Garcia - Fontenay Sous Bois, Fontenay Sous Bois, Val De Marne, France",
            "website": "https://www.facebook.com/groups/141832383085206"
        },
        {
            "id": 8376,
            "name": "FTCC LV",
            "federationAbbr": "USBJJF",
            "country": "United States of America",
            "countryAbbr": "US",
            "city": "Henderson",
            "responsible": "Taylor Monroe McCorriston",
            "address": "10670 S. Maryland Parkway Suite #135, Henderson, Nevada, United States of America",
            "website": "ftcclv.com"
        },
        {
            "id": 9891,
            "name": "FTIC Grappling Technics Australia",
            "federationAbbr": "IBJJF",
            "country": "Australia",
            "countryAbbr": "AU",
            "city": "Osbourne Park",
            "responsible": "Leigh Michael Burger",
            "address": "2/73 Walters Drive, Osbourne Park, Wa, Australia",
            "website": null
        },
        {
            "id": 3185,
            "name": "Fubuki Jiu-Jitsu",
            "federationAbbr": "JBJJF",
            "country": "Japan",
            "countryAbbr": "JP",
            "city": "Kasugai Shi",
            "responsible": "Ishikawa Fumitoshi",
            "address": "35 Shinmei cho  , , Kasugai Shi, Aichi , Japan",
            "website": "fubuki-bjj.com"
        },
        {
            "id": 6909,
            "name": "Fudoshin Brazilian Jiu-Jitsu",
            "federationAbbr": "USBJJF",
            "country": "United States of America",
            "countryAbbr": "US",
            "city": "Medford",
            "responsible": "Adam Richard Nadow",
            "address": "727 Meford Center, Medford, OR, United States of America",
            "website": "www.fudoshinbjj.com"
        },
        {
            "id": 10312,
            "name": "Fuerza Brazilian Jiu-Jitsu",
            "federationAbbr": "USBJJF",
            "country": "United States of America",
            "countryAbbr": "US",
            "city": "Peoria",
            "responsible": "Mario Alonso Gaxiola",
            "address": "8333 West Alyssa Lane, Peoria, Arizona, United States of America",
            "website": null
        },
        {
            "id": 2648,
            "name": "Fujita Jiu-Jitsu",
            "federationAbbr": "JBJJF",
            "country": "Japan",
            "countryAbbr": "JP",
            "city": "Hiroshima",
            "responsible": "Yoshihiro Fujita",
            "address": "4-15-16-602 Otiai Asakitaku Hiroshimashi  , , Hiroshima, --, Japan",
            "website": ""
        },
        {
            "id": 2879,
            "name": "Fukuzumi Jiu-Jitsu",
            "federationAbbr": "JBJJF",
            "country": "Japan",
            "countryAbbr": "JP",
            "city": "Aichi",
            "responsible": "Shinsuke Fukuzumi",
            "address": "1-165 Nonami, Tenpaka-ku, Nagoya  , , Aichi, --, Japan",
            "website": "http://fukuzumi-jj.com/"
        },
        {
            "id": 10412,
            "name": "Full Guard Martial Arts Club",
            "federationAbbr": "USBJJF",
            "country": "United States of America",
            "countryAbbr": "US",
            "city": "Virginia Beach",
            "responsible": "Gabriel Fabricio Samaniego III",
            "address": "5968 Buckminister Ln, Virginia Beach, Va, United States of America",
            "website": null
        },
        {
            "id": 10395,
            "name": "Full Metal BJJ",
            "federationAbbr": "USBJJF",
            "country": "United States of America",
            "countryAbbr": "US",
            "city": "Conroe",
            "responsible": "Joseph Chance Norman",
            "address": "15210 Interstate 45 S Suite 109, Conroe, Texas, United States of America",
            "website": "https://fullmetalbjj.com/"
        },
        {
            "id": 6487,
            "name": "Full Prime Jiu-Jitsu",
            "federationAbbr": "CBJJ",
            "country": "Brasil",
            "countryAbbr": "BR",
            "city": "João Pessoa",
            "responsible": "Luiz Fabiano da Silva Oliveira",
            "address": "Avenida Julia Freire n: 501, 1704 Bairro: Torre, João Pessoa, Paraiba, Brasil",
            "website": "fullprimebjj.com"
        },
        {
            "id": 5763,
            "name": "Fumaca Jiu-Jitsu",
            "federationAbbr": "USBJJF",
            "country": "United States of America",
            "countryAbbr": "US",
            "city": "Chicago",
            "responsible": "Antoine Evans",
            "address": "4780 north Elston Ave, Chicago, IL, United States of America",
            "website": "www.fumacabjj.com"
        },
        {
            "id": 9086,
            "name": "Fun Two Jiu-Jitsu",
            "federationAbbr": "IBJJF",
            "country": "Korea, South",
            "countryAbbr": "KR",
            "city": "Suyeong-gu",
            "responsible": "Tadeu Takao Tani",
            "address": "4f. 709 Suyeong-ro, Suyeong-gu, Busan, Korea, South",
            "website": null
        },
        {
            "id": 8572,
            "name": "Funda-Mordex BJJ",
            "federationAbbr": "CBJJ",
            "country": "Brasil",
            "countryAbbr": "BR",
            "city": "Boa Vista",
            "responsible": "Flávio Sales da Costa",
            "address": "Rua Dos Ipês, 233, Boa Vista, Roraima, Brasil",
            "website": null
        },
        {
            "id": 3424,
            "name": "Fúria Top Team",
            "federationAbbr": "CBJJ",
            "country": "Brasil",
            "countryAbbr": "BR",
            "city": "Cidade Ocidental",
            "responsible": "Dore Edson Pereira de Souza",
            "address": "Quadra 54,  Lote T, Parque Américas, Cidade Ocidental, Go, Brasil",
            "website": null
        },
        {
            "id": 7971,
            "name": "Fusão BJJ",
            "federationAbbr": "CBJJ",
            "country": "Brasil",
            "countryAbbr": "BR",
            "city": "Vila Velha",
            "responsible": "Alan de Almeida Poncio",
            "address": "Rua Castelo Branco, 500, Lj 01, Vila Velha, Espírito Santo , Brasil",
            "website": "alanponciojjb"
        },
        {
            "id": 5453,
            "name": "Fusion Academy",
            "federationAbbr": "IBJJF",
            "country": "Italy",
            "countryAbbr": "IT",
            "city": "Rome",
            "responsible": "Andrea Franciotti",
            "address": "via Costanzo Casana 20, Rome, IT, Italy",
            "website": "fusionacademy.it"
        },
        {
            "id": 3500,
            "name": "Fusion Fight Team Mouse Jiu-Jitsu",
            "federationAbbr": "CBJJ",
            "country": "Brasil",
            "countryAbbr": "BR",
            "city": "Belo Horizonte",
            "responsible": "Hunderson Claudio de Oliveira",
            "address": " R. Póvoa de Varzim, 300 Loja, Paquetá, Belo Horizonte, MG, Brasil",
            "website": null
        }
    ]
}