{
    "pagination": {
        "page": 132,
        "from": 2620,
        "to": 2640,
        "pageSize": 20,
        "lastPage": 358,
        "totalRecords": 7149
    },
    "list": [
        {
            "id": 5855,
            "name": "Fraternity Brazilian Jiu-Jitsu",
            "federationAbbr": "CBJJ",
            "country": "Brasil",
            "countryAbbr": "BR",
            "city": "Rio de Janeiro",
            "responsible": "Carlos Eduardo Rabelo Monçôres",
            "address": "Rua Marechal Goes Monteiro n: 842, Bairro: Gramacho / Duque de Caxias, Rio de Janeiro, Rio de Janeiro, Brasil",
            "website": "www.fraternity.com"
        },
        {
            "id": 10240,
            "name": "FRATERNITY RAS BJJ",
            "federationAbbr": "CBJJ",
            "country": "Brasil",
            "countryAbbr": "BR",
            "city": "Curitiba",
            "responsible": "Ryan Antunes de Sá",
            "address": "Rua João Surian, 570, Novo Mundo\t, Curitiba, PR, Brasil",
            "website": null
        },
        {
            "id": 8783,
            "name": "Fratres Brazilian Jiu-Jitsu",
            "federationAbbr": "CBJJ",
            "country": "Brasil",
            "countryAbbr": "BR",
            "city": "São Paulo",
            "responsible": "Daniel Pacheco Affini",
            "address": "Rua Oscar Monteiro De Barros, 670, 660, São Paulo, São Paulo, Brasil",
            "website": "www.fratresbjj.com"
        },
        {
            "id": 9862,
            "name": "Fratres Chile Jiu-Jitsu",
            "federationAbbr": "IBJJF",
            "country": "Chile",
            "countryAbbr": "CL",
            "city": "Santiago",
            "responsible": "Cristóbal Andrés Pinochet Molina",
            "address": "Av Ossa 1632, Santiago, Santiago, Chile",
            "website": "Www.fratresbjj.com"
        },
        {
            "id": 9793,
            "name": "Fratres Jiu Jitsu Competition",
            "federationAbbr": "CBJJ",
            "country": "Brasil",
            "countryAbbr": "BR",
            "city": "São Paulo",
            "responsible": "Daniel Pacheco Affini",
            "address": "Rua Dr. Oscar Monteiro De Barros, 660, São Paulo, São Paulo, Brasil",
            "website": "www.fratresjj.com"
        },
        {
            "id": 2436,
            "name": "Frederick Fight Club",
            "federationAbbr": "USBJJF",
            "country": "United States of America",
            "countryAbbr": "US",
            "city": "Frederick",
            "responsible": null,
            "address": "244 A. Jefferson st.   , , Frederick, MD, United States of America",
            "website": "frederickfightclub.com"
        },
        {
            "id": 4193,
            "name": "Fredson Paixão BJJ Brasil",
            "federationAbbr": "CBJJ",
            "country": "Brasil",
            "countryAbbr": "BR",
            "city": "São Paulo",
            "responsible": "Fredson Paixão da Silva Melo",
            "address": "Rua Araritaguaba, 74, Vila Maria Alta, São Paulo, Sp, Brasil",
            "website": ""
        },
        {
            "id": 3039,
            "name": "Fredson Paixao BJJ Las Vegas",
            "federationAbbr": "USBJJF",
            "country": "United States of America",
            "countryAbbr": "US",
            "city": "Las Vegas",
            "responsible": "Fredson Paixão da Silva Melo",
            "address": "1266 Finale Ln  , , Las Vegas, NV, United States of America",
            "website": "www.fpbjj.com"
        },
        {
            "id": 3353,
            "name": "Free \u0026 Free",
            "federationAbbr": "JBJJF",
            "country": "Japan",
            "countryAbbr": "JP",
            "city": "Saitama",
            "responsible": "Katsuhiro Hirata",
            "address": "Okadabiru 4F 17-2 Honcho Wakoushi Saitamaken, Saitama, --, Japan",
            "website": "free-and-f.com"
        },
        {
            "id": 7581,
            "name": "Free World Jiu-Jitsu",
            "federationAbbr": "USBJJF",
            "country": "United States of America",
            "countryAbbr": "US",
            "city": "Kapolei",
            "responsible": "Jordan Tomas Gomez",
            "address": "92-1264 Kikaha St., Kapolei, HI, United States of America",
            "website": "www.freeworldjiujitsu.com"
        },
        {
            "id": 10582,
            "name": "Freedom Jiu-Jitsu",
            "federationAbbr": "USBJJF",
            "country": "United States of America",
            "countryAbbr": "US",
            "city": "Patchogue",
            "responsible": "Steven P Kaloustian",
            "address": "465 Route 112, Patchogue, New York, United States of America",
            "website": "http://www.freedom-jiujitsu.com/"
        },
        {
            "id": 6955,
            "name": "Freestyle MMA Las Vegas",
            "federationAbbr": "USBJJF",
            "country": "United States of America",
            "countryAbbr": "US",
            "city": "Las Vegas",
            "responsible": "Grigor Greg Ambaryan",
            "address": "5693 South Jones Blvd. Suite 103, Las Vegas, NV, United States of America",
            "website": "www.freestylemmalv.com"
        },
        {
            "id": 5529,
            "name": "Fresh Brazilian Jiu-Jitsu",
            "federationAbbr": "USBJJF",
            "country": "United States of America",
            "countryAbbr": "US",
            "city": "St. Clair Shores",
            "responsible": "Antwan D. Fresh",
            "address": "22520 Greater Mack, St. Clair Shores, MI, United States of America",
            "website": "fresh-brazilian-jiujitsu.com"
        },
        {
            "id": 5290,
            "name": "Fresno Team Rocha",
            "federationAbbr": "USBJJF",
            "country": "United States of America",
            "countryAbbr": "US",
            "city": "Fresno",
            "responsible": "Tiago Coelho Porto Rocha",
            "address": "6334 W. Robinwood Ln, Fresno, CA, United States of America",
            "website": null
        },
        {
            "id": 7348,
            "name": "Friends BJJ",
            "federationAbbr": "JBJJF",
            "country": "Japan",
            "countryAbbr": "JP",
            "city": "Nagoya",
            "responsible": "Edison Leandro da Silva",
            "address": "4-370 Osu Minato-Ku, Nagoya, Aichi, Japan",
            "website": "http://www.friendsbjj.com"
        },
        {
            "id": 10099,
            "name": "Front 39 Brazilian Jiu Jitsu",
            "federationAbbr": "CBJJ",
            "country": "Brasil",
            "countryAbbr": "BR",
            "city": "Cachoeirinha",
            "responsible": "Juliano de Souza Pavão",
            "address": "Rua Monteiro Lobato 1139, Cachoeirinha, Rs, Brasil",
            "website": null
        },
        {
            "id": 2285,
            "name": "Frontline Academy",
            "federationAbbr": "IBJJF",
            "country": "Norway",
            "countryAbbr": "NO",
            "city": "Oslo",
            "responsible": "Eduardo Rios",
            "address": "Bogstadvein 27 B  , , Oslo, __, Norway",
            "website": "www.frontlineacademy.no"
        },
        {
            "id": 8014,
            "name": "Frontline Academy Drammen",
            "federationAbbr": "IBJJF",
            "country": "Norway",
            "countryAbbr": "NO",
            "city": "Drammen",
            "responsible": "Nic Ruben Nikolaisen",
            "address": "Guldlisten 20, Drammen, Norway",
            "website": "www.frontlineacademy.no"
        },
        {
            "id": 5179,
            "name": "Frostbite Vale-Tudo",
            "federationAbbr": "USBJJF",
            "country": "United States of America",
            "countryAbbr": "US",
            "city": "Fairbanks",
            "responsible": "Jeffrey Dennis Nielsen",
            "address": "845 College Rd  , , Fairbanks, AK, United States of America",
            "website": ""
        },
        {
            "id": 2840,
            "name": "Frota Academy",
            "federationAbbr": "IBJJF",
            "country": "Switzerland",
            "countryAbbr": "CH",
            "city": "Zurich",
            "responsible": "Francisco Augusto Frota Guimaraes",
            "address": "Badenerstrasse 434, , Zurich, CH, Switzerland",
            "website": "www.frota-team.ch"
        }
    ]
}