{
    "pagination": {
        "page": 346,
        "from": 6900,
        "to": 6920,
        "pageSize": 20,
        "lastPage": 358,
        "totalRecords": 7149
    },
    "list": [
        {
            "id": 4123,
            "name": "Vitor Shaolin BJJ",
            "federationAbbr": "USBJJF",
            "country": "United States of America",
            "countryAbbr": "US",
            "city": "New York",
            "responsible": "Vitor de Souza Ribeiro",
            "address": "780 8th Ave, 302  , New York, NY, United States of America",
            "website": "www.bjjnewyorkcity.com"
        },
        {
            "id": 5360,
            "name": "Vitor Shaolin BJJ International",
            "federationAbbr": "IBJJF",
            "country": "Ireland",
            "countryAbbr": "IE",
            "city": "New York",
            "responsible": "Vitor de Souza Ribeiro",
            "address": "780 8th Ave., Suite 302, New York, NY, Ireland",
            "website": "www.bjjnewyorkcity.com"
        },
        {
            "id": 2870,
            "name": "Viva Zapata Jiu-Jitsu",
            "federationAbbr": "IBJJF",
            "country": "Sweden",
            "countryAbbr": "SE",
            "city": "Växjö",
            "responsible": "Waldo Bautista Zapata",
            "address": "Östregårdsgatan 24, , Växjö, Sweden",
            "website": ""
        },
        {
            "id": 8560,
            "name": "Vivaz",
            "federationAbbr": "CBJJ",
            "country": "Brasil",
            "countryAbbr": "BR",
            "city": "Além Paraíba",
            "responsible": "Lucas Yudi Hara Nogueira",
            "address": "Rua Coronel Castelo Branco, 45, Além Paraíba, Mg, Brasil",
            "website": null
        },
        {
            "id": 8242,
            "name": "Viver MMA",
            "federationAbbr": "USBJJF",
            "country": "United States of America",
            "countryAbbr": "US",
            "city": "West Roxbury",
            "responsible": "Marcelo F. de Oliveira",
            "address": "1580 Vfw Parkway, West Roxbury, Ma, United States of America",
            "website": null
        },
        {
            "id": 4493,
            "name": "Vivo Jiu-Jitsu",
            "federationAbbr": "IBJJF",
            "country": "Spain",
            "countryAbbr": "ES",
            "city": "Móstoles",
            "responsible": "Marcos Moyo Sarsa Ntutumu",
            "address": "Paseo Arroyomolinos N 5, 1a, Móstoles, Madrid, Spain",
            "website": null
        },
        {
            "id": 9871,
            "name": "VJBJJ Split",
            "federationAbbr": "IBJJF",
            "country": "Croatia",
            "countryAbbr": "HR",
            "city": "Split",
            "responsible": "Luíz Vicente da Silva Júnior",
            "address": "Kroz Smrde\rac 25, Split, Croatia",
            "website": "https://bjjsplit.com/"
        },
        {
            "id": 9870,
            "name": "Vladislav Genov Fight Team",
            "federationAbbr": "IBJJF",
            "country": "Bulgaria",
            "countryAbbr": "BG",
            "city": "Sofia",
            "responsible": "Vladislav Plamenov Genov",
            "address": "Dunav 75, Sofia, Sofia, Bulgaria",
            "website": null
        },
        {
            "id": 9948,
            "name": "VLB Fight Team",
            "federationAbbr": "IBJJF",
            "country": "France",
            "countryAbbr": "FR",
            "city": "Villiers Le Bel",
            "responsible": "Steve Alexandre Mandouki",
            "address": "6 Rue Voltaire, Villiers Le Bel, France",
            "website": null
        },
        {
            "id": 8069,
            "name": "VLN Jiu-Jitsu",
            "federationAbbr": "CBJJ",
            "country": "Brasil",
            "countryAbbr": "BR",
            "city": "Chapecó",
            "responsible": "Ézio Luis Amaro",
            "address": "R. Carlos Chagas, 68d - Centro, D, Chapecó, Santa Catarina, Brasil",
            "website": null
        },
        {
            "id": 8654,
            "name": "Vogel BJJ",
            "federationAbbr": "USBJJF",
            "country": "United States of America",
            "countryAbbr": "US",
            "city": "Philadelphia",
            "responsible": "Joshua Richard Vogel",
            "address": "31 South 2nd Street 2f, Philadelphia, Pa, United States of America",
            "website": "Jiujitsuphilly.com"
        },
        {
            "id": 8884,
            "name": "Võimla",
            "federationAbbr": "IBJJF",
            "country": "Estonia",
            "countryAbbr": "EE",
            "city": "Tartu",
            "responsible": "Jorgen Matsi",
            "address": "Raatuse 68-16, Tartu, Estonia",
            "website": "www.voimla.ee/en"
        },
        {
            "id": 8419,
            "name": "Vortex Jiu Jitsu Academy",
            "federationAbbr": "USBJJF",
            "country": "United States of America",
            "countryAbbr": "US",
            "city": "Palm Bay",
            "responsible": "Joe Thomas Wales Jr.",
            "address": "5132 Nw Minton Rd, Unit 3, Palm Bay, Fl, United States of America",
            "website": "www.vortexbjj.com"
        },
        {
            "id": 9107,
            "name": "Vórtice BJJ",
            "federationAbbr": "CBJJ",
            "country": "Brasil",
            "countryAbbr": "BR",
            "city": "Taboão Da Serra",
            "responsible": "Bruno de Melo Lins",
            "address": "Rua Doutor Manoel Octaviano Diniz Junqueira Filho, 75, Taboão Da Serra, Sao Paulo, Brasil",
            "website": null
        },
        {
            "id": 7406,
            "name": "VS Attd 81",
            "federationAbbr": "CBJJ",
            "country": "Brasil",
            "countryAbbr": "BR",
            "city": "Recife",
            "responsible": "Renato Cavalcanti de Castro",
            "address": "Av. Visconde de Jaquitinhonha n: 2902, Bairro: Boa Viagem, Recife, Pernambuco, Brasil",
            "website": null
        },
        {
            "id": 10277,
            "name": "Vt1 Jiu-Jitsu",
            "federationAbbr": "IBJJF",
            "country": "Australia",
            "countryAbbr": "AU",
            "city": "Sydney",
            "responsible": "Liam Adam Resnekov",
            "address": "390 Eastern Valley Way, Unit 19b, Sydney, Nsw, Australia",
            "website": "www.vt1mma.com.au"
        },
        {
            "id": 10147,
            "name": "W.B.S Batista Team",
            "federationAbbr": "CBJJ",
            "country": "Brasil",
            "countryAbbr": "BR",
            "city": "Maceio",
            "responsible": "Weverton Batista dos Santos",
            "address": "Avenida Ministro Mario Andreazza. 1966, Frente Ao Mercadinho Rainha Do Lar, Maceio, Alagoas, Brasil",
            "website": null
        },
        {
            "id": 5978,
            "name": "Wagner Dentinho Brazilian Jiu-Jitsu",
            "federationAbbr": "CBJJ",
            "country": "Brasil",
            "countryAbbr": "BR",
            "city": "Itaja",
            "responsible": "Wagner Hermenegildo",
            "address": "Rua Abércio Werner n: 42 sla 1 , Centro - Cordeiros , Itaja, SC, Brasil",
            "website": null
        },
        {
            "id": 5116,
            "name": "Wagner Noboa Jiu-Jitsu",
            "federationAbbr": "CBJJ",
            "country": "Brasil",
            "countryAbbr": "BR",
            "city": "Teresópolis",
            "responsible": "Wagner Welerson Nóboa",
            "address": "Rua Palmira Maria de Oliveira  126, São Pedro, Teresópolis, RJ, Brasil",
            "website": null
        },
        {
            "id": 10498,
            "name": "Wagner Nunes BJJ  - International",
            "federationAbbr": "IBJJF",
            "country": "Qatar",
            "countryAbbr": "QA",
            "city": "Doha",
            "responsible": "Wagner Nunes de Sousa",
            "address": "Al Muntazah, Doha, Rayyan, Qatar",
            "website": null
        }
    ]
}