{
    "pagination": {
        "page": 176,
        "from": 3500,
        "to": 3520,
        "pageSize": 20,
        "lastPage": 358,
        "totalRecords": 7149
    },
    "list": [
        {
            "id": 6736,
            "name": "Gracie Humaita St. Louis",
            "federationAbbr": "USBJJF",
            "country": "United States of America",
            "countryAbbr": "US",
            "city": "St Peters",
            "responsible": "JW Wright",
            "address": "1070 wolfrum rd, St Peters, MO, United States of America",
            "website": "www.graciestlouis.com"
        },
        {
            "id": 2551,
            "name": "Gracie Humaita Temecula",
            "federationAbbr": "USBJJF",
            "country": "United States of America",
            "countryAbbr": "US",
            "city": "Murrieta",
            "responsible": null,
            "address": "26855, Jefferson ave  suite E , , Murrieta, CA, United States of America",
            "website": "www.jiujitsuacademy.com"
        },
        {
            "id": 4067,
            "name": "Gracie Humaitá Teresópolis",
            "federationAbbr": "CBJJ",
            "country": "Brasil",
            "countryAbbr": "BR",
            "city": "Teresópolis",
            "responsible": "Dulciney Matos de Lima",
            "address": "Rua Hercílio Ferreira dos Santos 97 Clube Comary, Granja Comary, Teresópolis, RJ, Brasil",
            "website": ""
        },
        {
            "id": 2277,
            "name": "Gracie Humaita USA",
            "federationAbbr": "USBJJF",
            "country": "United States of America",
            "countryAbbr": "US",
            "city": "La Jolla",
            "responsible": null,
            "address": "P.O. Box 1952  , , La Jolla, CA, United States of America",
            "website": "www.roylergracie.com"
        },
        {
            "id": 3018,
            "name": "Gracie Humaita Valencia / Antiga Mario Aiello BJJ",
            "federationAbbr": "USBJJF",
            "country": "United States of America",
            "countryAbbr": "US",
            "city": "Valencia",
            "responsible": "Mario Carmine Aiello",
            "address": "25327 Av. Stanford Suite 013  , , Valencia, CA, United States of America",
            "website": "graciehumaitavalencia.com"
        },
        {
            "id": 8435,
            "name": "Gracie Humaita West Craig",
            "federationAbbr": "USBJJF",
            "country": "United States of America",
            "countryAbbr": "US",
            "city": "North Las Vegas",
            "responsible": "Ronda K. Andrews-Rosa",
            "address": "4600 W Craig Rd, Ste 601, North Las Vegas, Nv, United States of America",
            "website": "Jiujitsulv.com"
        },
        {
            "id": 3122,
            "name": "Gracie Humaita Winnipeg",
            "federationAbbr": "IBJJF",
            "country": "Canada",
            "countryAbbr": "CA",
            "city": "Winnipeg",
            "responsible": "Rodrigo Munduruca",
            "address": "181 Stradbrook Ave.  , , Winnipeg, MB, Canada",
            "website": "www.graciewinnipeg.com"
        },
        {
            "id": 3694,
            "name": "Gracie Jiu Jitsu AAF",
            "federationAbbr": "IBJJF",
            "country": "Djibouti",
            "countryAbbr": "DJ",
            "city": "Kladno",
            "responsible": "Robin Gracie",
            "address": "D???  , , Kladno, --, Djibouti",
            "website": "www.graciejiujitsu.c2"
        },
        {
            "id": 2666,
            "name": "Gracie Jiu-Jitsu Academy",
            "federationAbbr": "USBJJF",
            "country": "United States of America",
            "countryAbbr": "US",
            "city": "Torrance",
            "responsible": null,
            "address": "3515 Artesia  , , Torrance, CA, United States of America",
            "website": "www.GracieAcademy.com"
        },
        {
            "id": 10112,
            "name": "Gracie Jiu-Jitsu Smeaton Grange",
            "federationAbbr": "IBJJF",
            "country": "Australia",
            "countryAbbr": "AU",
            "city": "Smeaton Grange",
            "responsible": "Alexandre Prates",
            "address": "Unit 1, 2-10 Dunn Road, Smeaton Grange, New South Wales, Australia",
            "website": null
        },
        {
            "id": 2397,
            "name": "Gracie Kauai - Longman Jiu-Jitsu",
            "federationAbbr": "USBJJF",
            "country": "United States of America",
            "countryAbbr": "US",
            "city": "Hanalei",
            "responsible": "Bruno Xavier Ewald",
            "address": "P.O.Box 1457  , Hanalei, HI, United States of America",
            "website": "www.longmanjiujitsu.com"
        },
        {
            "id": 7002,
            "name": "Gracie Kore",
            "federationAbbr": "CBJJ",
            "country": "Brasil",
            "countryAbbr": "BR",
            "city": "Rio de Janeiro",
            "responsible": "Kyra Gracie",
            "address": "Avenida das Américas n: 8585, Vogue Square - Barra da Tijuca, Rio de Janeiro, Rio de Janeiro, Brasil",
            "website": "www.graciekore.com.br"
        },
        {
            "id": 2457,
            "name": "Gracie Lisboa",
            "federationAbbr": "FPJJB",
            "country": "Portugal",
            "countryAbbr": "PT",
            "city": "Lisboa",
            "responsible": null,
            "address": "Parque das Nações  , , Lisboa, xx, Portugal",
            "website": ""
        },
        {
            "id": 2226,
            "name": "Gracie Morumbi",
            "federationAbbr": "USBJJF",
            "country": "United States of America",
            "countryAbbr": "US",
            "city": "Ventura",
            "responsible": "Fabio Leopoldo e Silva Neto",
            "address": "2160 Thompson Blvd, Ventura, CA, United States of America",
            "website": "www.morumbijiujitsuacademy.com"
        },
        {
            "id": 3555,
            "name": "Gracie One",
            "federationAbbr": "CBJJ",
            "country": "Brasil",
            "countryAbbr": "BR",
            "city": "Santo Amaro da Imperatriz",
            "responsible": "Crolin Gracie",
            "address": "Rua  Mansur Elias 345, Centro, Santo Amaro da Imperatriz, SC, Brasil",
            "website": "www.gracieonebrasil.com.br"
        },
        {
            "id": 7477,
            "name": "Gracie One HQ",
            "federationAbbr": "USBJJF",
            "country": "United States of America",
            "countryAbbr": "US",
            "city": "Dallas",
            "responsible": "Crolin Gracie",
            "address": "11661 Preston Rd. #186, Dallas, TX, United States of America",
            "website": "www.Gracieone.com"
        },
        {
            "id": 6686,
            "name": "Gracie Petrópolis",
            "federationAbbr": "CBJJ",
            "country": "Brasil",
            "countryAbbr": "BR",
            "city": "Petrópolis",
            "responsible": "Breno Martins Angelo",
            "address": "Vila Macedo, 62 Cobertura - Centro - Petrópolis/RJ - 25620-130, Centro , Petrópolis, RJ, Brasil",
            "website": null
        },
        {
            "id": 3769,
            "name": "Gracie Raleigh",
            "federationAbbr": "USBJJF",
            "country": "United States of America",
            "countryAbbr": "US",
            "city": "Raleigh",
            "responsible": "Brandon Mitchell Garner",
            "address": "119 E Hargett St.  , , Raleigh, NC, United States of America",
            "website": "www.gracieraleigh.com"
        },
        {
            "id": 3728,
            "name": "Gracie San Salvador",
            "federationAbbr": "IBJJF",
            "country": "El Salvador",
            "countryAbbr": "SV",
            "city": "San Salvador",
            "responsible": "Robin Gracie",
            "address": "Ave. Las Palmeras #141 Urb. La Florida  , San Salvador, --, El Salvador",
            "website": "www.graciesansalvador.com"
        },
        {
            "id": 2203,
            "name": "Gracie Sports USA",
            "federationAbbr": "USBJJF",
            "country": "United States of America",
            "countryAbbr": "US",
            "city": "Norwalk",
            "responsible": "Marcio Stambowsky",
            "address": "770 Connecticut Ave  , , Norwalk, CT, United States of America",
            "website": "www.graciesportsusa.com"
        }
    ]
}