{
    "pagination": {
        "page": 233,
        "from": 4640,
        "to": 4660,
        "pageSize": 20,
        "lastPage": 358,
        "totalRecords": 7149
    },
    "list": [
        {
            "id": 6296,
            "name": "Miburo",
            "federationAbbr": "JBJJF",
            "country": "Japan",
            "countryAbbr": "JP",
            "city": "Kyoto",
            "responsible": "Hiroki Takahashi",
            "address": "438-2F Miyagawasuji 8, Higashiyamaku, Kyoto, Japan",
            "website": "miburo-kyoto.com"
        },
        {
            "id": 3978,
            "name": "Michael DeLuca BJJ",
            "federationAbbr": "USBJJF",
            "country": "United States of America",
            "countryAbbr": "US",
            "city": "Weymouth",
            "responsible": "Michael A DeLuca Jr",
            "address": "26 Holly Hill Circle  , , Weymouth, MA, United States of America",
            "website": ""
        },
        {
            "id": 10526,
            "name": "Michael Foley Academy",
            "federationAbbr": "IBJJF",
            "country": "Canada",
            "countryAbbr": "CA",
            "city": "St. John's",
            "responsible": "Michael Garry Foley",
            "address": "117 Ropewalk Lane, St. John's, Newfoundland \u0026 Labrador, Canada",
            "website": "www.michaelfoley.ca"
        },
        {
            "id": 6986,
            "name": "Michael Freitas Fight Team",
            "federationAbbr": "CBJJ",
            "country": "Brasil",
            "countryAbbr": "BR",
            "city": "Recife",
            "responsible": "Michael Douglas Carvalho P. de Freitas",
            "address": "Av. João de Barros n: 1716, Bairro: Espinheiro, Recife, Pernambuco, Brasil",
            "website": null
        },
        {
            "id": 8699,
            "name": "Michael Torres Jiu-Jitsu",
            "federationAbbr": "USBJJF",
            "country": "United States of America",
            "countryAbbr": "US",
            "city": "Spring",
            "responsible": "Michael Keith Torres",
            "address": "4750 Fm-2920 Suite 401, Spring, Tx, United States of America",
            "website": "www.torresjiujitsu.com"
        },
        {
            "id": 7151,
            "name": "Michel Ebertz Jiu-Jitsu",
            "federationAbbr": "CBJJ",
            "country": "Brasil",
            "countryAbbr": "BR",
            "city": "Chapecó",
            "responsible": "Michel Adelino Ebertz",
            "address": "Rua Rio de Janeiro n: 620 / D, Bairro: Presidente Médice, Chapecó, Santa Catarina, Brasil",
            "website": "@michel_ebertz-bjj"
        },
        {
            "id": 2921,
            "name": "Michel Maia BJJ International",
            "federationAbbr": "IBJJF",
            "country": "United Arab Emirates",
            "countryAbbr": "AE",
            "city": "Abu Dhabi",
            "responsible": "Michel da Silva Maia",
            "address": "Al warda city tower AP 306 Abu Ahabi, AD P.O. box 133037 United Arab Emirates  , , Abu Dhabi, AB, United Arab Emirates",
            "website": ""
        },
        {
            "id": 2389,
            "name": "Michel Maia Jiu-Jitsu",
            "federationAbbr": "CBJJ",
            "country": "Brasil",
            "countryAbbr": "BR",
            "city": "São Leopoldo",
            "responsible": "Michel da Silva Maia",
            "address": "Rua Marques do Herval n: 221, Centro, São Leopoldo, RS, Brasil",
            "website": null
        },
        {
            "id": 4969,
            "name": "Michel Ribeiro Jiu-Jitsu",
            "federationAbbr": "CBJJ",
            "country": "Brasil",
            "countryAbbr": "BR",
            "city": "Manaus",
            "responsible": "Juarez Harles Martins Nunes",
            "address": "AV. Max Teixeira Cond. Ozias Monteiro apt 108, Cidade Nova, Manaus, AM, Brasil",
            "website": null
        },
        {
            "id": 5552,
            "name": "Michel Safi Brazilian Jiu-Jitsu School",
            "federationAbbr": "CBJJ",
            "country": "Brasil",
            "countryAbbr": "BR",
            "city": "Rio de Janeiro",
            "responsible": "Michel Safi",
            "address": "Avenida Ataulfo De Paiva 1079 Loja 301, Leblon, Rio de Janeiro, RJ, Brasil",
            "website": "jiujitsuescola.com"
        },
        {
            "id": 9133,
            "name": "Midcity MMA BJJ Revolution Team New Orleans",
            "federationAbbr": "USBJJF",
            "country": "United States of America",
            "countryAbbr": "US",
            "city": "New Orleans",
            "responsible": "Shawn Michael Gayton",
            "address": "4910 Banks Street Unit B, New Orleans, Louisiana, United States of America",
            "website": "www.midcitymma.com"
        },
        {
            "id": 6208,
            "name": "MidSouth Elite BJJ",
            "federationAbbr": "USBJJF",
            "country": "United States of America",
            "countryAbbr": "US",
            "city": "Memphis",
            "responsible": "Claude Donald Cook",
            "address": "2183 Young Ave, Memphis, TN, United States of America",
            "website": null
        },
        {
            "id": 9650,
            "name": "Midtown MMA Houston",
            "federationAbbr": "USBJJF",
            "country": "United States of America",
            "countryAbbr": "US",
            "city": "Houston",
            "responsible": "Robert C. Martinez Jr.",
            "address": "4916 Main St, Suite 120, Houston, Tx, United States of America",
            "website": "www.midtown-mma-houston.com"
        },
        {
            "id": 7768,
            "name": "Mightygym",
            "federationAbbr": "IBJJF",
            "country": "Korea, South",
            "countryAbbr": "KR",
            "city": "Seoul",
            "responsible": "Woo-bin Jung",
            "address": "5th Floor,516 Bongcheon-ro.gwanak-gu,seoul,republic Of Korea, Seoul, Gwanak-gu, Korea, South",
            "website": "Seoul"
        },
        {
            "id": 4031,
            "name": "Mike Moses' Competition Team",
            "federationAbbr": "USBJJF",
            "country": "United States of America",
            "countryAbbr": "US",
            "city": "Gaithersburg",
            "responsible": "Michael Randolph Moses",
            "address": "18753-200 N Frederick Ave  , , Gaithersburg, MD, United States of America",
            "website": "evolveacademy.com"
        },
        {
            "id": 2493,
            "name": "Milanimal",
            "federationAbbr": "IBJJF",
            "country": "Italy",
            "countryAbbr": "IT",
            "city": "Milano",
            "responsible": "Andrea Baggio",
            "address": "Via Lodovico Muratori, 34, , Milano, --, Italy",
            "website": "www.milanimal.com"
        },
        {
            "id": 5802,
            "name": "Milano Jiu-Jitsu - L'Accademia",
            "federationAbbr": "IBJJF",
            "country": "Italy",
            "countryAbbr": "IT",
            "city": "San Donato Milanese",
            "responsible": "Nicola Donadio",
            "address": "Via Adige 17, San Donato Milanese, MI, Italy",
            "website": "www.laccademiabjj.it"
        },
        {
            "id": 3115,
            "name": "Milestone Martial Arts",
            "federationAbbr": "USBJJF",
            "country": "United States of America",
            "countryAbbr": "US",
            "city": "Las Vegas",
            "responsible": "Leandro de Lorenço Lima",
            "address": "3061 Business Ln  , Las Vegas, NV, United States of America",
            "website": "www.milestonemartialarts.com"
        },
        {
            "id": 9713,
            "name": "Milioli Jiu Jitsu",
            "federationAbbr": "CBJJ",
            "country": "Brasil",
            "countryAbbr": "BR",
            "city": "Criciuma",
            "responsible": "Eduardo Milioli",
            "address": "Rua Coronel Marcos Rovaris 199, Centro, Criciuma, Sc, Brasil",
            "website": null
        },
        {
            "id": 9838,
            "name": "Mill Hill BJJ",
            "federationAbbr": "IBJJF",
            "country": "United Kingdom",
            "countryAbbr": "GB",
            "city": "London",
            "responsible": "Ederson Rafael Ribeiro",
            "address": "268-270 Watford Way, London, United Kingdom",
            "website": "www.millhillbjj.com"
        }
    ]
}