{
    "pagination": {
        "page": 286,
        "from": 5700,
        "to": 5720,
        "pageSize": 20,
        "lastPage": 358,
        "totalRecords": 7149
    },
    "list": [
        {
            "id": 3600,
            "name": "Romulo Melo Brazilian Jiu-Jitsu LLC.",
            "federationAbbr": "USBJJF",
            "country": "United States of America",
            "countryAbbr": "US",
            "city": "San Francisco",
            "responsible": "Romulo D. Melo",
            "address": "1313 Mason Street  , , San Francisco, CA, United States of America",
            "website": "www.romulomelobjj.com"
        },
        {
            "id": 7960,
            "name": "Romulo Santos BJJ",
            "federationAbbr": "IBJJF",
            "country": "Switzerland",
            "countryAbbr": "CH",
            "city": "Altstetten ",
            "responsible": "Rômulo Manoel F. Santos",
            "address": "Hohlstrasse 699, Altstetten , Zürich , Switzerland",
            "website": null
        },
        {
            "id": 4705,
            "name": "Ronaldo Black Team Jiu-Jitsu",
            "federationAbbr": "CBJJ",
            "country": "Brasil",
            "countryAbbr": "BR",
            "city": "Porto Velho",
            "responsible": "Reginaldo Barbosa Lima",
            "address": "Rua Porto Alegre 213, Embratel, Porto Velho, RO, Brasil",
            "website": null
        },
        {
            "id": 7320,
            "name": "Ronaldo Jacaré BJJ Academy",
            "federationAbbr": "USBJJF",
            "country": "United States of America",
            "countryAbbr": "US",
            "city": "Orlando",
            "responsible": "Ronaldo Carvalho Santos",
            "address": "8252 Ludington Circle, Orlando, FL, United States of America",
            "website": null
        },
        {
            "id": 8756,
            "name": "Roney Edler BJJ",
            "federationAbbr": "CBJJ",
            "country": "Brasil",
            "countryAbbr": "BR",
            "city": "Sobral",
            "responsible": "Roney Edler B. da Silva",
            "address": "Rua Joao Cordeiro, 593, Bairro Junco, Sobral, Ceara, Brasil",
            "website": "https://karijohnsonpiano.wixsite.com/website-3"
        },
        {
            "id": 3721,
            "name": "Ronnie Melo Jiu-Jitsu",
            "federationAbbr": "CBJJ",
            "country": "Brasil",
            "countryAbbr": "BR",
            "city": "Manaus",
            "responsible": "Ronnie Mendes de Melo",
            "address": "Rua Leonardo Malcher n: 181 / B, Centro, Manaus, AM, Brasil",
            "website": null
        },
        {
            "id": 8023,
            "name": "Ronny Tartaruga Jiu-Jitsu",
            "federationAbbr": "CBJJ",
            "country": "Brasil",
            "countryAbbr": "BR",
            "city": "Macaé",
            "responsible": "Ronny Peterson Prado Oliveira",
            "address": "Rua João Do Patrocínio 294 - Riviera Fluminense, Macaé, Rj, Brasil",
            "website": null
        },
        {
            "id": 9900,
            "name": "Rooted Jiu-Jitsu",
            "federationAbbr": "USBJJF",
            "country": "United States of America",
            "countryAbbr": "US",
            "city": "Benicia",
            "responsible": "Joseph Francis P. Bacani",
            "address": "2002 Columbus Parkway, Benicia, CA, United States of America",
            "website": "Rootedjiujitsu.com"
        },
        {
            "id": 2664,
            "name": "Roots BJJ",
            "federationAbbr": "IBJJF",
            "country": "Australia",
            "countryAbbr": "AU",
            "city": "Sydney",
            "responsible": "Paulo Fernando Maues Guimaraes",
            "address": "Level 3, 389 Sussex Street, Sydney, NSW, Australia",
            "website": "www.rootsbjj.com.au"
        },
        {
            "id": 6031,
            "name": "Roots BJJ Korea",
            "federationAbbr": "IBJJF",
            "country": "Korea, South",
            "countryAbbr": "KR",
            "city": "Incheon",
            "responsible": "Jae Sub Cho",
            "address": "3 Floor, 81 Gyeyang-daero Gyeyang-gu, Incheon, --, Korea, South",
            "website": "www.brazilianjiujitsu.co.kr"
        },
        {
            "id": 6473,
            "name": "Roots Of Old School Jiu Jitsu",
            "federationAbbr": "CBJJ",
            "country": "Brasil",
            "countryAbbr": "BR",
            "city": "Guarujá",
            "responsible": "Américo Leite Chaves Neto",
            "address": "Rua Manoel Araujo 508, Bairro Santo Antônio, Guarujá, São Paulo, Brasil",
            "website": "https://bjjlifestyle33.wixsite.com/roots"
        },
        {
            "id": 4181,
            "name": "Roraima Top Team Jiu-Jitsu",
            "federationAbbr": "CBJJ",
            "country": "Brasil",
            "countryAbbr": "BR",
            "city": "Boa Vista",
            "responsible": "Bruno Romão Peixoto",
            "address": "Rua Rio Negro 522 , Bela Vista, Boa Vista, RR, Brasil",
            "website": "www.facebook.com/brunoromaojiujitsu"
        },
        {
            "id": 4698,
            "name": "Rossi Team Jiu-Jitsu",
            "federationAbbr": "IBJJF",
            "country": "United Arab Emirates",
            "countryAbbr": "AE",
            "city": "Dubai",
            "responsible": "Marcos Alberto Oliveira Rossi",
            "address": "Garhoud Community, 4th Floor, Room 403, P.O. Box 91125, Dubai, Dubai, United Arab Emirates",
            "website": "www.rossiteamacademy.com"
        },
        {
            "id": 8203,
            "name": "Rotatori BJJ",
            "federationAbbr": "CBJJ",
            "country": "Brasil",
            "countryAbbr": "BR",
            "city": "Santos Dumont",
            "responsible": "Eduardo Antonio Rotatori Pereira",
            "address": "Avenida Coronel José Guilherme De Almeida, 152 - Graminha, Santos Dumont, Minas Gerais, Brasil",
            "website": null
        },
        {
            "id": 10583,
            "name": "Roughters Gym",
            "federationAbbr": "JBJJF",
            "country": "Japan",
            "countryAbbr": "JP",
            "city": "Obihiro",
            "responsible": "Tsukasa Muroya",
            "address": "Minami16chome1-1, Odori, Obihiro, Japan, Japan",
            "website": "https://roughters.com"
        },
        {
            "id": 4072,
            "name": "Round Table BJJ",
            "federationAbbr": "USBJJF",
            "country": "United States of America",
            "countryAbbr": "US",
            "city": "Mcconnellsburg",
            "responsible": "Bradley James Souders",
            "address": "103b Lincoln Way East, , Mcconnellsburg, PA, United States of America",
            "website": "www.tcamma.com"
        },
        {
            "id": 2789,
            "name": "Rounders MMA",
            "federationAbbr": "USBJJF",
            "country": "United States of America",
            "countryAbbr": "US",
            "city": "Santa Ana",
            "responsible": "Bao Nguyen Quach",
            "address": "2654 S Grand Ave  , , Santa Ana, CA, United States of America",
            "website": "www.roundersmma.com"
        },
        {
            "id": 8822,
            "name": "Route Jiu Jitsu",
            "federationAbbr": "CBJJ",
            "country": "Brasil",
            "countryAbbr": "BR",
            "city": "Brasília",
            "responsible": "Francisco de Assis Mesquita Junior",
            "address": "Shvp Rua 3, Chácara 86 Lote 9a, Vicente Pires, Brasília, Distrito Federal, Brasil",
            "website": "routebjj.com.br"
        },
        {
            "id": 9543,
            "name": "ROXBJJ",
            "federationAbbr": "CBJJ",
            "country": "Brasil",
            "countryAbbr": "BR",
            "city": "Natal",
            "responsible": "Felipe Augusto Farias Bezerra",
            "address": "Rua Aldo De Melo Freire 1706, Capim Macio, Natal, Rn, Brasil",
            "website": "instagram.com/roxbjj"
        },
        {
            "id": 2863,
            "name": "Roy Dean Academy",
            "federationAbbr": "USBJJF",
            "country": "United States of America",
            "countryAbbr": "US",
            "city": "Bend",
            "responsible": null,
            "address": "1740 NW Pence Lane #5  , , Bend, OR, United States of America",
            "website": "www.roydeanacademy.com"
        }
    ]
}