{
    "pagination": {
        "page": 12,
        "from": 220,
        "to": 240,
        "pageSize": 20,
        "lastPage": 358,
        "totalRecords": 7149
    },
    "list": [
        {
            "id": 9380,
            "name": "Aclive Jiu Jitsu",
            "federationAbbr": "CBJJ",
            "country": "Brasil",
            "countryAbbr": "BR",
            "city": "Bertioga",
            "responsible": "Everton Santana Pinto",
            "address": "Avenida 19 De Maio 1118, Albatroz, Bertioga, São Paulo, Brasil",
            "website": "Aclivebjj.com"
        },
        {
            "id": 10563,
            "name": "ACREANA DE ARTES MARCIAIS E LUTA ASSOCIAÇÃO",
            "federationAbbr": "CBJJ",
            "country": "Brasil",
            "countryAbbr": "BR",
            "city": "Epitaciolândia",
            "responsible": "Amarildo Ferreira da Silva",
            "address": "Av. Internacional, 106, Epitaciolândia, Brasil",
            "website": null
        },
        {
            "id": 9996,
            "name": "Acreditar Sempre Jiu Jitsu Academy",
            "federationAbbr": "CBJJ",
            "country": "Brasil",
            "countryAbbr": "BR",
            "city": "Campos Dos Goytacazes",
            "responsible": "Lauro Pitter Cândido de Souza",
            "address": "Estrada Da Raia 37, Campos Dos Goytacazes, Rio De Janeiro, Brasil",
            "website": null
        },
        {
            "id": 3720,
            "name": "ACT JJ",
            "federationAbbr": "CBJJ",
            "country": "Brasil",
            "countryAbbr": "BR",
            "city": "Brasília",
            "responsible": "Alessandro Ferreira da Silva",
            "address": "QS 12 conjunto 1B 16, Riacho Fundo  1, Brasília, DF, Brasil",
            "website": null
        },
        {
            "id": 3863,
            "name": "ACT JJ International",
            "federationAbbr": "IBJJF",
            "country": "Ireland",
            "countryAbbr": "IE",
            "city": "Newry",
            "responsible": "Alessandro Ferreira da Silva",
            "address": "25 Win Business Park  , , Newry, --, Ireland",
            "website": "www.charutojiujitsu.com.br"
        },
        {
            "id": 2729,
            "name": "Action \u0026 Reaction MMA Toronto",
            "federationAbbr": "IBJJF",
            "country": "Canada",
            "countryAbbr": "CA",
            "city": "Toronto",
            "responsible": "Cicero Barbosa da Costa",
            "address": "485 McNicoll  , Toronto, ON, Canada",
            "website": "www.actionreactionmma.com"
        },
        {
            "id": 6769,
            "name": "Action Jiu-Jitsu",
            "federationAbbr": "CBJJ",
            "country": "Brasil",
            "countryAbbr": "BR",
            "city": "Rio de Janeiro",
            "responsible": "Marcus Vinicius Pereira Meira",
            "address": "Av. Jornalista Marinho n: 457, Barra da Tijuca, Rio de Janeiro, Rio de Janeiro, Brasil",
            "website": null
        },
        {
            "id": 7753,
            "name": "Active Jiu-Jitsu",
            "federationAbbr": "USBJJF",
            "country": "United States of America",
            "countryAbbr": "US",
            "city": "Houston",
            "responsible": "Luiz Eduardo Rosa Júnior",
            "address": "11020 Katy Freeway Suite 113, Houston, Texas, United States of America",
            "website": "http://activejiujitsu.com/"
        },
        {
            "id": 6636,
            "name": "Ad Zurc Team",
            "federationAbbr": "CBJJ",
            "country": "Brasil",
            "countryAbbr": "BR",
            "city": "Joinville",
            "responsible": "Gledson Adriano da Cruz",
            "address": "Rua Guarujá n: 290 sala 01, Itaum, Joinville, Santa Catarina, Brasil",
            "website": null
        },
        {
            "id": 4119,
            "name": "Adam Bordeaux",
            "federationAbbr": "IBJJF",
            "country": "France",
            "countryAbbr": "FR",
            "city": "Bordeaux",
            "responsible": "Sebastien Gabriel Vicentini",
            "address": "92 Cours le Rouzic, Fight'n'fit, Bordeaux, --, France",
            "website": "www.adam-bordeaux.fr"
        },
        {
            "id": 4133,
            "name": "Adamas BJJ",
            "federationAbbr": "IBJJF",
            "country": "Spain",
            "countryAbbr": "ES",
            "city": "Madrid",
            "responsible": "Valdir De Oliveira Linhares",
            "address": "Padre Oltra 54, Madrid, --, Spain",
            "website": "www.tatamisfera.com"
        },
        {
            "id": 4868,
            "name": "Adão Januário BJJ",
            "federationAbbr": "CBJJ",
            "country": "Brasil",
            "countryAbbr": "BR",
            "city": "Macaé",
            "responsible": "Adão Januario de Oliveira",
            "address": "Av. Atlantica 854, Cavaleiros, Macaé, RJ, Brasil",
            "website": "facebook.com/elitegymtc"
        },
        {
            "id": 5484,
            "name": "Adão Neto JJ",
            "federationAbbr": "CBJJ",
            "country": "Brasil",
            "countryAbbr": "BR",
            "city": "Aguas Lindas",
            "responsible": "Adão de Sousa Moura Neto",
            "address": "Quadra 02, Lote 03, Jardim Brasília II, Aguas Lindas, GO, Brasil",
            "website": null
        },
        {
            "id": 9535,
            "name": "Adas Jiu-Jitsu Academy",
            "federationAbbr": "USBJJF",
            "country": "United States of America",
            "countryAbbr": "US",
            "city": "Peabody",
            "responsible": "Nassib Wanderson De Lima Adas",
            "address": "649 Lowell St., Unit G, Peabody, Massachusetts, United States of America",
            "website": "https://www.bjjpeabody.com/"
        },
        {
            "id": 9701,
            "name": "Ademir Pereira de Oliveira",
            "federationAbbr": "IBJJF",
            "country": "Kazakstan",
            "countryAbbr": "KZ",
            "city": "Karaganda",
            "responsible": "Ademir Pereira de Oliveira",
            "address": "Pavlov Street Building 2, Karaganda, Akmola Oblast, Kazakstan",
            "website": null
        },
        {
            "id": 8103,
            "name": "Adilson Team Caio Terra Barra Do Garças",
            "federationAbbr": "CBJJ",
            "country": "Brasil",
            "countryAbbr": "BR",
            "city": "Barra Do Garças",
            "responsible": "Adilson Luiz Esteves Silva",
            "address": "Rua Francisco Dourado, 356, Barra Do Garças, Mt, Brasil",
            "website": "https://instagran.com/caioterrabg"
        },
        {
            "id": 10732,
            "name": "Adonai Martial Arts School",
            "federationAbbr": "USBJJF",
            "country": "United States of America",
            "countryAbbr": "US",
            "city": "High Point",
            "responsible": "Rafael de Almeida Freitas Jesus ",
            "address": "4210 Pelican Street, High Point, North Carolina, United States of America",
            "website": null
        },
        {
            "id": 7943,
            "name": "Adriano Godzilla BJJ",
            "federationAbbr": "CBJJ",
            "country": "Brasil",
            "countryAbbr": "BR",
            "city": "Manaus",
            "responsible": "Adriano Morilo Soares",
            "address": "Rua Chade Nº24 Quadra 98 Nova Cidade , Atraz Da Escola Tereza Tupinamba, Manaus, Amazonas, Brasil",
            "website": null
        },
        {
            "id": 9627,
            "name": "Adsumus BJJ",
            "federationAbbr": "CBJJ",
            "country": "Brasil",
            "countryAbbr": "BR",
            "city": "Garanhuns",
            "responsible": "Gustavo Da Silva",
            "address": "Rua 1 , 55, 55, Garanhuns, Pe, Brasil",
            "website": null
        },
        {
            "id": 7745,
            "name": "Advance",
            "federationAbbr": "CBJJ",
            "country": "Brasil",
            "countryAbbr": "BR",
            "city": "Caxias Do Sul",
            "responsible": "Gabriel Grasselli de Lima",
            "address": "Rua Os Dezoito Do Forte 974, Apt 31, Caxias Do Sul, Rio Grande Do Sul, Brasil",
            "website": null
        }
    ]
}