{
    "pagination": {
        "page": 240,
        "from": 4780,
        "to": 4800,
        "pageSize": 20,
        "lastPage": 358,
        "totalRecords": 7149
    },
    "list": [
        {
            "id": 3236,
            "name": "Nascer Do Sol",
            "federationAbbr": "JBJJF",
            "country": "Japan",
            "countryAbbr": "JP",
            "city": "Gifu",
            "responsible": "Hiroyuki Nomura",
            "address": "1628-1, Hozumi, Mizuho-shi  , , Gifu, --, Japan",
            "website": "www.abjj-nos.com"
        },
        {
            "id": 7071,
            "name": "Nascimbeni Jiu-Jitsu",
            "federationAbbr": "CBJJ",
            "country": "Brasil",
            "countryAbbr": "BR",
            "city": "Naviraí",
            "responsible": "Cleone Nascimbeni Brito de Oliveira",
            "address": "Rua Julio Soares de Sousa Filho n: 568, Bairro: Varjao, Naviraí, MS, Brasil",
            "website": null
        },
        {
            "id": 1096,
            "name": "Nascimento JJ",
            "federationAbbr": "CBJJ",
            "country": "Brasil",
            "countryAbbr": "BR",
            "city": "São Gonçalo",
            "responsible": "Valter Rodrigues do Nascimento",
            "address": "Av. José Mendonça de Campos 497 SL 107 e 108, Colubande, São Gonçalo, RJ, Brasil",
            "website": ""
        },
        {
            "id": 4106,
            "name": "Natal e Rico Jiu-Jitsu",
            "federationAbbr": "CBJJ",
            "country": "Brasil",
            "countryAbbr": "BR",
            "city": "Magé",
            "responsible": "Antonio Ricardo Tavares",
            "address": "Rua D  Casa Lote 4 Quadra 23, Fragoso, Magé, RJ, Brasil",
            "website": ""
        },
        {
            "id": 10422,
            "name": "Nathan Mendes Brazilian Jiu-Jitsu Academy",
            "federationAbbr": "USBJJF",
            "country": "United States of America",
            "countryAbbr": "US",
            "city": "Palo Cedro",
            "responsible": "Nathan Correia Mendes",
            "address": "9481 Deschutes Drive, Suite #5, Palo Cedro, Ca, United States of America",
            "website": "www.reddingselfdefense.com"
        },
        {
            "id": 9519,
            "name": "Nativos Team",
            "federationAbbr": "CBJJ",
            "country": "Brasil",
            "countryAbbr": "BR",
            "city": "Madre De Deus",
            "responsible": "Evandro Alves Nascimento",
            "address": "Rua Santa Rita, 87, Centro, Madre De Deus, Bahia, Brasil",
            "website": null
        },
        {
            "id": 5183,
            "name": "Natural Kombat",
            "federationAbbr": "CBJJ",
            "country": "Brasil",
            "countryAbbr": "BR",
            "city": "Aracaju",
            "responsible": "Sammyr Xavier Santos",
            "address": "Rua Deputado Francisco Guedes de Melo 29 Conjunto Leite Neto, Grageru, Aracaju, SE, Brasil",
            "website": "Instagram: NaturalKombat"
        },
        {
            "id": 9892,
            "name": "Natural Selection",
            "federationAbbr": "USBJJF",
            "country": "United States of America",
            "countryAbbr": "US",
            "city": "Columbia",
            "responsible": "Nader Riad Tannir",
            "address": "1085 Shop Road, Columbia, Sc, United States of America",
            "website": "Www.lycanmixedmartialarts.com"
        },
        {
            "id": 7604,
            "name": "Natus Vincere Jiu-Jitsu",
            "federationAbbr": "CBJJ",
            "country": "Brasil",
            "countryAbbr": "BR",
            "city": "Varginha",
            "responsible": "Frederico Guimarães da Silva",
            "address": "Rua Santa Catarina 168, Bom Pastor, Casa, Varginha, Minas Gerais, Brasil",
            "website": null
        },
        {
            "id": 2212,
            "name": "NBJJ",
            "federationAbbr": "CBJJ",
            "country": "Brasil",
            "countryAbbr": "BR",
            "city": "Teresópolis",
            "responsible": "Carlos Eduardo Enes Raymundo",
            "address": "Rua Manoel Dias 65, Barra do Imbuí, Teresópolis, RJ, Brasil",
            "website": null
        },
        {
            "id": 9953,
            "name": "Neale Hoerle Brazilian Jiu-Jitsu",
            "federationAbbr": "USBJJF",
            "country": "United States of America",
            "countryAbbr": "US",
            "city": "Las Vegas",
            "responsible": "Neale Ehren Hoerle",
            "address": "5959 S Valley View Blvd, Las Vegas, Nv, United States of America",
            "website": "www.nealehoerle.com"
        },
        {
            "id": 8720,
            "name": "Neanderthal Cave BJJ",
            "federationAbbr": "CBJJ",
            "country": "Brasil",
            "countryAbbr": "BR",
            "city": "Vilhena",
            "responsible": "Gilson Ely Chaves Matos",
            "address": "Rua Marechal Deodoro Da Fonseca 103, Vilhena, Rondônia, Brasil",
            "website": null
        },
        {
            "id": 7009,
            "name": "Near East University Jiu-Jitsu",
            "federationAbbr": "IBJJF",
            "country": "Turkey",
            "countryAbbr": "TR",
            "city": "Lefkosa",
            "responsible": "Diogo Moraes Azevedo",
            "address": "Yakin Dogu Universitesi Yakin Dogu Bulvari PK: 99138, Lefkosa, Turkey",
            "website": "www.neu.edu.tr"
        },
        {
            "id": 10107,
            "name": "Nefilins",
            "federationAbbr": "CBJJ",
            "country": "Brasil",
            "countryAbbr": "BR",
            "city": "Aracaju",
            "responsible": "Juan Carlos Salles",
            "address": "Rua Hipólito Da Costa, 28, Aracaju, Se, Brasil",
            "website": "www.juansalles.com"
        },
        {
            "id": 8911,
            "name": "Negev Academy",
            "federationAbbr": "IBJJF",
            "country": "France",
            "countryAbbr": "FR",
            "city": "Levallois-perret",
            "responsible": "Jean-Michel Cyrille Lanternier",
            "address": "Angle Rue Marius Aufan / Rue Aristide Briand, Levallois-perret, France",
            "website": "https://negevjiujitsu.com/"
        },
        {
            "id": 3588,
            "name": "Nelson Grandini Jiu-Jitsu",
            "federationAbbr": "CBJJ",
            "country": "Brasil",
            "countryAbbr": "BR",
            "city": "São Paulo",
            "responsible": "Nelson Grandini Carlos",
            "address": "Av. Pedro Bueno 1254 , Jardim Aeroporto, São Paulo, SP, Brasil",
            "website": ""
        },
        {
            "id": 10180,
            "name": "Nelson Jiu-Jitsu",
            "federationAbbr": "USBJJF",
            "country": "United States of America",
            "countryAbbr": "US",
            "city": "St Cloud",
            "responsible": "Ricky Lane Nelson Jr.",
            "address": "3329 13th Street, St Cloud, Florida, United States of America",
            "website": "nelsonjiujitsu.com"
        },
        {
            "id": 6310,
            "name": "Nemeos Jiu-Jitsu",
            "federationAbbr": "IBJJF",
            "country": "Italy",
            "countryAbbr": "IT",
            "city": "Roma",
            "responsible": "Remo Cassella",
            "address": "Via Prenestina 42, Roma, RM, Italy",
            "website": null
        },
        {
            "id": 4186,
            "name": "Nemesis Jiu Jitsu",
            "federationAbbr": "USBJJF",
            "country": "United States of America",
            "countryAbbr": "US",
            "city": "North Little Rock",
            "responsible": "Matthew Steven Smith",
            "address": "5105 McClanahan Dr. J9, , North Little Rock, AR, United States of America",
            "website": "www.nlrbjj.com"
        },
        {
            "id": 5903,
            "name": "NEPA Fight Club Jiu Jitsu",
            "federationAbbr": "USBJJF",
            "country": "United States of America",
            "countryAbbr": "US",
            "city": "Milford",
            "responsible": "Marcio Vasconcellos Bittencourt",
            "address": "201 West Harford Street, Milford, PA, United States of America",
            "website": "www.tsmmabjj.net"
        }
    ]
}