{
    "pagination": {
        "page": 270,
        "from": 5380,
        "to": 5400,
        "pageSize": 20,
        "lastPage": 358,
        "totalRecords": 7149
    },
    "list": [
        {
            "id": 6507,
            "name": "Rada Jiu-Jitsu Academy",
            "federationAbbr": "USBJJF",
            "country": "United States of America",
            "countryAbbr": "US",
            "city": "La Jolla",
            "responsible": "Rafael Antonio Dallinha",
            "address": "908 Pearl St, La Jolla, CA, United States of America",
            "website": "www.LaJollaJiuJitsu.com"
        },
        {
            "id": 8939,
            "name": "Radji Barrett Jiu-Jitsu",
            "federationAbbr": "USBJJF",
            "country": "United States of America",
            "countryAbbr": "US",
            "city": "Fords",
            "responsible": "Radji Bryson-Barrett",
            "address": "540 New Brunswick Avenue, Fords, Nj, United States of America",
            "website": null
        },
        {
            "id": 6940,
            "name": "Rafa Frota Jj \u0026 Desenvolvimento Infantil",
            "federationAbbr": "CBJJ",
            "country": "Brasil",
            "countryAbbr": "BR",
            "city": "Brasília",
            "responsible": "Rafael Frota Rizzi de Azevedo",
            "address": "Rua 9 Norte Lote 5 - 1211, Bairro: Águas Claras, Brasília, DF, Brasil",
            "website": "www.rafafrotajiujitsu.com"
        },
        {
            "id": 10673,
            "name": "Rafael Conti - West Coast Jiu-Jitsu",
            "federationAbbr": "USBJJF",
            "country": "United States of America",
            "countryAbbr": "US",
            "city": "Laguna Hills",
            "responsible": "Rafael Conti",
            "address": "27071 Cabot Rd, Unit 115, Laguna Hills, CA, United States of America",
            "website": "www.westcoastjj.com"
        },
        {
            "id": 9083,
            "name": "Rafael Frota Jiu-Jitsu - Itália",
            "federationAbbr": "IBJJF",
            "country": "Italy",
            "countryAbbr": "IT",
            "city": "Tombolo",
            "responsible": "Rafael Frota Rizzi de Azevedo",
            "address": "Contrada Vittorio Veneto, 99, Palestra Fighting Center, Tombolo, Padova, Italy",
            "website": "www.rafafrotajiujitsu.com"
        },
        {
            "id": 2928,
            "name": "Rafael Ribeiro BJJ",
            "federationAbbr": "IBJJF",
            "country": "United Kingdom",
            "countryAbbr": "GB",
            "city": "London",
            "responsible": "Ederson Rafael Ribeiro",
            "address": "268a Watford Way, London, London, United Kingdom",
            "website": null
        },
        {
            "id": 7687,
            "name": "Rafael Vieira Team",
            "federationAbbr": "CBJJ",
            "country": "Brasil",
            "countryAbbr": "BR",
            "city": "Itaituba",
            "responsible": "Rafael Vieira",
            "address": "Rua 19, Qd 69, Lote 26, S/n, Campo Belo, Academia, Itaituba, Pará, Brasil",
            "website": null
        },
        {
            "id": 3278,
            "name": "Ragnarok Jiu-Jitsu",
            "federationAbbr": "JBJJF",
            "country": "Japan",
            "countryAbbr": "JP",
            "city": "Kagawa",
            "responsible": "Tatsuya Tai",
            "address": "535-10 3F Enza Town Takamatsu City  , Kagawa, --, Japan",
            "website": "http://kagawabjj.web.fc2.com/index.htm"
        },
        {
            "id": 9927,
            "name": "Rainbow Warriors BJJ",
            "federationAbbr": "IBJJF",
            "country": "Germany",
            "countryAbbr": "DE",
            "city": "Bergen",
            "responsible": "Matthew Dean Smith",
            "address": "Horstweg, 35a, Bergen, Niedersachsen, Germany",
            "website": "www.rainbow-warriors.de"
        },
        {
            "id": 6015,
            "name": "Raiz Jiu-Jitsu",
            "federationAbbr": "CBJJ",
            "country": "Brasil",
            "countryAbbr": "BR",
            "city": "Salvador ",
            "responsible": "Evandro Alves Nascimento",
            "address": "Avenida Jorge Amado, 205, 1o andar, Salvador , Bahia, Brasil",
            "website": null
        },
        {
            "id": 9667,
            "name": "Raiz Jiu-Jitsu Sarasota",
            "federationAbbr": "USBJJF",
            "country": "United States of America",
            "countryAbbr": "US",
            "city": "Sarasota",
            "responsible": "Leonardo Serra Seca Lerner",
            "address": "7630 Lockwood Ridge Rd, Sarasota, Fl, United States of America",
            "website": null
        },
        {
            "id": 826,
            "name": "Ralph Gracie",
            "federationAbbr": "USBJJF",
            "country": "United States of America",
            "countryAbbr": "US",
            "city": "San Francisco",
            "responsible": null,
            "address": "1166 Howard Street  , San Francisco, CA, United States of America",
            "website": "www.ralphgracie.com"
        },
        {
            "id": 7414,
            "name": "Ralph Gracie Brasil",
            "federationAbbr": "CBJJ",
            "country": "Brasil",
            "countryAbbr": "BR",
            "city": "São José",
            "responsible": "João Filipe S. de Oliveira",
            "address": "av. Ledio João Martins, 596, sobre loja, Kobrasol, São José, SC, Brasil",
            "website": null
        },
        {
            "id": 3784,
            "name": "Ralph Gracie Castanhal - PA",
            "federationAbbr": "CBJJ",
            "country": "Brasil",
            "countryAbbr": "BR",
            "city": "Castanhal",
            "responsible": "Peter Jones Vieira da Silva",
            "address": "Travessa Portugal, Nº 08, Novo Estrela, Nova Olinda, Castanhal, PA, Brasil",
            "website": "gbcastanhal.com.br"
        },
        {
            "id": 2584,
            "name": "Ralph Gracie Jiu-Jitsu Berkeley",
            "federationAbbr": "USBJJF",
            "country": "United States of America",
            "countryAbbr": "US",
            "city": "Berkeley",
            "responsible": "Luis Eduardo Gonçalves Fraga",
            "address": "1500 Ashby Ave  , , Berkeley, CA, United States of America",
            "website": "www.ralphgracieberkeley.com"
        },
        {
            "id": 7085,
            "name": "Ralph Gracie Jiu-Jitsu San Jose",
            "federationAbbr": "USBJJF",
            "country": "United States of America",
            "countryAbbr": "US",
            "city": "San Jose",
            "responsible": "Dorian Cartwright",
            "address": "4607 Cherry Ave. , San Jose, CA, United States of America",
            "website": "www.RalphGracieSJ.com "
        },
        {
            "id": 9251,
            "name": "Ralph Gracie Pleasanton",
            "federationAbbr": "USBJJF",
            "country": "United States of America",
            "countryAbbr": "US",
            "city": "Pleasanton",
            "responsible": "Márcio Tiago Moreira",
            "address": "3170 Santan Rita Road Suit -8, Pleasanton, California, United States of America",
            "website": "rgpleasanton.com"
        },
        {
            "id": 8904,
            "name": "Ralph Gracie Poland",
            "federationAbbr": "IBJJF",
            "country": "Poland",
            "countryAbbr": "PL",
            "city": "Glogow",
            "responsible": "Wojciech Mieczyslaw Bak",
            "address": "Ul. Radosna 3, Glogow, Malopolski, Poland",
            "website": "www.ralphgraciepoland.pl"
        },
        {
            "id": 9623,
            "name": "Ralph Gracie Waco",
            "federationAbbr": "USBJJF",
            "country": "United States of America",
            "countryAbbr": "US",
            "city": "Waco",
            "responsible": "Christopher A Gonzales",
            "address": "1109 Richland Dr, Waco, Texas, United States of America",
            "website": "ralphgracietexas.com"
        },
        {
            "id": 7808,
            "name": "Ramalho Jiu-Jitsu",
            "federationAbbr": "CBJJ",
            "country": "Brasil",
            "countryAbbr": "BR",
            "city": "Recife",
            "responsible": "Chaim Iaacov Varejão Pasqual R. de Oliveira",
            "address": "Estrada Do Baralho Número 174, Casa, Recife, Pernambuco, Brasil",
            "website": null
        }
    ]
}