{
    "pagination": {
        "page": 261,
        "from": 5200,
        "to": 5220,
        "pageSize": 20,
        "lastPage": 358,
        "totalRecords": 7149
    },
    "list": [
        {
            "id": 9699,
            "name": "Pedro De Miranda Jiu-Jítsu USA",
            "federationAbbr": "USBJJF",
            "country": "United States of America",
            "countryAbbr": "US",
            "city": "Fairfield",
            "responsible": "Pedro Simões Lopes de Miranda",
            "address": "561 Villa Avenue, Fairfield, Connecticut, United States of America",
            "website": "Www.privatejiujitsu.com"
        },
        {
            "id": 8843,
            "name": "Pedro Dias Team",
            "federationAbbr": "CBJJ",
            "country": "Brasil",
            "countryAbbr": "BR",
            "city": "Fortaleza",
            "responsible": "Pedro Henrique Dias de Carvalho",
            "address": "Dulcinéia Gondim 704, Fortaleza, Ce, Brasil",
            "website": "https://instagram.com/pedrodiasdojo?utm_medium=copy_link"
        },
        {
            "id": 9630,
            "name": "Pedro Mardem Brazilian  Jiu-jitsu",
            "federationAbbr": "CBJJ",
            "country": "Brasil",
            "countryAbbr": "BR",
            "city": "Boa Vista",
            "responsible": "Pedro Mardem Souza Felix",
            "address": "Rua José Aleixo, 253, Liberdade, Boa Vista, Rr, Brasil",
            "website": null
        },
        {
            "id": 5294,
            "name": "Pedro Pina BJJA",
            "federationAbbr": "CBJJ",
            "country": "Brasil",
            "countryAbbr": "BR",
            "city": "Teresopolis",
            "responsible": "Pedro Leonardo de Pina Costa",
            "address": "Rua Ivai, 140, Fatima, Teresopolis, RJ, Brasil",
            "website": null
        },
        {
            "id": 3762,
            "name": "Pedro Sauer - Team Canada",
            "federationAbbr": "IBJJF",
            "country": "Canada",
            "countryAbbr": "CA",
            "city": "St. John's",
            "responsible": "Luis Fernando Heredia",
            "address": "66 Canada Dr.  , , St. John's, NL, Canada",
            "website": "www.michaelfoley.ca"
        },
        {
            "id": 2576,
            "name": "Pedro Sauer Team",
            "federationAbbr": "USBJJF",
            "country": "United States of America",
            "countryAbbr": "US",
            "city": "Herndon",
            "responsible": "Ishmael Bentley II",
            "address": "360 Herndon Pkwy #100, Herndon, VA, United States of America",
            "website": "www.pedrosauer.com"
        },
        {
            "id": 9197,
            "name": "Pedrosa Jiu Jitsu Brasil",
            "federationAbbr": "CBJJ",
            "country": "Brasil",
            "countryAbbr": "BR",
            "city": "São Caetano Do Sul",
            "responsible": "Leandro Pedrosa Costa",
            "address": "Rua Pelegrino Bernardo, 1058, São Caetano Do Sul, São Paulo, Brasil",
            "website": "pedrosabjj.com"
        },
        {
            "id": 9084,
            "name": "Pedrosa Jiu-Jitsu",
            "federationAbbr": "IBJJF",
            "country": "Spain",
            "countryAbbr": "ES",
            "city": "Alcoy",
            "responsible": "Leandro Pedrosa Costa",
            "address": "Carrer Music Gonçal Blañez 5 2e, Alcoy, Alicante, Spain",
            "website": "Www.pedrosabjj.com"
        },
        {
            "id": 3382,
            "name": "Pellegrino MMA",
            "federationAbbr": "USBJJF",
            "country": "United States of America",
            "countryAbbr": "US",
            "city": "Belmar",
            "responsible": "Kurt J Pellegrino",
            "address": "1716 Main Street  , Belmar, NJ, United States of America",
            "website": "www.pellegrinomma.com"
        },
        {
            "id": 2602,
            "name": "Peloton / Brasa Rochester New York",
            "federationAbbr": "USBJJF",
            "country": "United States of America",
            "countryAbbr": "US",
            "city": "Spencerpoat",
            "responsible": "Paul Ferranti",
            "address": "44 Clearview Dr  , , Spencerpoat, NY, United States of America",
            "website": "www.peloton-bjj.com"
        },
        {
            "id": 3486,
            "name": "PennArBed JJB",
            "federationAbbr": "IBJJF",
            "country": "France",
            "countryAbbr": "FR",
            "city": "Brest",
            "responsible": "Alessandro Nunes de Oliveira",
            "address": "9 Rue Braille  , Brest, --, France",
            "website": "pennarbedjjb@gmail.com"
        },
        {
            "id": 3958,
            "name": "Pentagon Mixed Martial Arts",
            "federationAbbr": "USBJJF",
            "country": "United States of America",
            "countryAbbr": "US",
            "city": "Arlington",
            "responsible": "Leonardo Nunes Dalla Costa",
            "address": "1041 S. Edgewood Street  , , Arlington, VA, United States of America",
            "website": "http://www.pentagonmma.com/"
        },
        {
            "id": 3851,
            "name": "Peposo Team Portugal Açores",
            "federationAbbr": "FPJJB",
            "country": "Portugal",
            "countryAbbr": "PT",
            "city": "Ribeira Grande",
            "responsible": "Paulo Rodrigues Curi",
            "address": "Rua Nossa Senhora do Vencimento, Nº 12, R/C Esq, Conceição  , , Ribeira Grande, 9600-570, Portugal",
            "website": ""
        },
        {
            "id": 10668,
            "name": "Perago Brazilian Jiu-Jitsu",
            "federationAbbr": "IBJJF",
            "country": "United Kingdom",
            "countryAbbr": "GB",
            "city": "Clacton-on-sea",
            "responsible": "Paul Alan Harper",
            "address": "36, Victoria Road, Victoria Road, Clacton-on-sea, Essex, United Kingdom",
            "website": null
        },
        {
            "id": 9148,
            "name": "Pereira Team Champions - Matriz",
            "federationAbbr": "CBJJ",
            "country": "Brasil",
            "countryAbbr": "BR",
            "city": "Rio De Janeiro",
            "responsible": "Igor Pereira",
            "address": "Rua Jaciru, 160 - Apartamento 103, Rio De Janeiro, Rio De Janeiro, Brasil",
            "website": null
        },
        {
            "id": 9128,
            "name": "Pereira Team Champions International",
            "federationAbbr": "CBJJ",
            "country": "Brasil",
            "countryAbbr": "BR",
            "city": "Rio De Janeiro",
            "responsible": "Igor Pereira",
            "address": "Rua Jaciru, 160 - Apartamento 103, Rio De Janeiro, Rio De Janeiro, Brasil",
            "website": null
        },
        {
            "id": 7826,
            "name": "Pereiras Patriota de Jiu-Jitsu",
            "federationAbbr": "CBJJ",
            "country": "Brasil",
            "countryAbbr": "BR",
            "city": "São Paulo",
            "responsible": "Robert Dutra Moreira",
            "address": "Avenida Pedro Roschel Gottsfritz - 03, Casa, São Paulo, Sao Paulo, Brasil",
            "website": null
        },
        {
            "id": 7408,
            "name": "Perfil BJJ",
            "federationAbbr": "CBJJ",
            "country": "Brasil",
            "countryAbbr": "BR",
            "city": "Recife",
            "responsible": "Sidcley Vieira da Silva",
            "address": "Av. Governador Agamenon Magalhães n: 2807, Circuito Militar do Recife - Perfil Cross, Recife, Pernambuco, Brasil",
            "website": "Recife"
        },
        {
            "id": 9341,
            "name": "Perna System BJJ",
            "federationAbbr": "CBJJ",
            "country": "Brasil",
            "countryAbbr": "BR",
            "city": "Manaus",
            "responsible": "Ender Rodrigo Santos de Oliveira",
            "address": "Rua Praia Canoa Quebrada, 8 - Tarumã Parque Solimões, Condomínio Jardim Paradisíaco Antúrio - Apto 301 - Bl 2 A, Manaus, Amazonas, Brasil",
            "website": null
        },
        {
            "id": 9932,
            "name": "Peroba Team Brazilian Jiu Jitsu",
            "federationAbbr": "CBJJ",
            "country": "Brasil",
            "countryAbbr": "BR",
            "city": "Maricá",
            "responsible": "Daniel Machado da Silva",
            "address": "Rua Doutor Avany Bonfim 229, Maricá, Rj, Brasil",
            "website": null
        }
    ]
}