{
    "pagination": {
        "page": 52,
        "from": 1020,
        "to": 1040,
        "pageSize": 20,
        "lastPage": 358,
        "totalRecords": 7149
    },
    "list": [
        {
            "id": 9449,
            "name": "Brampton BJJ",
            "federationAbbr": "IBJJF",
            "country": "Canada",
            "countryAbbr": "CA",
            "city": "Brampton",
            "responsible": "Andrew McColl",
            "address": "1295 Williams Parkway St E, Brampton, Ontario, Canada",
            "website": "bramptonjiujitsu.com"
        },
        {
            "id": 8994,
            "name": "Brandão Jiu Jitsu",
            "federationAbbr": "CBJJ",
            "country": "Brasil",
            "countryAbbr": "BR",
            "city": "Angra Dos Reis",
            "responsible": "Eduardo Brandão Júnior",
            "address": "Avenida Conde Maurício De Nassau, 76 - Jacuecanga, Angra Dos Reis, Rio De Janeiro, Brasil",
            "website": null
        },
        {
            "id": 2224,
            "name": "Brasa",
            "federationAbbr": "USBJJF",
            "country": "United States of America",
            "countryAbbr": "US",
            "city": "Palatine",
            "responsible": null,
            "address": "709 S Vermont st  , , Palatine, IL, United States of America",
            "website": "equipebrasa.com"
        },
        {
            "id": 6622,
            "name": "Brasa - Clyde, OH",
            "federationAbbr": "USBJJF",
            "country": "United States of America",
            "countryAbbr": "US",
            "city": "Clyde",
            "responsible": "Justin LaBenne",
            "address": "1710 W McPherson Hwy, Clyde, OH, United States of America",
            "website": "www.ironsouljiujitsu.com"
        },
        {
            "id": 3466,
            "name": "Brasa Austin TX",
            "federationAbbr": "USBJJF",
            "country": "United States of America",
            "countryAbbr": "US",
            "city": "Austin",
            "responsible": "Jose Mario MacCord Queiroga",
            "address": "1921 Cedar Ben Drive Unit 146  , , Austin, TX, United States of America",
            "website": "www,mebjj.com"
        },
        {
            "id": 4305,
            "name": "Brasa Clube de Jiu-Jitsu",
            "federationAbbr": "IBJJF",
            "country": "Uruguai",
            "countryAbbr": "UY",
            "city": "Punta del Este",
            "responsible": "Ricardo Mesquita Pinheiro",
            "address": "Calle San Francisco Esquiva lunas de oro  , , Punta del Este, --, Uruguai",
            "website": "www.rataojiujitsu.com"
        },
        {
            "id": 5625,
            "name": "Brasa CTA France",
            "federationAbbr": "IBJJF",
            "country": "France",
            "countryAbbr": "FR",
            "city": "-",
            "responsible": "Caio Terra",
            "address": "France",
            "website": null
        },
        {
            "id": 5624,
            "name": "Brasa CTA Japan",
            "federationAbbr": "JBJJF",
            "country": "Japan",
            "countryAbbr": "JP",
            "city": "-",
            "responsible": "Caio Terra",
            "address": "Japan",
            "website": null
        },
        {
            "id": 2525,
            "name": "Brasa International",
            "federationAbbr": "IBJJF",
            "country": "Poland",
            "countryAbbr": "PL",
            "city": "Szczecin",
            "responsible": null,
            "address": "20/1 Trentonkiego Street  , Szczecin, --, Poland",
            "website": "bersezkekersteam.pl"
        },
        {
            "id": 1037,
            "name": "Brasa JJ",
            "federationAbbr": "CBJJ",
            "country": "Brasil",
            "countryAbbr": "BR",
            "city": "Rio de Janeiro",
            "responsible": null,
            "address": "Copacabana, Rio de Janeiro, RJ, Brasil",
            "website": null
        },
        {
            "id": 8132,
            "name": "Brasa Levski Sofia",
            "federationAbbr": "IBJJF",
            "country": "Bulgaria",
            "countryAbbr": "BG",
            "city": "Sofia",
            "responsible": "Rodrigo Leite de Medeiros",
            "address": "Sofia Park, 11 Panorama Sofia Street Ent. B, Fl.4, Ap. B405, 1766, , Sofia, Dc, Bulgaria",
            "website": null
        },
        {
            "id": 2952,
            "name": "Brasa Northwest Austin Texas",
            "federationAbbr": "USBJJF",
            "country": "United States of America",
            "countryAbbr": "US",
            "city": "Austin",
            "responsible": "Jason Stanley Claunch",
            "address": "12129 RR 620 - Suite 530  , , Austin, TX, United States of America",
            "website": "www.claunchacademyofbjj.com"
        },
        {
            "id": 7265,
            "name": "Brasa Ohio",
            "federationAbbr": "USBJJF",
            "country": "United States of America",
            "countryAbbr": "US",
            "city": "Toledo ",
            "responsible": "Deon Mark Thompson",
            "address": "3141 West Sylvania , Toledo , OH, United States of America",
            "website": "ohiobrasajiujitsu.com"
        },
        {
            "id": 3061,
            "name": "Brasa Portugal",
            "federationAbbr": "FPJJB",
            "country": "Portugal",
            "countryAbbr": "PT",
            "city": "x",
            "responsible": null,
            "address": "x  , , x, x, Portugal",
            "website": ""
        },
        {
            "id": 2746,
            "name": "Brasa Warrior International",
            "federationAbbr": "USBJJF",
            "country": "United States of America",
            "countryAbbr": "US",
            "city": "Schaumburg",
            "responsible": "Rodrigo Leite de Medeiros",
            "address": "1096 Mohegan Lane   , , Schaumburg, IL, United States of America",
            "website": "www.compridobjj.com"
        },
        {
            "id": 1086,
            "name": "Brasa/99",
            "federationAbbr": "CBJJ",
            "country": "Brasil",
            "countryAbbr": "BR",
            "city": "São Paulo",
            "responsible": "Eduardo Telles Moreira",
            "address": "Rua Remanso Nº 21  , Vila Mariana, São Paulo, SP, Brasil",
            "website": ""
        },
        {
            "id": 8738,
            "name": "Brasa/99 Ceará",
            "federationAbbr": "CBJJ",
            "country": "Brasil",
            "countryAbbr": "BR",
            "city": "Fortaleza",
            "responsible": "Fábio Augusto de Carvalho",
            "address": "Rua Florianópolis, 1972, Fortaleza, Ceará, Brasil",
            "website": null
        },
        {
            "id": 7986,
            "name": "Brasa/99 Piauí",
            "federationAbbr": "CBJJ",
            "country": "Brasil",
            "countryAbbr": "BR",
            "city": "Teresina",
            "responsible": "Fábio Augusto de Carvalho",
            "address": "Rua Jonatas Batista, 1123, Teresina, Piaui, Brasil",
            "website": null
        },
        {
            "id": 3609,
            "name": "Brasa/Itallo",
            "federationAbbr": "CBJJ",
            "country": "Brasil",
            "countryAbbr": "BR",
            "city": "Rio de Janeiro",
            "responsible": "Muzio Bruno De Angelis",
            "address": "Rua Senador Correia 05 , Laranjeiras, Rio de Janeiro, RJ, Brasil",
            "website": "www.itallovilardo.com"
        },
        {
            "id": 9119,
            "name": "Brasa99/Maranhão",
            "federationAbbr": "CBJJ",
            "country": "Brasil",
            "countryAbbr": "BR",
            "city": "São Luís",
            "responsible": "Fábio Augusto de Carvalho",
            "address": "Rua Sitio Do Meio 38  Bairro Fabril, São Luís, Maranhão, Brasil",
            "website": "São Luís"
        }
    ]
}