{
    "pagination": {
        "page": 238,
        "from": 4740,
        "to": 4760,
        "pageSize": 20,
        "lastPage": 358,
        "totalRecords": 7149
    },
    "list": [
        {
            "id": 10014,
            "name": "MTK Fight Japan",
            "federationAbbr": "JBJJF",
            "country": "Japan",
            "countryAbbr": "JP",
            "city": "Gunma",
            "responsible": "Luiz Fernando dos Santos Matsuki",
            "address": "427-4 Obaracho, Ota, Gunma, Gunma, Ota, Japan",
            "website": null
        },
        {
            "id": 5724,
            "name": "MU Jiu-Jitsu",
            "federationAbbr": "IBJJF",
            "country": "Korea, South",
            "countryAbbr": "KR",
            "city": "Incheon",
            "responsible": "Jonghyeon Park",
            "address": "41, Hangnarae-ro 6 beon-gil, Yeon su-gu, Incheon, Korea, South",
            "website": "mugym.kr"
        },
        {
            "id": 9162,
            "name": "Mudita Jiu-Jitsu",
            "federationAbbr": "USBJJF",
            "country": "United States of America",
            "countryAbbr": "US",
            "city": "Orlando",
            "responsible": "Brandon Diaz",
            "address": "11476 South Apopka Vineland Rd, Orlando, Florida, United States of America",
            "website": "muditajiujitsu.com"
        },
        {
            "id": 10738,
            "name": "Mugen",
            "federationAbbr": "USBJJF",
            "country": "United States of America",
            "countryAbbr": "US",
            "city": "Brooklyn",
            "responsible": "Gabriel Marte",
            "address": "280 Starr Street, Brooklyn, New York, United States of America",
            "website": "thedojonyc.com"
        },
        {
            "id": 3948,
            "name": "Munich MMA",
            "federationAbbr": "IBJJF",
            "country": "Germany",
            "countryAbbr": "DE",
            "city": "Munich",
            "responsible": "Antônio Sérgio Zimmermann Cardoso",
            "address": "Leopoldstrasse 19  , Munich, --, Germany",
            "website": "www.munich-mma.de"
        },
        {
            "id": 10723,
            "name": "Munis Brothers",
            "federationAbbr": "CBJJ",
            "country": "Brasil",
            "countryAbbr": "BR",
            "city": "São Paulo",
            "responsible": "Alex Munis dos Santos",
            "address": "Rua José Coimbra 120, Ap 141, São Paulo, São Paulo, Brasil",
            "website": null
        },
        {
            "id": 2012,
            "name": "Murphy Brother Jiu-Jitsu",
            "federationAbbr": "CBJJ",
            "country": "Brasil",
            "countryAbbr": "BR",
            "city": "Tupã",
            "responsible": "Sidnei Crispim Gomes",
            "address": "Rua Aimorés 1126, Segundo Andar, Centro, Tupã, SP, Brasil",
            "website": null
        },
        {
            "id": 7592,
            "name": "Musashi Jiu-Jitsu",
            "federationAbbr": "USBJJF",
            "country": "United States of America",
            "countryAbbr": "US",
            "city": "West Palm Beach",
            "responsible": "James Edmund Auld",
            "address": "3380 Lakeville Circle, West Palm Beach, FL, United States of America",
            "website": null
        },
        {
            "id": 4059,
            "name": "Musashi Kids",
            "federationAbbr": "USBJJF",
            "country": "United States of America",
            "countryAbbr": "US",
            "city": "Delray Beach",
            "responsible": null,
            "address": "1220 Tangelo Ter., A6, Delray Beach, FL, United States of America",
            "website": null
        },
        {
            "id": 1043,
            "name": "Muzio BJJ",
            "federationAbbr": "CBJJ",
            "country": "Brasil",
            "countryAbbr": "BR",
            "city": "Rio de Janeiro",
            "responsible": "Muzio Bruno De Angelis",
            "address": "Av. Visconde De Pirajá 452 - Sobreloja, Ipanema, Rio de Janeiro, RJ, Brasil",
            "website": "www.muziobjj.com"
        },
        {
            "id": 8763,
            "name": "Muzio BJJ Uruguay",
            "federationAbbr": "IBJJF",
            "country": "Uruguai",
            "countryAbbr": "UY",
            "city": "Maldonado",
            "responsible": "Muzio Bruno De Angelis",
            "address": "Calle Zelmar Michelini 1063, Maldonado, Maldonado, Uruguai",
            "website": "www.muziobjj.com"
        },
        {
            "id": 8093,
            "name": "MX Flow Art",
            "federationAbbr": "IBJJF",
            "country": "Mexico",
            "countryAbbr": "MX",
            "city": "Leon",
            "responsible": "Gustavo Ernesto C. Caceres",
            "address": "Chiapas 102, Leon, Guanajuato, Mexico",
            "website": "@flowartacademy"
        },
        {
            "id": 243,
            "name": "MXT Academy BJJ",
            "federationAbbr": "CBJJ",
            "country": "Brasil",
            "countryAbbr": "BR",
            "city": "São Paulo",
            "responsible": "Milton Cesar Maximiano Trombini",
            "address": "Rua Clodomiro Amazonas 477, Itaim Bibi, São Paulo, SP, Brasil",
            "website": "mxtacademy.com"
        },
        {
            "id": 4919,
            "name": "MXT Fight Academy - Canada",
            "federationAbbr": "IBJJF",
            "country": "Canada",
            "countryAbbr": "CA",
            "city": "Saint John",
            "responsible": "Jonathan David Kelly",
            "address": "31 Pauline St., Saint John, NB, Canada",
            "website": "mxtbjj.com"
        },
        {
            "id": 6614,
            "name": "My Elevation 360 Brazilian Jiu-Jitsu",
            "federationAbbr": "USBJJF",
            "country": "United States of America",
            "countryAbbr": "US",
            "city": "Chicago",
            "responsible": "Johnny L. Tuggle",
            "address": "8120 S Luella Ave, Chicago, IL, United States of America",
            "website": "myelevation360.com"
        },
        {
            "id": 2400,
            "name": "MyBJJ Team",
            "federationAbbr": "IBJJF",
            "country": "Australia",
            "countryAbbr": "AU",
            "city": "Sydney",
            "responsible": "Mario Sergio Yokoyama",
            "address": "Shop 20, 119-125 Parramatta Rd, Camperdown, , Sydney, NSW, Australia",
            "website": "www.mybjj.com.au"
        },
        {
            "id": 4142,
            "name": "MyBJJ Team Japan",
            "federationAbbr": "JBJJF",
            "country": "Japan",
            "countryAbbr": "JP",
            "city": "Aichi",
            "responsible": "Mario Sergio Yokoyama",
            "address": "Toyoake-shi, Futamuradai 3-1-1 Toyoake Danchi 54-102  , , Aichi, --, Japan",
            "website": "mybjj.com.au"
        },
        {
            "id": 8439,
            "name": "Mythic BJJ",
            "federationAbbr": "USBJJF",
            "country": "United States of America",
            "countryAbbr": "US",
            "city": "Fullerton",
            "responsible": "Jeffrey Emmanuel Nolasco",
            "address": "1342 E Chapman Ave, Suite 102, Fullerton, Ca, United States of America",
            "website": "www.mythicbjj.com"
        },
        {
            "id": 8347,
            "name": "N \u0026 G Jiu-Jitsu",
            "federationAbbr": "CBJJ",
            "country": "Brasil",
            "countryAbbr": "BR",
            "city": "Itajubá",
            "responsible": "Nelson de Sousa Nilo Junior",
            "address": "Rua Henrique De Souza Num 37, Itajubá, Mg, Brasil",
            "website": null
        },
        {
            "id": 4350,
            "name": "N. G. N. Gelson Teixeira",
            "federationAbbr": "CBJJ",
            "country": "Brasil",
            "countryAbbr": "BR",
            "city": "Patos",
            "responsible": "Francisco Gelson Sousa da Silva",
            "address": "Rua do Prado - numero: 185, Centro, Patos, PB, Brasil",
            "website": null
        }
    ]
}