{
    "pagination": {
        "page": 289,
        "from": 5760,
        "to": 5780,
        "pageSize": 20,
        "lastPage": 358,
        "totalRecords": 7149
    },
    "list": [
        {
            "id": 3089,
            "name": "Saikoo Jiu-Jitsu",
            "federationAbbr": "CBJJ",
            "country": "Brasil",
            "countryAbbr": "BR",
            "city": "Penápolis",
            "responsible": "Massao Shinkai",
            "address": "Av. Antônio Veronese 298, Vila Fátima, Penápolis, SP, Brasil",
            "website": "www.saikoojiujitsu.com"
        },
        {
            "id": 7651,
            "name": "Saint City Brazilian Jiu-Jitsu",
            "federationAbbr": "USBJJF",
            "country": "United States of America",
            "countryAbbr": "US",
            "city": "St. George",
            "responsible": null,
            "address": "1028 E. Tabernacle St. Suite #3 , St. George, Utah, United States of America",
            "website": "www.saintcityselfdefense.com"
        },
        {
            "id": 9299,
            "name": "Saint Cyr JJB Fight Club Gym",
            "federationAbbr": "IBJJF",
            "country": "France",
            "countryAbbr": "FR",
            "city": "Saint Cyr Sur Loire",
            "responsible": "Ricardo Alexandre Primo da Silva",
            "address": "225 Boulevard Charles De Gaulle, Saint Cyr Sur Loire, France",
            "website": "MFCGYM.FR"
        },
        {
            "id": 9319,
            "name": "Sainz Team Alpha Miami",
            "federationAbbr": "USBJJF",
            "country": "United States of America",
            "countryAbbr": "US",
            "city": "Miami",
            "responsible": "Carlos Rafael Sainz",
            "address": "4600 Sw 75 Ave, Suite 2b, Miami, Fl, United States of America",
            "website": "www.teamalphamiami.com"
        },
        {
            "id": 7688,
            "name": "Saitama Jiu-Jitsu Team",
            "federationAbbr": "CBJJ",
            "country": "Brasil",
            "countryAbbr": "BR",
            "city": "São Vicente",
            "responsible": "Elias Passos Paulino Junior",
            "address": "Av Mascarenhas de moraes, N°350, São Vicente, São Paulo, Brasil",
            "website": null
        },
        {
            "id": 6587,
            "name": "Saiyajin Jiu-Jitsu",
            "federationAbbr": "CBJJ",
            "country": "Brasil",
            "countryAbbr": "BR",
            "city": "Feira de Santana",
            "responsible": "Pedro Thiago Martins Melo",
            "address": "Rua Senador Quintino n: 1121, Bairro: Olhos d`água, Feira de Santana, Bahia, Brasil",
            "website": null
        },
        {
            "id": 9062,
            "name": "Sakaiteambjj",
            "federationAbbr": "CBJJ",
            "country": "Brasil",
            "countryAbbr": "BR",
            "city": "Ribeirão Preto",
            "responsible": "Renan Yuki Sakai",
            "address": "Av Independência N3975, Salao Comercial, Ribeirão Preto, São Paulo, Brasil",
            "website": null
        },
        {
            "id": 8090,
            "name": "SakurGra Jiu-Jitsu",
            "federationAbbr": "USBJJF",
            "country": "United States of America",
            "countryAbbr": "US",
            "city": "Flushing",
            "responsible": "Charles W. Liu",
            "address": "4323 171st St, Flushing, Ny, United States of America",
            "website": null
        },
        {
            "id": 10740,
            "name": "Sal e Luz Jiu-Jitsu",
            "federationAbbr": "CBJJ",
            "country": "Brasil",
            "countryAbbr": "BR",
            "city": "Cabedelo",
            "responsible": "Germano Brito Lira Felipe",
            "address": "Av. Xaréu 256 Portal Do Poço, Cabedelo, Paraíba, Brasil",
            "website": null
        },
        {
            "id": 4231,
            "name": "Salas Jiu-Jitsu",
            "federationAbbr": "IBJJF",
            "country": "Mexico",
            "countryAbbr": "MX",
            "city": "Hermosillo",
            "responsible": "Guillermo Salas",
            "address": "Blvd. Navarrete 165, , Hermosillo, Son, Mexico",
            "website": "www.salasjjm.com"
        },
        {
            "id": 3553,
            "name": "Salazar BJJ",
            "federationAbbr": "USBJJF",
            "country": "United States of America",
            "countryAbbr": "US",
            "city": "San Antonio ",
            "responsible": "Marcello Salazar Bergo",
            "address": "5345 Glen Ridge Drive   , , San Antonio , TX, United States of America",
            "website": "www.btt-texas.com"
        },
        {
            "id": 870,
            "name": "Saldanha JJ Old School",
            "federationAbbr": "CBJJ",
            "country": "Brasil",
            "countryAbbr": "BR",
            "city": "Florianópolis",
            "responsible": "Luiz Henrique Velloso Saldanha",
            "address": "Avenida Madre Benvenuta n: 1012 Sala 05 Santa Monica, Florianópolis, Santa Catarina, Brasil",
            "website": null
        },
        {
            "id": 10141,
            "name": "Salgueiro Jiu-Jitsu",
            "federationAbbr": "CBJJ",
            "country": "Brasil",
            "countryAbbr": "BR",
            "city": "Fortaleza",
            "responsible": "Cicero Gilberto Salgueiro Da Silva",
            "address": "Avenida Mozart Pinheiro De Lucena 1201, Fortaleza, Ceará, Brasil",
            "website": null
        },
        {
            "id": 8213,
            "name": "Salinópolis - Sparta BJJ",
            "federationAbbr": "CBJJ",
            "country": "Brasil",
            "countryAbbr": "BR",
            "city": "Salinópolis",
            "responsible": "Hanna Silva Ribeiro",
            "address": "Travessa Davi Muniz Santa Brígida, Atrás Do Posto De Saúde São Tomé, Salinópolis, Pará, Brasil",
            "website": null
        },
        {
            "id": 9740,
            "name": "Saltwater Jiu-Jitsu",
            "federationAbbr": "IBJJF",
            "country": "Australia",
            "countryAbbr": "AU",
            "city": "Perth",
            "responsible": "Aran John Bean",
            "address": "3 Ash Grove, Duncraig, Perth, Western Australia, Australia",
            "website": null
        },
        {
            "id": 9379,
            "name": "Salvador Jiu-Jitsu",
            "federationAbbr": "CBJJ",
            "country": "Brasil",
            "countryAbbr": "BR",
            "city": "Salvador",
            "responsible": "Delio Lima de Souza",
            "address": "Nova Brasilia De Valeria Caminho 06 N11, Salvador, Bahia, Brasil",
            "website": null
        },
        {
            "id": 10550,
            "name": "Salvosa BJJ Ascension",
            "federationAbbr": "IBJJF",
            "country": "Canada",
            "countryAbbr": "CA",
            "city": "Scarborough",
            "responsible": "Omar Joseph Salvosa",
            "address": "1-31 Progress Avenue, Scarborough, Ontario, Canada",
            "website": "mmatoronto.com"
        },
        {
            "id": 2824,
            "name": "Sampa BJJ Academy",
            "federationAbbr": "USBJJF",
            "country": "United States of America",
            "countryAbbr": "US",
            "city": "Glendora",
            "responsible": "Renato Migliaccio",
            "address": "903 E. Route 66, Glendora, CA, United States of America",
            "website": "www.sampabjj.com"
        },
        {
            "id": 4086,
            "name": "Sampa BJJ Brasil",
            "federationAbbr": "CBJJ",
            "country": "Brasil",
            "countryAbbr": "BR",
            "city": "Ribeirão Preto",
            "responsible": "Renato Migliaccio",
            "address": "Rua Florêncio de Abreu 1139 , Centro, Ribeirão Preto, SP, Brasil",
            "website": "topfusionacademia.com"
        },
        {
            "id": 7410,
            "name": "Sampa BJJ Canada",
            "federationAbbr": "IBJJF",
            "country": "Canada",
            "countryAbbr": "CA",
            "city": "Quebec",
            "responsible": "Renato Migliaccio",
            "address": "1990 Rue Cyrille-Duquet #165, Quebec, QC, Canada",
            "website": "sampabjj.com"
        }
    ]
}