{
    "pagination": {
        "page": 338,
        "from": 6740,
        "to": 6760,
        "pageSize": 20,
        "lastPage": 358,
        "totalRecords": 7149
    },
    "list": [
        {
            "id": 2955,
            "name": "Tukaha Jiu Jitsu",
            "federationAbbr": "IBJJF",
            "country": "New Zealand",
            "countryAbbr": "NZ",
            "city": "Auckland",
            "responsible": "Pedro C. da Cunha Pacheco Fernandes",
            "address": "186 Victoria St. West  , Auckland, --, New Zealand",
            "website": "nzbjj.com"
        },
        {
            "id": 10750,
            "name": "Tulio Team",
            "federationAbbr": "CBJJ",
            "country": "Brasil",
            "countryAbbr": "BR",
            "city": "Belo Horizonte",
            "responsible": "Marco Tulio Costa Silva",
            "address": "Rua Elci Ribeiro 96, Belo Horizonte, Brasil",
            "website": null
        },
        {
            "id": 10100,
            "name": "Tuniquinho Team",
            "federationAbbr": "CBJJ",
            "country": "Brasil",
            "countryAbbr": "BR",
            "city": "Belo Horizonte",
            "responsible": "Rúben Antonio Neves A. Evangelista",
            "address": "Avenida Brigadeiro Eduardo Gomes - 854, Loja, Belo Horizonte, Minas Gerais, Brasil",
            "website": null
        },
        {
            "id": 8415,
            "name": "Turkin BJJ",
            "federationAbbr": "CBJJ",
            "country": "Brasil",
            "countryAbbr": "BR",
            "city": "Nilopolis",
            "responsible": "Silvana Cristina Silva Abreu",
            "address": "Rua Arnaldo Tavares, 428, Nilopolis, Rio De Janeiro, Brasil",
            "website": null
        },
        {
            "id": 8505,
            "name": "Turks And Caicos BJJ",
            "federationAbbr": "IBJJF",
            "country": "Turks and Caicos Islands",
            "countryAbbr": "TC",
            "city": "Provodenciales",
            "responsible": "Alexander Charles Yablong",
            "address": "3 Marlin Street, Venetian Road Settlement, Provodenciales, Turks and Caicos Islands",
            "website": "http://turksbjj.zenplanner.com/"
        },
        {
            "id": 10216,
            "name": "Twenty Four Jiu-Jitsu",
            "federationAbbr": "IBJJF",
            "country": "United Kingdom",
            "countryAbbr": "GB",
            "city": "Cardiff",
            "responsible": "Jose Luis Brauner Filho",
            "address": "Unit 8 Jubilee Trading Estate, Cardiff, United Kingdom",
            "website": "https://twenty-four-jiu-jitsu.gymdesk.com"
        },
        {
            "id": 7877,
            "name": "Twin Cities Southside Brazilian Jiu-Jitsu",
            "federationAbbr": "USBJJF",
            "country": "United States of America",
            "countryAbbr": "US",
            "city": "Minneapolis",
            "responsible": "Enrique Muniz",
            "address": "2303 Kennedy St Ne, Suite 105, Minneapolis, Mn, United States of America",
            "website": "www.southsidebrazilianjiujitsu.com"
        },
        {
            "id": 5438,
            "name": "Twin Wolves Academy",
            "federationAbbr": "USBJJF",
            "country": "United States of America",
            "countryAbbr": "US",
            "city": "Harker Heights",
            "responsible": "Huanderson Serafim Pavão",
            "address": "217 Cox Dr. , Harker Heights, TX, United States of America",
            "website": "http://twmma.com/"
        },
        {
            "id": 8202,
            "name": "Twoo S Team",
            "federationAbbr": "CBJJ",
            "country": "Brasil",
            "countryAbbr": "BR",
            "city": "Itajaí",
            "responsible": "Rodrigo Werner de Souza",
            "address": "Rua Joaquim Falco Uriarte, 147, Itajaí, Santa Catarina, Brasil",
            "website": null
        },
        {
            "id": 3079,
            "name": "TX 3rd Coast MMA",
            "federationAbbr": "USBJJF",
            "country": "United States of America",
            "countryAbbr": "US",
            "city": "Sugarland",
            "responsible": "Joe Soliz",
            "address": "14021 Southwest Freeway  , , Sugarland, TX, United States of America",
            "website": "www.tx3rdcoastmma.com"
        },
        {
            "id": 8296,
            "name": "Tx3 - Origin Classic Jiu Jitsu",
            "federationAbbr": "CBJJ",
            "country": "Brasil",
            "countryAbbr": "BR",
            "city": "Cachoeiro Do Itapemirim",
            "responsible": "Rodrigo Teixeira dos Santos",
            "address": "Avenida Jones Dos Santos Neves Nº 49 A 57, Sala 06, Cachoeiro Do Itapemirim, Espírito Santo, Brasil",
            "website": "tx3jj.com.br"
        },
        {
            "id": 6261,
            "name": "Tyson Jiu-Jitsu",
            "federationAbbr": "CBJJ",
            "country": "Brasil",
            "countryAbbr": "BR",
            "city": "São Paulo",
            "responsible": "Vantuil Tome Da Silva",
            "address": "Rua Ministro Gastão Mesquita 505, Perdizes, São Paulo, SP, Brasil",
            "website": null
        },
        {
            "id": 9886,
            "name": "Tz Jiu-Jitsu",
            "federationAbbr": "CBJJ",
            "country": "Brasil",
            "countryAbbr": "BR",
            "city": "Cacoal",
            "responsible": "Pedro Henrique Tozzo",
            "address": "Avenida Castelo Branco, 16532, Cacoal, Ro, Brasil",
            "website": "https://www.instagram.com/tzjiujitsu"
        },
        {
            "id": 8838,
            "name": "UACTP",
            "federationAbbr": "USBJJF",
            "country": "United States of America",
            "countryAbbr": "US",
            "city": "Los Angeles",
            "responsible": "Isaac Doederlein",
            "address": "2200 Beverly Blvd, Los Angeles, Ca, United States of America",
            "website": "Uactp.com"
        },
        {
            "id": 6920,
            "name": "Ubuntu Jiu-Jitsu Brasil",
            "federationAbbr": "CBJJ",
            "country": "Brasil",
            "countryAbbr": "BR",
            "city": "Fortaleza",
            "responsible": "Samuel Dantas Falcão",
            "address": "Rua Santa Efigenia N 60, Messejana, Fortaleza, Ceará, Brasil",
            "website": "www.ubuntujiujitsu.com.br"
        },
        {
            "id": 8567,
            "name": "Ubuntu Jiu-Jitsu Costa Rica",
            "federationAbbr": "IBJJF",
            "country": "Costa Rica",
            "countryAbbr": "CR",
            "city": "Tibás",
            "responsible": "Samuel Dantas Falcão",
            "address": "Plaza Real De Alajuela - Sótano 2, Contigo Al Multispa, 617, Tibás, Anselmo Llorente, Costa Rica",
            "website": "Plaza Real de Alajuela - Sótano 2, contigo al MultiSpa"
        },
        {
            "id": 6486,
            "name": "Uchoa Jiu-Jitsu",
            "federationAbbr": "CBJJ",
            "country": "Brasil",
            "countryAbbr": "BR",
            "city": "Chuí",
            "responsible": "Alex Uchoa Pellejero",
            "address": "Av. Argentina n: 124, Piccolina, Chuí, RS, Brasil",
            "website": null
        },
        {
            "id": 6701,
            "name": "Ueno-okachimachibjj-jiu-jitsu-bu",
            "federationAbbr": "JBJJF",
            "country": "Japan",
            "countryAbbr": "JP",
            "city": "Taito-ku,",
            "responsible": "Keita Takahashi",
            "address": "1-4-1 Higashiueno,, Muraibiru2f, Taito-ku,, Tokyo, Japan",
            "website": null
        },
        {
            "id": 2989,
            "name": "UFC Gym",
            "federationAbbr": "USBJJF",
            "country": "United States of America",
            "countryAbbr": "US",
            "city": "Corona",
            "responsible": "Marcelo Meleiro",
            "address": "470 N. Mckinley  , , Corona, CA, United States of America",
            "website": "www.ufcgym.com"
        },
        {
            "id": 7011,
            "name": "UFC Gym International",
            "federationAbbr": "IBJJF",
            "country": "United Arab Emirates",
            "countryAbbr": "AE",
            "city": "Miami",
            "responsible": "Marcelo Meleiro",
            "address": "8851 Sw 107th Ave Unit 320 Miami, Fl 33176 United States, Miami, Florida, United Arab Emirates",
            "website": "www.ufcgym.com"
        }
    ]
}