{
    "pagination": {
        "page": 9,
        "from": 160,
        "to": 180,
        "pageSize": 20,
        "lastPage": 358,
        "totalRecords": 7149
    },
    "list": [
        {
            "id": 5254,
            "name": "Academia Gramadense de Jiu-Jitsu",
            "federationAbbr": "CBJJ",
            "country": "Brasil",
            "countryAbbr": "BR",
            "city": "Gramado",
            "responsible": "Edson Alves Ferreira",
            "address": "Avenida Borges de Medeiros n: 3940, Ginásio Perinão, Gramado, RS, Brasil",
            "website": null
        },
        {
            "id": 8472,
            "name": "Academia Horikawa",
            "federationAbbr": "CBJJ",
            "country": "Brasil",
            "countryAbbr": "BR",
            "city": "Cascavel",
            "responsible": "Marcelo Toshio Horikawa",
            "address": "Rua Manaus 3250, Hs Construtora, Cascavel, Paraná, Brasil",
            "website": "rua Manaus 3250 bairro Claudete Cascavel Paraná"
        },
        {
            "id": 8702,
            "name": "Academia Humaitá AM Jiu-Jitsu",
            "federationAbbr": "CBJJ",
            "country": "Brasil",
            "countryAbbr": "BR",
            "city": "Humaitá",
            "responsible": "Homero Monteiro Almeida",
            "address": "Rua Marechal Deodoro N° 2386b, Galpão, Humaitá, Amazonas, Brasil",
            "website": "@humaitajiujitsu"
        },
        {
            "id": 7849,
            "name": "Academia Ikigai",
            "federationAbbr": "IBJJF",
            "country": "Spain",
            "countryAbbr": "ES",
            "city": "Torremolinos",
            "responsible": "Aron Adamko",
            "address": "Avenida Carlotta Alessandri N.136, Torremolinos, Malaga, Spain",
            "website": "www.ikigaiacademia.com"
        },
        {
            "id": 10151,
            "name": "Academia Irmãos Almeida",
            "federationAbbr": "CBJJ",
            "country": "Brasil",
            "countryAbbr": "BR",
            "city": "Nazaré",
            "responsible": "Josenilson Almeida dos Santos Firmino",
            "address": "Caminho Dos Remédios, Casa, Nazaré, Bahia, Brasil",
            "website": "https://instagram.com/professor_nilson_almeida?igshid=YmMyMTA2M2Y="
        },
        {
            "id": 3908,
            "name": "Academia Ivan Ribeiro Jiu-Jitsu",
            "federationAbbr": "CBJJ",
            "country": "Brasil",
            "countryAbbr": "BR",
            "city": "São José dos Campos",
            "responsible": "José Ivan Ribeiro Júnior",
            "address": "Rua Frederico Fiebig n:57, Reserva do Bosque, São José dos Campos, SP, Brasil",
            "website": "www.ivanribeirojj.com.br"
        },
        {
            "id": 4476,
            "name": "Academia Jam Lobo Jiu-Jitsu",
            "federationAbbr": "CBJJ",
            "country": "Brasil",
            "countryAbbr": "BR",
            "city": "Recife",
            "responsible": "Derval Luciano Rêgo",
            "address": "Rua Aurora Caçote 236 Casa, Areias, Recife, PE, Brasil",
            "website": null
        },
        {
            "id": 10419,
            "name": "Academia Jean Jacques Machado Rio De Janeiro",
            "federationAbbr": "CBJJ",
            "country": "Brasil",
            "countryAbbr": "BR",
            "city": "Laranjeiras",
            "responsible": "Jay Zeballos",
            "address": "R. Das Laranjeiras, 265, Laranjeiras, Rio De Janeiro, Brasil",
            "website": null
        },
        {
            "id": 10420,
            "name": "Academia Jean Jacques Machado São Paulo",
            "federationAbbr": "CBJJ",
            "country": "Brasil",
            "countryAbbr": "BR",
            "city": "Peruibe",
            "responsible": "Jay Zeballos",
            "address": "Avenida Padra Anchieta 2169, Peruibe, São Paulo, Brasil",
            "website": null
        },
        {
            "id": 4336,
            "name": "Academia Jiu-Jitsu",
            "federationAbbr": "USBJJF",
            "country": "United States of America",
            "countryAbbr": "US",
            "city": "Sarasota",
            "responsible": "William F. Murphy",
            "address": "2050 Bern Creek Loop, Sarasota, FL, United States of America",
            "website": "www.facebook.com/academiabjj"
        },
        {
            "id": 445,
            "name": "Academia Joe",
            "federationAbbr": "CBJJ",
            "country": "Brasil",
            "countryAbbr": "BR",
            "city": "--",
            "responsible": null,
            "address": "  , , --, --, Brasil",
            "website": ""
        },
        {
            "id": 3144,
            "name": "Academia Lazoona",
            "federationAbbr": "JBJJF",
            "country": "Japan",
            "countryAbbr": "JP",
            "city": "Kuji-City",
            "responsible": "Takeshi Sato",
            "address": "53-20-5 Kokuji-Cho    , Kuji-City, Iwate, Japan",
            "website": "https://kujicombative-sportsteam.jimdo.com/"
        },
        {
            "id": 5930,
            "name": "Academia LVBJJ",
            "federationAbbr": "CBJJ",
            "country": "Brasil",
            "countryAbbr": "BR",
            "city": "Itaguaí",
            "responsible": "Leandro Jorge Pereira Vilar",
            "address": "Rua São Paulo n: 952 quadra 29, Estrela do Céu, Itaguaí, Rio de Janeiro, Brasil",
            "website": null
        },
        {
            "id": 4405,
            "name": "Academia Marangoni",
            "federationAbbr": "CBJJ",
            "country": "Brasil",
            "countryAbbr": "BR",
            "city": "Mogi das Cruzes",
            "responsible": "Gabriel Marangoni de Oliveira",
            "address": "Jose Alves dos Anjos 140 , Centro, Mogi das Cruzes, SP, Brasil",
            "website": "www.academiamarangoni.com.br"
        },
        {
            "id": 5320,
            "name": "Academia Marcelo Martins Jiu-Jitsu",
            "federationAbbr": "CBJJ",
            "country": "Brasil",
            "countryAbbr": "BR",
            "city": "Manaus",
            "responsible": "Marcelo Martins da Gama",
            "address": "Conjunto Tocantins 310, Bl 17C, Chapada, Manaus, AM, Brasil",
            "website": null
        },
        {
            "id": 5907,
            "name": "Academia Master Top Team",
            "federationAbbr": "CBJJ",
            "country": "Brasil",
            "countryAbbr": "BR",
            "city": "Teresópolis",
            "responsible": "Leandro de Lima Gonzaga",
            "address": "Rua Florentino de Paula n: 359 casa 07, Vale do Paraiso, Teresópolis, Rio de Janeiro, Brasil",
            "website": null
        },
        {
            "id": 6795,
            "name": "Academia Moama Jiu-Jitsu",
            "federationAbbr": "CBJJ",
            "country": "Brasil",
            "countryAbbr": "BR",
            "city": "João Neiva",
            "responsible": "Silvio Barbosa Ferreira Júnior",
            "address": "Rua Jeronimo Monteiro n: 36, Bairro: Centro, João Neiva, Espirito Santo, Brasil",
            "website": "www.instagram.com/moamajj/"
        },
        {
            "id": 8298,
            "name": "Academia Mt Fight Team",
            "federationAbbr": "CBJJ",
            "country": "Brasil",
            "countryAbbr": "BR",
            "city": "Petrópolis",
            "responsible": "Irineu Ravelli Junior",
            "address": "Rua Do Imperador, 288  Sobreloja  Nº 11, Centro, Petrópolis, Rj, Brasil",
            "website": null
        },
        {
            "id": 4203,
            "name": "Academia OCS JJ",
            "federationAbbr": "CBJJ",
            "country": "Brasil",
            "countryAbbr": "BR",
            "city": "Paranagua",
            "responsible": "Ocimar da Costa Santos",
            "address": "Conselheiro Corrêa 760, Academia Sobrado, Paranagua, PR, Brasil",
            "website": "@ocsjj"
        },
        {
            "id": 83,
            "name": "Academia Oriente JJ",
            "federationAbbr": "CBJJ",
            "country": "Brasil",
            "countryAbbr": "BR",
            "city": "Niterói",
            "responsible": null,
            "address": "Rua Benjamin Constant 385 3 andar, Largo do Barradas, Niterói, RJ, Brasil",
            "website": "www.orientejiujitsu.com.br"
        }
    ]
}