{
    "pagination": {
        "page": 32,
        "from": 620,
        "to": 640,
        "pageSize": 20,
        "lastPage": 358,
        "totalRecords": 7149
    },
    "list": [
        {
            "id": 5288,
            "name": "ASM BJJ International",
            "federationAbbr": "IBJJF",
            "country": "United Arab Emirates",
            "countryAbbr": "AE",
            "city": "Al Ain City",
            "responsible": "Marcos Tulio Nunes da Rosa",
            "address": "Twam Street 2 Mfreifa Compound B392, Asharej District, Al Ain City, Abu Dhabi, United Arab Emirates",
            "website": "www.asmbjj.com"
        },
        {
            "id": 2239,
            "name": "ASM BJJ Montenegro / RS",
            "federationAbbr": "CBJJ",
            "country": "Brasil",
            "countryAbbr": "BR",
            "city": "Montenegro",
            "responsible": "Marcos Tulio Nunes da Rosa",
            "address": "Rua Buarque De Macedo 1015, Bairro Centenário, Montenegro, Rs, Brasil",
            "website": "www.asmbjjla.com"
        },
        {
            "id": 8313,
            "name": "ASM BJJ Pagani",
            "federationAbbr": "CBJJ",
            "country": "Brasil",
            "countryAbbr": "BR",
            "city": "Palhoça",
            "responsible": "José Rodrigo Stramosk Penso",
            "address": "Rua Toscana, 63, Palhoça, Santa Catarina, Brasil",
            "website": null
        },
        {
            "id": 6002,
            "name": "ASM BJJ USA",
            "federationAbbr": "USBJJF",
            "country": "United States of America",
            "countryAbbr": "US",
            "city": "Bel Air",
            "responsible": "Sérgio Ruben Pimentel",
            "address": "1301 Enterprise Court Suite 102B, Bel Air, MD, United States of America",
            "website": "belairbjj.com"
        },
        {
            "id": 5604,
            "name": "Aspen MMA",
            "federationAbbr": "USBJJF",
            "country": "United States of America",
            "countryAbbr": "US",
            "city": "Basalt",
            "responsible": "Ernesto Mendez",
            "address": "1460 E. Valley Rd #012, Basalt, CO, United States of America",
            "website": "www.aspenmma.com"
        },
        {
            "id": 9446,
            "name": "Aspire To Inspire",
            "federationAbbr": "USBJJF",
            "country": "United States of America",
            "countryAbbr": "US",
            "city": "Manteca",
            "responsible": "Javier Gomez",
            "address": "125 W Louise Ave, Manteca, Ca, United States of America",
            "website": "JGACADEMY.NET"
        },
        {
            "id": 7252,
            "name": "ASR Jiu-Jitsu Team",
            "federationAbbr": "CBJJ",
            "country": "Brasil",
            "countryAbbr": "BR",
            "city": "Belo Horizonte",
            "responsible": "Allan Silverio Rodrigues",
            "address": "Avenida Vilarinho, 3071, Venda Nova, Belo Horizonte, Minas Gerais, Brasil",
            "website": null
        },
        {
            "id": 1066,
            "name": "Associação de Jiu-Jitsu da Bahia AJJBA",
            "federationAbbr": "CBJJ",
            "country": "Brasil",
            "countryAbbr": "BR",
            "city": "Formosa Do Rio Preto",
            "responsible": "Paulo Serafim Gonzalez Teixeira",
            "address": "Av. Matriz/ N° 1193, Centro, Formosa Do Rio Preto, BA, Brasil",
            "website": null
        },
        {
            "id": 7992,
            "name": "Associacao Formiga Top Team",
            "federationAbbr": "CBJJ",
            "country": "Brasil",
            "countryAbbr": "BR",
            "city": "Marituba",
            "responsible": "Jefferson Campos Dantas",
            "address": "Rua Primeiro De Maio, 950, Marituba, Pará, Brasil",
            "website": null
        },
        {
            "id": 8741,
            "name": "Associação Marcos Roberto De Jiu-jitsu",
            "federationAbbr": "CBJJ",
            "country": "Brasil",
            "countryAbbr": "BR",
            "city": "Manaus",
            "responsible": "Marcos Roberto Correia de Freitas",
            "address": "Rua Uaimiti, 13, Manaus, Amazonas, Brasil",
            "website": null
        },
        {
            "id": 2470,
            "name": "Associação Pantera House Jiu-jitsu",
            "federationAbbr": "FPJJB",
            "country": "Portugal",
            "countryAbbr": "PT",
            "city": "Lisboa",
            "responsible": "Antônio Rodrigues P. Neto",
            "address": "Rua General José Celestino da Silva, 2 B  , Lisboa, 1500-039, Portugal",
            "website": "www.panterahouseassociacao.com"
        },
        {
            "id": 8442,
            "name": "Associação Pantera House Jiu-Jitsu Spain",
            "federationAbbr": "IBJJF",
            "country": "Spain",
            "countryAbbr": "ES",
            "city": "Madrid",
            "responsible": "Antônio Rodrigues P. Neto",
            "address": "Calle Hospital   Nº21 Primero C, Pozuelo De Alarcón, Madrid, Madrid, Spain",
            "website": "www.panterahouseassociacao.com"
        },
        {
            "id": 2865,
            "name": "Association Aranha",
            "federationAbbr": "IBJJF",
            "country": "Spain",
            "countryAbbr": "ES",
            "city": "Cerdanyola del Valles ",
            "responsible": null,
            "address": "Calle Zurbano 6  , , Cerdanyola del Valles , BCN, Spain",
            "website": ""
        },
        {
            "id": 4249,
            "name": "Association Aranha France",
            "federationAbbr": "IBJJF",
            "country": "France",
            "countryAbbr": "FR",
            "city": "Toulouse",
            "responsible": "Eric Dominique Satge",
            "address": "30, Rue Du Midi  , , Toulouse, HG, France",
            "website": ""
        },
        {
            "id": 2099,
            "name": "Association Gato Brazilian Jiu-Jitsu - AGBJJ",
            "federationAbbr": "CBJJ",
            "country": "Brasil",
            "countryAbbr": "BR",
            "city": "Manaus",
            "responsible": "José Augusto Rocha da Silva",
            "address": "Rua 22 59 CJ São Cristovão, Zumbi , Manaus, AM, Brasil",
            "website": null
        },
        {
            "id": 3917,
            "name": "Associazione Aranha Italia",
            "federationAbbr": "UIJJ",
            "country": "Italy",
            "countryAbbr": "IT",
            "city": "Arezzo",
            "responsible": "Riccardo Pelosi",
            "address": "Via Margaritone 27 , Arezzo, ., Italy",
            "website": "aranhajiujitsuitaly.blogspot.com"
        },
        {
            "id": 5697,
            "name": "Astra Fight Team",
            "federationAbbr": "USBJJF",
            "country": "United States of America",
            "countryAbbr": "US",
            "city": "Marrero",
            "responsible": "Tonny Martin Canales",
            "address": "5210 Lapalco Blvd, Marrero, LA, United States of America",
            "website": "AFTGYM.COM"
        },
        {
            "id": 7552,
            "name": "Asylum Fight Team / White Rhino BJJ",
            "federationAbbr": "USBJJF",
            "country": "United States of America",
            "countryAbbr": "US",
            "city": "Las Vegas",
            "responsible": "Phil Dunlap",
            "address": "4510 W. Hacienda Ave Rd, Las Vegas, NV, United States of America",
            "website": "www.asylumfightteam.com"
        },
        {
            "id": 86,
            "name": "Ata Jiu-Jitsu",
            "federationAbbr": "CBJJ",
            "country": "Brasil",
            "countryAbbr": "BR",
            "city": "Rio de Janeiro",
            "responsible": "Aldemir Tavares Roza",
            "address": "Rua Élvio De Moura, 265, Parque Anchieta, Rio de Janeiro, RJ, Brasil",
            "website": null
        },
        {
            "id": 88,
            "name": "Ataque Duplo",
            "federationAbbr": "CBJJ",
            "country": "Brasil",
            "countryAbbr": "BR",
            "city": "Florianópolis",
            "responsible": "Murilo Vieira Rupp Junior",
            "address": "Rua Brasil Pinho 248 , Kobrasol - Casa/Academia, Florianópolis, SC, Brasil",
            "website": null
        }
    ]
}