{
    "pagination": {
        "page": 55,
        "from": 1080,
        "to": 1100,
        "pageSize": 20,
        "lastPage": 358,
        "totalRecords": 7149
    },
    "list": [
        {
            "id": 4250,
            "name": "Brazilian Power Team International",
            "federationAbbr": "IBJJF",
            "country": "United Kingdom",
            "countryAbbr": "GB",
            "city": "Worcester",
            "responsible": "Marcello Rosa da Conceição",
            "address": "10b Sheriff Street  , , Worcester, --, United Kingdom",
            "website": ""
        },
        {
            "id": 8816,
            "name": "Brazilian Power Team Paraná",
            "federationAbbr": "CBJJ",
            "country": "Brasil",
            "countryAbbr": "BR",
            "city": "Cambe",
            "responsible": "João Paulo Silva Ishikawa",
            "address": "Rua Das Rosa 45, Cambe, Parana, Brasil",
            "website": null
        },
        {
            "id": 160,
            "name": "Brazilian Top Team",
            "federationAbbr": "CBJJ",
            "country": "Brasil",
            "countryAbbr": "BR",
            "city": "Rio de Janeiro",
            "responsible": "Murilo Bustamante",
            "address": "Av. Borges de Medeiros 829 AABB, Lagoa, Rio de Janeiro, RJ, Brasil",
            "website": "www.braziliantopteam.net"
        },
        {
            "id": 5155,
            "name": "Brazilian Top Team - ATX",
            "federationAbbr": "USBJJF",
            "country": "United States of America",
            "countryAbbr": "US",
            "city": "Austin",
            "responsible": "Diego Gamonal Nogueira",
            "address": "9313 Anderson Mill Rd  , , Austin, TX, United States of America",
            "website": "bttaustin.com"
        },
        {
            "id": 2501,
            "name": "Brazilian Top Team - BTT Jax",
            "federationAbbr": "USBJJF",
            "country": "United States of America",
            "countryAbbr": "US",
            "city": "Jacksonville",
            "responsible": "Marcello Salazar Bergo",
            "address": "14054 Beach Blvd, Suite 9, , Jacksonville, Florida, United States of America",
            "website": "bttjax.com"
        },
        {
            "id": 2528,
            "name": "Brazilian Top Team - Florida",
            "federationAbbr": "USBJJF",
            "country": "United States of America",
            "countryAbbr": "US",
            "city": "Boca Raton",
            "responsible": "Joao Carlos Amaral Miranda",
            "address": "450 NE 20th street # 110  , Boca Raton, FL, United States of America",
            "website": "www.bttflorida.com"
        },
        {
            "id": 8721,
            "name": "Brazilian Top Team - Icarai",
            "federationAbbr": "CBJJ",
            "country": "Brasil",
            "countryAbbr": "BR",
            "city": "Niterói",
            "responsible": "Thiago Demetrio Escaleira dos Santos",
            "address": "Joaquim Távora 72, Icarai, Niterói, Rio De Janeiro, Brasil",
            "website": null
        },
        {
            "id": 9653,
            "name": "Brazilian Top Team - Palencia",
            "federationAbbr": "USBJJF",
            "country": "United States of America",
            "countryAbbr": "US",
            "city": "Saint Augustine",
            "responsible": "Michael P. Brennan",
            "address": "51 Ellis Street, Ste105, Saint Augustine, Fl, United States of America",
            "website": "https://www.bttPalencia.com"
        },
        {
            "id": 5745,
            "name": "Brazilian Top Team - RN",
            "federationAbbr": "CBJJ",
            "country": "Brasil",
            "countryAbbr": "BR",
            "city": "Natal",
            "responsible": "Gustavo Henrique Craveiro Costa",
            "address": "Avenida Senador Salgado Filho - 3010, WM Fitness - Bairro: Candelário, Natal, Rio Grande do Norte, Brasil",
            "website": "braziliantopteam.com"
        },
        {
            "id": 6536,
            "name": "Brazilian Top Team BH",
            "federationAbbr": "CBJJ",
            "country": "Brasil",
            "countryAbbr": "BR",
            "city": "Belo Horizonte",
            "responsible": "Wanderson Procópio de Amorim",
            "address": "Av. Dr. Álvaro Camrgos n: 1680, Santa MÔnica, Belo Horizonte, Minas Gerais, Brasil",
            "website": null
        },
        {
            "id": 2054,
            "name": "Brazilian Top Team Boston",
            "federationAbbr": "USBJJF",
            "country": "United States of America",
            "countryAbbr": "US",
            "city": "Everett",
            "responsible": "Daniel Gazzoni",
            "address": "305 Brodway St  , , Everett, MA, United States of America",
            "website": "www.bttboston.com"
        },
        {
            "id": 7830,
            "name": "Brazilian Top Team Cambridge",
            "federationAbbr": "IBJJF",
            "country": "United Kingdom",
            "countryAbbr": "GB",
            "city": "Cambridge",
            "responsible": "Leonardo Esposel Gamarra",
            "address": "24, Cambridge Science Park, The Trinity Centre, Cambridge, United Kingdom",
            "website": "www.bttcambridge.com"
        },
        {
            "id": 6612,
            "name": "Brazilian Top Team Happy Valley",
            "federationAbbr": "USBJJF",
            "country": "United States of America",
            "countryAbbr": "US",
            "city": "Clackamas",
            "responsible": "Gustavo Delmondes Bessa",
            "address": "9844 SE Empire CT, Clackamas, OR, United States of America",
            "website": "www.btthappyvalley.com"
        },
        {
            "id": 2627,
            "name": "Brazilian Top Team Int.",
            "federationAbbr": "IBJJF",
            "country": "United Kingdom",
            "countryAbbr": "GB",
            "city": "Cambridge",
            "responsible": "Murilo Bustamante",
            "address": "24 Cambridge Science Park, , Cambridge, A.d.cambridgeshire, United Kingdom",
            "website": "www.braziliantopteam.net"
        },
        {
            "id": 2105,
            "name": "Brazilian Top Team Long Beach",
            "federationAbbr": "USBJJF",
            "country": "United States of America",
            "countryAbbr": "US",
            "city": "long beach",
            "responsible": "Marcelo Perdomo",
            "address": "3643 N Studebaker rd  , , long beach, ca, United States of America",
            "website": "www.bttlongbeach.com"
        },
        {
            "id": 5640,
            "name": "Brazilian Top Team Porto Seguro",
            "federationAbbr": "CBJJ",
            "country": "Brasil",
            "countryAbbr": "BR",
            "city": "Porto Seguro",
            "responsible": "Eliandro Rodrigues dos Santos",
            "address": "Rua Brasília, 01, Campinho, Porto Seguro, BA, Brasil",
            "website": null
        },
        {
            "id": 9493,
            "name": "Brazilian Warriors MX",
            "federationAbbr": "IBJJF",
            "country": "Mexico",
            "countryAbbr": "MX",
            "city": "Puebla",
            "responsible": "Alessandro Chagas da Costa",
            "address": "Privada 17 Poniente 4105, Puebla, Puebla, Mexico",
            "website": "https://www.facebook.com/BrazilianWarriorsCentralMx"
        },
        {
            "id": 10430,
            "name": "BRC JJ",
            "federationAbbr": "USBJJF",
            "country": "United States of America",
            "countryAbbr": "US",
            "city": "Philadelphia",
            "responsible": "Bruno de Carvalho Canto",
            "address": "1335 Kerper St, Philadelphia, Philadelphia, United States of America",
            "website": null
        },
        {
            "id": 3508,
            "name": "Brea Jiu-Jitsu",
            "federationAbbr": "USBJJF",
            "country": "United States of America",
            "countryAbbr": "US",
            "city": "Brea",
            "responsible": null,
            "address": "379 W. Central Ave Suite B  , , Brea, CA, United States of America",
            "website": "breajiujitsu.com"
        },
        {
            "id": 8591,
            "name": "Breakaway Jiu-Jitsu",
            "federationAbbr": "USBJJF",
            "country": "United States of America",
            "countryAbbr": "US",
            "city": "Newport News",
            "responsible": "Robert Loy Murianka",
            "address": "11861 Canon Boulevard Unit F, Newport News, Virginia, United States of America",
            "website": "www.breakawayjiujitsu.com"
        }
    ]
}