{
    "pagination": {
        "page": 91,
        "from": 1800,
        "to": 1820,
        "pageSize": 20,
        "lastPage": 358,
        "totalRecords": 7149
    },
    "list": [
        {
            "id": 8019,
            "name": "CT Joaquim Peixoto",
            "federationAbbr": "CBJJ",
            "country": "Brasil",
            "countryAbbr": "BR",
            "city": "São Paulo",
            "responsible": "Joaquim Peixoto",
            "address": "Avenida Júlio Buono, 2028, São Paulo, Sp, Brasil",
            "website": "www.ctjoaquimpeixoto.com.br"
        },
        {
            "id": 7802,
            "name": "Ct Junior / Arena Boto",
            "federationAbbr": "CBJJ",
            "country": "Brasil",
            "countryAbbr": "BR",
            "city": "Salinópolis",
            "responsible": "Jose Brito Guimarães Junior",
            "address": "Rua Manoel Matheus Dos Santos, Nº803, Academia Ct Júnior / Arena Boto, Salinópolis, Pará, Brasil",
            "website": null
        },
        {
            "id": 10533,
            "name": "CT Karral",
            "federationAbbr": "CBJJ",
            "country": "Brasil",
            "countryAbbr": "BR",
            "city": "Santarém",
            "responsible": "Romulo Marlos Aguiar da Cunha",
            "address": "Av. Doutor Anisio Chaves 788, Santarém, Para, Brasil",
            "website": null
        },
        {
            "id": 10205,
            "name": "Ct Leandro Beinroth",
            "federationAbbr": "CBJJ",
            "country": "Brasil",
            "countryAbbr": "BR",
            "city": "Divinópolis",
            "responsible": "Leandro Miguel Silva Beinroth",
            "address": "Rua Esmeralda 43 - Galpão, Niterói, Divinópolis, MG, Brasil",
            "website": null
        },
        {
            "id": 9462,
            "name": "CT LEO BJJ",
            "federationAbbr": "CBJJ",
            "country": "Brasil",
            "countryAbbr": "BR",
            "city": "Natal",
            "responsible": "Leonardo Gomes da Silva Borges",
            "address": "R. Dr. Arnaldo Viêira De Carvalho, 125, Pajuçara, Natal, Rio Grande Do Norte, Brasil",
            "website": null
        },
        {
            "id": 10136,
            "name": "CT MG Brazilian Jiu-Jitsu",
            "federationAbbr": "CBJJ",
            "country": "Brasil",
            "countryAbbr": "BR",
            "city": "Manaus",
            "responsible": "Faustino Martins Neto",
            "address": "Rua Bonaça, 10 - Mauazinho, Manaus, Amazonas, Brasil",
            "website": null
        },
        {
            "id": 2037,
            "name": "CT MR",
            "federationAbbr": "CBJJ",
            "country": "Brasil",
            "countryAbbr": "BR",
            "city": "Rio de Janeiro",
            "responsible": "Marcio de Araujo Rodrigues",
            "address": "Rua Armstrong 33A , Jacarepaguá/ Rio das Pedras, Rio de Janeiro, RJ, Brasil",
            "website": null
        },
        {
            "id": 7417,
            "name": "CT Phoenix - B9",
            "federationAbbr": "CBJJ",
            "country": "Brasil",
            "countryAbbr": "BR",
            "city": "Jd. Siluia - Embu das Artes",
            "responsible": "Gerson Jair Arias Pérez",
            "address": "Estrada Professor Candido Motta Filho n: 386, Loja 06, Jd. Siluia - Embu das Artes, São Paulo, Brasil",
            "website": "www.ctphoenis.net"
        },
        {
            "id": 10321,
            "name": "CT Profight Club",
            "federationAbbr": "CBJJ",
            "country": "Brasil",
            "countryAbbr": "BR",
            "city": "São Paulo",
            "responsible": "Mauricio da Silva",
            "address": "Rua Francisca De Paula, 1092, Sobre Loja, São Paulo, Sp, Brasil",
            "website": null
        },
        {
            "id": 10254,
            "name": "Ct Rennan Silva",
            "federationAbbr": "CBJJ",
            "country": "Brasil",
            "countryAbbr": "BR",
            "city": "Manaus",
            "responsible": "Rennan Pereira da Silva",
            "address": "Rua Hicsos N. 46 Morro Da Liberdade, Manaus, Amazonas, Brasil",
            "website": null
        },
        {
            "id": 9564,
            "name": "CT Roraima Legião Jiu-Jitsu",
            "federationAbbr": "CBJJ",
            "country": "Brasil",
            "countryAbbr": "BR",
            "city": "Boa Vista",
            "responsible": "Geydson Manfrinny dos R. Cardoso",
            "address": "Rua Valério Magalhães, 670 - São Francisco, Galpão, Boa Vista, Roraima, Brasil",
            "website": null
        },
        {
            "id": 10592,
            "name": "CT Samurais Team",
            "federationAbbr": "CBJJ",
            "country": "Brasil",
            "countryAbbr": "BR",
            "city": "Salvaterra",
            "responsible": "Eduardo da Silva Conceição",
            "address": "Terceira Alameda, N313 / Entre Sétima E Oitava Rua, Conjunto: Morada Nova / Bairro: Paes De Carvalho, Salvaterra, Pará, Brasil",
            "website": null
        },
        {
            "id": 10258,
            "name": "CT Saturino",
            "federationAbbr": "CBJJ",
            "country": "Brasil",
            "countryAbbr": "BR",
            "city": "Niterói",
            "responsible": "Anderson Saturino de Oliveira",
            "address": "Rua Leite Ribeiro 118 Fonseca, Niterói, Rj, Brasil",
            "website": null
        },
        {
            "id": 9307,
            "name": "CT Simas BJJ",
            "federationAbbr": "CBJJ",
            "country": "Brasil",
            "countryAbbr": "BR",
            "city": "Teresópolis",
            "responsible": "Leandro da Silva Ramos",
            "address": "Estrada Teresópolis Friburgo Km 28, Bonsucesso, Teresópolis, Rio de Janeiro, Brasil",
            "website": null
        },
        {
            "id": 9124,
            "name": "Ct Sodré Pitimbo",
            "federationAbbr": "CBJJ",
            "country": "Brasil",
            "countryAbbr": "BR",
            "city": "Maracanaú",
            "responsible": "Francisco Sodre de Souza Ferreira",
            "address": "Rua 35, 151  Jereissati 1, Maracanaú, Ceará, Brasil",
            "website": null
        },
        {
            "id": 8041,
            "name": "CT Tapajós Fight - Belém",
            "federationAbbr": "CBJJ",
            "country": "Brasil",
            "countryAbbr": "BR",
            "city": "Belém",
            "responsible": "Jony Christian Luz de Melo",
            "address": "Rua Jandaia, N07 / Conjunto Benjamin Sodre, Bairro: Parque Verde, Belém, Pará, Brasil",
            "website": null
        },
        {
            "id": 10531,
            "name": "CT Team Elias Pitbull",
            "federationAbbr": "CBJJ",
            "country": "Brasil",
            "countryAbbr": "BR",
            "city": "Belo Horizonte",
            "responsible": "Elias Panta de Oliveira",
            "address": "Rua Julio Mesquita 312, Sub Loja, Belo Horizonte, Minas Gerais, Brasil",
            "website": null
        },
        {
            "id": 8824,
            "name": "CT Team Number One",
            "federationAbbr": "CBJJ",
            "country": "Brasil",
            "countryAbbr": "BR",
            "city": "Cuiabá",
            "responsible": "Carlos Alberto dos S. P. Junior",
            "address": "Av. Arquimedes Pereira Lima, Jardim Itália - Ao Lado Do Posto Br, Cuiabá, Mato Grosso, Brasil",
            "website": null
        },
        {
            "id": 9808,
            "name": "CT Thiago Marques",
            "federationAbbr": "CBJJ",
            "country": "Brasil",
            "countryAbbr": "BR",
            "city": "Samambaia Norte",
            "responsible": "Thiago Marques Andrade",
            "address": "Qr 410 Conjunto 21, Casa 08, Samambaia Norte, Brasília, Brasil",
            "website": null
        },
        {
            "id": 5709,
            "name": "CT Vavá Team",
            "federationAbbr": "CBJJ",
            "country": "Brasil",
            "countryAbbr": "BR",
            "city": "Boa Vista",
            "responsible": "Aderval da Rocha Ferreira Filho",
            "address": "Rua Almerindo dos Santos  número: 2062, Bairro: Buritis, Boa Vista, Roraima, Brasil",
            "website": null
        }
    ]
}