{
    "pagination": {
        "page": 87,
        "from": 1720,
        "to": 1740,
        "pageSize": 20,
        "lastPage": 358,
        "totalRecords": 7149
    },
    "list": [
        {
            "id": 4252,
            "name": "Core Grappling Lab",
            "federationAbbr": "UIJJ",
            "country": "Italy",
            "countryAbbr": "IT",
            "city": "roma",
            "responsible": "Gianfranco Delli Paoli",
            "address": "via natale palli  17 , , roma, ., Italy",
            "website": "https://www.facebook.com/CoreGrapplingLab"
        },
        {
            "id": 2821,
            "name": "Coringa Jiu-Jitsu",
            "federationAbbr": "IBJJF",
            "country": "Australia",
            "countryAbbr": "AU",
            "city": "Perth",
            "responsible": "Luiz Fábio de Andrade Nunes",
            "address": "U5-97 Wanneroo Rd  , Perth, WA, Australia",
            "website": "CoringaBJJ.com.au"
        },
        {
            "id": 9063,
            "name": "Corinthians Jiu-Jitsu",
            "federationAbbr": "CBJJ",
            "country": "Brasil",
            "countryAbbr": "BR",
            "city": "Sao Paulo",
            "responsible": "Carlos Alexandre de Souza",
            "address": "Rua Sao Jorge, 777, Tatuape, Sao Paulo, Sp, Brasil",
            "website": "RUA SAO JORGE, 777"
        },
        {
            "id": 5599,
            "name": "Cornerstone Brazilian Jiu-Jitsu",
            "federationAbbr": "USBJJF",
            "country": "United States of America",
            "countryAbbr": "US",
            "city": "Fayetteville",
            "responsible": "Charles D. Nunley",
            "address": "3724 Sycamore Dairy rd, Suite #120, Fayetteville, NC, United States of America",
            "website": "cornerstonebjj.com"
        },
        {
            "id": 3082,
            "name": "Coronado Brazilian Jiu Jitsu",
            "federationAbbr": "USBJJF",
            "country": "United States of America",
            "countryAbbr": "US",
            "city": "Coronado ",
            "responsible": "Aaron Francisco Hernandez",
            "address": "824 ORANGE AVENUE  , , Coronado , CA, United States of America",
            "website": "www.coronadobrazilianjiujitsu.com"
        },
        {
            "id": 276,
            "name": "Corpo e Mente",
            "federationAbbr": "CBJJ",
            "country": "Brasil",
            "countryAbbr": "BR",
            "city": "Feira de Santana",
            "responsible": "José Humberto Tavares Soares",
            "address": "Rua Arivaldo de Carvalho 434, Sobradinho, Feira de Santana, BA, Brasil",
            "website": "www.equipecorpoemente.com.br"
        },
        {
            "id": 3966,
            "name": "Corpo E Mente International",
            "federationAbbr": "IBJJF",
            "country": "Spain",
            "countryAbbr": "ES",
            "city": "Alicante",
            "responsible": "José Humberto Tavares Soares",
            "address": "Calle Presbitero Baltasar Carrasco 31, Bajo, , Alicante, Alicante, Spain",
            "website": "http://equipecorpoemente.com.br/"
        },
        {
            "id": 6905,
            "name": "Corpo Vip BJJ Team",
            "federationAbbr": "CBJJ",
            "country": "Brasil",
            "countryAbbr": "BR",
            "city": "Fortaleza",
            "responsible": "Jardeson Barros Feitosa",
            "address": "Rua Alfredo de Castro n: 457, Mantese, Fortaleza, Ceará, Brasil",
            "website": null
        },
        {
            "id": 9989,
            "name": "Corrales BJJ",
            "federationAbbr": "IBJJF",
            "country": "Spain",
            "countryAbbr": "ES",
            "city": "Corrales",
            "responsible": "Francisco Jose Paredes Hidalgo",
            "address": "Centro Comercial San Andrés Planta 1 Local 2, Corrales, Huelva, Spain",
            "website": null
        },
        {
            "id": 9674,
            "name": "Corse Combat",
            "federationAbbr": "IBJJF",
            "country": "France",
            "countryAbbr": "FR",
            "city": "Biguglia",
            "responsible": "Jamir Uchoa Toledo",
            "address": "Bevincu Center, Biguglia, Biguglia, France",
            "website": "https://corsecombat.wixsite.com/my-site"
        },
        {
            "id": 7082,
            "name": "Cortez Full Circle Martial Arts",
            "federationAbbr": "USBJJF",
            "country": "United States of America",
            "countryAbbr": "US",
            "city": "Lathrop ",
            "responsible": "Charles Gracie",
            "address": "17800 Murphy Parkway , Lathrop , California , United States of America",
            "website": "www.cortezmartialarts.com"
        },
        {
            "id": 9998,
            "name": "Coruja BJJ",
            "federationAbbr": "CBJJ",
            "country": "Brasil",
            "countryAbbr": "BR",
            "city": "Guarujá",
            "responsible": "Jose Antonio de Andrade Santos",
            "address": "Avenida Brasil, 12, 1º Andar, Guarujá, São Paulo, Brasil",
            "website": null
        },
        {
            "id": 8486,
            "name": "Corvo Martial Arts",
            "federationAbbr": "USBJJF",
            "country": "United States of America",
            "countryAbbr": "US",
            "city": "Richardosn ",
            "responsible": "Tony Trammell",
            "address": "810 West Arapaho Street, Suite 66, Richardosn , Texas , United States of America",
            "website": "Corvoma.com"
        },
        {
            "id": 9087,
            "name": "Cosarca-Lions BJJ",
            "federationAbbr": "IBJJF",
            "country": "Romania",
            "countryAbbr": "RO",
            "city": "Piatra Neamt",
            "responsible": "Catalin Cosarca",
            "address": "Str. Ana Ipatescu Nr.1, Bloc A5, Scara A, Apartament 10, Piatra Neamt, Neamt, Romania",
            "website": null
        },
        {
            "id": 6843,
            "name": "Cosmic Training Center",
            "federationAbbr": "USBJJF",
            "country": "United States of America",
            "countryAbbr": "US",
            "city": "Alhambra",
            "responsible": "Joseph Woo Sun Lee",
            "address": "226 W. Main St. , Alhambra, CA, United States of America",
            "website": "www.cosmictrainingcenter.com"
        },
        {
            "id": 7181,
            "name": "Costa Academy",
            "federationAbbr": "IBJJF",
            "country": "Australia",
            "countryAbbr": "AU",
            "city": "Myaree",
            "responsible": "Rodrigo Carvalho Coutinho D. Costa",
            "address": "1-3 Hayden Court, Myaree, Western Australia , Australia",
            "website": null
        },
        {
            "id": 4161,
            "name": "Counter Strike / Jonatas Novaes BJJ Team",
            "federationAbbr": "USBJJF",
            "country": "United States of America",
            "countryAbbr": "US",
            "city": "Downers Grove",
            "responsible": "Jonatas Novaes ",
            "address": "1730 Ogden Ave  , , Downers Grove, IL, United States of America",
            "website": "www.jnovaes.com"
        },
        {
            "id": 8878,
            "name": "Couro De Rato Jiu Jitsu",
            "federationAbbr": "CBJJ",
            "country": "Brasil",
            "countryAbbr": "BR",
            "city": "Salvador",
            "responsible": "Wladmir Vieira Conceição",
            "address": "Cond. Villa Da Sereia Av. Cardeal Da Silva, 2210, Salvador, Ba, Brasil",
            "website": null
        },
        {
            "id": 4799,
            "name": "Cowboy Jiu-Jitsu Oficial",
            "federationAbbr": "CBJJ",
            "country": "Brasil",
            "countryAbbr": "BR",
            "city": "Canarana",
            "responsible": "Mario Edson Silva",
            "address": "Rua Miraguai n: 488, Centro, Canarana, MT, Brasil",
            "website": "www.cowboyjiujitsu.com.br"
        },
        {
            "id": 5382,
            "name": "Coyote Brazilian Jiu-Jitsu Academy",
            "federationAbbr": "USBJJF",
            "country": "United States of America",
            "countryAbbr": "US",
            "city": "Albuquerque",
            "responsible": "Daniel de Paula Souza",
            "address": "10000 Coors Bypass NW , Cottonwood Mall lower level #G11, Albuquerque, NM, United States of America",
            "website": "coyotebjj.com"
        }
    ]
}