{
    "pagination": {
        "page": 337,
        "from": 6720,
        "to": 6740,
        "pageSize": 20,
        "lastPage": 358,
        "totalRecords": 7149
    },
    "list": [
        {
            "id": 7770,
            "name": "Tristone  Jiu-Jitsu  Gimpo",
            "federationAbbr": "IBJJF",
            "country": "Korea, South",
            "countryAbbr": "KR",
            "city": "Gimpo-si",
            "responsible": "Seung-Jae Lee",
            "address": "#405, Central Plaza, 25, Pungmu-ro,, Gimpo-si, Gyeonggi-do, Korea, South",
            "website": null
        },
        {
            "id": 7771,
            "name": "Tristone Incheon Seogu",
            "federationAbbr": "IBJJF",
            "country": "Korea, South",
            "countryAbbr": "KR",
            "city": "Incheon",
            "responsible": "Seung-Jae Lee",
            "address": "4f, 360-1, Gajeong-ro, Seo-gu, Incheon, Incheon, Korea, South",
            "website": null
        },
        {
            "id": 7773,
            "name": "Tristone Jayfoxx",
            "federationAbbr": "IBJJF",
            "country": "Korea, South",
            "countryAbbr": "KR",
            "city": "Incheon",
            "responsible": "Seung-Jae Lee",
            "address": "B1, 1074, Gyeongmyeong-daero, Gyeyang-gu, Incheon, Incheon, Korea, South",
            "website": null
        },
        {
            "id": 7264,
            "name": "Tristone Korea",
            "federationAbbr": "IBJJF",
            "country": "Korea, South",
            "countryAbbr": "KR",
            "city": "Bucheon-si ",
            "responsible": "Seung-Jae Lee",
            "address": "3F, 773, Sosa-ro , Bucheon-si , Gyeonggi-do , Korea, South",
            "website": null
        },
        {
            "id": 2283,
            "name": "Triton Fight Center",
            "federationAbbr": "USBJJF",
            "country": "United States of America",
            "countryAbbr": "US",
            "city": "Broken Arrow",
            "responsible": "Piet Lee Wilhelm",
            "address": "2205 North Willow Ave, Suite C, Broken Arrow, Oklahoma, United States of America",
            "website": "www.tritonfightcenter.org"
        },
        {
            "id": 3356,
            "name": "Triumph Brazilian Jiu-Jitsu",
            "federationAbbr": "USBJJF",
            "country": "United States of America",
            "countryAbbr": "US",
            "city": "Nashua",
            "responsible": "John Douglas Fain III",
            "address": "456 W Hollis Street, Nashua, NH, United States of America",
            "website": "www.teamtriumphbjj.com"
        },
        {
            "id": 2596,
            "name": "Triune Jiu-Jitsu Brasileiro",
            "federationAbbr": "USBJJF",
            "country": "United States of America",
            "countryAbbr": "US",
            "city": "San Jose",
            "responsible": "Stanley Howard Kendrick",
            "address": "2514 Seaboard Avenue  , San Jose, CA, United States of America",
            "website": "www.triunebjj.com"
        },
        {
            "id": 6155,
            "name": "Triunfight Jiu-Jitsu",
            "federationAbbr": "CBJJ",
            "country": "Brasil",
            "countryAbbr": "BR",
            "city": "Rio de Janeiro",
            "responsible": "Valdenir Braun",
            "address": "Estrada Santa Maura 170, Casa 10-b, Rio de Janeiro, Rio de Janeiro, Brasil",
            "website": null
        },
        {
            "id": 3029,
            "name": "Triunfo Brazilian Jiu Jitsu",
            "federationAbbr": "USBJJF",
            "country": "United States of America",
            "countryAbbr": "US",
            "city": "Costa Mesa",
            "responsible": "Felipe Ribeiro Souza Fogolin",
            "address": "419 E 17th st  , , Costa Mesa, CA, United States of America",
            "website": "www.triunfobjj.com"
        },
        {
            "id": 5611,
            "name": "Tróia",
            "federationAbbr": "CBJJ",
            "country": "Brasil",
            "countryAbbr": "BR",
            "city": "Rio De Janeiro",
            "responsible": "William Alvarenga Nascimento",
            "address": "Rua Ministro Moreira de Abreu, 52, Olaria, Rio De Janeiro, RJ, Brasil",
            "website": null
        },
        {
            "id": 5177,
            "name": "Troop BJJ",
            "federationAbbr": "IBJJF",
            "country": "Canada",
            "countryAbbr": "CA",
            "city": "Lively",
            "responsible": "Richard D Nancoo",
            "address": "240 Ninth Ave  , , Lively, ON, Canada",
            "website": "troopmma.com"
        },
        {
            "id": 2513,
            "name": "Tropa de Elite",
            "federationAbbr": "IBJJF",
            "country": "France",
            "countryAbbr": "FR",
            "city": "Mandelieu - LA - Napoule",
            "responsible": "Hugo Marc Jacky Fevrier",
            "address": "519, avenue des anciens combattarits apt 414  , , Mandelieu - LA - Napoule, FR, France",
            "website": "www.bjj-tropa-de-elite.com"
        },
        {
            "id": 9328,
            "name": "Trú Fight Team",
            "federationAbbr": "USBJJF",
            "country": "United States of America",
            "countryAbbr": "US",
            "city": "Sanford",
            "responsible": "Bradley N. Morris",
            "address": "2540 Lee Ave, Sanford, Nc, United States of America",
            "website": "www.aresbjjsanford.com"
        },
        {
            "id": 9479,
            "name": "True Jiu-Jitsu Academy",
            "federationAbbr": "USBJJF",
            "country": "United States of America",
            "countryAbbr": "US",
            "city": "Round Rock",
            "responsible": "Shane Anthony Zeringue",
            "address": "2111 Sam Bass Rd, Round Rock, Texas, United States of America",
            "website": "Truejiujitsu.com"
        },
        {
            "id": 4667,
            "name": "TRUJITSU",
            "federationAbbr": "USBJJF",
            "country": "United States of America",
            "countryAbbr": "US",
            "city": "Bakersfield",
            "responsible": "Matt Jason Baker",
            "address": "4308 Resnik Ct.  203 , Bakersfield, CA, United States of America",
            "website": "mattbakerbjj.com"
        },
        {
            "id": 5493,
            "name": "TRUJITSU / Excelsior",
            "federationAbbr": "USBJJF",
            "country": "United States of America",
            "countryAbbr": "US",
            "city": "Zachary",
            "responsible": "Nathan Larue Lott",
            "address": "6363 Main St. Suite H, Zachary, LA, United States of America",
            "website": "excelsiorbjj.com"
        },
        {
            "id": 7418,
            "name": "TRUJITSU Komodo Academy",
            "federationAbbr": "IBJJF",
            "country": "Canada",
            "countryAbbr": "CA",
            "city": "Grand Prairie",
            "responsible": "Matt Jason Baker",
            "address": "11313 O'Brien Lake Drive, Grand Prairie, Alberta, Canada",
            "website": "Thetrujitsurevolution.com"
        },
        {
            "id": 2516,
            "name": "Trust Jiu Jitsu Academy",
            "federationAbbr": "JBJJF",
            "country": "Japan",
            "countryAbbr": "JP",
            "city": "Aichi",
            "responsible": "Makoto Ikuta",
            "address": "102 Mitsuke-cho, Seto-shi  , , Aichi, --, Japan",
            "website": "www.trustjj.com"
        },
        {
            "id": 3765,
            "name": "Trydent Gym",
            "federationAbbr": "JBJJF",
            "country": "Japan",
            "countryAbbr": "JP",
            "city": "Tokyo",
            "responsible": "Osamu Mori",
            "address": "3-8-15 Aokiba Center bdg 101, Ochiai Tama, Tokyo, --, Japan",
            "website": "www.raku-raku8.com"
        },
        {
            "id": 10089,
            "name": "TSM BJJ",
            "federationAbbr": "IBJJF",
            "country": "Spain",
            "countryAbbr": "ES",
            "city": "Lleida",
            "responsible": "Sergio Mir Rodriguez",
            "address": "Albert Porqueras, 3 Piso 1*3a, Lleida, Spain",
            "website": null
        }
    ]
}