{
    "pagination": {
        "page": 75,
        "from": 1480,
        "to": 1500,
        "pageSize": 20,
        "lastPage": 358,
        "totalRecords": 7149
    },
    "list": [
        {
            "id": 10307,
            "name": "CheckMat Cantagalo",
            "federationAbbr": "CBJJ",
            "country": "Brasil",
            "countryAbbr": "BR",
            "city": "Rio De Janeiro",
            "responsible": "Douglas Rufino da Silva",
            "address": "Estrada Do Cantagalo, N° 12, Ipanema, Rio De Janeiro, Rio De Janeiro, Brasil",
            "website": null
        },
        {
            "id": 3069,
            "name": "Checkmat CDJJ Tokyo",
            "federationAbbr": "JBJJF",
            "country": "Japan",
            "countryAbbr": "JP",
            "city": "Tokyo",
            "responsible": "Toshiyuki Sato",
            "address": "Hakusan 1-18-7 Blf Bunkyo-Ku  , Tokyo, Japan",
            "website": "www.wado-jiujitsu.com"
        },
        {
            "id": 9910,
            "name": "CheckMat Ceará",
            "federationAbbr": "CBJJ",
            "country": "Brasil",
            "countryAbbr": "BR",
            "city": "Fortaleza",
            "responsible": "Ronaldo Cruz de Oliveira",
            "address": "Rua Coronel Mozart Gondim 1294, Fortaleza, Ceará, Brasil",
            "website": "https://instagram.com/checkmatce?igshid=YmMyMTA2M2Y="
        },
        {
            "id": 7761,
            "name": "Checkmat Charlotte",
            "federationAbbr": "USBJJF",
            "country": "United States of America",
            "countryAbbr": "US",
            "city": "charlotte",
            "responsible": "Michael Derrick Allen",
            "address": "3415 Westinghouse blvd, Suite 10, charlotte, nc, United States of America",
            "website": "Checkmatcharlotte.com"
        },
        {
            "id": 4199,
            "name": "Checkmat Chico Mendes BJJ",
            "federationAbbr": "IBJJF",
            "country": "United Kingdom",
            "countryAbbr": "GB",
            "city": "Bishop's Cleeve, Cheltenham",
            "responsible": "Francisco Ramos Mendes Neto",
            "address": "Newlands Park Sports Club, Southern Lane, Bishop's Cleeve, Cheltenham, --, United Kingdom",
            "website": "www.chicomendesbjj.com"
        },
        {
            "id": 7649,
            "name": "Checkmat Cohen Brothers",
            "federationAbbr": "IBJJF",
            "country": "Israel",
            "countryAbbr": "IL",
            "city": "savyon",
            "responsible": "Alon Cohen",
            "address": "nativ hayovel 1, savyon, israel, Israel",
            "website": "www.cohen-brothers.co.il"
        },
        {
            "id": 6300,
            "name": "Checkmat Colombia",
            "federationAbbr": "IBJJF",
            "country": "Colombia",
            "countryAbbr": "CO",
            "city": "Medellin",
            "responsible": "Alessandro Cirone Nagaishi",
            "address": "Calle 79#49-69, Bairro Estadio, Medellin, Antioquia, Colombia",
            "website": "www.checkmatcolombiabjj.com"
        },
        {
            "id": 6763,
            "name": "Checkmat Copenhagen",
            "federationAbbr": "IBJJF",
            "country": "Denmark",
            "countryAbbr": "DK",
            "city": "Copenhagen Nv",
            "responsible": "Shimon Mochizuki",
            "address": "Hvidkildevej 64, Copenhagen Nv, Denmark, Denmark",
            "website": "www.artesuave.dk"
        },
        {
            "id": 5429,
            "name": "Checkmat Corona",
            "federationAbbr": "USBJJF",
            "country": "United States of America",
            "countryAbbr": "US",
            "city": "Corona",
            "responsible": "Jimmy Dang Khoa Tat",
            "address": "2175 Sampson Av, suite #115, Corona, CA, United States of America",
            "website": "www.coronabjj.net"
        },
        {
            "id": 9912,
            "name": "CheckMat Crivelari",
            "federationAbbr": "CBJJ",
            "country": "Brasil",
            "countryAbbr": "BR",
            "city": "Jundiaí",
            "responsible": "Antonio Roberto Crivelari Junior",
            "address": "Rua Luiz Constantino Bochino 152. Vila Aiello, Jundiaí, São Paulo, Brasil",
            "website": null
        },
        {
            "id": 8007,
            "name": "Checkmat Ct Cangaço",
            "federationAbbr": "CBJJ",
            "country": "Brasil",
            "countryAbbr": "BR",
            "city": "João Pessoa",
            "responsible": "Anderson Duarte de Oliveira",
            "address": "Rua Oselmar De Castro Barreto  04, Ct Cangaço, João Pessoa, Paraíba, Brasil",
            "website": null
        },
        {
            "id": 6062,
            "name": "Checkmat Dallas - Keiser Girao",
            "federationAbbr": "USBJJF",
            "country": "United States of America",
            "countryAbbr": "US",
            "city": "Dallas",
            "responsible": "Keiser Antonio Girao",
            "address": "13344 Preston Rd, Dallas, TX, United States of America",
            "website": null
        },
        {
            "id": 9689,
            "name": "Checkmat Daphne",
            "federationAbbr": "USBJJF",
            "country": "United States of America",
            "countryAbbr": "US",
            "city": "Daphne",
            "responsible": "Scott Michael Miller",
            "address": "10758 County Rd 64, Daphne, Alabama, United States of America",
            "website": "rxsportfit.com"
        },
        {
            "id": 6270,
            "name": "Checkmat Dogym Madrid",
            "federationAbbr": "IBJJF",
            "country": "Spain",
            "countryAbbr": "ES",
            "city": "Madrid",
            "responsible": "Alexandre Sierra do Nascimento",
            "address": "Alcalde de Lopez Casero 13, Madrid, --, Spain",
            "website": "www.checkmatmadrid.net"
        },
        {
            "id": 8537,
            "name": "Checkmat Doha / All Force",
            "federationAbbr": "IBJJF",
            "country": "Qatar",
            "countryAbbr": "QA",
            "city": "Doha",
            "responsible": "Tiê Macedo Passos",
            "address": "Unit J203 Building 53 Street 840, Zone 39, Doha, Qatar",
            "website": "Www.allforce.qa "
        },
        {
            "id": 9313,
            "name": "Checkmat Dublin 12",
            "federationAbbr": "IBJJF",
            "country": "Ireland",
            "countryAbbr": "IE",
            "city": "Dublin 12",
            "responsible": "John Kelly",
            "address": "Unit A7, Ballymount Corporate Park, Dublin 12, Ireland, Ireland",
            "website": "www.bjjcheckmat.com"
        },
        {
            "id": 9277,
            "name": "Checkmat Eidsvoll",
            "federationAbbr": "IBJJF",
            "country": "Norway",
            "countryAbbr": "NO",
            "city": "Råholt",
            "responsible": "Audun Martinsen",
            "address": "Trondheimsvegen 266, Råholt, Norway",
            "website": "www.rambukken.no"
        },
        {
            "id": 8056,
            "name": "Checkmat Enköping",
            "federationAbbr": "IBJJF",
            "country": "Sweden",
            "countryAbbr": "SE",
            "city": "Enköping",
            "responsible": "Andrew Cardino Laxa",
            "address": "Annelundsgatan 17, Enköping, Sweden",
            "website": "www.36thgym.com"
        },
        {
            "id": 7275,
            "name": "Checkmat Europa",
            "federationAbbr": "FPJJB",
            "country": "Portugal",
            "countryAbbr": "PT",
            "city": "estoril -  lisboa",
            "responsible": "Ricardo Alcantara Vieira",
            "address": "avenida emilia, 161-A, estoril -  lisboa, --, Portugal",
            "website": "checkmateurope.com"
        },
        {
            "id": 9690,
            "name": "Checkmat Fallbrook BJJ",
            "federationAbbr": "USBJJF",
            "country": "United States of America",
            "countryAbbr": "US",
            "city": "Fallbrook",
            "responsible": "Jessica Eve Richer",
            "address": "205 N Main Ave, Fallbrook, Ca, United States of America",
            "website": "www.checkmatfallbrookbjj.com"
        }
    ]
}