{
    "pagination": {
        "page": 2,
        "from": 20,
        "to": 40,
        "pageSize": 20,
        "lastPage": 358,
        "totalRecords": 7149
    },
    "list": [
        {
            "id": 10329,
            "name": "2 Brothers - Camarate",
            "federationAbbr": "FPJJB",
            "country": "Portugal",
            "countryAbbr": "PT",
            "city": "Camarate",
            "responsible": "Sandro da Silva Lima",
            "address": "Rua Guilherme Gomes Fernandes, Número 9, Grupo Desportivo Águias De Camarate, Camarate, Lisboa, Portugal",
            "website": "www.2brothersbfc.com"
        },
        {
            "id": 10319,
            "name": "2 Brothers - Monte Da Caparica",
            "federationAbbr": "FPJJB",
            "country": "Portugal",
            "countryAbbr": "PT",
            "city": "Setúbal",
            "responsible": "Sandro da Silva Lima",
            "address": "Rua Do Lago, Armazém 8, Setúbal, Monte Da Caparica, Portugal",
            "website": "www.2brothersbfc.com"
        },
        {
            "id": 2466,
            "name": "2 Brothers BFC",
            "federationAbbr": "FPJJB",
            "country": "Portugal",
            "countryAbbr": "PT",
            "city": "Almada",
            "responsible": "Júlio Cesar da Silva Lima",
            "address": "Rua Dom Diniz, N.37, Segundo, Cova Da Piedade, Almada, Setubal, Portugal",
            "website": "www.2brothersbfc.com"
        },
        {
            "id": 8293,
            "name": "2 Brothers Bfc - Angola",
            "federationAbbr": "IBJJF",
            "country": "Angola",
            "countryAbbr": "AO",
            "city": "Lubango",
            "responsible": "Sandro da Silva Lima",
            "address": "Bairro Comercial, Rua Deolinda Rodrigues, N.17, Terceiro Andar F, Huíla, Lubango, Huíla, Angola",
            "website": "www.2brothersbfc.com"
        },
        {
            "id": 5261,
            "name": "2 Brothers BFC - Brasil",
            "federationAbbr": "CBJJ",
            "country": "Brasil",
            "countryAbbr": "BR",
            "city": "Brasília",
            "responsible": "Júlio Cesar da Silva Lima",
            "address": "Crn 712/713, Bloco C, Entrada 18, Asa Norte, St. De Habitações Coletivas E Geminadas Norte, Brasília, Distrito Federal, Brasil",
            "website": "www.2brothersbfc.com"
        },
        {
            "id": 8248,
            "name": "2 Brothers Bfc - Feijó",
            "federationAbbr": "FPJJB",
            "country": "Portugal",
            "countryAbbr": "PT",
            "city": "Setubal",
            "responsible": "Sandro da Silva Lima",
            "address": "Rua Dom Francisco De Almeida 55, Construções Norte-sul Lda / Clube De Judo, Setubal, Feijó, Portugal",
            "website": "https://2brothersbfcfeijo.com/"
        },
        {
            "id": 8247,
            "name": "2 Brothers Bfc - Mat704",
            "federationAbbr": "FPJJB",
            "country": "Portugal",
            "countryAbbr": "PT",
            "city": "Setubal",
            "responsible": "Sandro da Silva Lima",
            "address": "Praceta Piteira Santos 8, Setubal, Almada, Portugal",
            "website": "https://www.2brothersbfcmat704.com/"
        },
        {
            "id": 8937,
            "name": "2 Brothers Bfc - México",
            "federationAbbr": "IBJJF",
            "country": "Mexico",
            "countryAbbr": "MX",
            "city": "Guadalajara",
            "responsible": "Sandro da Silva Lima",
            "address": "C. Frederico E. Ibarra 955, Santa Elena Alcalde, Jalisco, Guadalajara, Santa Elena Alcalde, Mexico",
            "website": "www.2brothersbfc.com"
        },
        {
            "id": 8249,
            "name": "2 Brothers Bfc - Monstro Fight Club",
            "federationAbbr": "FPJJB",
            "country": "Portugal",
            "countryAbbr": "PT",
            "city": "Corroios",
            "responsible": "Sandro da Silva Lima",
            "address": "Rua Ferreira De Castro, N.8, Miratejo, Corroios, Setubal, Portugal",
            "website": "www.2brothersbfc.com"
        },
        {
            "id": 8197,
            "name": "2 Brothers Bfc - Odivelas",
            "federationAbbr": "FPJJB",
            "country": "Portugal",
            "countryAbbr": "PT",
            "city": "Odivelas",
            "responsible": "Sandro da Silva Lima",
            "address": "Alameda Do Porto Pinheiro, Pavilhão Multiusos De Odivelas, Odivelas, Lisboa, Portugal",
            "website": "www.2brothersbfc.com"
        },
        {
            "id": 8343,
            "name": "2 Brothers Bfc - Salvaterra De Magos",
            "federationAbbr": "FPJJB",
            "country": "Portugal",
            "countryAbbr": "PT",
            "city": "Santarém",
            "responsible": "Sandro da Silva Lima",
            "address": "Estrada Da Roseira Alta, Santarém, Salvaterra De Magos, Portugal",
            "website": "www.2brothersbfc.com"
        },
        {
            "id": 8485,
            "name": "208 Jiu-Jitsu Academy",
            "federationAbbr": "USBJJF",
            "country": "United States of America",
            "countryAbbr": "US",
            "city": "Nampa",
            "responsible": "Samuel Joseph Campanella III",
            "address": "1127 12th Ave Rd, Nampa, Idaho, United States of America",
            "website": "https://www.208jiujitsuacademy.com"
        },
        {
            "id": 9966,
            "name": "222 Jiu-Jitsu",
            "federationAbbr": "IBJJF",
            "country": "United Kingdom",
            "countryAbbr": "GB",
            "city": "Gateshead",
            "responsible": "Tyrone Connor Jepson-Elliott",
            "address": "222 Jiu Jitsu, Aidan House, Gateshead, Tyne And Wear, United Kingdom",
            "website": "www.222jiujitsu.co.uk"
        },
        {
            "id": 10734,
            "name": "247 Brazilian Jiu-Jitsu",
            "federationAbbr": "USBJJF",
            "country": "United States of America",
            "countryAbbr": "US",
            "city": "Parsippany",
            "responsible": "Mohammad Mohebbi-Forushani",
            "address": "1 Princess Street, Parsippany, Nj, United States of America",
            "website": null
        },
        {
            "id": 7713,
            "name": "2nd Gear Jiu-Jitsu",
            "federationAbbr": "USBJJF",
            "country": "United States of America",
            "countryAbbr": "US",
            "city": "Laurel",
            "responsible": "Kenneth Vernon Otieno Brown",
            "address": "8730 Cherry Ln, Suite 14, Laurel, MD, United States of America",
            "website": "https://www.2ndgearbjj.com"
        },
        {
            "id": 8210,
            "name": "2RBJJ",
            "federationAbbr": "CBJJ",
            "country": "Brasil",
            "countryAbbr": "BR",
            "city": "Valparaíso De Goiás",
            "responsible": "Robson da Silva Rodrigues",
            "address": "Q 1 Bloco H Etapa A Valparaiso 1, 07 Cond. Villa Do Sol 2, Valparaíso De Goiás, Goiás, Brasil",
            "website": null
        },
        {
            "id": 7345,
            "name": "3 Angle Jiu-jitsu Academy",
            "federationAbbr": "CBJJ",
            "country": "Brasil",
            "countryAbbr": "BR",
            "city": "Nova Friburgo",
            "responsible": "Luiz André Campos C. de Albuquerque",
            "address": "Av. Julio Antonio Thurler n: 757, Sobreloja Bairro:Olaria, Nova Friburgo, Rio de Janeiro, Brasil",
            "website": null
        },
        {
            "id": 5448,
            "name": "3 R Jiu-Jitsu",
            "federationAbbr": "CBJJ",
            "country": "Brasil",
            "countryAbbr": "BR",
            "city": "Rio de Janeiro",
            "responsible": "Flavio Teixeira Garcia",
            "address": "R. Hélio Costa 20, Campo Grande, Rio de Janeiro, RJ, Brasil",
            "website": "3rjj.inscricoes@gmail.com"
        },
        {
            "id": 5446,
            "name": "3 V Jiu-Jitsu",
            "federationAbbr": "CBJJ",
            "country": "Brasil",
            "countryAbbr": "BR",
            "city": "Rio de Janeiro",
            "responsible": "Michel Boiteux de Oliveira",
            "address": "Avenida Geremário Dantas 148 Sala 203, Jacarepaguá, Rio de Janeiro, RJ, Brasil",
            "website": null
        },
        {
            "id": 5057,
            "name": "316 BJJ",
            "federationAbbr": "USBJJF",
            "country": "United States of America",
            "countryAbbr": "US",
            "city": "Rockwall",
            "responsible": "Robert Michael Hatcher Jr.",
            "address": "1407 South Goliad Street, Rockwall, Tx, United States of America",
            "website": "www.316bjj.com"
        }
    ]
}