{
    "pagination": {
        "page": 160,
        "from": 3180,
        "to": 3200,
        "pageSize": 20,
        "lastPage": 358,
        "totalRecords": 7149
    },
    "list": [
        {
            "id": 8331,
            "name": "Gracie Barra Ipanema",
            "federationAbbr": "CBJJ",
            "country": "Brasil",
            "countryAbbr": "BR",
            "city": "Rio De Janeiro",
            "responsible": "Luiz Felipe Marinho França",
            "address": "Rua Visconde De Pirajá, 487/208, Rio De Janeiro, Rj, Brasil",
            "website": null
        },
        {
            "id": 9619,
            "name": "Gracie Barra Ipiranga",
            "federationAbbr": "CBJJ",
            "country": "Brasil",
            "countryAbbr": "BR",
            "city": "Belo Horizonte",
            "responsible": "Guilherme Wander Lambertucci de Andrade",
            "address": "Avenida Cristiano Machado 3435, Shopping Minas Casa, Belo Horizonte, Minas Gerais, Brasil",
            "website": null
        },
        {
            "id": 7608,
            "name": "Gracie Barra Ipojuca-PE",
            "federationAbbr": "CBJJ",
            "country": "Brasil",
            "countryAbbr": "BR",
            "city": "IPOJUCA",
            "responsible": "Glaubert Gomes de Assis",
            "address": "Rua 12 número 101, Loteamento novas conoas, IPOJUCA, PE, Brasil",
            "website": null
        },
        {
            "id": 2911,
            "name": "Gracie Barra Irun",
            "federationAbbr": "IBJJF",
            "country": "Spain",
            "countryAbbr": "ES",
            "city": "Irun",
            "responsible": "Jaouad Karbal",
            "address": "Jose Maria Iparraguirre n63, Irun, gui, Spain",
            "website": null
        },
        {
            "id": 7391,
            "name": "Gracie Barra Issaquah",
            "federationAbbr": "USBJJF",
            "country": "United States of America",
            "countryAbbr": "US",
            "city": "Issaquah ",
            "responsible": "Jason Dennis Adams",
            "address": "98 Front Street South, Issaquah , WA, United States of America",
            "website": "gbissaquah.com"
        },
        {
            "id": 5935,
            "name": "Gracie Barra Itaim Paulista",
            "federationAbbr": "CBJJ",
            "country": "Brasil",
            "countryAbbr": "BR",
            "city": "São Paulo",
            "responsible": "Ricardo Yukio Arita",
            "address": "Rua Tibúcio de Sousa 455 sobreloja, São Paulo, SP, Brasil",
            "website": "www.gbitaimpaulista.com.br"
        },
        {
            "id": 5163,
            "name": "Gracie Barra Itaipava",
            "federationAbbr": "CBJJ",
            "country": "Brasil",
            "countryAbbr": "BR",
            "city": "Petropolis",
            "responsible": "Rodrigo Scott Muarre",
            "address": "Estrada União e Industria 10156 Cx 3, Itaipava, Petropolis, RJ, Brasil",
            "website": "gbitaipava.com.br"
        },
        {
            "id": 9919,
            "name": "Gracie Barra Itaipu",
            "federationAbbr": "CBJJ",
            "country": "Brasil",
            "countryAbbr": "BR",
            "city": "Niterói",
            "responsible": "Paulo Victor Velozo Martins",
            "address": "Avenida Doutor Jose Geraldo Bezerra De Menezes, 40, Niterói, Rio De Janeiro, Brasil",
            "website": null
        },
        {
            "id": 4819,
            "name": "Gracie Barra Itapema",
            "federationAbbr": "CBJJ",
            "country": "Brasil",
            "countryAbbr": "BR",
            "city": "Itapema",
            "responsible": "Carlos Vinicius Alexandre C. Nascimento",
            "address": "Rua 248 360, Meia Praia, Itapema, SC, Brasil",
            "website": ""
        },
        {
            "id": 5680,
            "name": "Gracie Barra Itatiba",
            "federationAbbr": "CBJJ",
            "country": "Brasil",
            "countryAbbr": "BR",
            "city": "Itatiba",
            "responsible": "Rafael Teixeira Tarabay",
            "address": "Rua Atilio Lanfranchi, 517, Alto De Fatima, Itatiba, SP, Brasil",
            "website": null
        },
        {
            "id": 6041,
            "name": "Gracie Barra Ituiutaba",
            "federationAbbr": "CBJJ",
            "country": "Brasil",
            "countryAbbr": "BR",
            "city": "Minas Gerais",
            "responsible": "Rodrigo Martins de Oliveira Campos",
            "address": "Av. Dezessete n: 2037, Platina, Minas Gerais, Minas Gerais, Brasil",
            "website": null
        },
        {
            "id": 4176,
            "name": "Gracie Barra Jacksonville",
            "federationAbbr": "USBJJF",
            "country": "United States of America",
            "countryAbbr": "US",
            "city": "Jacksonville",
            "responsible": "Maximiliano Paulino de Freitas",
            "address": "8570 Philips Hwy #102, Jacksonville, FL, United States of America",
            "website": "gbjacksonville.com"
        },
        {
            "id": 7434,
            "name": "Gracie Barra Jacutinga",
            "federationAbbr": "CBJJ",
            "country": "Brasil",
            "countryAbbr": "BR",
            "city": "Jacutinga",
            "responsible": "Julio Andrade Viotti",
            "address": "Rua Magnolia n:12, Bairro: Vale das Flores, Jacutinga, Minas Gerais, Brasil",
            "website": "julioviottibjj.com"
        },
        {
            "id": 4136,
            "name": "Gracie Barra Jardim América",
            "federationAbbr": "CBJJ",
            "country": "Brasil",
            "countryAbbr": "BR",
            "city": "Goiânia",
            "responsible": "Henryque Batista Climaco Pofahl",
            "address": "rua C-162 Quadra 264 205 Lote 5, Jardim América, Goiânia, GO, Brasil",
            "website": ""
        },
        {
            "id": 9911,
            "name": "Gracie Barra Jardim Botânico",
            "federationAbbr": "CBJJ",
            "country": "Brasil",
            "countryAbbr": "BR",
            "city": "Brasília",
            "responsible": "Gustavo Camargo de Alencar",
            "address": "Shjb Avenida Do Sol Quadra 02 Rua 04 Lote 32 Sobrelojas: 02/03, Brasília, Distrito Federal, Brasil",
            "website": null
        },
        {
            "id": 7294,
            "name": "Gracie Barra Jardim Céu Azul",
            "federationAbbr": "CBJJ",
            "country": "Brasil",
            "countryAbbr": "BR",
            "city": "Valparaíso de Goiás",
            "responsible": "Anselmo Nunes Sena",
            "address": "Rua 64  - Quadra 87,Lote 05, Bairro: Jardim do Céu Azu; - 2 Etapa, Valparaíso de Goiás, Goiás, Brasil",
            "website": null
        },
        {
            "id": 5959,
            "name": "Gracie Barra Jardim das Camélias",
            "federationAbbr": "CBJJ",
            "country": "Brasil",
            "countryAbbr": "BR",
            "city": "São Paulo",
            "responsible": "Marcos da Silva Rocha",
            "address": "Avenida Laranja da China 211A, Jardim das Camélias, São Paulo, SP, Brasil",
            "website": "www.graciebarrasaopaulo.com.br"
        },
        {
            "id": 9815,
            "name": "Gracie Barra Jardim Ingá",
            "federationAbbr": "CBJJ",
            "country": "Brasil",
            "countryAbbr": "BR",
            "city": "Luziânia",
            "responsible": "Adriano da Silva Martins",
            "address": "Rua Lucena Roriz Quadra 53 Lote 48 Jardim Do Inga, Jardim Do Inga, Luziânia, Goiás, Brasil",
            "website": "jardim ingá"
        },
        {
            "id": 5834,
            "name": "Gracie Barra Jardim Vitória Régia",
            "federationAbbr": "CBJJ",
            "country": "Brasil",
            "countryAbbr": "BR",
            "city": "São José do Rio Preto",
            "responsible": "Paulo Cesar da Conceição",
            "address": "Rua Nagib Gabriel n: 5474 Sobrado, Jardim Vitória Régia, São José do Rio Preto, São Paulo, Brasil",
            "website": null
        },
        {
            "id": 7107,
            "name": "Gracie Barra Jd. Paulista Campina Gr do Sul",
            "federationAbbr": "CBJJ",
            "country": "Brasil",
            "countryAbbr": "BR",
            "city": "Campina Grande do Sul",
            "responsible": "Marcos Paulo Mamedes Martins",
            "address": "Rua Aldarico Bandeira de Lima n: 1034, Bairro: Jardim Paulista, Campina Grande do Sul, Paraná, Brasil",
            "website": null
        }
    ]
}