{
    "pagination": {
        "page": 296,
        "from": 5900,
        "to": 5920,
        "pageSize": 20,
        "lastPage": 358,
        "totalRecords": 7149
    },
    "list": [
        {
            "id": 3420,
            "name": "Shanghai BJJ (SHBJJ)",
            "federationAbbr": "IBJJF",
            "country": "China",
            "countryAbbr": "CN",
            "city": "Shanghai",
            "responsible": "Stanley Lap Chen Tam",
            "address": "20/F, #1855 Qixin Road, Minhang District, Shanghai, --, China",
            "website": "www.shanghaibjj.com "
        },
        {
            "id": 7955,
            "name": "Shannon Arts Jiu-Jitsu",
            "federationAbbr": "USBJJF",
            "country": "United States of America",
            "countryAbbr": "US",
            "city": "Linden",
            "responsible": "William M. Shannon",
            "address": "3056 Dismal Hollow Rd, Linden, Va, United States of America",
            "website": "Shannonajj.com"
        },
        {
            "id": 10347,
            "name": "Shaolin Lucena BJJ",
            "federationAbbr": "CBJJ",
            "country": "Brasil",
            "countryAbbr": "BR",
            "city": "Santa Isabel",
            "responsible": "Daniel Alves de Lucena",
            "address": "Av. Brasil 445, Cruzeiro, Santa Isabel, SP, Brasil",
            "website": "www.shaolinlucena.com.br"
        },
        {
            "id": 8237,
            "name": "Shap Bros BJJ / Syndicate MMA",
            "federationAbbr": "USBJJF",
            "country": "United States of America",
            "countryAbbr": "US",
            "city": "Las Vegas",
            "responsible": "Jerold Antonio Shapiro",
            "address": "6315 S Rainbow Blvd, #103, Las Vegas, Nv, United States of America",
            "website": null
        },
        {
            "id": 9113,
            "name": "Sharjah Self Defence Club",
            "federationAbbr": "IBJJF",
            "country": "United Arab Emirates",
            "countryAbbr": "AE",
            "city": "Sharjah",
            "responsible": "Alexandre Altenburg O. M. Frota",
            "address": "Dubai, Sharjah, United Arab Emirates",
            "website": null
        },
        {
            "id": 2622,
            "name": "Shark BJJ",
            "federationAbbr": "USBJJF",
            "country": "United States of America",
            "countryAbbr": "US",
            "city": "Wellington",
            "responsible": "Emyr Bussade Neto",
            "address": "10220 Forest Hill Blvd Suite 140, , Wellington, FL, United States of America",
            "website": "www.sharkbjj.com"
        },
        {
            "id": 6794,
            "name": "Shark Prodigy Jiu-jitsu",
            "federationAbbr": "CBJJ",
            "country": "Brasil",
            "countryAbbr": "BR",
            "city": "Mesquita",
            "responsible": "Andre Luiz Daniel Santos",
            "address": "Av. Getulio Vargas n: 1601 2 andar, Bairro: Edson Passos, Mesquita, Rio de Janeiro, Brasil",
            "website": null
        },
        {
            "id": 9253,
            "name": "Sharkside Jiu-Jitsu",
            "federationAbbr": "USBJJF",
            "country": "United States of America",
            "countryAbbr": "US",
            "city": "Mesa",
            "responsible": "Brenden Scott Richardson",
            "address": "7641 E. Guadalupe Rd #b103, Mesa, Arizona, United States of America",
            "website": "sharksidejiujitsu.com"
        },
        {
            "id": 8304,
            "name": "Sharmin Brazilian Jiu-Jitsu Academy",
            "federationAbbr": "USBJJF",
            "country": "United States of America",
            "countryAbbr": "US",
            "city": "Wellington",
            "responsible": "Eiman Sharmin",
            "address": "15420 Stapleton Way, Wellington, Fl, United States of America",
            "website": null
        },
        {
            "id": 9258,
            "name": "Sharp Jiu-Jitsu Academy",
            "federationAbbr": "IBJJF",
            "country": "Australia",
            "countryAbbr": "AU",
            "city": "Sydney",
            "responsible": "Bruno Almeida Alves",
            "address": "51 Hume Street Crows Nest 2065, Sydney, Nsw, Australia",
            "website": "www.sjja.com.au"
        },
        {
            "id": 6853,
            "name": "Shaun Matthews BJJ",
            "federationAbbr": "IBJJF",
            "country": "United Kingdom",
            "countryAbbr": "GB",
            "city": "Redcar",
            "responsible": "Shaun Matthews",
            "address": "1 Yearby Mews, Redcar, United Kingdom",
            "website": null
        },
        {
            "id": 7766,
            "name": "Shawnee BJJ",
            "federationAbbr": "USBJJF",
            "country": "United States of America",
            "countryAbbr": "US",
            "city": "Shawnee",
            "responsible": "Ronald Matthew Bias",
            "address": "1510 N Kickapoo Suite 4, Shawnee, Oklahoma, United States of America",
            "website": null
        },
        {
            "id": 3537,
            "name": "SHC BJJ Team",
            "federationAbbr": "IBJJF",
            "country": "United Arab Emirates",
            "countryAbbr": "AE",
            "city": "Abu Dhabi ",
            "responsible": "Samuel Hertzog Canquerino",
            "address": "PO Box 36482   , , Abu Dhabi , AD, United Arab Emirates",
            "website": "www.shcbjj.com"
        },
        {
            "id": 2917,
            "name": "Shebaro Jiu Jitsu",
            "federationAbbr": "USBJJF",
            "country": "United States of America",
            "countryAbbr": "US",
            "city": "McKinney",
            "responsible": "Alan Mazin Shebaro",
            "address": "320 Industrial Blvd Suite #204  , , McKinney, TX, United States of America",
            "website": "www.tier1tf.com"
        },
        {
            "id": 9558,
            "name": "Sheldon Carlos Brazilian Jiu-jitsu",
            "federationAbbr": "CBJJ",
            "country": "Brasil",
            "countryAbbr": "BR",
            "city": "Rio De Janeiro",
            "responsible": "Sheldon Carlos Assuncao Silveira",
            "address": "Rua Visconde De Figueiredo 52, 302, Rio De Janeiro, Rio De Janeiro, Brasil",
            "website": null
        },
        {
            "id": 4428,
            "name": "Sheridan BJJ",
            "federationAbbr": "USBJJF",
            "country": "United States of America",
            "countryAbbr": "US",
            "city": "Vauxhall",
            "responsible": "Kevin D. Sheridan",
            "address": "863 Valley St.  , Vauxhall, NJ, United States of America",
            "website": "www.sheridanbjj.com"
        },
        {
            "id": 9025,
            "name": "Shiba Brazilian Jiu-Jitsu",
            "federationAbbr": "USBJJF",
            "country": "United States of America",
            "countryAbbr": "US",
            "city": "Palo Alto",
            "responsible": "Matthew Wong",
            "address": "3345 Ross Road, Palo Alto, California, United States of America",
            "website": "https://www.shibamartialarts.com/"
        },
        {
            "id": 9841,
            "name": "Shibusa",
            "federationAbbr": "IBJJF",
            "country": "Australia",
            "countryAbbr": "AU",
            "city": "Belconnen",
            "responsible": "Shaher Yar Khan",
            "address": "Level 1/102 Emu Bank, Belconnen, Act, Australia",
            "website": "www.shibusajj.com.au"
        },
        {
            "id": 7871,
            "name": "Shield BJJ / MMA \u0026 Self Defense",
            "federationAbbr": "USBJJF",
            "country": "United States of America",
            "countryAbbr": "US",
            "city": "Winter Garden ",
            "responsible": "Ricardo Turini Scalissi",
            "address": "1439 Juniper Hammock , Winter Garden , Flórida , United States of America",
            "website": null
        },
        {
            "id": 3954,
            "name": "Shinko Jiu-Jitsu Team",
            "federationAbbr": "IBJJF",
            "country": "France",
            "countryAbbr": "FR",
            "city": "Cergy",
            "responsible": "Hammoud Soufiane",
            "address": "11 Rue De La Bergelade  , , Cergy, --, France",
            "website": "--"
        }
    ]
}