{
    "pagination": {
        "page": 181,
        "from": 3600,
        "to": 3620,
        "pageSize": 20,
        "lastPage": 358,
        "totalRecords": 7149
    },
    "list": [
        {
            "id": 6226,
            "name": "Gulf Breeze Brazilian Jiu-Jitsu / Checkmat",
            "federationAbbr": "USBJJF",
            "country": "United States of America",
            "countryAbbr": "US",
            "city": "Gulf Breeze",
            "responsible": "Francisco Ramos Mendes Neto",
            "address": "3106 Gulf Breeze Pkwy, Gulf Breeze, FL, United States of America",
            "website": "checkmatgulfbreeze.com"
        },
        {
            "id": 6173,
            "name": "Gullo Jiu-Jitsu",
            "federationAbbr": "IBJJF",
            "country": "Spain",
            "countryAbbr": "ES",
            "city": "Barcelona",
            "responsible": "Raphael Menezes Fiorentino Gullo",
            "address": "Calle Viladomat, 88 Bajos A, Barcelona, -barcelona, Spain",
            "website": "gullojiujitsu.com"
        },
        {
            "id": 10501,
            "name": "Guma JJ",
            "federationAbbr": "IBJJF",
            "country": "Guam",
            "countryAbbr": "GU",
            "city": "Tamuning",
            "responsible": "Jonathan E. Tuck",
            "address": "127 Chalan Pasaheru, Tamuning, Guam",
            "website": null
        },
        {
            "id": 10436,
            "name": "Gustavo Adolfo Jiu-Jitsu Team",
            "federationAbbr": "CBJJ",
            "country": "Brasil",
            "countryAbbr": "BR",
            "city": "Mogi Das Cruzes",
            "responsible": "Gustavo Adolfo A. de Oliveira",
            "address": "Rua Fernando De Oliveira Guena, 33, Mogi Das Cruzes, São Paulo, Brasil",
            "website": null
        },
        {
            "id": 4436,
            "name": "Gustavo Corrêa Brazilian Jiu-Jitsu",
            "federationAbbr": "CBJJ",
            "country": "Brasil",
            "countryAbbr": "BR",
            "city": "Rio de Janeiro",
            "responsible": "Gustavo Pires Corrêa da Silva",
            "address": "Rua Conde de Bonfim n: 1052 apt 707, Tijuca, Rio de Janeiro, RJ, Brasil",
            "website": null
        },
        {
            "id": 2494,
            "name": "Gustavo Freire",
            "federationAbbr": "IBJJF",
            "country": "Italy",
            "countryAbbr": "IT",
            "city": "Treviso",
            "responsible": "Gustavo Rasseli Freire",
            "address": "Via Giacomo Zanella 71a, Via, Treviso, Tv, Italy",
            "website": "www.brazilianjiujitsutreviso.blogspot.it"
        },
        {
            "id": 5485,
            "name": "Gustavo Gordo Jiu-Jitsu Brasileiro",
            "federationAbbr": "CBJJ",
            "country": "Brasil",
            "countryAbbr": "BR",
            "city": "Londrina",
            "responsible": "Nilson Roberto Lopes",
            "address": "Rua Bento Munhoz da Rocha 535, Jardim Lago, Londrina, PR, Brasil",
            "website": null
        },
        {
            "id": 2517,
            "name": "Gustavo Machado BJJ",
            "federationAbbr": "USBJJF",
            "country": "United States of America",
            "countryAbbr": "US",
            "city": "Virginia Beach",
            "responsible": "Gustavo Pinheiro Machado",
            "address": "1944 Laskin road suite 401, Virginia Beach, VA, United States of America",
            "website": "www.gustavojjmachado.com"
        },
        {
            "id": 7873,
            "name": "Gustavo Rudel Balance Academy",
            "federationAbbr": "USBJJF",
            "country": "United States of America",
            "countryAbbr": "US",
            "city": "Chicago",
            "responsible": "Gustavo Ariel Rudel",
            "address": "4714 N Damen Ave, Chicago, Illinois, United States of America",
            "website": null
        },
        {
            "id": 528,
            "name": "Gutenberg Melo Jiu-Jitsu",
            "federationAbbr": "CBJJ",
            "country": "Brasil",
            "countryAbbr": "BR",
            "city": "Recife",
            "responsible": "Leon Stavola do Rêgo Melo",
            "address": "Rua Cláudio José de Lima n: 176, Bairro: Jardim Sao Paulo, Recife, PE, Brasil",
            "website": "@gmjiujitsu (Instagram)"
        },
        {
            "id": 4873,
            "name": "Guto Vicente Jiu Jitsu Association",
            "federationAbbr": "FPJJB",
            "country": "Portugal",
            "countryAbbr": "PT",
            "city": "Lisboa",
            "responsible": "Leonardo Cerqueira",
            "address": "R. Marques de Fronteira 163 1 andar, Lisboa, --, Portugal",
            "website": null
        },
        {
            "id": 10704,
            "name": "Guto Vicente Jiu-Jitsu",
            "federationAbbr": "CBJJ",
            "country": "Brasil",
            "countryAbbr": "BR",
            "city": "Niteroi",
            "responsible": "Carlos Augusto de Jesus Vicente",
            "address": "Rua Professor Carlos Cortes Qd20 Lt06 Itaipu, Niteroi, Rio De Janeiro, Brasil",
            "website": null
        },
        {
            "id": 5694,
            "name": "GUVNA BJJ",
            "federationAbbr": "IBJJF",
            "country": "Canada",
            "countryAbbr": "CA",
            "city": "Ajax",
            "responsible": "Christopher Bard Haueter",
            "address": "3 Turriff Ave, Ajax, ON, Canada",
            "website": "www.guvnabjj.com"
        },
        {
            "id": 4102,
            "name": "GVJJ",
            "federationAbbr": "CBJJ",
            "country": "Brasil",
            "countryAbbr": "BR",
            "city": "Campo Grande",
            "responsible": "Luiz Guilherme R. Villanueva",
            "address": "Rua Antônio Corrêa 111 , , Campo Grande, MS, Brasil",
            "website": "www.guigovillanueva.com.br"
        },
        {
            "id": 7769,
            "name": "Gwksjj",
            "federationAbbr": "IBJJF",
            "country": "Korea, South",
            "countryAbbr": "KR",
            "city": "Incheon",
            "responsible": "Seung-Jae Lee",
            "address": "3f, 48, Wanjeong-ro, Seo-gu, Incheon, Incheon, Korea, South",
            "website": null
        },
        {
            "id": 8830,
            "name": "Gym Le Local",
            "federationAbbr": "IBJJF",
            "country": "Canada",
            "countryAbbr": "CA",
            "city": "Montréal-est",
            "responsible": "Carl Fagnant",
            "address": "420 Avenue Marien, Montréal-est, Quebec, Canada",
            "website": "gymlelocal.com"
        },
        {
            "id": 3189,
            "name": "Gymnasion Sapporo",
            "federationAbbr": "JBJJF",
            "country": "Japan",
            "countryAbbr": "JP",
            "city": "Hokkaido",
            "responsible": "Kazuyasu Takahashi",
            "address": "Kitalljo, minami 5, 1-12, sapporoshi higashiku  , Hokkaido, --, Japan",
            "website": null
        },
        {
            "id": 8086,
            "name": "Gymnasiumteam",
            "federationAbbr": "IBJJF",
            "country": "Russia",
            "countryAbbr": "RU",
            "city": "Moscow ",
            "responsible": "Ayub Magomadov",
            "address": "Bolshoy Savvinskiy Lane 12/18, Bolshoy Savvinskiy Lane 12/18, Moscow , Moscow , Russia",
            "website": "www.ayubjj.com"
        },
        {
            "id": 3569,
            "name": "H2O Barbosa's Italy Team",
            "federationAbbr": "UIJJ",
            "country": "Italy",
            "countryAbbr": "IT",
            "city": "Formigine (MO)",
            "responsible": null,
            "address": "via Toscana 14 , , Formigine (MO), ., Italy",
            "website": "www.h2obarbosateamitaly.it"
        },
        {
            "id": 4599,
            "name": "Hadida BJJ Israel",
            "federationAbbr": "IBJJF",
            "country": "Israel",
            "countryAbbr": "IL",
            "city": "Beer Sheva",
            "responsible": "Pinhas Pini Hadida",
            "address": "Ageuolim 36/3  , , Beer Sheva, Israel",
            "website": ""
        }
    ]
}