{
    "pagination": {
        "page": 138,
        "from": 2740,
        "to": 2760,
        "pageSize": 20,
        "lastPage": 358,
        "totalRecords": 7149
    },
    "list": [
        {
            "id": 10019,
            "name": "GEO Brazilian Jiu-Jitsu Academy",
            "federationAbbr": "IBJJF",
            "country": "Georgia",
            "countryAbbr": "GE",
            "city": "Rustavi",
            "responsible": "Taleh Hasanov",
            "address": "Rustavi 19 Micro, 19 Entrance, 24 Apartments, Rustavi, Georgia",
            "website": null
        },
        {
            "id": 5639,
            "name": "Georgian Legion Brazilian Jiu-Jitsu",
            "federationAbbr": "IBJJF",
            "country": "Georgia",
            "countryAbbr": "GE",
            "city": "Tbilisi",
            "responsible": "Alexander Umantsev",
            "address": "Navtlugsky 6, entrance 3, apt 14, Tbilisi, Georgia",
            "website": null
        },
        {
            "id": 5236,
            "name": "Geovanni's Team",
            "federationAbbr": "FPJJB",
            "country": "Portugal",
            "countryAbbr": "PT",
            "city": "Seixal",
            "responsible": "Manuel José Guimarães Horta",
            "address": "Rua Adolfo Simoes Muller - Portugal Culturo e Recreio, , Seixal, Portugal",
            "website": ""
        },
        {
            "id": 4751,
            "name": "Geração Arte Suave - GAS JJ",
            "federationAbbr": "CBJJ",
            "country": "Brasil",
            "countryAbbr": "BR",
            "city": "Rio de Janeiro",
            "responsible": "Luiz Vitor Moreira Dias",
            "address": "Rua Cardoso Júnior 16, Laranjeiras, Rio de Janeiro, RJ, Brasil",
            "website": null
        },
        {
            "id": 8150,
            "name": "Geração De Conquistadores",
            "federationAbbr": "CBJJ",
            "country": "Brasil",
            "countryAbbr": "BR",
            "city": "Manaus",
            "responsible": "Junilson Aguila da Silva",
            "address": "Rua Coreau, Numero 93 Quadra 66 Sao Jose 2 Etapa B, Manaus, Amazonas, Brasil",
            "website": null
        },
        {
            "id": 7433,
            "name": "Geração Eleita de Jiu-Jitsu",
            "federationAbbr": "CBJJ",
            "country": "Brasil",
            "countryAbbr": "BR",
            "city": "Manaus",
            "responsible": "Izaias Alves da Costa",
            "address": "Rua Bento Brasil n:200, Prox. Deposito da TV Lar, Manaus, AM, Brasil",
            "website": null
        },
        {
            "id": 3702,
            "name": "Geração UPP",
            "federationAbbr": "CBJJ",
            "country": "Brasil",
            "countryAbbr": "BR",
            "city": "Rio de Janeiro",
            "responsible": "Christian Candido Ribeiro",
            "address": "Rua Ebroino Uruguai 251, Santo Cristo, Rio de Janeiro, RJ, Brasil",
            "website": null
        },
        {
            "id": 4265,
            "name": "Germano's Team BJJ",
            "federationAbbr": "IBJJF",
            "country": "Germany",
            "countryAbbr": "DE",
            "city": "Chemnitz",
            "responsible": "Renato Germano",
            "address": "Hainstraße 129  , , Chemnitz, --, Germany",
            "website": "germanos.team"
        },
        {
            "id": 3000,
            "name": "Gerson Jiu-Jitsu Academy",
            "federationAbbr": "CBJJ",
            "country": "Brasil",
            "countryAbbr": "BR",
            "city": "Campo Grande",
            "responsible": "Gerson dos Santos",
            "address": "Av. América n: 612, Vila Planalto, Campo Grande, MS, Brasil",
            "website": null
        },
        {
            "id": 3112,
            "name": "Gerson Sanginitto Delta BJJ",
            "federationAbbr": "USBJJF",
            "country": "United States of America",
            "countryAbbr": "US",
            "city": "Culver City",
            "responsible": "Gerson Lopes Sanginitto",
            "address": "11024 Washington Blvd  , Culver City, CA, United States of America",
            "website": "www.deltabjj.com"
        },
        {
            "id": 4271,
            "name": "GET-Fight",
            "federationAbbr": "CBJJ",
            "country": "Brasil",
            "countryAbbr": "BR",
            "city": "Rio de Janeiro",
            "responsible": "Luiz Henrique Linck Miller",
            "address": "Estrada do Rio Morto, 95 - Bl. 04 casa 101, Vargem Grande, Rio de Janeiro, RJ, Brasil",
            "website": null
        },
        {
            "id": 7126,
            "name": "GET-Fight Ireland",
            "federationAbbr": "IBJJF",
            "country": "Ireland",
            "countryAbbr": "IE",
            "city": "Dublin",
            "responsible": "Luiz Henrique Linck Miller",
            "address": "1st Floor, Baldoyle Badminton Centre, Dublin, Dublin -, Ireland",
            "website": null
        },
        {
            "id": 941,
            "name": "GF Team",
            "federationAbbr": "CBJJ",
            "country": "Brasil",
            "countryAbbr": "BR",
            "city": "Rio de Janeiro",
            "responsible": "Julio Cesar Pereira",
            "address": "Rua Orquias Cordeiro 478 , Méier, Rio de Janeiro, RJ, Brasil",
            "website": "gfteam.com.br"
        },
        {
            "id": 9894,
            "name": "GF Team / Grappling Bros",
            "federationAbbr": "IBJJF",
            "country": "Australia",
            "countryAbbr": "AU",
            "city": "Wollongong",
            "responsible": "Diego De Souza Barreto",
            "address": "263 Keira St, Wollongong, Nsw, Australia",
            "website": "www.gfteam.com.br"
        },
        {
            "id": 8826,
            "name": "Gf Team / Sparta Rj",
            "federationAbbr": "CBJJ",
            "country": "Brasil",
            "countryAbbr": "BR",
            "city": "Rio De Janeiro",
            "responsible": "Thierry Reis Faria",
            "address": "Rua Fernando Leite Mendes, 125, Rio De Janeiro, Rio De Janeiro, Brasil",
            "website": "www.spartarj.com.br"
        },
        {
            "id": 5470,
            "name": "GF Team Alagoas",
            "federationAbbr": "CBJJ",
            "country": "Brasil",
            "countryAbbr": "BR",
            "city": "Maceió",
            "responsible": "Daniel Nascimento Martins",
            "address": "Rua Alexandre Nobre 124, Farol, Maceió, Alagoas, Brasil",
            "website": null
        },
        {
            "id": 6043,
            "name": "GF Team Alagoinhas",
            "federationAbbr": "CBJJ",
            "country": "Brasil",
            "countryAbbr": "BR",
            "city": "Alagoinhas",
            "responsible": "Lucas Portela  Borges",
            "address": "Travessa Junqueira Freire, Ct Dragões, Alagoinhas, Bahia, Brasil",
            "website": null
        },
        {
            "id": 5244,
            "name": "GF Team Alta Floresta - MT",
            "federationAbbr": "CBJJ",
            "country": "Brasil",
            "countryAbbr": "BR",
            "city": "Alta Floresta",
            "responsible": "Antonio Marcos Sotto Mayor Ribeiro",
            "address": "Avenida F  555 Ritmus, Setor F, Alta Floresta, MT, Brasil",
            "website": ""
        },
        {
            "id": 4547,
            "name": "GF Team Argentina",
            "federationAbbr": "IBJJF",
            "country": "Argentina",
            "countryAbbr": "AR",
            "city": "Santa Fe",
            "responsible": "Alvaro Rodrigo Santos Bobadilla",
            "address": "Facundo Zuviria 5509  , , Santa Fe, SF, Argentina",
            "website": ""
        },
        {
            "id": 4717,
            "name": "GF Team Ariquemes",
            "federationAbbr": "CBJJ",
            "country": "Brasil",
            "countryAbbr": "BR",
            "city": "Ariquemes ",
            "responsible": "Julio Cesar Pereira",
            "address": "Rua Natal 2311 , Setor 03, Ariquemes , RO, Brasil",
            "website": ""
        }
    ]
}