{
    "pagination": {
        "page": 203,
        "from": 4040,
        "to": 4060,
        "pageSize": 20,
        "lastPage": 358,
        "totalRecords": 7149
    },
    "list": [
        {
            "id": 6725,
            "name": "JR Brothers Jiu-Jitsu",
            "federationAbbr": "CBJJ",
            "country": "Brasil",
            "countryAbbr": "BR",
            "city": "Distrito Federal",
            "responsible": "João Salvador Feitosa",
            "address": "QR 308 Conj. 19  casa 09, Bairro: Santa Maria, Distrito Federal, Brasilia, Brasil",
            "website": null
        },
        {
            "id": 7832,
            "name": "JRBJJAC",
            "federationAbbr": "CBJJ",
            "country": "Brasil",
            "countryAbbr": "BR",
            "city": "Rio Branco",
            "responsible": "José Roberto V. de B. da Silva ",
            "address": "Estrada Dias Martins, Prédio, Rio Branco, Acre, Brasil",
            "website": null
        },
        {
            "id": 5168,
            "name": "JRE Brazilian Jiu-Jitsu \u0026 Sport",
            "federationAbbr": "USBJJF",
            "country": "United States of America",
            "countryAbbr": "US",
            "city": "Houston",
            "responsible": "Jonatas Eliaquim da Silva",
            "address": "5201 Memorial Dr #624  , , Houston, TX, United States of America",
            "website": "http://jre-sport.com"
        },
        {
            "id": 3668,
            "name": "JS Brazilian Jiu-Jitsu",
            "federationAbbr": "IBJJF",
            "country": "Ireland",
            "countryAbbr": "IE",
            "city": "Dublin",
            "responsible": "Jorge dos Santos Pereira",
            "address": "192 Parnell St, , Dublin, --, Ireland",
            "website": "http://www.JSBJJ.ie"
        },
        {
            "id": 6709,
            "name": "JS Brazilian Jiu-Jitsu Brazil",
            "federationAbbr": "CBJJ",
            "country": "Brasil",
            "countryAbbr": "BR",
            "city": "Porto Alegre",
            "responsible": "Jorge dos Santos Pereira",
            "address": "Av. Francisco Talaia de Moura n: 110, Parque dos Maias, Porto Alegre, RS, Brasil",
            "website": "www.jorgesantosbjj.com"
        },
        {
            "id": 9244,
            "name": "JSABJJ Campinas - RJ",
            "federationAbbr": "CBJJ",
            "country": "Brasil",
            "countryAbbr": "BR",
            "city": "Campinas - Rj",
            "responsible": "Simonides Manoel dos Santos Júnior",
            "address": "Rua João Faustino Lopes S/n°, Zonal Rural, Campinas - Rj, Rj, Brasil",
            "website": null
        },
        {
            "id": 5719,
            "name": "JSABJJ Geribá",
            "federationAbbr": "CBJJ",
            "country": "Brasil",
            "countryAbbr": "BR",
            "city": "Armação de Búzios",
            "responsible": "Simonides Manoel dos Santos Júnior",
            "address": "Rua Vieira Camara - LT 11 QD: C A 15 - Condominio, Ferradurinha, Armação de Búzios, Rio de Janeiro, Brasil",
            "website": null
        },
        {
            "id": 9216,
            "name": "JSABJJ Sumidouro - RJ",
            "federationAbbr": "CBJJ",
            "country": "Brasil",
            "countryAbbr": "BR",
            "city": "Sumidouro Atlético Clube",
            "responsible": "Simonides Manoel dos Santos Júnior",
            "address": "Av. Maria Ferraz Pimenta,617, Clube, Sumidouro Atlético Clube, Rj, Brasil",
            "website": null
        },
        {
            "id": 5005,
            "name": "JSP Jiu-Jitsu",
            "federationAbbr": "CBJJ",
            "country": "Brasil",
            "countryAbbr": "BR",
            "city": "Taubaté",
            "responsible": "Jarlei dos Santos Pedroso",
            "address": "Rua Victorio Naldi 425, Residencial Novo Horizonte, Taubaté, SP, Brasil",
            "website": ""
        },
        {
            "id": 4292,
            "name": "Juan Neves Bjj A.S.D.",
            "federationAbbr": "UIJJ",
            "country": "Italy",
            "countryAbbr": "IT",
            "city": "Gallarate (VA)",
            "responsible": null,
            "address": "Via Cadolini,  1 , , Gallarate (VA), Italy, Italy",
            "website": "www,juannevesbjj.com"
        },
        {
            "id": 3773,
            "name": "Juarez Harles Brazilian JJ",
            "federationAbbr": "CBJJ",
            "country": "Brasil",
            "countryAbbr": "BR",
            "city": "Manaus",
            "responsible": "Juarez Harles Martins Nunes",
            "address": "Rua, São Eusébio  Nº 100, Cidade Nova, Manaus, AM, Brasil",
            "website": "www.jhbjj.com.br"
        },
        {
            "id": 593,
            "name": "Judson BJJ",
            "federationAbbr": "FPJJB",
            "country": "Portugal",
            "countryAbbr": "PT",
            "city": "Braga",
            "responsible": "Judson de Faria Borges",
            "address": "Rua de Torneiros 47, Braga, Braga, Portugal",
            "website": null
        },
        {
            "id": 4945,
            "name": "Judson Borges BJJ",
            "federationAbbr": "CBJJ",
            "country": "Brasil",
            "countryAbbr": "BR",
            "city": "Rio de Janeiro",
            "responsible": "Judson de Faria Borges",
            "address": "Rua Major Ribeiro Pinheiro, N° 420 , Praça Seca, Rio de Janeiro, RJ, Brasil",
            "website": "www.judsonborgesbjj.com"
        },
        {
            "id": 6775,
            "name": "Juggernaut Brazilian Jiu-Jitsu",
            "federationAbbr": "USBJJF",
            "country": "United States of America",
            "countryAbbr": "US",
            "city": "Phoenix",
            "responsible": "Michael Fred Martin",
            "address": "3309 W. Helena Dr, Phoenix, AZ, United States of America",
            "website": "juggernautbjj.com"
        },
        {
            "id": 10245,
            "name": "Jukinha BJJ Team",
            "federationAbbr": "CBJJ",
            "country": "Brasil",
            "countryAbbr": "BR",
            "city": "Fernandópolis",
            "responsible": "Helio Takayuki Sugiyama",
            "address": "Rua Cel Aviador Carlos Guimarães Orleans 36, Jd Paraíso, Fernandópolis, Sp, Brasil",
            "website": null
        },
        {
            "id": 7530,
            "name": "Juliana Aleixo BJJ e Luta Livre",
            "federationAbbr": "CBJJ",
            "country": "Brasil",
            "countryAbbr": "BR",
            "city": "Manaus",
            "responsible": "Juliana Gonçalves de Souza",
            "address": "Rua Ramos Ferreira, 2451 - Praça 14 De Janeiro, Praça 14 de Janeiro, Manaus, Amazonas, Brasil",
            "website": null
        },
        {
            "id": 7899,
            "name": "Juliano Faria Jiu-Jitsu",
            "federationAbbr": "CBJJ",
            "country": "Brasil",
            "countryAbbr": "BR",
            "city": "Lauro De Freitas",
            "responsible": "Juliano Faria Moreira",
            "address": "Rua José Leite, 686, Cond. Monet Bloco 14 Apto 402, Lauro De Freitas, Bahia, Brasil",
            "website": null
        },
        {
            "id": 4704,
            "name": "Juliano Rocha Jiu-Jitsu",
            "federationAbbr": "CBJJ",
            "country": "Brasil",
            "countryAbbr": "BR",
            "city": "Ribeirão Preto",
            "responsible": "Juliano Silva Rocha",
            "address": "Av. Cel. Fernando Ferreira Leite 1540 Loja 303, Jardim California , Ribeirão Preto, SP, Brasil",
            "website": ""
        },
        {
            "id": 7847,
            "name": "Juliano Rocha Jiu-Jitsu UK",
            "federationAbbr": "IBJJF",
            "country": "United Kingdom",
            "countryAbbr": "GB",
            "city": "Liverpool",
            "responsible": "Juliano Silva Rocha",
            "address": "39, Hahnemann Road, Hahnemann Road, 39, Liverpool, Merseyside, United Kingdom",
            "website": null
        },
        {
            "id": 6663,
            "name": "Júlio César Brazilian Jiu Jitsu",
            "federationAbbr": "CBJJ",
            "country": "Brasil",
            "countryAbbr": "BR",
            "city": "Manaus",
            "responsible": "Julio Cesar Santos do Nascimento",
            "address": "Rua Sorriso Do Lagarto, N 05, Casa 1 - 1o Andar, Manaus, Amazonas, Brasil",
            "website": null
        }
    ]
}