{
    "pagination": {
        "page": 198,
        "from": 3940,
        "to": 3960,
        "pageSize": 20,
        "lastPage": 358,
        "totalRecords": 7149
    },
    "list": [
        {
            "id": 2107,
            "name": "Jean Jacques Machado BJJ",
            "federationAbbr": "USBJJF",
            "country": "United States of America",
            "countryAbbr": "US",
            "city": "Tarzana",
            "responsible": null,
            "address": "18750 Oxnard St. #201  , , Tarzana, CA, United States of America",
            "website": "www.jeanjacquesmachado.com"
        },
        {
            "id": 5234,
            "name": "Jean Jacques Machado Florida",
            "federationAbbr": "USBJJF",
            "country": "United States of America",
            "countryAbbr": "US",
            "city": "Jacksonville",
            "responsible": "David Keith Werner",
            "address": "10501-1 San Jose Blvd  , , Jacksonville, FL, United States of America",
            "website": "www.knuckleupmartialarts.com"
        },
        {
            "id": 3795,
            "name": "Jesiel Andrade Team",
            "federationAbbr": "CBJJ",
            "country": "Brasil",
            "countryAbbr": "BR",
            "city": "Recife",
            "responsible": "Jesiel do Nascimento Andrade",
            "address": "Rua  Real Da Torre, 751 - Madalena, Boa Vista, Recife, PE, Brasil",
            "website": null
        },
        {
            "id": 10535,
            "name": "Jessé BJJ",
            "federationAbbr": "CBJJ",
            "country": "Brasil",
            "countryAbbr": "BR",
            "city": "Rio De Janeiro",
            "responsible": "Jesse Ecledir Pereira",
            "address": "Estrada Manuel Nogueira De Sá, 1421, Rio De Janeiro, Brasil",
            "website": null
        },
        {
            "id": 7698,
            "name": "Jeysen Santiago  BJJ",
            "federationAbbr": "USBJJF",
            "country": "United States of America",
            "countryAbbr": "US",
            "city": "Colton",
            "responsible": "Jeysen Santiago dos Santos",
            "address": "2049 East Washington, #2d, Colton, Califórnia, United States of America",
            "website": "Www.JJjiujitsu.com"
        },
        {
            "id": 5174,
            "name": "JFC Almeida JJ",
            "federationAbbr": "CBJJ",
            "country": "Brasil",
            "countryAbbr": "BR",
            "city": "São Paulo",
            "responsible": "Caio Almeida Silva",
            "address": "Av. Pires do Rio 4503, Itaquera, São Paulo, SP, Brasil",
            "website": "www.almeidajj.com.br"
        },
        {
            "id": 10610,
            "name": "JFJiu-Jitsu Brazilian Team",
            "federationAbbr": "CBJJ",
            "country": "Brasil",
            "countryAbbr": "BR",
            "city": "Rio De Janeiro",
            "responsible": "Luis Fernando Jones Freire",
            "address": "Rua General Belegard  151      Engenho Novo, Rio De Janeiro, Rio De Janeiro, Brasil",
            "website": null
        },
        {
            "id": 8466,
            "name": "JG BJJ",
            "federationAbbr": "CBJJ",
            "country": "Brasil",
            "countryAbbr": "BR",
            "city": "Rio De Janeiro",
            "responsible": "Jonas Jeferson dos Santos Freire",
            "address": "Rua Marquesa Ferreira, 30, Rio De Janeiro, Rio De Janeiro, Brasil",
            "website": "www.jhonygracie.com.br"
        },
        {
            "id": 7776,
            "name": "Jiboia BJJ",
            "federationAbbr": "IBJJF",
            "country": "Viet Nam",
            "countryAbbr": "VN",
            "city": "Ho chi Minh City ",
            "responsible": "Gilberto Paes de Barros Bottiglieri",
            "address": "Diamond Island Maldives block , Binh Trung Tay, District 2, Ho chi Minh City , Ho chi Minh , Viet Nam",
            "website": null
        },
        {
            "id": 8990,
            "name": "Jigoku Dojo",
            "federationAbbr": "CBJJ",
            "country": "Brasil",
            "countryAbbr": "BR",
            "city": "Belo Horizonte",
            "responsible": "Romulo Lopes de Souza",
            "address": "Avenida Doutor Hans Peter Kiernff, 293, Belo Horizonte, Mg, Brasil",
            "website": null
        },
        {
            "id": 7952,
            "name": "Jim BJJ",
            "federationAbbr": "CBJJ",
            "country": "Brasil",
            "countryAbbr": "BR",
            "city": "Teresina",
            "responsible": "José Inacio de Sousa Medeiros",
            "address": "Quadra  A   C10 Residencial Taquari, Residencial Taquari, Teresina, Pi, Brasil",
            "website": null
        },
        {
            "id": 8261,
            "name": "Jinan Zheng Meng BJJ",
            "federationAbbr": "IBJJF",
            "country": "China",
            "countryAbbr": "CN",
            "city": "Jinan",
            "responsible": "Leandro Carvalho da Silva",
            "address": "Room 301 On The 3rd Floor Of The South Building At 3362 East Road, Second Ring Road, Jinan City, Casa, Jinan, Shandong, China",
            "website": null
        },
        {
            "id": 8786,
            "name": "Jinho Jiu-Jitsu Academy",
            "federationAbbr": "USBJJF",
            "country": "United States of America",
            "countryAbbr": "US",
            "city": "Grapevine",
            "responsible": "Jinho Kim",
            "address": "2350 Hall Johnson Rd, 112, Grapevine, Tx, United States of America",
            "website": "tkdbjj.com"
        },
        {
            "id": 8196,
            "name": "Jinkout Jiu-Jitsu Team",
            "federationAbbr": "CBJJ",
            "country": "Brasil",
            "countryAbbr": "BR",
            "city": "Anapolis",
            "responsible": "Denis da Silva Muniz",
            "address": "Rua Jose Neto Paranhos 663, Anapolis, Goiais, Brasil",
            "website": null
        },
        {
            "id": 10378,
            "name": "JIU - JITSU / MARCOS COSTA",
            "federationAbbr": "CBJJ",
            "country": "Brasil",
            "countryAbbr": "BR",
            "city": "Imperatriz",
            "responsible": "Marcos Jose Santana Costa",
            "address": "Rua Iracema, 1267, Esquina Com Rua Brasil, Nova Imperatriz, Imperatriz, Maranhao, Brasil",
            "website": null
        },
        {
            "id": 10154,
            "name": "Jiu Art",
            "federationAbbr": "CBJJ",
            "country": "Brasil",
            "countryAbbr": "BR",
            "city": "Petrópolis",
            "responsible": "Diego Vasconcellos Soares ",
            "address": "Rua Bernardo Proença, 979, Petrópolis, Rio De Janeiro, Brasil",
            "website": null
        },
        {
            "id": 4105,
            "name": "Jiu Jikan",
            "federationAbbr": "CBJJ",
            "country": "Brasil",
            "countryAbbr": "BR",
            "city": "Serra dos Aimorés",
            "responsible": "Hilton Leão da Silva",
            "address": "Rua Paranaiba 35 , Panorama, Serra dos Aimorés, MG, Brasil",
            "website": ""
        },
        {
            "id": 6400,
            "name": "Jiu Jikan Guriri",
            "federationAbbr": "CBJJ",
            "country": "Brasil",
            "countryAbbr": "BR",
            "city": "São Mateus",
            "responsible": "Hilton Leão da Silva",
            "address": "Rua Professor Amaro Nascimento Mendes n:192 Sul, Guriri, São Mateus, Espirito Santo, Brasil",
            "website": null
        },
        {
            "id": 10221,
            "name": "JIU JIKAN TEAM",
            "federationAbbr": "CBJJ",
            "country": "Brasil",
            "countryAbbr": "BR",
            "city": "Serra Dos Aimorés, Mg",
            "responsible": "João Eugenio de Jesus Coelho",
            "address": "Rua Rio Abaeté, 501, Casa, Serra Dos Aimorés, Mg, Minas Gerais, Brasil",
            "website": null
        },
        {
            "id": 4036,
            "name": "Jiu Jikan USA",
            "federationAbbr": "USBJJF",
            "country": "United States of America",
            "countryAbbr": "US",
            "city": "Bridgeport",
            "responsible": "Carlos Fani Machado Jr",
            "address": "1060 Noble Ave., Bridgeport, CT, United States of America",
            "website": null
        }
    ]
}