{
    "pagination": {
        "page": 58,
        "from": 1140,
        "to": 1160,
        "pageSize": 20,
        "lastPage": 358,
        "totalRecords": 7149
    },
    "list": [
        {
            "id": 9298,
            "name": "BTT Evergreen",
            "federationAbbr": "USBJJF",
            "country": "United States of America",
            "countryAbbr": "US",
            "city": "Evergreen",
            "responsible": "David C. Roberts",
            "address": "3865 Evergreen Pkwy, Evergreen, Co, United States of America",
            "website": "www.bttevergreen.com"
        },
        {
            "id": 3842,
            "name": "Buckhead Jiu-Jitsu",
            "federationAbbr": "USBJJF",
            "country": "United States of America",
            "countryAbbr": "US",
            "city": "Atlanta",
            "responsible": "Samuel Joseph",
            "address": "2144 Hills Ave, Suite C  , , Atlanta, GA, United States of America",
            "website": "www.buckheadjj.com"
        },
        {
            "id": 7900,
            "name": "Budapesti Honvéd BJJ",
            "federationAbbr": "IBJJF",
            "country": "Hungary",
            "countryAbbr": "HU",
            "city": "Budapest",
            "responsible": "Gyorgy Kosztolanczy",
            "address": "Dózsa György Út 53., Budapest, Budapest, Hungary",
            "website": "https://honved.hu"
        },
        {
            "id": 9106,
            "name": "Budha Jiu-Jitsu Team",
            "federationAbbr": "CBJJ",
            "country": "Brasil",
            "countryAbbr": "BR",
            "city": "São Félix Do Xingu",
            "responsible": "Eduardo da Silva Conceição",
            "address": "Avenida Canaã, N24 / Bairro: Setor Sul, Próximo A Sub Estação Da Eletronorte, São Félix Do Xingu, Pará, Brasil",
            "website": null
        },
        {
            "id": 2898,
            "name": "Budo Clan",
            "federationAbbr": "IBJJF",
            "country": "Italy",
            "countryAbbr": "IT",
            "city": "Fonte Nuova - Rome",
            "responsible": "Dario Bacci",
            "address": "Via Delle Dolomiti 10, , Fonte Nuova - Rome, IT, Italy",
            "website": "www.budoclan.com"
        },
        {
            "id": 3802,
            "name": "Budo Clan Austria",
            "federationAbbr": "IBJJF",
            "country": "Austria",
            "countryAbbr": "AT",
            "city": "Innsbruck",
            "responsible": "Dario Bacci",
            "address": "Egger - Lienz - Strasse 96  , , Innsbruck, --, Austria",
            "website": "www.budoclan.com"
        },
        {
            "id": 6862,
            "name": "Budo Clan Avellino",
            "federationAbbr": "UIJJ",
            "country": "Italy",
            "countryAbbr": "IT",
            "city": "Avellino",
            "responsible": "Dario Bacci",
            "address": "via Saverio Marotta, 6, Avellino, IT, Italy",
            "website": "www.asdhanjman.it"
        },
        {
            "id": 10006,
            "name": "Budo Clan Avellino - Asd Hanuman",
            "federationAbbr": "IBJJF",
            "country": "Italy",
            "countryAbbr": "IT",
            "city": "Avellino",
            "responsible": "Roberto Imbimbo",
            "address": "Via Luigi Balestra, 7, Avellino, Avellino, Italy",
            "website": "www.asdhanuman,it"
        },
        {
            "id": 6952,
            "name": "Budo Clan Basilicata",
            "federationAbbr": "UIJJ",
            "country": "Italy",
            "countryAbbr": "IT",
            "city": "Potenza ",
            "responsible": "Dario Bacci",
            "address": "via Parigi 84, Potenza , PT, Italy",
            "website": null
        },
        {
            "id": 6621,
            "name": "Budo Clan Sardegna",
            "federationAbbr": "UIJJ",
            "country": "Italy",
            "countryAbbr": "IT",
            "city": "Tortoli",
            "responsible": "Dario Bacci",
            "address": "via Gallura 9, Tortoli, ., Italy",
            "website": null
        },
        {
            "id": 6647,
            "name": "Budo Clan Siena",
            "federationAbbr": "UIJJ",
            "country": "Italy",
            "countryAbbr": "IT",
            "city": "Monteriggioni",
            "responsible": "Dario Bacci",
            "address": "Via Papa Giovanni XXIII, 3, Monteriggioni, SI, Italy",
            "website": null
        },
        {
            "id": 4808,
            "name": "Budo Jiu-Jitsu Team",
            "federationAbbr": "IBJJF",
            "country": "Canada",
            "countryAbbr": "CA",
            "city": "Vancouver",
            "responsible": "Scott Boudreau",
            "address": "3121 Kingsway  , , Vancouver, BC, Canada",
            "website": "www.budomixedmartialarts.com"
        },
        {
            "id": 9163,
            "name": "Buen BJJ",
            "federationAbbr": "JBJJF",
            "country": "Japan",
            "countryAbbr": "JP",
            "city": "Saitama",
            "responsible": "Takuma Tokito",
            "address": "2-2-16 , Higashiiwatsuki , Iwatsuki-ku, Saitama, Saitama, Japan",
            "website": "https://www.buenbjj.com/"
        },
        {
            "id": 9615,
            "name": "Buena Vida Jiu-Jitsu Academy",
            "federationAbbr": "USBJJF",
            "country": "United States of America",
            "countryAbbr": "US",
            "city": "West Sacramento",
            "responsible": "Victor Keokolo Vida",
            "address": "2551 Del Monte, West Sacramento, Ca, United States of America",
            "website": null
        },
        {
            "id": 2132,
            "name": "Buffalo BJJ Academy",
            "federationAbbr": "USBJJF",
            "country": "United States of America",
            "countryAbbr": "US",
            "city": "Buffalo",
            "responsible": "Charles Anzalone",
            "address": "22 French Lea Rd, Buffalo, NY, United States of America",
            "website": "www.buffalobjj.com"
        },
        {
            "id": 3167,
            "name": "Buffalo Jiu-Jitsu",
            "federationAbbr": "JBJJF",
            "country": "Japan",
            "countryAbbr": "JP",
            "city": "Miyazaki",
            "responsible": "Osamu Goto",
            "address": "Moko bild. 1F, 3-3-3 Tachibana-tori higashi, Miyazaki, --, Japan",
            "website": "buffalo-jj.com"
        },
        {
            "id": 4754,
            "name": "Buffalo United Martial Arts",
            "federationAbbr": "USBJJF",
            "country": "United States of America",
            "countryAbbr": "US",
            "city": "Buffalo",
            "responsible": "Joshua R. Ketry",
            "address": "359 Ganson Street, , Buffalo, NY, United States of America",
            "website": "716bjj.com"
        },
        {
            "id": 9199,
            "name": "Buking Jiu-Jitsu",
            "federationAbbr": "CBJJ",
            "country": "Brasil",
            "countryAbbr": "BR",
            "city": "Belém",
            "responsible": "Eduardo da Silva Conceição",
            "address": "Conjunto Cohab, Gleba 1, Rua We5, N409, Bairro: Marambaia, Belém, Pará, Brasil",
            "website": null
        },
        {
            "id": 8481,
            "name": "BUL Top Team",
            "federationAbbr": "IBJJF",
            "country": "Bulgaria",
            "countryAbbr": "BG",
            "city": "Blagoevgrad",
            "responsible": "Ivan Milchev",
            "address": "Vasil Levski 21, Blagoevgrad, Bulgaria",
            "website": null
        },
        {
            "id": 8905,
            "name": "Bulldozer BJJ",
            "federationAbbr": "IBJJF",
            "country": "United Kingdom",
            "countryAbbr": "GB",
            "city": "London",
            "responsible": "Robert David Connor",
            "address": "2 Lambert Way, London, London, United Kingdom",
            "website": "www.bulldozerbjj.com"
        }
    ]
}