{
    "pagination": {
        "page": 119,
        "from": 2360,
        "to": 2380,
        "pageSize": 20,
        "lastPage": 358,
        "totalRecords": 7149
    },
    "list": [
        {
            "id": 8618,
            "name": "Extreme / Falcões BJJ",
            "federationAbbr": "CBJJ",
            "country": "Brasil",
            "countryAbbr": "BR",
            "city": "Breves",
            "responsible": "Eduardo da Silva Conceição",
            "address": "Rua Antônio Fulgêncio Da Silva, N1651, Próximo A Escola Maria Câmara Paes, Breves, Pará, Brasil",
            "website": null
        },
        {
            "id": 8054,
            "name": "Extreme / N. S. Training Studio",
            "federationAbbr": "CBJJ",
            "country": "Brasil",
            "countryAbbr": "BR",
            "city": "Breves",
            "responsible": "Eduardo da Silva Conceição",
            "address": "Avenida Portel, N°598, Entre Rua Lourenço Borges E Rua Duque De Caxias, Breves, Pará, Brasil",
            "website": null
        },
        {
            "id": 4907,
            "name": "Extreme Champion Fighter",
            "federationAbbr": "CBJJ",
            "country": "Brasil",
            "countryAbbr": "BR",
            "city": "Vigia de Nazaré",
            "responsible": "Eduardo da Silva Conceição",
            "address": "Avenida Principal, Vigia de Nazaré, Pará, Brasil",
            "website": "https://web.facebook.com/extremechampionfighter"
        },
        {
            "id": 9471,
            "name": "Extreme Champion Fighter - Colares",
            "federationAbbr": "CBJJ",
            "country": "Brasil",
            "countryAbbr": "BR",
            "city": "Colares",
            "responsible": "Eduardo da Silva Conceição",
            "address": "Avenida Principal, Colares, Pará, Brasil",
            "website": null
        },
        {
            "id": 6372,
            "name": "Extreme Champion Fighter - S.C.O",
            "federationAbbr": "CBJJ",
            "country": "Brasil",
            "countryAbbr": "BR",
            "city": "São Caetano De Odivelas",
            "responsible": "Eduardo da Silva Conceição",
            "address": "Avenida Visconde De Souza Franco, S/n / Próximo A E.e.e.m. Desembargador Osvaldo Brito De Farias, Bairro: Pepeua, São Caetano De Odivelas, Pará, Brasil",
            "website": "https://www.facebook.com/extremechampionfightersaocaetanodeodivelas/"
        },
        {
            "id": 2522,
            "name": "Ezequiel Mas BJJ",
            "federationAbbr": "IBJJF",
            "country": "Argentina",
            "countryAbbr": "AR",
            "city": "Rosario",
            "responsible": "Ezequiel Mas",
            "address": "3 De Febrero 661, Rosario, SF, Argentina",
            "website": null
        },
        {
            "id": 8969,
            "name": "F R Jiu Jitsu",
            "federationAbbr": "CBJJ",
            "country": "Brasil",
            "countryAbbr": "BR",
            "city": "Araguaína",
            "responsible": "Filipe Eduardo  Matos Ribeiro",
            "address": "Avenida Araguaci, Sn, Setor Jk, Quadra 01, Lote 01n, Araguaína, Tocantins, Brasil",
            "website": null
        },
        {
            "id": 6712,
            "name": "F. Sales Team Jiu-Jitsu",
            "federationAbbr": "CBJJ",
            "country": "Brasil",
            "countryAbbr": "BR",
            "city": "Boa Vista",
            "responsible": "Flávio Sales da Costa",
            "address": "Rua dos Ipes n: 233, Bairro: Pricuma, Boa Vista, Roraima, Brasil",
            "website": null
        },
        {
            "id": 8575,
            "name": "F.P. Brasilian Jiu-Jitsu",
            "federationAbbr": "CBJJ",
            "country": "Brasil",
            "countryAbbr": "BR",
            "city": "Rio De Janeiro",
            "responsible": "Fernando Luiz de Sousa Pacheco",
            "address": "Av Nuta James, Ilha Das Garças Casa, Rio De Janeiro, Rj, Brasil",
            "website": null
        },
        {
            "id": 9907,
            "name": "F.sales Team Porto Jiu-jitsu",
            "federationAbbr": "CBJJ",
            "country": "Brasil",
            "countryAbbr": "BR",
            "city": "Vila Nova De Gaia",
            "responsible": "Flávio Sales da Costa",
            "address": "Rua Dr.º Ramiro Sa Coelho, 377 - Seixezelo, Casa, Vila Nova De Gaia, Brasil",
            "website": null
        },
        {
            "id": 8146,
            "name": "F.Sinistre - TMTeam",
            "federationAbbr": "IBJJF",
            "country": "Bolivia",
            "countryAbbr": "BO",
            "city": "Santa Cruz De La Sierra",
            "responsible": "Thyago Oliveira de Souza Costa",
            "address": "Rua Buena Vista, 2100, Santa Cruz De La Sierra, Santa Cruz De La Sierra, Bolivia",
            "website": null
        },
        {
            "id": 5817,
            "name": "F3 Training Center / Bad Apple MMA",
            "federationAbbr": "USBJJF",
            "country": "United States of America",
            "countryAbbr": "US",
            "city": "Columbus",
            "responsible": "Rodrigo Poderoso de Souza",
            "address": "5224 Miller Road Unit C, Columbus, GA, United States of America",
            "website": "www.badapplemma.com"
        },
        {
            "id": 6707,
            "name": "F3J Team",
            "federationAbbr": "CBJJ",
            "country": "Brasil",
            "countryAbbr": "BR",
            "city": "Fortaleza",
            "responsible": "Fabio Jefferson Saraiva Damasceno",
            "address": "Rua São Judas Tadeu n: 42, Bairro: São Geraldo, Fortaleza, Ceará, Brasil",
            "website": null
        },
        {
            "id": 8349,
            "name": "F5 Jiu-Jitsu",
            "federationAbbr": "CBJJ",
            "country": "Brasil",
            "countryAbbr": "BR",
            "city": "São Luís",
            "responsible": "Wellyton Borges de Menezes",
            "address": "Rua Ce, 15, Cidade Operária, Jardim Das Palmeiras, Proximo Ao Banco Do Brasil, São Luís, Maranhão, Brasil",
            "website": "www.f5jiujitsu.com.br"
        },
        {
            "id": 5811,
            "name": "FA Team",
            "federationAbbr": "CBJJ",
            "country": "Brasil",
            "countryAbbr": "BR",
            "city": "Alvorada",
            "responsible": "Felipe Luz Alves",
            "address": "Rua Selva de Pedra - n: 95  apt 101, Bairro: 11 de Abril, Alvorada, Rio Grande do Sul, Brasil",
            "website": null
        },
        {
            "id": 4753,
            "name": "Fabiano Jiu-Jitsu / Gama - DF",
            "federationAbbr": "CBJJ",
            "country": "Brasil",
            "countryAbbr": "BR",
            "city": "Gama",
            "responsible": "Fabiano Januario Dias",
            "address": "Setor Industrial  1640 , Gama, Gama, DF, Brasil",
            "website": ""
        },
        {
            "id": 6923,
            "name": "Fabiano Lasaro BJJ",
            "federationAbbr": "CBJJ",
            "country": "Brasil",
            "countryAbbr": "BR",
            "city": "Florianópolis",
            "responsible": "Fabiano Lasaro de Paula",
            "address": "Rua do Marfim n: 53, Monte Verde, Florianópolis, SC, Brasil",
            "website": null
        },
        {
            "id": 8679,
            "name": "Fabiano Scherner BJJ Association",
            "federationAbbr": "USBJJF",
            "country": "United States of America",
            "countryAbbr": "US",
            "city": "Vancouver",
            "responsible": "Fabiano Andre Scherner",
            "address": "13418 Ne 31st St, Vancouver, Wa, United States of America",
            "website": "www.fabianoschernerbjj.com"
        },
        {
            "id": 4624,
            "name": "Fabin Rosa Brazilian Jiu-Jitsu",
            "federationAbbr": "USBJJF",
            "country": "United States of America",
            "countryAbbr": "US",
            "city": "Orlando",
            "responsible": "Fabio Rocha Rosa",
            "address": "4065 L.B. McLeod Rd Ste J , , Orlando, FL, United States of America",
            "website": "www.frbjj.com"
        },
        {
            "id": 10362,
            "name": "Fabin Rosa Rio de Janeiro",
            "federationAbbr": "CBJJ",
            "country": "Brasil",
            "countryAbbr": "BR",
            "city": "Rio De Janiero",
            "responsible": "Fabio Rocha Rosa",
            "address": "Rua Professora Edna Corte Silveira 77, Rio De Janiero, Rj, Brasil",
            "website": null
        }
    ]
}