{
    "pagination": {
        "page": 301,
        "from": 6000,
        "to": 6020,
        "pageSize": 20,
        "lastPage": 358,
        "totalRecords": 7149
    },
    "list": [
        {
            "id": 9947,
            "name": "Socius Brazilian Jiu-Jitsu",
            "federationAbbr": "IBJJF",
            "country": "Canada",
            "countryAbbr": "CA",
            "city": "Winnipeg",
            "responsible": "Randal Todd Boiteau",
            "address": "5 - 1455 Waverley St., Winnipeg, Manitoba, Canada",
            "website": "www.sociusbjj.com"
        },
        {
            "id": 9316,
            "name": "Soddy Daisy BJJ",
            "federationAbbr": "USBJJF",
            "country": "United States of America",
            "countryAbbr": "US",
            "city": "Hixson",
            "responsible": "Flávio Sales da Costa",
            "address": "1011 Gadd Road, Apt 729, Hixson, TN, United States of America",
            "website": null
        },
        {
            "id": 9160,
            "name": "Sol BJJ",
            "federationAbbr": "USBJJF",
            "country": "United States of America",
            "countryAbbr": "US",
            "city": "Phoenix",
            "responsible": "Austin Rashad Baker",
            "address": "6228 N 7th Street, Phoenix, Arizona, United States of America",
            "website": "solbjj.com"
        },
        {
            "id": 4140,
            "name": "Solara Jiu-Jitsu",
            "federationAbbr": "CBJJ",
            "country": "Brasil",
            "countryAbbr": "BR",
            "city": "Maceió",
            "responsible": "Edcarlos Benjamim Leopoldino de Lima",
            "address": "Rua Ministro Lindolfo Collor S/N, Cidade Universitária, Maceió, AL, Brasil",
            "website": ""
        },
        {
            "id": 9929,
            "name": "SoldierBJJ",
            "federationAbbr": "CBJJ",
            "country": "Brasil",
            "countryAbbr": "BR",
            "city": "Mage",
            "responsible": "Jeferson da Silva Ferreira",
            "address": "Rua 26 Numero 173 Maurimarcia, Casa, Mage, Rio De Janeiro, Brasil",
            "website": null
        },
        {
            "id": 8130,
            "name": "Solid Base BJJ",
            "federationAbbr": "USBJJF",
            "country": "United States of America",
            "countryAbbr": "US",
            "city": "Southington",
            "responsible": "Ricardo Aparecido A. de Oliveira",
            "address": "1079 Queen St., Southington, Connecticut, United States of America",
            "website": "www.solidbasebjj.com"
        },
        {
            "id": 8436,
            "name": "Solid Ground Brazilian Jiu-Jitsu",
            "federationAbbr": "USBJJF",
            "country": "United States of America",
            "countryAbbr": "US",
            "city": "Queen Creek",
            "responsible": "Claudio Celso Ribeiro",
            "address": "18933 E San Tan Blvd, Queen Creek, Az, United States of America",
            "website": "www.solidgroundbjj.com"
        },
        {
            "id": 2378,
            "name": "Solis Martial Arts Club",
            "federationAbbr": "USBJJF",
            "country": "United States of America",
            "countryAbbr": "US",
            "city": "Livingston",
            "responsible": "Alvis Wayne Solis",
            "address": "5872 FM 350 N, Livingston, TX, United States of America",
            "website": null
        },
        {
            "id": 8719,
            "name": "Solis Martial Arts Club Mexico",
            "federationAbbr": "IBJJF",
            "country": "Mexico",
            "countryAbbr": "MX",
            "city": "Tampico",
            "responsible": "Alvis Wayne Solis",
            "address": "Matamoros 123 Fraccionamiento Laguna Del Carpintero, Tampico, Tamaulipas, Mexico",
            "website": null
        },
        {
            "id": 893,
            "name": "Sollo Jiu-Jitsu",
            "federationAbbr": "CBJJ",
            "country": "Brasil",
            "countryAbbr": "BR",
            "city": "São Gonçalo ",
            "responsible": "Claudio Domingos Cardoso",
            "address": "Rua Orlando Randi 3 , Tribobó, São Gonçalo , RJ, Brasil",
            "website": ""
        },
        {
            "id": 8694,
            "name": "Soma Jiu-Jitsu School",
            "federationAbbr": "IBJJF",
            "country": "United Kingdom",
            "countryAbbr": "GB",
            "city": "Bournemouth",
            "responsible": "Ronaldo Ferreira de Almeida",
            "address": "37 Holdenhurst Rd, Flat 510, Bournemouth, United Kingdom",
            "website": "www.somajiujitsu.com"
        },
        {
            "id": 5209,
            "name": "Somissions Jiu-Jitsu",
            "federationAbbr": "IBJJF",
            "country": "Korea, South",
            "countryAbbr": "KR",
            "city": "Seoul",
            "responsible": "Yuki Nakai",
            "address": "39-20/81, Nonhyeon-dong, Gangnam-gu  , , Seoul, Korea, South",
            "website": ""
        },
        {
            "id": 8626,
            "name": "Somos Jiu-Jitsu",
            "federationAbbr": "IBJJF",
            "country": "Spain",
            "countryAbbr": "ES",
            "city": "Madrid",
            "responsible": "Mario Jimenez",
            "address": "Calle Sor Ángela De La Cruz, 17, Madrid, Madrid, Spain",
            "website": "https://somosjiujitsu.com/"
        },
        {
            "id": 5187,
            "name": "Somos Um",
            "federationAbbr": "CBJJ",
            "country": "Brasil",
            "countryAbbr": "BR",
            "city": "Valparaíso de Goiás",
            "responsible": "Anselmo Nunes Sena",
            "address": "QD 80 Lt 03 III R 53 02, Céu Azul III Etapa, Valparaíso de Goiás, GO, Brasil",
            "website": "@somosumjiujitsu"
        },
        {
            "id": 9873,
            "name": "Son Jiu-Jitsu",
            "federationAbbr": "IBJJF",
            "country": "Korea, South",
            "countryAbbr": "KR",
            "city": "Iksan-si",
            "responsible": "Kwangsu Son",
            "address": "4, Gohyeon-ro 7-gil, 203 Son Jiu-jitsu, Iksan-si, Korea, South",
            "website": null
        },
        {
            "id": 7360,
            "name": "Soneca Jiu-Jitsu",
            "federationAbbr": "CBJJ",
            "country": "Brasil",
            "countryAbbr": "BR",
            "city": "Osasco",
            "responsible": "Allyson Marques Pinheiro",
            "address": "Avenida das Flores n: 746, Casa 2 - Jardim Das Flores, Osasco, São Paulo, Brasil",
            "website": "www.sonecajiujitsu.com"
        },
        {
            "id": 9261,
            "name": "Songdo Brazilian Jiu-Jitsu",
            "federationAbbr": "IBJJF",
            "country": "Korea, South",
            "countryAbbr": "KR",
            "city": "Incheon",
            "responsible": "Hyun Kak Sean Kim",
            "address": "Yeonsu-gi Songdo-dong 3-30, Central Plaza 4f, Incheon, Incheon, Korea, South",
            "website": "blog.naver.com/songdobjj"
        },
        {
            "id": 3432,
            "name": "Sonic Squad",
            "federationAbbr": "JBJJF",
            "country": "Japan",
            "countryAbbr": "JP",
            "city": "Yokohama",
            "responsible": "Eiji Murayama",
            "address": "3-4-35 Matsuda Bldg.\u0000102, Kounandai Kouknan-ku, Yokohama, Kanagawa, Japan",
            "website": "http://sonic-squad.weebly.com/"
        },
        {
            "id": 7902,
            "name": "Sonkei Brazilian Jiu-Jitsu",
            "federationAbbr": "CBJJ",
            "country": "Brasil",
            "countryAbbr": "BR",
            "city": "São Paulo",
            "responsible": "Guilherme do Nascimento Leandro",
            "address": "Rua Soldado João De Oliveira, 86, Chácara Inglesa, Pirituba, São Paulo, Sp, Brasil",
            "website": "-"
        },
        {
            "id": 9176,
            "name": "Sons Das Artes",
            "federationAbbr": "CBJJ",
            "country": "Brasil",
            "countryAbbr": "BR",
            "city": "Belém",
            "responsible": "Eduardo da Silva Conceição",
            "address": "Passagem Gastão, N125 / Altos, Entre Pedro Álvares Cabral E Senador Lemos / Bairro: Sacramenta, Belém, Pará, Brasil",
            "website": null
        }
    ]
}