{
    "pagination": {
        "page": 152,
        "from": 3020,
        "to": 3040,
        "pageSize": 20,
        "lastPage": 358,
        "totalRecords": 7149
    },
    "list": [
        {
            "id": 9597,
            "name": "Gracie Barra Brasa",
            "federationAbbr": "IBJJF",
            "country": "Latvia",
            "countryAbbr": "LV",
            "city": "Garupe",
            "responsible": "Andrejs Maslovs",
            "address": "PureFu 1c, Garupe, \u0000da~u Novads, Carnikavas Pagasts, Latvia",
            "website": null
        },
        {
            "id": 10022,
            "name": "Gracie Barra Brasília",
            "federationAbbr": "CBJJ",
            "country": "Brasil",
            "countryAbbr": "BR",
            "city": "Sudoeste Brasília",
            "responsible": "Denny Anthony Andrade",
            "address": "Sig Quadra 6 Lote 1495, 1° Andar, Sudoeste Brasília, Df, Brasil",
            "website": null
        },
        {
            "id": 440,
            "name": "Gracie Barra Brasília - Asa Sul - DF",
            "federationAbbr": "CBJJ",
            "country": "Brasil",
            "countryAbbr": "BR",
            "city": "Brasilia",
            "responsible": "Paulo Mauricio Rocha",
            "address": "SHCEQ 110/111 BL A, Asa Sul, Brasilia, DF, Brasil",
            "website": ""
        },
        {
            "id": 4687,
            "name": "Gracie Barra Bristol",
            "federationAbbr": "IBJJF",
            "country": "United Kingdom",
            "countryAbbr": "GB",
            "city": "Bristol",
            "responsible": "Nicolai John Holt",
            "address": "Watercress House  , , Bristol, United Kingdom",
            "website": "www.graciebarrabristol.com"
        },
        {
            "id": 9879,
            "name": "Gracie Barra Bromley",
            "federationAbbr": "IBJJF",
            "country": "United Kingdom",
            "countryAbbr": "GB",
            "city": "London",
            "responsible": "Eduardo Carriello",
            "address": "21a East Street, London, United Kingdom",
            "website": "https://www.gbbromley.com"
        },
        {
            "id": 3550,
            "name": "Gracie Barra Brownsville",
            "federationAbbr": "USBJJF",
            "country": "United States of America",
            "countryAbbr": "US",
            "city": "Brownsville",
            "responsible": "Tyler Scott Bosard",
            "address": "3230 Pablo Kisel Blvd #105, , Brownsville, TX, United States of America",
            "website": "www.gbbrownsville.com"
        },
        {
            "id": 9382,
            "name": "Gracie Barra Burleigh Heads",
            "federationAbbr": "IBJJF",
            "country": "Australia",
            "countryAbbr": "AU",
            "city": "Burleigh Heads",
            "responsible": "Pedro Rodrigues B. Junior",
            "address": "Shop 8/20 Kortum Dr., Burleigh Heads, Qld, Australia",
            "website": "www.gbburleighheads.com.au"
        },
        {
            "id": 7423,
            "name": "Gracie Barra Burleson",
            "federationAbbr": "USBJJF",
            "country": "United States of America",
            "countryAbbr": "US",
            "city": "Burleson",
            "responsible": "Buddy Ferrell Roberts",
            "address": "201-C NE Wilshire Blvd. , Burleson, Texas, United States of America",
            "website": "www.graciebarra.com/burleson-tx/"
        },
        {
            "id": 6402,
            "name": "Gracie Barra Burnaby",
            "federationAbbr": "IBJJF",
            "country": "Canada",
            "countryAbbr": "CA",
            "city": "Burnaby",
            "responsible": "Chad Phillip Shaule",
            "address": "M24-4277 Kingsway, Burnaby, BC, Canada",
            "website": "www.GBBurnaby.com"
        },
        {
            "id": 4832,
            "name": "Gracie Barra Burton",
            "federationAbbr": "USBJJF",
            "country": "United States of America",
            "countryAbbr": "US",
            "city": "Burton",
            "responsible": "James Ernest Burchfield",
            "address": "4168 Saginaw St.  , , Burton, MI, United States of America",
            "website": "graciebarraburton.com"
        },
        {
            "id": 10231,
            "name": "Gracie Barra Caldwell",
            "federationAbbr": "USBJJF",
            "country": "United States of America",
            "countryAbbr": "US",
            "city": "Caldwell",
            "responsible": "João Alberto Matos Fadul Filho",
            "address": "708 Main St. Suite 101, Caldwell, Idaho, United States of America",
            "website": "https://graciebarra.com/id-caldwell/"
        },
        {
            "id": 9181,
            "name": "Gracie Barra Calgary",
            "federationAbbr": "IBJJF",
            "country": "Canada",
            "countryAbbr": "CA",
            "city": "Calgary",
            "responsible": "Rodrigo de Carvalho Silva",
            "address": "8989 Macleod Trail Sw, Unit 10, Calgary, Alberta, Canada",
            "website": "www.gbcalgary.ca"
        },
        {
            "id": 634,
            "name": "Gracie Barra Campinas",
            "federationAbbr": "CBJJ",
            "country": "Brasil",
            "countryAbbr": "BR",
            "city": "Campinas",
            "responsible": "Carlos Alberto Liberi",
            "address": "Rua Contabilistas 61 , Jd. Novo Cambui, Campinas, SP, Brasil",
            "website": "www.gbcampinas.com.br"
        },
        {
            "id": 3474,
            "name": "Gracie Barra Campo Grande - MS",
            "federationAbbr": "CBJJ",
            "country": "Brasil",
            "countryAbbr": "BR",
            "city": "Campo Grande",
            "responsible": "Abdallah Ismail Hassan Jaber",
            "address": "R. Gonçalves Lêdo, 201, Cabreúva,, Campo Grande, MS, Brasil",
            "website": null
        },
        {
            "id": 8859,
            "name": "Gracie Barra Campolide",
            "federationAbbr": "FPJJB",
            "country": "Portugal",
            "countryAbbr": "PT",
            "city": "Lisbon",
            "responsible": "Leonardo Cerqueira",
            "address": "Rua De Campolide 137 A, Lisbon, Portugal",
            "website": "graciebarracampolide.pt"
        },
        {
            "id": 3735,
            "name": "Gracie Barra Cancun",
            "federationAbbr": "IBJJF",
            "country": "Mexico",
            "countryAbbr": "MX",
            "city": "Cancun",
            "responsible": "Salvador Gibran Alvarez Sosa",
            "address": "Sm 23, Mz 09, R 5a, Lt 22 , edifício 04 andador palmera Av. Uxmal esquina Av. Yaxchilam  , , Cancun, QROO, Mexico",
            "website": "www.graciebarramexico.com"
        },
        {
            "id": 9023,
            "name": "Gracie Barra Cannock",
            "federationAbbr": "IBJJF",
            "country": "United Kingdom",
            "countryAbbr": "GB",
            "city": "Cannock",
            "responsible": "Neil Melvin Simkin",
            "address": "Unit 12 Lakeside Business Park, Walkmill Way, Cannock, Staffordshire, United Kingdom",
            "website": null
        },
        {
            "id": 6244,
            "name": "Gracie Barra Canoinhas",
            "federationAbbr": "CBJJ",
            "country": "Brasil",
            "countryAbbr": "BR",
            "city": "Canoinhas",
            "responsible": "Gabriel Amorim Santos",
            "address": "Rua Duque De Caxias 469, Fundos, Canoinhas, Santa Catarina, Brasil",
            "website": null
        },
        {
            "id": 6021,
            "name": "Gracie Barra Capivari SP",
            "federationAbbr": "CBJJ",
            "country": "Brasil",
            "countryAbbr": "BR",
            "city": "Capivari",
            "responsible": "Flavio Guilherme Gilli",
            "address": "Alameda Faustina Franchi Anichino, Academia - Centro, Capivari, São Paulo, Brasil",
            "website": "www.graciebarracapivari.com"
        },
        {
            "id": 5459,
            "name": "Gracie Barra Carapicuiba",
            "federationAbbr": "CBJJ",
            "country": "Brasil",
            "countryAbbr": "BR",
            "city": "Carapicuiba",
            "responsible": "Keyserling Silva Pessoa",
            "address": "Av. Comendador Dante Carraco 741, Cidade Ariston Estela Azevedo, Carapicuiba, SP, Brasil",
            "website": null
        }
    ]
}