{
    "pagination": {
        "page": 165,
        "from": 3280,
        "to": 3300,
        "pageSize": 20,
        "lastPage": 358,
        "totalRecords": 7149
    },
    "list": [
        {
            "id": 2903,
            "name": "Gracie Barra Netherlands",
            "federationAbbr": "IBJJF",
            "country": "Netherlands",
            "countryAbbr": "NL",
            "city": "Amsterdam",
            "responsible": "Remco Pardoel",
            "address": "Yburguaan 713  , , Amsterdam, NL, Netherlands",
            "website": "www.graciebarra.nl"
        },
        {
            "id": 2613,
            "name": "Gracie Barra New England",
            "federationAbbr": "USBJJF",
            "country": "United States of America",
            "countryAbbr": "US",
            "city": "Milford, MA US",
            "responsible": "Carlos Alberto Terrinha",
            "address": "140 Main St.  , , Milford, MA US, MA, United States of America",
            "website": "www.terrinhabjj.com"
        },
        {
            "id": 2297,
            "name": "Gracie Barra New Mexico",
            "federationAbbr": "USBJJF",
            "country": "United States of America",
            "countryAbbr": "US",
            "city": "Albuquerque",
            "responsible": null,
            "address": "1504 San Pedro Rd  , , Albuquerque, NM, United States of America",
            "website": "www.graciebarranm.com"
        },
        {
            "id": 6822,
            "name": "Gracie Barra Newcastle City",
            "federationAbbr": "IBJJF",
            "country": "Australia",
            "countryAbbr": "AU",
            "city": "Newcastle",
            "responsible": "Gustavo Machado Pinto",
            "address": "Level 1 - 187 King St. , Newcastle, NSW, Australia",
            "website": "www.gbnewcastlecity.com.au"
        },
        {
            "id": 10617,
            "name": "Gracie Barra Newport Beach",
            "federationAbbr": "USBJJF",
            "country": "United States of America",
            "countryAbbr": "US",
            "city": "Corona Del Mar",
            "responsible": "Saul Viayra",
            "address": "3810 East Coast Hwy, Suite A, Corona Del Mar, Ca, United States of America",
            "website": "https://www.gbnewportbeach.com/"
        },
        {
            "id": 2943,
            "name": "Gracie Barra North Austin",
            "federationAbbr": "USBJJF",
            "country": "United States of America",
            "countryAbbr": "US",
            "city": "Austin",
            "responsible": null,
            "address": "8868 Research Blvd - Ste 608  , , Austin, TX, United States of America",
            "website": "www.gbnorthaustin.com"
        },
        {
            "id": 2089,
            "name": "Gracie Barra North Carolina",
            "federationAbbr": "USBJJF",
            "country": "United States of America",
            "countryAbbr": "US",
            "city": "rockwell",
            "responsible": null,
            "address": "315 Thayer rd  , , rockwell, nc, United States of America",
            "website": "www.hurstjiujitsu.com"
        },
        {
            "id": 7421,
            "name": "Gracie Barra North Orlando",
            "federationAbbr": "USBJJF",
            "country": "United States of America",
            "countryAbbr": "US",
            "city": "Orlando",
            "responsible": "Gustavo Muggiati",
            "address": "923 N. Mills Ave, Orlando, FL, United States of America",
            "website": "northorlandobjj.com"
        },
        {
            "id": 8524,
            "name": "Gracie Barra North York Toronto",
            "federationAbbr": "IBJJF",
            "country": "Canada",
            "countryAbbr": "CA",
            "city": "Toronto ",
            "responsible": "Fabiano de Freitas Silva",
            "address": "100 Bridgeland Avenue , Toronto , Ontario , Canada",
            "website": null
        },
        {
            "id": 2765,
            "name": "Gracie Barra Northridge",
            "federationAbbr": "USBJJF",
            "country": "United States of America",
            "countryAbbr": "US",
            "city": "Northridge",
            "responsible": "Rômulo Claudio Barral",
            "address": "9149 Resed Blvd  , , Northridge, CA, United States of America",
            "website": "www.gbnorthridge.com"
        },
        {
            "id": 2434,
            "name": "Gracie Barra Nottingham",
            "federationAbbr": "IBJJF",
            "country": "United Kingdom",
            "countryAbbr": "GB",
            "city": "Nottingham",
            "responsible": "Victor de Oliveira Estima",
            "address": "30 Miall Street  , Nottingham, Nottinghamshire, United Kingdom",
            "website": "www.gbnottingham.com"
        },
        {
            "id": 10350,
            "name": "Gracie Barra Oceanside",
            "federationAbbr": "USBJJF",
            "country": "United States of America",
            "countryAbbr": "US",
            "city": "Oceanside",
            "responsible": "Douglas Ruben Holcomb",
            "address": "3772 Mission Ave. Suite 120, Suite #120, Oceanside, Ca, United States of America",
            "website": "https://graciebarra.com/oceanside-ca/"
        },
        {
            "id": 8075,
            "name": "Gracie Barra Octogonal DF",
            "federationAbbr": "CBJJ",
            "country": "Brasil",
            "countryAbbr": "BR",
            "city": "Sudoeste Brasília",
            "responsible": "Denny Anthony Andrade",
            "address": "Sig Quadra 6 Lote 1495, 1° Andar , Sudoeste Brasília, Df, Brasil",
            "website": null
        },
        {
            "id": 2990,
            "name": "Gracie Barra Ofallon",
            "federationAbbr": "USBJJF",
            "country": "United States of America",
            "countryAbbr": "US",
            "city": "Lake Saint Louis",
            "responsible": "Mike Buckels",
            "address": "6278 Ronald Reagan Dr, , Lake Saint Louis, MO, United States of America",
            "website": "www.gbstlouis.com"
        },
        {
            "id": 2270,
            "name": "Gracie Barra Orlando",
            "federationAbbr": "USBJJF",
            "country": "United States of America",
            "countryAbbr": "US",
            "city": "Orlando",
            "responsible": "Rogerio Muniz Santos",
            "address": "4470 35th Street, Suit B, Orlando, FL, United States of America",
            "website": "www.GBOrlando.com"
        },
        {
            "id": 5159,
            "name": "Gracie Barra Osasco SP",
            "federationAbbr": "CBJJ",
            "country": "Brasil",
            "countryAbbr": "BR",
            "city": "Osasco",
            "responsible": "Leandro Haruo Fujisara",
            "address": "Rua Irmã Esther n: 65, Jardim Bela Vista, Osasco, SP, Brasil",
            "website": null
        },
        {
            "id": 7259,
            "name": "Gracie Barra Oss",
            "federationAbbr": "IBJJF",
            "country": "Netherlands",
            "countryAbbr": "NL",
            "city": "Oss",
            "responsible": "Vinicius Magalhães",
            "address": "Obrecht Straat 11, Oss, --, Netherlands",
            "website": "www.vanbuelsports.nl"
        },
        {
            "id": 2726,
            "name": "Gracie Barra Oval",
            "federationAbbr": "IBJJF",
            "country": "United Kingdom",
            "countryAbbr": "GB",
            "city": "London",
            "responsible": "Eduardo Carriello",
            "address": "66-68 Bolton Crescent, London, United Kingdom",
            "website": "www.graciebarraoval.com"
        },
        {
            "id": 8595,
            "name": "Gracie Barra Overland Park",
            "federationAbbr": "USBJJF",
            "country": "United States of America",
            "countryAbbr": "US",
            "city": "Overland Park",
            "responsible": "Valerio Mori Ubaldini",
            "address": "9142 W.135th Street, Overland Park, Kansas, United States of America",
            "website": "www.gboverlandpark.com"
        },
        {
            "id": 7694,
            "name": "Gracie Barra Oviedo",
            "federationAbbr": "USBJJF",
            "country": "United States of America",
            "countryAbbr": "US",
            "city": "Oviedo",
            "responsible": "Samantha M. Rider",
            "address": "3050 Alafaya Trail, #1004, Oviedo, Fl, United States of America",
            "website": "https://www.gboviedo.com/"
        }
    ]
}