{
    "pagination": {
        "page": 63,
        "from": 1240,
        "to": 1260,
        "pageSize": 20,
        "lastPage": 358,
        "totalRecords": 7149
    },
    "list": [
        {
            "id": 193,
            "name": "Carlos Henrique Brazilian Jiu-Jitsu Team",
            "federationAbbr": "USBJJF",
            "country": "United States of America",
            "countryAbbr": "US",
            "city": "Mount Sinai",
            "responsible": "Carlos Henrique Rosa da Silva",
            "address": "Route 25A, Mount Sinai, NY, United States of America",
            "website": "-"
        },
        {
            "id": 5510,
            "name": "Carlos Holanda Brazilian Jiu-Jitsu",
            "federationAbbr": "CBJJ",
            "country": "Brasil",
            "countryAbbr": "BR",
            "city": "Manaus",
            "responsible": "Carlos Vieira Holanda",
            "address": "Rua Maceió 686, Sala 4 - Adrianópolis, Manaus, AM, Brasil",
            "website": null
        },
        {
            "id": 5684,
            "name": "Carlos Holanda International BJJ",
            "federationAbbr": "USBJJF",
            "country": "United States of America",
            "countryAbbr": "US",
            "city": "West Covina",
            "responsible": "Carlos Vieira Holanda",
            "address": "350 S. Glendora Ave., West Covina, CA, United States of America",
            "website": null
        },
        {
            "id": 4396,
            "name": "Carlos Mendes Jiu-Jitsu",
            "federationAbbr": "CBJJ",
            "country": "Brasil",
            "countryAbbr": "BR",
            "city": "Recife",
            "responsible": "Carlos Andre da Silva Mendes",
            "address": "Rua Cromínia  124, Vasco Da Gama, Recife, PE, Brasil",
            "website": null
        },
        {
            "id": 3695,
            "name": "Carlos Neto BJJ",
            "federationAbbr": "USBJJF",
            "country": "United States of America",
            "countryAbbr": "US",
            "city": "Somerville",
            "responsible": "Carlos Esteves Neto",
            "address": "86 Joy Street  , , Somerville, MA, United States of America",
            "website": "carlosnetobjj.com"
        },
        {
            "id": 6759,
            "name": "Carlos Pinho Team",
            "federationAbbr": "CBJJ",
            "country": "Brasil",
            "countryAbbr": "BR",
            "city": "Salvador",
            "responsible": "Carlos Antonio de Oliveira Pinho",
            "address": "Rua do Soares n:19, Bairro: Ribeira, Salvador, Bahia, Brasil",
            "website": null
        },
        {
            "id": 6267,
            "name": "Carlos Rosado - Jiu Jitsu Modern",
            "federationAbbr": "USBJJF",
            "country": "United States of America",
            "countryAbbr": "US",
            "city": "North Babylon",
            "responsible": "Carlos A. Rosado",
            "address": "1486 c Deer Park Ave., North Babylon, NY, United States of America",
            "website": "www.jiujitsumodern.com"
        },
        {
            "id": 2044,
            "name": "Carlos Sapao BJJ",
            "federationAbbr": "USBJJF",
            "country": "United States of America",
            "countryAbbr": "US",
            "city": "San Francisco",
            "responsible": "Carlos Alejandro Oyarzun",
            "address": "710 La Playa Street  , , San Francisco, CA, United States of America",
            "website": "http://www.barrabrothersacademy.com/"
        },
        {
            "id": 8337,
            "name": "Carlos Souza Brazilian Jiu-Jitsu",
            "federationAbbr": "CBJJ",
            "country": "Brasil",
            "countryAbbr": "BR",
            "city": "Manaus ",
            "responsible": "Carlos Oliveira de Souza",
            "address": "Rua Loiro Chubo Bairro Monte Das Oliveira Casa 319 , Proximo Shopping Via Norte, Manaus , Amazonas, Brasil",
            "website": null
        },
        {
            "id": 9334,
            "name": "Carlos Toyota BJJ Brasil",
            "federationAbbr": "CBJJ",
            "country": "Brasil",
            "countryAbbr": "BR",
            "city": "Curitiba",
            "responsible": "Carlos Alberto Toyotta",
            "address": "Rua Paulo Setúbal 5090, Bairro Boqueirão, Curitiba, Paraná, Brasil",
            "website": null
        },
        {
            "id": 2529,
            "name": "Carlos Toyota Brazilian Jiu-Jitsu",
            "federationAbbr": "JBJJF",
            "country": "Japan",
            "countryAbbr": "JP",
            "city": "Shizuoka",
            "responsible": "Carlos Alberto Toyotta",
            "address": "Shizuoka-ken Hamamatsu-shihigashi-ku Kolke CH0157   , Shizuoka, JP, Japan",
            "website": null
        },
        {
            "id": 2893,
            "name": "Carlos Varona BJJ",
            "federationAbbr": "IBJJF",
            "country": "Spain",
            "countryAbbr": "ES",
            "city": "Marbella",
            "responsible": "Edson Diniz Fidelis",
            "address": "Avenida De Las Golondrinas 46, Urb., Las Yucas Casa 11, Estepona, Marbella, --, Spain",
            "website": "www.dynamicmarbella.com"
        },
        {
            "id": 9372,
            "name": "Carlos Zuqueto Brazilian Jiu Jitsu",
            "federationAbbr": "CBJJ",
            "country": "Brasil",
            "countryAbbr": "BR",
            "city": "Itacaré",
            "responsible": "Carlos Zuqueto Boa Morte",
            "address": "Rua João Coutinho, Nº 123, Prédio, Itacaré, Ba, Brasil",
            "website": null
        },
        {
            "id": 8600,
            "name": "Carlsbad Jiu-Jitsu",
            "federationAbbr": "USBJJF",
            "country": "United States of America",
            "countryAbbr": "US",
            "city": "Carlsbad",
            "responsible": "Aaron Christian Collins",
            "address": "3125 Tiger Run Ct B108, Carlsbad, CA, United States of America",
            "website": null
        },
        {
            "id": 10114,
            "name": "Carlsbad NM Evo Jiu-Jitsu",
            "federationAbbr": "USBJJF",
            "country": "United States of America",
            "countryAbbr": "US",
            "city": "Carlsbad",
            "responsible": "Jason P. Montoya",
            "address": "2302 W. Pierce St., Suite C1, Carlsbad, Nm, United States of America",
            "website": "Carlsbad, New Mexico"
        },
        {
            "id": 2048,
            "name": "Carlson Gracie",
            "federationAbbr": "USBJJF",
            "country": "United States of America",
            "countryAbbr": "US",
            "city": "Chicago",
            "responsible": null,
            "address": "1235 N Lasalle  , , Chicago, IL, United States of America",
            "website": null
        },
        {
            "id": 8977,
            "name": "Carlson Gracie - Foz Do Iguaçu",
            "federationAbbr": "CBJJ",
            "country": "Brasil",
            "countryAbbr": "BR",
            "city": "Foz Do Iguaçu",
            "responsible": "Marcelo Penayo de Melo",
            "address": "R. Heleno Schimmelpfeng, 838 -  Vila Yolanda, Foz Do Iguaçu, Paraná, Brasil",
            "website": "https://carlsongracieteam.org/escolas-oficiais-carlson-gracie-team/"
        },
        {
            "id": 9776,
            "name": "Carlson Gracie - Laranjeiras Do Sul/PR",
            "federationAbbr": "CBJJ",
            "country": "Brasil",
            "countryAbbr": "BR",
            "city": "Laranjeiras Do Sul",
            "responsible": "Rafael Alberto Kurta",
            "address": "Rua Expedicionario João Maria, 850, 4fit Academia, Laranjeiras Do Sul, Paraná, Brasil",
            "website": null
        },
        {
            "id": 3398,
            "name": "Carlson Gracie Amsterdam",
            "federationAbbr": "IBJJF",
            "country": "Netherlands",
            "countryAbbr": "NL",
            "city": "Amsterdam",
            "responsible": "Marcos Neves Mello",
            "address": "Tolkamerstraat 85  , , Amsterdam, Holland, Netherlands",
            "website": "www.carlsongracie.nl"
        },
        {
            "id": 7272,
            "name": "Carlson Gracie Angra dos Reis",
            "federationAbbr": "CBJJ",
            "country": "Brasil",
            "countryAbbr": "BR",
            "city": "Angra dos Reis",
            "responsible": "Marcio Livio Andrade Abraçado",
            "address": "Rua João Bruno N: 207, Bairro: Frade, Angra dos Reis, Rio de Janeiro, Brasil",
            "website": null
        }
    ]
}