{
    "pagination": {
        "page": 147,
        "from": 2920,
        "to": 2940,
        "pageSize": 20,
        "lastPage": 358,
        "totalRecords": 7149
    },
    "list": [
        {
            "id": 8076,
            "name": "Gold School São Paulo",
            "federationAbbr": "CBJJ",
            "country": "Brasil",
            "countryAbbr": "BR",
            "city": "São Paulo",
            "responsible": "André Moreira Henrique",
            "address": "Rua Leônidas Barreto 269, São Paulo, Brasil",
            "website": null
        },
        {
            "id": 2534,
            "name": "Gold Team Fighters",
            "federationAbbr": "IBJJF",
            "country": "Poland",
            "countryAbbr": "PL",
            "city": "Szuzecin",
            "responsible": "Mariusz Ryszard Linke",
            "address": "Mickiwicza 34  , , Szuzecin, Poland",
            "website": "www.linkegoldteam.pl"
        },
        {
            "id": 2096,
            "name": "Gold Team Fighters USA",
            "federationAbbr": "USBJJF",
            "country": "United States of America",
            "countryAbbr": "US",
            "city": "Newark",
            "responsible": null,
            "address": "165 vanderpool st 2nd floor  , , Newark, NJ, United States of America",
            "website": "www.goldteamfightersusa.com"
        },
        {
            "id": 6328,
            "name": "Golden Fight Jiu-Jitsu",
            "federationAbbr": "CBJJ",
            "country": "Brasil",
            "countryAbbr": "BR",
            "city": "Biguaçu",
            "responsible": "Helio Pereira Galvão",
            "address": "Rua Geraldo Azevedo 151, Bloco 10 Ap 204, Biguaçu, Sc, Brasil",
            "website": "goldenfight.com.br"
        },
        {
            "id": 9732,
            "name": "Golden Lion Korea",
            "federationAbbr": "IBJJF",
            "country": "Korea, South",
            "countryAbbr": "KR",
            "city": "Busan",
            "responsible": "Tadeu Takao Tani",
            "address": "3 Floor, Busanjingoo Joangdearo 891, Busan, Busan, Korea, South",
            "website": null
        },
        {
            "id": 6251,
            "name": "Golden State BJJ",
            "federationAbbr": "USBJJF",
            "country": "United States of America",
            "countryAbbr": "US",
            "city": "Torrance",
            "responsible": "Arthur Dane Molina",
            "address": "19019 Hawthorne Blvd Suite 200A, Torrance, CA, United States of America",
            "website": "www.goldenstatebjj.com"
        },
        {
            "id": 10163,
            "name": "Golden Team Academy / Sta. Cruz / Contagem / MG.",
            "federationAbbr": "CBJJ",
            "country": "Brasil",
            "countryAbbr": "BR",
            "city": "Contagem",
            "responsible": "Adair Rodrigues Junior",
            "address": "Av. Madri, 25 - 3° Andar - Santa Cruz Industrial, Contagem, Minas Gerais, Brasil",
            "website": "gtabjj.com.br"
        },
        {
            "id": 4651,
            "name": "Golden Team Academy/Contagem MG",
            "federationAbbr": "CBJJ",
            "country": "Brasil",
            "countryAbbr": "BR",
            "city": "Contagem",
            "responsible": "Adair Rodrigues Junior",
            "address": "Rua VL 22 Loja n: 425, Sobreloja, Contagem, MG, Brasil",
            "website": "gtabjj.com.br"
        },
        {
            "id": 3586,
            "name": "Golden Triangle Jiu-Jitsu Academy",
            "federationAbbr": "USBJJF",
            "country": "United States of America",
            "countryAbbr": "US",
            "city": "Nederland",
            "responsible": "Daniel Patrick Head",
            "address": "605 N Twin City Hwy  , Nederland, TX, United States of America",
            "website": "www.goldentrianglejiujitsu.com/"
        },
        {
            "id": 6140,
            "name": "Gomez Jiu-Jitsu",
            "federationAbbr": "USBJJF",
            "country": "United States of America",
            "countryAbbr": "US",
            "city": "Los Angeles",
            "responsible": "Juan Carlos Gomez",
            "address": "120 E. 8th st Suite 401, Los Angeles, CA, United States of America",
            "website": "www.gomezjiujitsu.com"
        },
        {
            "id": 10618,
            "name": "Good Jiu-Jitsu",
            "federationAbbr": "IBJJF",
            "country": "Korea, South",
            "countryAbbr": "KR",
            "city": "Songpa-gu",
            "responsible": "Inseong Jang",
            "address": "124, Seongnaecheon-ro, Songpa-gu, Korea, South",
            "website": null
        },
        {
            "id": 10602,
            "name": "Gordilho Team",
            "federationAbbr": "CBJJ",
            "country": "Brasil",
            "countryAbbr": "BR",
            "city": "Salvador",
            "responsible": "Juvenal de Lacerda G. Neto",
            "address": "Rua Mamede Paes Mendonça, 127, Cond Villa Flamingo, Casa 06, Salvador, Bahia, Brasil",
            "website": null
        },
        {
            "id": 4090,
            "name": "Gordinho Brazilian Jiu-Jitsu",
            "federationAbbr": "CBJJ",
            "country": "Brasil",
            "countryAbbr": "BR",
            "city": "Boa Vista",
            "responsible": "Saneyson de Siqueira Lopes",
            "address": "Felinto Barbosa Monteiro 1641 DRG Trabalhador, Santa Luzia, Boa Vista, RR, Brasil",
            "website": null
        },
        {
            "id": 420,
            "name": "Gordo Jiu-Jitsu",
            "federationAbbr": "CBJJ",
            "country": "Brasil",
            "countryAbbr": "BR",
            "city": "Rio de Janeiro",
            "responsible": "Roberto Correa de Lima",
            "address": "Rua Corrêa de Araújo 208 A , Barra da Tijuca, Rio de Janeiro, RJ, Brasil",
            "website": ""
        },
        {
            "id": 2279,
            "name": "Gordo Jiu-Jitsu - International",
            "federationAbbr": "IBJJF",
            "country": "Korea, Democratic People's Republic of",
            "countryAbbr": "KP",
            "city": "dd",
            "responsible": "Roberto Correa de Lima",
            "address": "  , dd, dd, Korea, Democratic People's Republic of",
            "website": null
        },
        {
            "id": 4831,
            "name": "Gordo Jiu-Jitsu Europe",
            "federationAbbr": "IBJJF",
            "country": "United Kingdom",
            "countryAbbr": "GB",
            "city": "Doncaster",
            "responsible": "Roberto Correa de Lima",
            "address": "Sunnyside, Littleworth Lane, Rossington, Doncaster, United Kingdom",
            "website": "-"
        },
        {
            "id": 6358,
            "name": "Gordo Jiu-Jitsu USA",
            "federationAbbr": "USBJJF",
            "country": "United States of America",
            "countryAbbr": "US",
            "city": "Sunrise",
            "responsible": "Roberto Correa de Lima",
            "address": "197 NW 136th Ave, Sunrise, FL, United States of America",
            "website": "www.GordoBJJ.com"
        },
        {
            "id": 8693,
            "name": "Goshin Jitsu Ryu",
            "federationAbbr": "FPJJB",
            "country": "Portugal",
            "countryAbbr": "PT",
            "city": "Pinhal Novo",
            "responsible": "Pedro Miguel dos Santos Guedes Vicente",
            "address": "Rua Infante Dom Henrique 123, Pinhal Novo, Portugal",
            "website": null
        },
        {
            "id": 2947,
            "name": "Gothenburg Fighter Centre",
            "federationAbbr": "IBJJF",
            "country": "Sweden",
            "countryAbbr": "SE",
            "city": "Gothenburg",
            "responsible": "Karl Johan August Wallen",
            "address": "Viktoriagatan 19, , Gothenburg, --, Sweden",
            "website": "www.fightercentre.com"
        },
        {
            "id": 5618,
            "name": "Goulart Team JJ - BR",
            "federationAbbr": "CBJJ",
            "country": "Brasil",
            "countryAbbr": "BR",
            "city": "Rio de Janeiro",
            "responsible": "Alex de Souza Goulart",
            "address": "Rua Guararapes, 86 Frente, São Bernardo - Belford Roxo, Rio de Janeiro, Rio de Janeiro, Brasil",
            "website": "Facebook/goulartteam"
        }
    ]
}