{
    "pagination": {
        "page": 277,
        "from": 5520,
        "to": 5540,
        "pageSize": 20,
        "lastPage": 358,
        "totalRecords": 7149
    },
    "list": [
        {
            "id": 8638,
            "name": "Reyson Gracie USA",
            "federationAbbr": "USBJJF",
            "country": "United States of America",
            "countryAbbr": "US",
            "city": "Coconut Creek",
            "responsible": "Marcos Maciel de Oliveira",
            "address": "5521 Nw 51st Ave, Coconut Creek, Fl, United States of America",
            "website": "https://www.reysongracie.com.br/"
        },
        {
            "id": 8182,
            "name": "Reyson Gracie World  Association",
            "federationAbbr": "CBJJ",
            "country": "Brasil",
            "countryAbbr": "BR",
            "city": "Caxias Do Sul",
            "responsible": "Reyson Gracie",
            "address": "Rua Jacob Luchessi Nº  1812 Caxias Do Sul - Rs, Caxias Do Sul, Rio Grande Do Sul , Brasil",
            "website": "https://reyson-gracie-world.webnode.com"
        },
        {
            "id": 8262,
            "name": "RFA - Brazilian Grappling Team",
            "federationAbbr": "CBJJ",
            "country": "Brasil",
            "countryAbbr": "BR",
            "city": "Angra Dos Reis",
            "responsible": "Bruno Alves Pereira",
            "address": "Rua Pedro Eugênio De Oliveira, 219, Angra Dos Reis, Rj, Brasil",
            "website": null
        },
        {
            "id": 4239,
            "name": "RFS Team - Carlson Gracie Germany",
            "federationAbbr": "IBJJF",
            "country": "Germany",
            "countryAbbr": "DE",
            "city": "Saarbruchen",
            "responsible": "Carlson Gracie Júnior",
            "address": "Gressherzog-Friedrich 99  , , Saarbruchen, --, Germany",
            "website": "www.rfsteam.de"
        },
        {
            "id": 7296,
            "name": "RFT-Renovação Fight Team",
            "federationAbbr": "CBJJ",
            "country": "Brasil",
            "countryAbbr": "BR",
            "city": "Botafogo",
            "responsible": "Ronaldo Vieira da Silva",
            "address": "Rua General Polidoro n: 83, Sala de Lutas, Botafogo, Rio de Janeiro, Brasil",
            "website": null
        },
        {
            "id": 4282,
            "name": "Rga Fight Pro",
            "federationAbbr": "CBJJ",
            "country": "Brasil",
            "countryAbbr": "BR",
            "city": "Poços de Caldas",
            "responsible": "Fabricio Monteiro Dias",
            "address": "Rua Paraíba 683, Centro, Poços de Caldas, MG, Brasil",
            "website": "https://fightproacademia.com.br/"
        },
        {
            "id": 9278,
            "name": "RGA Preston",
            "federationAbbr": "IBJJF",
            "country": "United Kingdom",
            "countryAbbr": "GB",
            "city": "Preston",
            "responsible": "Ian Fell",
            "address": "Campbell St, Preston, United Kingdom",
            "website": "Rgapreston.co.uk"
        },
        {
            "id": 7762,
            "name": "RGC Team BJJ",
            "federationAbbr": "CBJJ",
            "country": "Brasil",
            "countryAbbr": "BR",
            "city": "Santos",
            "responsible": "Renato Guimaraes Cardoso",
            "address": "General Rondon, Santos, SP, Brasil",
            "website": null
        },
        {
            "id": 9152,
            "name": "RGV Fight Club",
            "federationAbbr": "USBJJF",
            "country": "United States of America",
            "countryAbbr": "US",
            "city": "Edinburg",
            "responsible": "Eric Lee Zambrano",
            "address": "4435 S Jackson Rd Suite B, Edinburg, Tx, United States of America",
            "website": "EDINBURG TX"
        },
        {
            "id": 10126,
            "name": "RHA Academy",
            "federationAbbr": "FPJJB",
            "country": "Portugal",
            "countryAbbr": "PT",
            "city": "Nazaré",
            "responsible": "Marco António M. P. dos Santos Aço",
            "address": "Avenida Do Município Loja 6, Nazaré, Nazaré, Portugal",
            "website": null
        },
        {
            "id": 6921,
            "name": "Rhino Jiu-Jitsu Academy",
            "federationAbbr": "CBJJ",
            "country": "Brasil",
            "countryAbbr": "BR",
            "city": "Praia Grande",
            "responsible": "Henrique Teixeira do Nascimento Júnior",
            "address": "Rua Cidade De Santos N: 99, Boqueirão, Praia Grande, São Paulo, Brasil",
            "website": "@rhinojja"
        },
        {
            "id": 8842,
            "name": "Rhinoceronte Jiu-jitsu Floripa",
            "federationAbbr": "CBJJ",
            "country": "Brasil",
            "countryAbbr": "BR",
            "city": "Florianópolis",
            "responsible": "Luiz Vicente Soares da Silva",
            "address": "Av Madre Benvenuta 1012, 3 Andar, Florianópolis, Sc, Brasil",
            "website": null
        },
        {
            "id": 4309,
            "name": "Ribeiro Jiu Jitsu Germany",
            "federationAbbr": "IBJJF",
            "country": "Germany",
            "countryAbbr": "DE",
            "city": "Munchen",
            "responsible": "Johannes Wieth",
            "address": "Boschetsrieder Str. 69  , , Munchen, Germany",
            "website": "sanefighting.de"
        },
        {
            "id": 2236,
            "name": "Ribeiro Jiu-Jitsu",
            "federationAbbr": "USBJJF",
            "country": "United States of America",
            "countryAbbr": "US",
            "city": "San diego",
            "responsible": "Saulo Mendonça Ribeiro Filho",
            "address": "3960 West Point Loma BLVD  360 , , San diego, CA, United States of America",
            "website": "www.unijj.com"
        },
        {
            "id": 3032,
            "name": "Ribeiro Jiu-Jitsu Brasil",
            "federationAbbr": "CBJJ",
            "country": "Brasil",
            "countryAbbr": "BR",
            "city": "Niterói",
            "responsible": "Saulo Mendonça Ribeiro Filho",
            "address": "Rua 4 Quadra 18 Lote 34 1126 , Engenho do Mato, Niterói, RJ, Brasil",
            "website": "www.ribeirojiujitsu.com"
        },
        {
            "id": 4048,
            "name": "Ribeiro Jiu-Jitsu France",
            "federationAbbr": "IBJJF",
            "country": "France",
            "countryAbbr": "FR",
            "city": "Pibrac",
            "responsible": "Saulo Mendonça Ribeiro Filho",
            "address": "30 Bis Ancienne Route de Bayonne  , , Pibrac, --, France",
            "website": "--"
        },
        {
            "id": 2299,
            "name": "Ribeiro Jiu-Jitsu International",
            "federationAbbr": "IBJJF",
            "country": "Philippines",
            "countryAbbr": "PH",
            "city": "Muntinpula City",
            "responsible": null,
            "address": "853 Acacia Avenue Ayala Alabang Village  , , Muntinpula City, --, Philippines",
            "website": ""
        },
        {
            "id": 5211,
            "name": "Ribeiro Jiu-Jitsu Leesburg",
            "federationAbbr": "USBJJF",
            "country": "United States of America",
            "countryAbbr": "US",
            "city": "Leesburg",
            "responsible": "James Curtis Lee",
            "address": "1451 US 19 North, Suite C  , Leesburg, GA, United States of America",
            "website": null
        },
        {
            "id": 2050,
            "name": "Ricardo \"Rey\" Diogo BJJ",
            "federationAbbr": "USBJJF",
            "country": "United States of America",
            "countryAbbr": "US",
            "city": "Los Angeles",
            "responsible": null,
            "address": "8733 Venice Blvd  , , Los Angeles, CA, United States of America",
            "website": ""
        },
        {
            "id": 2722,
            "name": "Ricardo Barros Brazilian Jiu-Jitsu",
            "federationAbbr": "USBJJF",
            "country": "United States of America",
            "countryAbbr": "US",
            "city": "Brentwood",
            "responsible": "Ricardo Ulhoa Cintra Barros",
            "address": "6730 Lone tree way suite 8  , Brentwood, CA, United States of America",
            "website": "www.rbbjj.com"
        }
    ]
}