{
    "pagination": {
        "page": 243,
        "from": 4840,
        "to": 4860,
        "pageSize": 20,
        "lastPage": 358,
        "totalRecords": 7149
    },
    "list": [
        {
            "id": 7437,
            "name": "Next Level BJJ",
            "federationAbbr": "USBJJF",
            "country": "United States of America",
            "countryAbbr": "US",
            "city": "Whitesboro",
            "responsible": "Tony Eduardo de Lima e Silva Hoerhann",
            "address": "1155 County Rd 113, , Whitesboro, TX, United States of America",
            "website": "www.nlbjja.com"
        },
        {
            "id": 8363,
            "name": "Next Level Bjj Brazil",
            "federationAbbr": "CBJJ",
            "country": "Brasil",
            "countryAbbr": "BR",
            "city": "Florianópolis",
            "responsible": "Tony Eduardo de Lima e Silva Hoerhann",
            "address": "Rua Altamiro Di Bernardi 186, Florianópolis, Sc, Brasil",
            "website": "www.nlbjja.com"
        },
        {
            "id": 7369,
            "name": "Next Level Jiu-Jitsu France",
            "federationAbbr": "IBJJF",
            "country": "France",
            "countryAbbr": "FR",
            "city": "Chatillon",
            "responsible": "Tony Eduardo de Lima e Silva Hoerhann",
            "address": "Chemin du Bois de la Lave, Chatillon, FC, France",
            "website": null
        },
        {
            "id": 4818,
            "name": "Nexus Fighter Academy",
            "federationAbbr": "IBJJF",
            "country": "Germany",
            "countryAbbr": "DE",
            "city": "Hamburg",
            "responsible": "Ezekiel Zayas Latorre",
            "address": "Hammer Stendamm 62  , , Hamburg, --, Germany",
            "website": "www.nexusfa.com"
        },
        {
            "id": 3104,
            "name": "Nexusense",
            "federationAbbr": "JBJJF",
            "country": "Japan",
            "countryAbbr": "JP",
            "city": "Tokyo",
            "responsible": "Naoya Uematsu",
            "address": "1-15-20- BIF Nishikicho Tachikawa City  , , Tokyo, --, Japan",
            "website": "http://nexusense.net"
        },
        {
            "id": 7144,
            "name": "NF Team",
            "federationAbbr": "CBJJ",
            "country": "Brasil",
            "countryAbbr": "BR",
            "city": "Serrinha",
            "responsible": "Jeferson Cruz de Almeida",
            "address": "Rua Conselheiro Dantas n: 264, Escritório, Serrinha, Bahia, Brasil",
            "website": null
        },
        {
            "id": 5966,
            "name": "NFT Nascimento Fight Team",
            "federationAbbr": "CBJJ",
            "country": "Brasil",
            "countryAbbr": "BR",
            "city": "Serra",
            "responsible": "Claudio Marcio Nascimento",
            "address": "Rua Gustavo Barroso N: 432, Chacara Parreiral, Serra, Espirito Santo, Brasil",
            "website": null
        },
        {
            "id": 7445,
            "name": "Niagara Falls Brazilian Jiu-Jitsu",
            "federationAbbr": "USBJJF",
            "country": "United States of America",
            "countryAbbr": "US",
            "city": "Niagara Falls",
            "responsible": "Antonio Morreale Smith",
            "address": "600 56th street, Niagara Falls, NY, United States of America",
            "website": "www.Niagarafallsbjjusa.com"
        },
        {
            "id": 4367,
            "name": "Nick Brooks BJJ",
            "federationAbbr": "IBJJF",
            "country": "United Kingdom",
            "countryAbbr": "GB",
            "city": "London",
            "responsible": "M. I. David Onuma",
            "address": "R/o 770 High Road, London, United Kingdom",
            "website": "www.nth12.com"
        },
        {
            "id": 4996,
            "name": "Nick Reding Brazilian Jiu-Jitsu",
            "federationAbbr": "USBJJF",
            "country": "United States of America",
            "countryAbbr": "US",
            "city": "The Colony",
            "responsible": "James Nicholas Reding",
            "address": "5921 Legend Ln  , The Colony, TX, United States of America",
            "website": "www.nickredingbjj.com"
        },
        {
            "id": 7165,
            "name": "NICKBJJ",
            "federationAbbr": "IBJJF",
            "country": "Cyprus",
            "countryAbbr": "CY",
            "city": "Paralimni",
            "responsible": "Nicklas Victor Unander-Scharin",
            "address": "Armonia Exclusive Resort, Block A, Apt. 211, Christou Tsiarta 36, Paralimni, Cyprus",
            "website": "NICKBJJ.com"
        },
        {
            "id": 8010,
            "name": "Nielton BJJ Team",
            "federationAbbr": "CBJJ",
            "country": "Brasil",
            "countryAbbr": "BR",
            "city": "Ananindeua ",
            "responsible": "Nielton Palheta Martins",
            "address": "Rodovia Mario Covas 1426 Conjunto Green Garden Casa 57, Ao Lado Do Hotel Riviera, Ananindeua , Pará, Brasil",
            "website": null
        },
        {
            "id": 8656,
            "name": "Niji Dojo",
            "federationAbbr": "USBJJF",
            "country": "United States of America",
            "countryAbbr": "US",
            "city": "Santa Cruz",
            "responsible": "Caren Elise Camblin",
            "address": "920 A 41st Avenue, Santa Cruz, Ca, United States of America",
            "website": null
        },
        {
            "id": 9631,
            "name": "Nil Fight",
            "federationAbbr": "CBJJ",
            "country": "Brasil",
            "countryAbbr": "BR",
            "city": "Teresina",
            "responsible": "Nilson Lima Carvalho Filho",
            "address": "Rua Hidrolina, Quadra 20, Número 58, Teresina, Piauí, Brasil",
            "website": null
        },
        {
            "id": 9882,
            "name": "Nil Oliveira BJJ",
            "federationAbbr": "CBJJ",
            "country": "Brasil",
            "countryAbbr": "BR",
            "city": "Araçariguama",
            "responsible": "Enielcio Oliveira Silva",
            "address": "Rua Celina de Oliveira Gomide, 9 , Centro, Araçariguama, São Paulo, Brasil",
            "website": null
        },
        {
            "id": 2986,
            "name": "Nilson Lopes International",
            "federationAbbr": "IBJJF",
            "country": "United Arab Emirates",
            "countryAbbr": "AE",
            "city": "Al Ain",
            "responsible": null,
            "address": "43rd street bldg 28 flat 1  , , Al Ain, AD, United Arab Emirates",
            "website": ""
        },
        {
            "id": 7725,
            "name": "Nilson Nunes - BJJ",
            "federationAbbr": "CBJJ",
            "country": "Brasil",
            "countryAbbr": "BR",
            "city": "Presidente Prudente",
            "responsible": "Nilson Nunes",
            "address": "Rua Orlando Mungo, 277, Presidente Prudente, São Paulo, Brasil",
            "website": null
        },
        {
            "id": 4542,
            "name": "Nilton Ferreira BJJ Team",
            "federationAbbr": "CBJJ",
            "country": "Brasil",
            "countryAbbr": "BR",
            "city": "Salvador",
            "responsible": "Nilton José Tavares Ferreira",
            "address": "Avenida Beira Mar 107 1 andar, Bonfim, Salvador, BA, Brasil",
            "website": "gracibebarrabonfim.weebly.com"
        },
        {
            "id": 9483,
            "name": "Nine 16 Jiu-Jitsu",
            "federationAbbr": "USBJJF",
            "country": "United States of America",
            "countryAbbr": "US",
            "city": "Sacramento",
            "responsible": "Keith Richards LaCasse",
            "address": "7386 Stockton Blvd, Suite K, Sacramento, California, United States of America",
            "website": "Hey, check out my website, \"Nine 16 Jiu-Jitsu\" with this link: https://www.wwwnine16jiujitsu.com/"
        },
        {
            "id": 7133,
            "name": "Nine Nine Japan",
            "federationAbbr": "JBJJF",
            "country": "Japan",
            "countryAbbr": "JP",
            "city": "Kameyama",
            "responsible": "Eduardo Telles Moreira",
            "address": "1-10-29 Nomura, Kameyama, Mie, Japan",
            "website": "https://inclubsportsgym.com/jiu-jitsu-suzuka/"
        }
    ]
}