{
    "pagination": {
        "page": 339,
        "from": 6760,
        "to": 6780,
        "pageSize": 20,
        "lastPage": 358,
        "totalRecords": 7149
    },
    "list": [
        {
            "id": 10736,
            "name": "UFC Gym Japan",
            "federationAbbr": "JBJJF",
            "country": "Japan",
            "countryAbbr": "JP",
            "city": "Tokyo",
            "responsible": "Marcelo Meleiro",
            "address": "Japan, 158-0096 Tokyo, Setagaya City, Tamagawadai, Tokyo, Japan",
            "website": null
        },
        {
            "id": 2723,
            "name": "Uflacker Academy",
            "federationAbbr": "USBJJF",
            "country": "United States of America",
            "countryAbbr": "US",
            "city": "Chicago",
            "responsible": "Christian Tatin Uflacker",
            "address": "5527 South Harlem   , , Chicago, IL, United States of America",
            "website": "www.bjjsouthside.com"
        },
        {
            "id": 9563,
            "name": "Uilian Almeida JJ",
            "federationAbbr": "CBJJ",
            "country": "Brasil",
            "countryAbbr": "BR",
            "city": "Salvador",
            "responsible": "Uiliam Silva Almeida",
            "address": "Rua Do Corte Grande 119, Salvador, Bahia, Brasil",
            "website": null
        },
        {
            "id": 9164,
            "name": "UJC",
            "federationAbbr": "JBJJF",
            "country": "Japan",
            "countryAbbr": "JP",
            "city": "Sakai",
            "responsible": "Thiago Felipe Hatada",
            "address": "3-4-4 Mozuumemachi, Kita-ku,, Sakai, Osaka, Japan",
            "website": "www.ultimateJJ.com"
        },
        {
            "id": 5771,
            "name": "UKF Gym",
            "federationAbbr": "USBJJF",
            "country": "United States of America",
            "countryAbbr": "US",
            "city": "Chandler",
            "responsible": "Francisco Javier Torres",
            "address": "960 E. Warner Road Suite #3, Chandler, AZ, United States of America",
            "website": "www.ukfgym.com"
        },
        {
            "id": 7313,
            "name": "Ukrainian Top Team",
            "federationAbbr": "IBJJF",
            "country": "Ukraine",
            "countryAbbr": "UA",
            "city": "Kiev",
            "responsible": "Bryan Patrick Daly",
            "address": "Zdolbunivska 13, 357, Daly, Kiev, Kiev, Ukraine",
            "website": "@UkranianTopTeam"
        },
        {
            "id": 8418,
            "name": "Ulfhednar BJJ",
            "federationAbbr": "USBJJF",
            "country": "United States of America",
            "countryAbbr": "US",
            "city": "Proctor",
            "responsible": "Michael Anthony Houston II",
            "address": "1118 Levee Rd, Proctor, Ar, United States of America",
            "website": null
        },
        {
            "id": 4484,
            "name": "Ultimate Gym - Team Frontera",
            "federationAbbr": "IBJJF",
            "country": "Germany",
            "countryAbbr": "DE",
            "city": "Augsburg",
            "responsible": "Peter Frontera",
            "address": "Goggingenstr. 91  , , Augsburg, Germany",
            "website": "ultimategym.de"
        },
        {
            "id": 2477,
            "name": "Ultimate MMA Training Center",
            "federationAbbr": "USBJJF",
            "country": "United States of America",
            "countryAbbr": "US",
            "city": "North Haven",
            "responsible": "Andrew Calandrelli Jr.",
            "address": "79 State St.  , , North Haven, CT, United States of America",
            "website": "www.ultimatemmact.com"
        },
        {
            "id": 6485,
            "name": "Ultimate Team BJJ",
            "federationAbbr": "FPJJB",
            "country": "Portugal",
            "countryAbbr": "PT",
            "city": "Mirateso",
            "responsible": "Daniel Almiro da Silva Patrão",
            "address": "Rua Alves Redol N6, Mirateso, Corroios, Portugal",
            "website": null
        },
        {
            "id": 7729,
            "name": "Ultra Jiu-Jitsu Academy",
            "federationAbbr": "USBJJF",
            "country": "United States of America",
            "countryAbbr": "US",
            "city": "Santa Clarita",
            "responsible": "Pedro Serrano",
            "address": "26069 Bouquet Canyon Road, Santa Clarita, CA, United States of America",
            "website": null
        },
        {
            "id": 7319,
            "name": "Uma JJ",
            "federationAbbr": "USBJJF",
            "country": "United States of America",
            "countryAbbr": "US",
            "city": "Phoenix",
            "responsible": "Luis E Ucelo",
            "address": "8021 N. 43rd Ave. 1B, Phoenix, AZ, United States of America",
            "website": "ucelomartialartspphoenix.com"
        },
        {
            "id": 5997,
            "name": "UMB Top Team BJJ",
            "federationAbbr": "CBJJ",
            "country": "Brasil",
            "countryAbbr": "BR",
            "city": "Campinas ",
            "responsible": "Ulisses Martins Barros",
            "address": "Rua Sebastião Bueno Mendes n: 30, Jardim Chapadão, Campinas , São Paulo, Brasil",
            "website": null
        },
        {
            "id": 7137,
            "name": "UMB Top Team BJJ India",
            "federationAbbr": "IBJJF",
            "country": "India",
            "countryAbbr": "IN",
            "city": "Bangalore",
            "responsible": "Ulisses Martins Barros",
            "address": "#1132, 4th floor, 100 ft road, Indira Nagar, Bangalore, Kamataka, India",
            "website": null
        },
        {
            "id": 10106,
            "name": "Unabjj",
            "federationAbbr": "USBJJF",
            "country": "United States of America",
            "countryAbbr": "US",
            "city": "Forest Hills",
            "responsible": "Frederick C. Villarica",
            "address": "100-33 Metropolitan Ave, Forest Hills, Ny, United States of America",
            "website": "Www.unabjj.com"
        },
        {
            "id": 9590,
            "name": "Unbounded Jiu-Jitsu",
            "federationAbbr": "IBJJF",
            "country": "Thailand",
            "countryAbbr": "TH",
            "city": "Koh Samui",
            "responsible": "Hyago Medeiros",
            "address": "48/10 Moo 3, Chaweng Beach, Koh Samui, Surat Thani, Thailand",
            "website": null
        },
        {
            "id": 8479,
            "name": "Under Pressure BJJ",
            "federationAbbr": "FPJJB",
            "country": "Portugal",
            "countryAbbr": "PT",
            "city": "Leiria ",
            "responsible": "Victor Hugo de Carvalho Vale",
            "address": "Rua Sá De Miranda, 124, N 24, Leiria , Leiria , Portugal",
            "website": null
        },
        {
            "id": 4496,
            "name": "Undisputed Tucson",
            "federationAbbr": "USBJJF",
            "country": "United States of America",
            "countryAbbr": "US",
            "city": "Tucson",
            "responsible": "David G. Reilly",
            "address": "1240 N. Stone Ave  , , Tucson, AZ, United States of America",
            "website": "undisputedaz.com"
        },
        {
            "id": 9231,
            "name": "UNG Brazilian Jiu-Jitsu",
            "federationAbbr": "USBJJF",
            "country": "United States of America",
            "countryAbbr": "US",
            "city": "Plano",
            "responsible": "Diego Santana do Espírito Santo",
            "address": "1406 Capital Avenue, Ste 108, Plano, Texas, United States of America",
            "website": "https://underground-bjj.com"
        },
        {
            "id": 10687,
            "name": "Unico Martial Arts",
            "federationAbbr": "USBJJF",
            "country": "United States of America",
            "countryAbbr": "US",
            "city": "Jacksonville",
            "responsible": "Jeremy Fleming Thomas",
            "address": "13 E Doris Ave, Suite C, Jacksonville, Nc, United States of America",
            "website": "https://www.unicomartialarts.com/"
        }
    ]
}