{
    "pagination": {
        "page": 104,
        "from": 2060,
        "to": 2080,
        "pageSize": 20,
        "lastPage": 358,
        "totalRecords": 7149
    },
    "list": [
        {
            "id": 2020,
            "name": "Easton BJJ",
            "federationAbbr": "USBJJF",
            "country": "United States of America",
            "countryAbbr": "US",
            "city": "Boulder",
            "responsible": "Amal B. Easton",
            "address": "1750 30th #22  , , Boulder, CO, United States of America",
            "website": null
        },
        {
            "id": 5882,
            "name": "Ebenezer Jiu-jitsu",
            "federationAbbr": "USBJJF",
            "country": "United States of America",
            "countryAbbr": "US",
            "city": "Corbin",
            "responsible": "Scott Lee Hope",
            "address": "9070 S US 25, Corbin, KY, United States of America",
            "website": "www.corbinmma.com"
        },
        {
            "id": 10133,
            "name": "Ebetsu Jiu-Jitsu",
            "federationAbbr": "JBJJF",
            "country": "Japan",
            "countryAbbr": "JP",
            "city": "Ebetsu Shi",
            "responsible": "Hisashi Ezaki",
            "address": "Kamiebetsu Minami14-1, Ebetsu Shi, Hokkaido, Japan",
            "website": null
        },
        {
            "id": 4381,
            "name": "EBJJA/Kuroiwa",
            "federationAbbr": "CBJJ",
            "country": "Brasil",
            "countryAbbr": "BR",
            "city": "Pilar do Sul",
            "responsible": "Edison Leandro da Silva",
            "address": "Rua 5 de novembro 349, Centro, Pilar do Sul, SP, Brasil",
            "website": "www.kuroiwadojo.com.br"
        },
        {
            "id": 10211,
            "name": "EBJJA/Sorocaba",
            "federationAbbr": "CBJJ",
            "country": "Brasil",
            "countryAbbr": "BR",
            "city": "Sorocaba",
            "responsible": "Edison Leandro da Silva",
            "address": "Avenida Dr. Afonso Vergueiro, Nº 1497 2º Andar S/03, Sorocaba, São Paulo, Brasil",
            "website": null
        },
        {
            "id": 5369,
            "name": "ECJJA",
            "federationAbbr": "IBJJF",
            "country": "Ireland",
            "countryAbbr": "IE",
            "city": "Dublin",
            "responsible": "José Henrique Saraiva Nascimento",
            "address": "Mounttown Industrial Estate, Mounttown Lwr. Rd, Don Laoghaire, Dublin, Ireland",
            "website": "www.ecjja.com"
        },
        {
            "id": 9971,
            "name": "Eclipse Jiu-Jitsu Academy",
            "federationAbbr": "USBJJF",
            "country": "United States of America",
            "countryAbbr": "US",
            "city": "Krum",
            "responsible": "Anthony Cronce",
            "address": "16580 Highway 380, Unit 403, Krum, Tx, United States of America",
            "website": null
        },
        {
            "id": 4922,
            "name": "Ed Ramos Jiu-Jitsu",
            "federationAbbr": "CBJJ",
            "country": "Brasil",
            "countryAbbr": "BR",
            "city": "São José do Rio Preto",
            "responsible": "Eduardo Ramos da Silva",
            "address": "Av. Nossa Senhora da Paz 1651 , Jd. América, São José do Rio Preto, SP, Brasil",
            "website": ""
        },
        {
            "id": 4874,
            "name": "Ed Ramos Jiu-Jitsu USA",
            "federationAbbr": "USBJJF",
            "country": "United States of America",
            "countryAbbr": "US",
            "city": "Houston",
            "responsible": "Francisco Augusto Frota Guimaraes",
            "address": "505 Maxey Rd  C, Houston, TX, United States of America",
            "website": "www.EdRamosJiuJitsu.com"
        },
        {
            "id": 3980,
            "name": "Eddie Fyvie Jiu-Jitsu Academy",
            "federationAbbr": "USBJJF",
            "country": "United States of America",
            "countryAbbr": "US",
            "city": "Malta",
            "responsible": "Edwin E. Fyvie",
            "address": "100 Saratoga Village Blvd, Suite 24, Malta, Ny, United States of America",
            "website": "www.EFJJA.com"
        },
        {
            "id": 4003,
            "name": "Eddy North Fight",
            "federationAbbr": "CBJJ",
            "country": "Brasil",
            "countryAbbr": "BR",
            "city": "Rio de Janeiro",
            "responsible": "Edwilson Rocha dos Santos",
            "address": "Rua Ministro Edgard Romero 787 Sala 204, Vaz Lobo, Rio de Janeiro, RJ, Brasil",
            "website": "http://eddynorthfight.webnode.com/"
        },
        {
            "id": 5621,
            "name": "Edegar Kimura Jiu-Jitsu",
            "federationAbbr": "CBJJ",
            "country": "Brasil",
            "countryAbbr": "BR",
            "city": "Londrina",
            "responsible": "Edegar Akio Kimura",
            "address": "Rua Eliane Alvin Dias Nº 380, JD Império Do Sol, Londrina, PR, Brasil",
            "website": null
        },
        {
            "id": 7650,
            "name": "EDJ International",
            "federationAbbr": "IBJJF",
            "country": "Chile",
            "countryAbbr": "CL",
            "city": "Santiago",
            "responsible": "Juan Pablo Garcia Molina",
            "address": "Suecia 211, PROVIDENCIA, Santiago, Chile",
            "website": "www.edjschoolofjiujitsu.com"
        },
        {
            "id": 7703,
            "name": "EDJ School of Jiu-Jitsu",
            "federationAbbr": "USBJJF",
            "country": "United States of America",
            "countryAbbr": "US",
            "city": "Corona",
            "responsible": "Juan Pablo Garcia Molina",
            "address": "210 dupont st, suit 101, Corona, CA, United States of America",
            "website": "www.edhq.com"
        },
        {
            "id": 6951,
            "name": "Edmar Jacobina Brazilian Jiu-Jitsu",
            "federationAbbr": "UIJJ",
            "country": "Italy",
            "countryAbbr": "IT",
            "city": "Pescara",
            "responsible": "Ricardo Diogo",
            "address": "via Teofilo D'Annunzio, 6, Pescara, Italy",
            "website": null
        },
        {
            "id": 10435,
            "name": "Eduardo Aguiar BJJ",
            "federationAbbr": "CBJJ",
            "country": "Brasil",
            "countryAbbr": "BR",
            "city": "Rio De Janeiro",
            "responsible": "Eduardo Vieira de Aguiar",
            "address": "Rua Alfredo Ceschiatti, 55, Bl 1 704, Rio De Janeiro, Rj, Brasil",
            "website": null
        },
        {
            "id": 8571,
            "name": "Eduardo Farid Team",
            "federationAbbr": "CBJJ",
            "country": "Brasil",
            "countryAbbr": "BR",
            "city": "Guarulhos",
            "responsible": "Eduardo Farid Zaim",
            "address": "Rua Keyle Emilia Lemos Santos, 225, Guarulhos, Sao Paulo, Brasil",
            "website": null
        },
        {
            "id": 6702,
            "name": "Eduardo Maia Escola de Jiu Jitsu",
            "federationAbbr": "CBJJ",
            "country": "Brasil",
            "countryAbbr": "BR",
            "city": "Fortaleza",
            "responsible": "Eduardo Nunes Maia de Carvalho",
            "address": "Rua Carolina Sucupira, Cidade dos Funcionários, Fortaleza, Ce, Brasil",
            "website": null
        },
        {
            "id": 5079,
            "name": "Eduardo Melo Old School Jiu-jitsu",
            "federationAbbr": "CBJJ",
            "country": "Brasil",
            "countryAbbr": "BR",
            "city": "Recife",
            "responsible": "Eduardo Silva de Araujo Melo",
            "address": "Rua São Sebastião 1 Casa, Ibura, Recife, PE, Brasil",
            "website": ""
        },
        {
            "id": 7857,
            "name": "Eduardo Oliveira",
            "federationAbbr": "CBJJ",
            "country": "Brasil",
            "countryAbbr": "BR",
            "city": "Brasilia",
            "responsible": "Eduardo José de Oliveira",
            "address": "Qnn 26 Conjunto H Lote 46, Guariroba, Brasilia, Df, Brasil",
            "website": null
        }
    ]
}