{
    "pagination": {
        "page": 292,
        "from": 5820,
        "to": 5840,
        "pageSize": 20,
        "lastPage": 358,
        "totalRecords": 7149
    },
    "list": [
        {
            "id": 2394,
            "name": "SAS Team USA",
            "federationAbbr": "USBJJF",
            "country": "United States of America",
            "countryAbbr": "US",
            "city": "Sayreville",
            "responsible": null,
            "address": "4450 Bordentown Ave.  , Sayreville, NJ, United States of America",
            "website": "www.trianglebjj.com"
        },
        {
            "id": 6338,
            "name": "Sasquatch Studios",
            "federationAbbr": "IBJJF",
            "country": "United Kingdom",
            "countryAbbr": "GB",
            "city": "Wimborne",
            "responsible": "Adam Kiely",
            "address": "21 Bridle Way, Wimborne, Dorset, United Kingdom",
            "website": "sasquatchstudios.co.uk"
        },
        {
            "id": 7186,
            "name": "Sassom MMA",
            "federationAbbr": "IBJJF",
            "country": "Australia",
            "countryAbbr": "AU",
            "city": "East Brisbane",
            "responsible": "Marcus William Collings",
            "address": "3/36 Hampton Street, East Brisbane, QLD, Australia",
            "website": "www.sassom.com.au"
        },
        {
            "id": 7432,
            "name": "Satake Brazilian Jiu-Jitsu",
            "federationAbbr": "CBJJ",
            "country": "Brasil",
            "countryAbbr": "BR",
            "city": "Manaus",
            "responsible": "Franck Rennãn Gama de Souza",
            "address": "Avenida Codajás, 1128 - Casa A, Cachoeirinha, Manaus, AM, Brasil",
            "website": null
        },
        {
            "id": 4258,
            "name": "Satori BJJ",
            "federationAbbr": "IBJJF",
            "country": "Ireland",
            "countryAbbr": "IE",
            "city": "Dublin",
            "responsible": "Tony Souza",
            "address": "Unit 8b, Codmine Central, Codmine Industrial Estate, Dublin, --, Ireland",
            "website": "satoribjj.com"
        },
        {
            "id": 6526,
            "name": "Satsang BJJ",
            "federationAbbr": "IBJJF",
            "country": "Viet Nam",
            "countryAbbr": "VN",
            "city": "Ho Chi Minh",
            "responsible": "Remco Pardoel",
            "address": "514B Huynh Tan Phat, Binh Thuan Ward, District 7, Ho Chi Minh, --, Viet Nam",
            "website": "www.satsangbjj.com"
        },
        {
            "id": 5342,
            "name": "Saúde \u0026 Força",
            "federationAbbr": "CBJJ",
            "country": "Brasil",
            "countryAbbr": "BR",
            "city": "Rio Pomba",
            "responsible": "Nauru Mendes Martins",
            "address": "Rua Coronel Juvenal Pena, 10 - 101, Baixio, Rio Pomba, MG, Brasil",
            "website": null
        },
        {
            "id": 9659,
            "name": "Saúde Veste Kimono",
            "federationAbbr": "CBJJ",
            "country": "Brasil",
            "countryAbbr": "BR",
            "city": "Picos",
            "responsible": "Michel Coutinho Melo",
            "address": "Deputado Sa Urtiga, 3909, Picos, Piauí, Brasil",
            "website": null
        },
        {
            "id": 9012,
            "name": "Saulo Barbosa",
            "federationAbbr": "CBJJ",
            "country": "Brasil",
            "countryAbbr": "BR",
            "city": "Mogi Das Cruzes",
            "responsible": "Saulo Barbosa",
            "address": "Rua Thuller 747, 2 Andar, Mogi Das Cruzes, Sp, Brasil",
            "website": null
        },
        {
            "id": 3014,
            "name": "Savarese Brazilian Jiu-Jitsu Academy",
            "federationAbbr": "USBJJF",
            "country": "United States of America",
            "countryAbbr": "US",
            "city": "Lyndhurst",
            "responsible": "Christoph D Savarese",
            "address": "40 Park Ave.  , Lyndhurst, NJ, United States of America",
            "website": "www.njbjj.com"
        },
        {
            "id": 9115,
            "name": "SB Jiu-jitsu",
            "federationAbbr": "CBJJ",
            "country": "Brasil",
            "countryAbbr": "BR",
            "city": "Salvador",
            "responsible": "Marta Helena Pires Villas Boas",
            "address": "Rua Clériston Andrade 7 - São Caetano, Salvador, Bahia, Brasil",
            "website": null
        },
        {
            "id": 6932,
            "name": "SBBJJ-ES",
            "federationAbbr": "IBJJF",
            "country": "Spain",
            "countryAbbr": "ES",
            "city": "Figueres",
            "responsible": "Ricardo Aparecido A. de Oliveira",
            "address": "Calle Joan Salvat, 31, Figueres, Spain",
            "website": null
        },
        {
            "id": 7764,
            "name": "SBG Alabama",
            "federationAbbr": "USBJJF",
            "country": "United States of America",
            "countryAbbr": "US",
            "city": "Homewood",
            "responsible": "Roger Dias Coelho",
            "address": "179, State Farm Pkmy, Homewood, Alabama, United States of America",
            "website": "www.spartanfitnessmma.com"
        },
        {
            "id": 9256,
            "name": "SBG Athens",
            "federationAbbr": "USBJJF",
            "country": "United States of America",
            "countryAbbr": "US",
            "city": "Athens",
            "responsible": "Rory M. Singer",
            "address": "240 Collins Industrial Blvd, Suite G, Athens, Georgia, United States of America",
            "website": "https://www.sbgathens.com"
        },
        {
            "id": 3998,
            "name": "SBG Drayton Valley",
            "federationAbbr": "IBJJF",
            "country": "Canada",
            "countryAbbr": "CA",
            "city": "Drayton Valley",
            "responsible": "Travis E. Davison",
            "address": "site 446 Compio Box 2 RR2  , , Drayton Valley, AB, Canada",
            "website": ""
        },
        {
            "id": 2732,
            "name": "SBG East Coast",
            "federationAbbr": "USBJJF",
            "country": "United States of America",
            "countryAbbr": "US",
            "city": "Wareham",
            "responsible": "Stephen M. Whittier",
            "address": "14 Kendrick Rd Unit 1  , Wareham, MA, United States of America",
            "website": "sbgeastcoast.com"
        },
        {
            "id": 2892,
            "name": "SBG International (SBGI)",
            "federationAbbr": "USBJJF",
            "country": "United States of America",
            "countryAbbr": "US",
            "city": "Portland",
            "responsible": "Matt W. Thornton",
            "address": "1812 NE 43rd Ave  , , Portland, OR, United States of America",
            "website": "www.straightblastgym.com"
        },
        {
            "id": 3823,
            "name": "SBG Ireland",
            "federationAbbr": "IBJJF",
            "country": "Ireland",
            "countryAbbr": "IE",
            "city": "Dublin",
            "responsible": "John Raymond Kavanagh",
            "address": "13 Goldenbridge Ind Est, Inchicore, Dublin, Dublin, Ireland",
            "website": "sbgireland.com"
        },
        {
            "id": 2314,
            "name": "SBG Montana",
            "federationAbbr": "USBJJF",
            "country": "United States of America",
            "countryAbbr": "US",
            "city": "Kalispell",
            "responsible": "Travis E. Davison",
            "address": "112 Weiman Way  , , Kalispell, MT, United States of America",
            "website": "www.sbgmontana.com"
        },
        {
            "id": 8945,
            "name": "SBG Naas",
            "federationAbbr": "IBJJF",
            "country": "Ireland",
            "countryAbbr": "IE",
            "city": "Naas",
            "responsible": "Cian  Conlan",
            "address": "Unit A 4, Toughers Industrial Estate, Naas, Co. Kildare, Ireland",
            "website": "www.sbgnaas.ie"
        }
    ]
}