{
    "pagination": {
        "page": 45,
        "from": 880,
        "to": 900,
        "pageSize": 20,
        "lastPage": 358,
        "totalRecords": 7149
    },
    "list": [
        {
            "id": 4693,
            "name": "BJJ Akademie Berlin",
            "federationAbbr": "IBJJF",
            "country": "Germany",
            "countryAbbr": "DE",
            "city": "Berlin",
            "responsible": "Roger Gracie",
            "address": "Hauptstr. 103  , , Berlin, Germany",
            "website": "www.bjjberlin.de"
        },
        {
            "id": 4232,
            "name": "BJJ Alsace",
            "federationAbbr": "IBJJF",
            "country": "France",
            "countryAbbr": "FR",
            "city": "Wintzenheim",
            "responsible": "Flavio Schmidt Behring",
            "address": "111 Rue Clemenceau, Wintzenheim, --, France",
            "website": "bjjalsace.fr"
        },
        {
            "id": 10706,
            "name": "BJJ Art Academy",
            "federationAbbr": "CBJJ",
            "country": "Brasil",
            "countryAbbr": "BR",
            "city": "Niteroi",
            "responsible": "Adriano Lúcio Carneiro Santiago",
            "address": "Rua Das Rosas 159, Niteroi, Rio De Janeiro, Brasil",
            "website": "www.bjjartacademy.com"
        },
        {
            "id": 9744,
            "name": "BJJ Boston 24/7/365",
            "federationAbbr": "USBJJF",
            "country": "United States of America",
            "countryAbbr": "US",
            "city": "Haverhill",
            "responsible": "Brian Wade Caldwell",
            "address": "241 Winter Street, Fifth Floor Inside Boom Athletics, Haverhill, Ma, United States of America",
            "website": "BJJBOSTON.NET"
        },
        {
            "id": 5537,
            "name": "BJJ Coach - Alexander Brazilian Jiu-Jitsu",
            "federationAbbr": "USBJJF",
            "country": "United States of America",
            "countryAbbr": "US",
            "city": "Elkhart",
            "responsible": "Joseph E. Alexander Sr.",
            "address": "1120 West Bristol St., Elkhart, IN, United States of America",
            "website": null
        },
        {
            "id": 5199,
            "name": "BJJ Coach - Corral's Martial Arts",
            "federationAbbr": "USBJJF",
            "country": "United States of America",
            "countryAbbr": "US",
            "city": "Schererville",
            "responsible": "Braulio Corral Jr.",
            "address": "820 Cedar Parkway  , , Schererville, IN, United States of America",
            "website": "www.teamcorral.com"
        },
        {
            "id": 8781,
            "name": "BJJ Coach Angola",
            "federationAbbr": "IBJJF",
            "country": "Angola",
            "countryAbbr": "AO",
            "city": "Luanda",
            "responsible": "Marcello Chapuis Monteiro",
            "address": "Rua 1 Casas Amarelas Quadra N 2, Casa N. 6-e, Luanda, Luanda, Angola",
            "website": "https://www.bjjcoach.com"
        },
        {
            "id": 5231,
            "name": "BJJ Coach Association Australia",
            "federationAbbr": "IBJJF",
            "country": "Australia",
            "countryAbbr": "AU",
            "city": "Melbourne",
            "responsible": "Marcello Chapuis Monteiro",
            "address": "8 Glenmaggie Place  , Wyndham Vale, Melbourne, VI, Australia",
            "website": "www.bjjcoach.com"
        },
        {
            "id": 4270,
            "name": "BJJ Coach Brasil",
            "federationAbbr": "CBJJ",
            "country": "Brasil",
            "countryAbbr": "BR",
            "city": "Nova friburgo ",
            "responsible": "Marcello Chapuis Monteiro",
            "address": "Av. Conselheiro Julius ARP 361 , Olaria, Nova friburgo , RJ, Brasil",
            "website": "www.bjjcoach.com"
        },
        {
            "id": 2724,
            "name": "BJJ Coach Intl. Association",
            "federationAbbr": "USBJJF",
            "country": "United States of America",
            "countryAbbr": "US",
            "city": "Indianapolis",
            "responsible": "Marcello Chapuis Monteiro",
            "address": "4967 South Emerson Ave  , Indianapolis, IN, United States of America",
            "website": "www.bjjcoach.com"
        },
        {
            "id": 8306,
            "name": "BJJ Coach Tatu Fight Team",
            "federationAbbr": "CBJJ",
            "country": "Brasil",
            "countryAbbr": "BR",
            "city": "Três Lagoas",
            "responsible": "Antonio Erasmo Pereira",
            "address": "Rua Coronel João Filgueiras, 2356 - Jardim Novo Ipanema, Três Lagoas, Mato Grosso Do Sul, Brasil",
            "website": null
        },
        {
            "id": 2435,
            "name": "Bjj Conquest",
            "federationAbbr": "USBJJF",
            "country": "United States of America",
            "countryAbbr": "US",
            "city": "Crofton",
            "responsible": "Luíz Vicente da Silva Júnior",
            "address": "2411 Crofton Lane  , , Crofton, MD, United States of America",
            "website": "bjjconquest.com"
        },
        {
            "id": 7625,
            "name": "Bjj Core Japan",
            "federationAbbr": "JBJJF",
            "country": "Japan",
            "countryAbbr": "JP",
            "city": "Kariya shi ",
            "responsible": "Miqueias Toshio Asada",
            "address": "Izumida cho takabata ishiki 1-1 , Kariya shi , Aichi ken , Japan",
            "website": null
        },
        {
            "id": 10512,
            "name": "BJJ De Favela",
            "federationAbbr": "CBJJ",
            "country": "Brasil",
            "countryAbbr": "BR",
            "city": "Ribeirao Das Neves",
            "responsible": "Alexandre Luiz Cordeiro",
            "address": "Rua Sao  Paulo 176, Ribeirao Das Neves, Mg, Brasil",
            "website": "nao tem"
        },
        {
            "id": 9400,
            "name": "BJJ Dunedin",
            "federationAbbr": "IBJJF",
            "country": "New Zealand",
            "countryAbbr": "NZ",
            "city": "Dunedin",
            "responsible": "Philip Gary Lindsay",
            "address": "Room 114 King Edward Court Building, 291 Stuart Street, Dunedin, Otago, New Zealand",
            "website": "www.bjjdunedin.nz"
        },
        {
            "id": 9548,
            "name": "BJJ FAMILY",
            "federationAbbr": "CBJJ",
            "country": "Brasil",
            "countryAbbr": "BR",
            "city": "São José Dos Campos",
            "responsible": "Abraão Falcão do Nascimento",
            "address": "Rua Gilberto Trunkl, 417, Setville Altos de São José, São José Dos Campos, SP, Brasil",
            "website": null
        },
        {
            "id": 5669,
            "name": "BJJ FC Calgary",
            "federationAbbr": "IBJJF",
            "country": "Canada",
            "countryAbbr": "CA",
            "city": "Calgary",
            "responsible": "Alexander B. Siedule",
            "address": "#102 5421 11 Street NE, Calgary, AB, Canada",
            "website": "bjjfightclub.com"
        },
        {
            "id": 3662,
            "name": "BJJ for Christ",
            "federationAbbr": "USBJJF",
            "country": "United States of America",
            "countryAbbr": "US",
            "city": "Brookfield",
            "responsible": "Marcio Oliveira de Alencar",
            "address": "994 Federal Rd, Unit 1, Brookfield, CT, United States of America",
            "website": "www.bjjforchrist.com"
        },
        {
            "id": 6946,
            "name": "BJJ For Cops",
            "federationAbbr": "USBJJF",
            "country": "United States of America",
            "countryAbbr": "US",
            "city": "Knoxville",
            "responsible": "Cody Scott Hudson",
            "address": "10820 Carmichael Rd, Knoxville, Tennessee, United States of America",
            "website": "https://www.instagram.com/bjjforcops/"
        },
        {
            "id": 10615,
            "name": "BJJ Gozo",
            "federationAbbr": "IBJJF",
            "country": "Malta",
            "countryAbbr": "MT",
            "city": "Xaghra",
            "responsible": "François Deniau",
            "address": "Ivy, 6 Triq Jannar, Xaghra, Gozo, Malta",
            "website": "https://bjjgozo.com"
        }
    ]
}