{
    "pagination": {
        "page": 317,
        "from": 6320,
        "to": 6340,
        "pageSize": 20,
        "lastPage": 358,
        "totalRecords": 7149
    },
    "list": [
        {
            "id": 3364,
            "name": "Team Eaton JJ",
            "federationAbbr": "USBJJF",
            "country": "United States of America",
            "countryAbbr": "US",
            "city": "Yorktown",
            "responsible": "Benjamin J. Eaton",
            "address": "104 Production Drive, , Yorktown, VA, United States of America",
            "website": "www.teameatonjj.com"
        },
        {
            "id": 6438,
            "name": "Team Esperança Brazilian Jiu-Jitsu",
            "federationAbbr": "CBJJ",
            "country": "Brasil",
            "countryAbbr": "BR",
            "city": "Murié",
            "responsible": "Alan Esperança da Rocha",
            "address": "Rua Soldado Wilson Nogueira n: 45 A, Alto do Castelo, Murié, Minas Gerais, Brasil",
            "website": null
        },
        {
            "id": 7006,
            "name": "Team Evangelista",
            "federationAbbr": "CBJJ",
            "country": "Brasil",
            "countryAbbr": "BR",
            "city": "Rio de Janeiro",
            "responsible": "Ricardo Ferreira Evangelista",
            "address": "Rua Maués S/N Lote 45 Quadra 06, Brás de Pina, Rio de Janeiro, Rio de Janeiro, Brasil",
            "website": null
        },
        {
            "id": 8777,
            "name": "Team Evasão Paris",
            "federationAbbr": "IBJJF",
            "country": "France",
            "countryAbbr": "FR",
            "city": "Paris",
            "responsible": "Jose Joaquim Pereira",
            "address": "119 Bis Rue Monge 75005, Paris, France, France",
            "website": null
        },
        {
            "id": 6839,
            "name": "Team Felipe Martins",
            "federationAbbr": "IBJJF",
            "country": "Ireland",
            "countryAbbr": "IE",
            "city": "Cork",
            "responsible": "Luis Felipe Martins",
            "address": "14 French Church Street, Cork, CO, Ireland",
            "website": "www.teamFMcork.net"
        },
        {
            "id": 7596,
            "name": "Team Felipe Martins Barão",
            "federationAbbr": "CBJJ",
            "country": "Brasil",
            "countryAbbr": "BR",
            "city": "Campos Novos",
            "responsible": "Luis Felipe Martins",
            "address": "Rua: Tancredo Neves 994, Nossa Senhora De Lourdes, Campos Novos, Santa Catarina, Brasil",
            "website": "www.teamfmcork.com"
        },
        {
            "id": 8545,
            "name": "Team Fernandes España BJJ",
            "federationAbbr": "IBJJF",
            "country": "Spain",
            "countryAbbr": "ES",
            "city": "Mojácar",
            "responsible": "Ricardo Fernandes Pires",
            "address": "Calle San Sebastián número 9, Mojácar Pueblo, Mojácar, Almería, Spain",
            "website": null
        },
        {
            "id": 3072,
            "name": "Team Ferreira BJJ",
            "federationAbbr": "USBJJF",
            "country": "United States of America",
            "countryAbbr": "US",
            "city": "Pharr",
            "responsible": "Carlos Diego Ferreira  Neves",
            "address": "101 E Expressway 83 , Suíte A, Pharr, TX, United States of America",
            "website": "www.teamferreirabjj.com"
        },
        {
            "id": 4398,
            "name": "Team Filhão Arraial do Cabo",
            "federationAbbr": "CBJJ",
            "country": "Brasil",
            "countryAbbr": "BR",
            "city": "Arraial do Cabo",
            "responsible": "Cesar Machado",
            "address": "Rua Bento Pereira 45 casa, Praia dos Anjos, Arraial do Cabo, RJ, Brasil",
            "website": ""
        },
        {
            "id": 8892,
            "name": "Team Fior BJJ",
            "federationAbbr": "USBJJF",
            "country": "United States of America",
            "countryAbbr": "US",
            "city": "Charlotte",
            "responsible": "Matthew Americk Fior",
            "address": "14215 Wentwater Street, Charlotte, Nc, United States of America",
            "website": null
        },
        {
            "id": 9638,
            "name": "Team First RW+B",
            "federationAbbr": "IBJJF",
            "country": "Korea, South",
            "countryAbbr": "KR",
            "city": "Hwaseong-si",
            "responsible": "Seung-Jae Lee",
            "address": "#unit 408-234 Dong, 108-10, Dongtanyeongcheon-ro, Hwaseong-si, Gyeonggi-do, Korea, South",
            "website": null
        },
        {
            "id": 6199,
            "name": "Team Fonseca",
            "federationAbbr": "CBJJ",
            "country": "Brasil",
            "countryAbbr": "BR",
            "city": "Rio de Janeiro",
            "responsible": "Lazaro Fonseca do Nascimento",
            "address": "Rua Flamarion n: 348, Jardim Carioca, Rio de Janeiro, Rio de Janeiro, Brasil",
            "website": null
        },
        {
            "id": 6389,
            "name": "Team Forsa",
            "federationAbbr": "USBJJF",
            "country": "United States of America",
            "countryAbbr": "US",
            "city": "Woburn",
            "responsible": "Anderson Silverio da Silva",
            "address": "2 Cedar St, Woburn, MA, United States of America",
            "website": "www.teamforsa.com"
        },
        {
            "id": 4439,
            "name": "Team Frankfurt",
            "federationAbbr": "IBJJF",
            "country": "Germany",
            "countryAbbr": "DE",
            "city": "Frankfurt",
            "responsible": "Sascha Rankovic",
            "address": "Goethering 54  , , Frankfurt, --, Germany",
            "website": "www.alliance-frankfurt.de"
        },
        {
            "id": 2866,
            "name": "Team Ganbaru",
            "federationAbbr": "IBJJF",
            "country": "Spain",
            "countryAbbr": "ES",
            "city": "Valencia",
            "responsible": "Ezekiel Zayas Latorre",
            "address": "Musico Cabanilles 46, , Valencia, Valencia, Spain",
            "website": "www.asesbjj.info"
        },
        {
            "id": 5059,
            "name": "Team Gann",
            "federationAbbr": "USBJJF",
            "country": "United States of America",
            "countryAbbr": "US",
            "city": "Haslet",
            "responsible": "Wesley Tate Gann",
            "address": "12500 Willow Springs Rd, Suite 100, Haslet, Tx, United States of America",
            "website": "www.teamgann.com"
        },
        {
            "id": 2590,
            "name": "Team Gigueto",
            "federationAbbr": "CBJJ",
            "country": "Brasil",
            "countryAbbr": "BR",
            "city": "Fortaleza",
            "responsible": "André Luiz Soares",
            "address": "Av. Rui Barbosa  2481 A, Joaquim Távora, Fortaleza, CE, Brasil",
            "website": ""
        },
        {
            "id": 2918,
            "name": "Team Gil Catarino",
            "federationAbbr": "IBJJF",
            "country": "Spain",
            "countryAbbr": "ES",
            "city": "Las Palmas ",
            "responsible": "Gil Sandro Justino Porto",
            "address": "C/ Menorca 3 - Piso 3  , , Las Palmas , SP, Spain",
            "website": "www.gilcatarino.es"
        },
        {
            "id": 10185,
            "name": "Team Gimhae Jiu-Jitsu",
            "federationAbbr": "IBJJF",
            "country": "Korea, South",
            "countryAbbr": "KR",
            "city": "Gimhae-si",
            "responsible": "GangJae Lee",
            "address": "Gaya-ro 38beon-gil, 401, Gimhae-si, South Gyeongsang, Korea, South",
            "website": "https://cafe.naver.com/jiujitsukimhae"
        },
        {
            "id": 6003,
            "name": "Team Glen Burnie",
            "federationAbbr": "USBJJF",
            "country": "United States of America",
            "countryAbbr": "US",
            "city": "Glen Burnie",
            "responsible": "Noel Jermy Smith",
            "address": "7478 Baltimore Annapolis Blvd, Glen Burnie, MD, United States of America",
            "website": "www.noelsmithbjj.com"
        }
    ]
}