{
    "pagination": {
        "page": 92,
        "from": 1820,
        "to": 1840,
        "pageSize": 20,
        "lastPage": 358,
        "totalRecords": 7149
    },
    "list": [
        {
            "id": 8633,
            "name": "CT Wagner Brito Team",
            "federationAbbr": "CBJJ",
            "country": "Brasil",
            "countryAbbr": "BR",
            "city": "Rio De Janeiro",
            "responsible": "Wagner Souza de Brito Junior",
            "address": "Travessa Sebastião Felício 498, Casa 7, Rio De Janeiro, Rio De Janeiro, Brasil",
            "website": null
        },
        {
            "id": 6089,
            "name": "CT WS Team Senhor do Bonfim",
            "federationAbbr": "CBJJ",
            "country": "Brasil",
            "countryAbbr": "BR",
            "city": "Senhor do Bomfim",
            "responsible": "Wanderson Messias de Oliveira Silva",
            "address": "Rua Roberto Marinho n: 323, Bairro: Luiz Eduardo Magalhães, Senhor do Bomfim, Bahia, Brasil",
            "website": null
        },
        {
            "id": 6474,
            "name": "CT Zion Brazilian Jiu-Jitsu",
            "federationAbbr": "CBJJ",
            "country": "Brasil",
            "countryAbbr": "BR",
            "city": "Manaus",
            "responsible": "João Wanderley da Silva Camarão",
            "address": "Rua Tucumã, 02 - Zumbi Dos Palmares 3, Bairro: Zumbi dos Palmares, Manaus, AM, Brasil",
            "website": null
        },
        {
            "id": 7825,
            "name": "Ct. Cachorro Louco BJJ",
            "federationAbbr": "CBJJ",
            "country": "Brasil",
            "countryAbbr": "BR",
            "city": "Portel",
            "responsible": "Eduardo da Silva Conceição",
            "address": "Avenida Portel Tucuruí, N°14, Enfrente Ao Mercantil Rayssa, Portel, Pará, Brasil",
            "website": null
        },
        {
            "id": 10649,
            "name": "Ct. Dragon's Legion Top Team",
            "federationAbbr": "CBJJ",
            "country": "Brasil",
            "countryAbbr": "BR",
            "city": "Santarém",
            "responsible": "Henrique da Luz Vieira Santos",
            "address": "Travessa: Niterói, N09 / Bairro: Jutaí, Próximo Ao Ginásio Do Colégio Frei Rainerio / Entre: Araguarina E Jaburá, Santarém, Pará, Brasil",
            "website": null
        },
        {
            "id": 10636,
            "name": "CTAFBJJ",
            "federationAbbr": "CBJJ",
            "country": "Brasil",
            "countryAbbr": "BR",
            "city": "Recife",
            "responsible": "Adeildo José Silva de Melo",
            "address": "Rua Doutor Luiz Ramos Leal, 45, Recife, Pernambuco, Brasil",
            "website": null
        },
        {
            "id": 10637,
            "name": "CTAFBJJ",
            "federationAbbr": "CBJJ",
            "country": "Brasil",
            "countryAbbr": "BR",
            "city": "Recife",
            "responsible": "Adeildo José Silva de Melo",
            "address": "Rua Doutor Luiz Ramos Leal, 45, Recife, Pernambuco, Brasil",
            "website": null
        },
        {
            "id": 8520,
            "name": "CTAG, Centro De Treinamento Armando Gomes",
            "federationAbbr": "USBJJF",
            "country": "United States of America",
            "countryAbbr": "US",
            "city": "Albuquerque",
            "responsible": "Armando Gomes da Silva",
            "address": "2820 Richmond Dr Ne Albuquerque Nm 87107, Albuquerque, New Mexico, United States of America",
            "website": null
        },
        {
            "id": 10025,
            "name": "CTBJJ Korea",
            "federationAbbr": "IBJJF",
            "country": "Korea, South",
            "countryAbbr": "KR",
            "city": "Daegu",
            "responsible": "Carlos Alberto Toyotta",
            "address": "3f 235 Haksan-ro, Dalseo-gu, Daegu, Gyeongsangbukdo, Korea, South",
            "website": null
        },
        {
            "id": 7998,
            "name": "CTCS",
            "federationAbbr": "CBJJ",
            "country": "Brasil",
            "countryAbbr": "BR",
            "city": "Santa Maria",
            "responsible": "Carlos Andre da Silva",
            "address": "Qr 214 Conjunto F Casa 25, Santa Maria, Brasilia, Brasil",
            "website": null
        },
        {
            "id": 7057,
            "name": "CTF Excelência em Lutas",
            "federationAbbr": "CBJJ",
            "country": "Brasil",
            "countryAbbr": "BR",
            "city": "Paulinia",
            "responsible": "Antonio Marcos Sotto Mayor Ribeiro",
            "address": "Rua Presidente Costa e Silva n: 315, Nova Paulinia, Paulinia, São Paulo, Brasil",
            "website": "www.ctffamiliar.com.br"
        },
        {
            "id": 6445,
            "name": "CTFC Centro de Treinamento Fábio Campos",
            "federationAbbr": "CBJJ",
            "country": "Brasil",
            "countryAbbr": "BR",
            "city": "Porto Seguro ",
            "responsible": "Fabio Souza Campos",
            "address": "Rua das Gaivotas n: 40, Fontana 1, Porto Seguro , Bahia, Brasil",
            "website": null
        },
        {
            "id": 5786,
            "name": "CTJP",
            "federationAbbr": "CBJJ",
            "country": "Brasil",
            "countryAbbr": "BR",
            "city": "Palhoça",
            "responsible": "João Paulo Collaço Cordeiro",
            "address": "Rua Palmira Rosa E Silva N: 302, Pontal, Palhoça, Santa Catarina, Brasil",
            "website": "facebook.com/academiadelutasctpj"
        },
        {
            "id": 5020,
            "name": "CTLJ Team",
            "federationAbbr": "CBJJ",
            "country": "Brasil",
            "countryAbbr": "BR",
            "city": "Maceió",
            "responsible": "Helenilson da Silva Santos",
            "address": "AV. Monte Castelo n: 155, Vergel do Lago, Maceió, AL, Brasil",
            "website": null
        },
        {
            "id": 10691,
            "name": "CTLT",
            "federationAbbr": "CBJJ",
            "country": "Brasil",
            "countryAbbr": "BR",
            "city": "Brasilia",
            "responsible": "Leandro Tiago de Oliveira",
            "address": "Recanto Das Emas Quadra 111 Conjunto 05casa 156, Brasilia, Distrito Federal, Brasil",
            "website": null
        },
        {
            "id": 8091,
            "name": "Ctrb - Art / Centro De Treino Ruy Barbosa",
            "federationAbbr": "CBJJ",
            "country": "Brasil",
            "countryAbbr": "BR",
            "city": "Ruy Barbosa",
            "responsible": "Marco José de Oliveira Souza",
            "address": "Rua Hugo Rocha Pires, S/n, Prédio, Ruy Barbosa, Bahia, Brasil",
            "website": null
        },
        {
            "id": 9920,
            "name": "CTRM Brazilian Jiu-Jitsu",
            "federationAbbr": "CBJJ",
            "country": "Brasil",
            "countryAbbr": "BR",
            "city": "Boa Vista",
            "responsible": "Flávio Sales da Costa",
            "address": "Av. Jardim, 451 - Quadra: Urucum, Bloco 04 - Bairro Cidade Satélite - Residencial Vila Jardim, Apartamento 401, Boa Vista, Roraima, Brasil",
            "website": null
        },
        {
            "id": 8852,
            "name": "CTU BJJ",
            "federationAbbr": "CBJJ",
            "country": "Brasil",
            "countryAbbr": "BR",
            "city": "Barroso",
            "responsible": "Tulio Giovanni Ferreira da Silva",
            "address": "Rua Minas Gerais, 93, Barroso, Mg, Brasil",
            "website": null
        },
        {
            "id": 9902,
            "name": "CTUBT",
            "federationAbbr": "CBJJ",
            "country": "Brasil",
            "countryAbbr": "BR",
            "city": "Fortaleza",
            "responsible": "Danusio Alves de Freitas Junior",
            "address": "Av. Jovita Feitosa, 878. Parquelândia, Fortaleza, Ceará, Brasil",
            "website": null
        },
        {
            "id": 9811,
            "name": "CTWM - Centro De Treinamento Wellington Mandrake",
            "federationAbbr": "CBJJ",
            "country": "Brasil",
            "countryAbbr": "BR",
            "city": "Fortaleza",
            "responsible": "Wellington Silva  Pinheiro",
            "address": "Av : J - Nº 1430 - Vila Velha, Conj Bancarios, Fortaleza, Ceara, Brasil",
            "website": null
        }
    ]
}