{
    "pagination": {
        "page": 326,
        "from": 6500,
        "to": 6520,
        "pageSize": 20,
        "lastPage": 358,
        "totalRecords": 7149
    },
    "list": [
        {
            "id": 10271,
            "name": "The Academy Of Grounding",
            "federationAbbr": "IBJJF",
            "country": "Australia",
            "countryAbbr": "AU",
            "city": "West End",
            "responsible": "Rodrigo Gonçalves Martins Teixeira",
            "address": "2/349 Montague Road, West End, Queensland, Australia",
            "website": "http://www.theacademyofgrounding.com"
        },
        {
            "id": 4909,
            "name": "The Academy of Pensacola",
            "federationAbbr": "USBJJF",
            "country": "United States of America",
            "countryAbbr": "US",
            "city": "Pensacola",
            "responsible": "Michael Morgan",
            "address": "2600 West Nine Mile Rd  , , Pensacola, FL, United States of America",
            "website": "theacademyofpensacola.com"
        },
        {
            "id": 10614,
            "name": "The Academy of South Denver",
            "federationAbbr": "USBJJF",
            "country": "United States of America",
            "countryAbbr": "US",
            "city": "Littleton",
            "responsible": "Rodrigo Antunes Guimarães",
            "address": "7444 University Blv, Littleton, Colorado, United States of America",
            "website": null
        },
        {
            "id": 7446,
            "name": "The Arena MMA - Australia",
            "federationAbbr": "IBJJF",
            "country": "Australia",
            "countryAbbr": "AU",
            "city": "Bibra Lake",
            "responsible": "Jamie Smart Morrison",
            "address": "23 Port Kembla Drive, Bibra Lake, WA, Australia",
            "website": "roarmma.com.au"
        },
        {
            "id": 4545,
            "name": "The Armory",
            "federationAbbr": "USBJJF",
            "country": "United States of America",
            "countryAbbr": "US",
            "city": "Jupiter",
            "responsible": "Marcelo Cohen",
            "address": "1695 West Indiantown Road 22-23 , Jupiter, FL, United States of America",
            "website": "www.thearmory.tv"
        },
        {
            "id": 4024,
            "name": "The A-Team",
            "federationAbbr": "USBJJF",
            "country": "United States of America",
            "countryAbbr": "US",
            "city": "New York",
            "responsible": "Danny L. Anderson",
            "address": "394 Broadway  , , New York, NY, United States of America",
            "website": "www.andersonsmartialarts.com"
        },
        {
            "id": 5437,
            "name": "The Base Training Center",
            "federationAbbr": "USBJJF",
            "country": "United States of America",
            "countryAbbr": "US",
            "city": "Boise",
            "responsible": "Benjamin Davis Buttars",
            "address": "201 N Maple Grove, Suite #130, Boise, ID, United States of America",
            "website": "www.jiujitsuboise.com"
        },
        {
            "id": 9926,
            "name": "The Brothers BJJ",
            "federationAbbr": "IBJJF",
            "country": "Guadeloupe",
            "countryAbbr": "GP",
            "city": "Gosier",
            "responsible": "Handuilo Richardson Ferreira",
            "address": "Impasse Bordelais, Grand Bois, Gosier, Gosier, Guadeloupe",
            "website": null
        },
        {
            "id": 6472,
            "name": "The Brothers BJJ International",
            "federationAbbr": "IBJJF",
            "country": "Bahrain",
            "countryAbbr": "BH",
            "city": "Isa Town",
            "responsible": "Wagner da Silva Borges",
            "address": "Amman Avenue, Building 332, Isa Town, --, Bahrain",
            "website": null
        },
        {
            "id": 5225,
            "name": "The Brothers BJJ Pernambuco",
            "federationAbbr": "CBJJ",
            "country": "Brasil",
            "countryAbbr": "BR",
            "city": "Paulista",
            "responsible": "Uebe Gomes Ramos",
            "address": "Rua General Castelo Branco 80 , Arthur Lundgren 1, Paulista, PE, Brasil",
            "website": null
        },
        {
            "id": 4454,
            "name": "The Cage MMA / Léo Radar Carlson Gracie Ari Galo",
            "federationAbbr": "FPJJB",
            "country": "Portugal",
            "countryAbbr": "PT",
            "city": "Algarve",
            "responsible": null,
            "address": "Av José dos Santos Farias, Porta A r/c Drt.º . ., ., Algarve, .., Portugal",
            "website": ""
        },
        {
            "id": 7219,
            "name": "The Cave Academy Pacifica",
            "federationAbbr": "USBJJF",
            "country": "United States of America",
            "countryAbbr": "US",
            "city": "Pacifica",
            "responsible": "Michael Christopher Murrell",
            "address": "1037 Terra Nova Blvd, Pacifica, CA, United States of America",
            "website": "www.caveacademyjj.com"
        },
        {
            "id": 5444,
            "name": "The Champions Brazilian Jiu-Jitsu Roraima",
            "federationAbbr": "CBJJ",
            "country": "Brasil",
            "countryAbbr": "BR",
            "city": "Boa Vista",
            "responsible": "Wellynthon Noronha Pessoa",
            "address": "Rua Flamboian 40, Jardim Primavera, Boa Vista, RR, Brasil",
            "website": null
        },
        {
            "id": 9761,
            "name": "The Coachinglab",
            "federationAbbr": "IBJJF",
            "country": "France",
            "countryAbbr": "FR",
            "city": "Nice",
            "responsible": "Saief Toumy",
            "address": "The Coachinglab, 7 Bis rue Barla, Nice, France",
            "website": "https://thecoachinglab.fr/"
        },
        {
            "id": 10275,
            "name": "The Combat Centre Jiu-Jitsu",
            "federationAbbr": "IBJJF",
            "country": "New Zealand",
            "countryAbbr": "NZ",
            "city": "Whenuapai",
            "responsible": "Renato Cecílio Silva",
            "address": "2b/12 Kawakawa Place, Whenuapai, Whenuapai, Auckland, New Zealand",
            "website": "www.thecombatcentre.nz"
        },
        {
            "id": 7135,
            "name": "The Compound",
            "federationAbbr": "USBJJF",
            "country": "United States of America",
            "countryAbbr": "US",
            "city": "Silver Spring",
            "responsible": "Alexandre Bueno de Oliveira",
            "address": "12210 Plum Orchard Dr., Suite 207, Silver Spring, MD, United States of America",
            "website": "www.thecompoundsilverspring.com"
        },
        {
            "id": 7274,
            "name": "The Cross BJJ",
            "federationAbbr": "CBJJ",
            "country": "Brasil",
            "countryAbbr": "BR",
            "city": "Rio de Janeiro",
            "responsible": "Carla Cavalcante Roberto",
            "address": "Rua Santa Fé 113, Sala 302, Rio de Janeiro, Rio de Janeiro, Brasil",
            "website": null
        },
        {
            "id": 2872,
            "name": "The Dojo",
            "federationAbbr": "IBJJF",
            "country": "Australia",
            "countryAbbr": "AU",
            "city": "Bondi Junction",
            "responsible": "Yuki Nakai",
            "address": "116 a Bronte Rd, Bondi Junction, NSW, Australia",
            "website": "www.bjjsydney.com.au"
        },
        {
            "id": 5356,
            "name": "The Dungeon BJJ",
            "federationAbbr": "IBJJF",
            "country": "United Kingdom",
            "countryAbbr": "GB",
            "city": "Sunderland",
            "responsible": "Aaron Lee Naisbet",
            "address": "35 Cheadle Road, Sunderland, United Kingdom",
            "website": null
        },
        {
            "id": 7767,
            "name": "The Farm Brazilian Jiu-Jitsu",
            "federationAbbr": "USBJJF",
            "country": "United States of America",
            "countryAbbr": "US",
            "city": "Greeley",
            "responsible": "Daniel M.L Richards",
            "address": "6268 W 10th St Ste C, Greeley, Colorado, United States of America",
            "website": "www.thefarmbjj.com"
        }
    ]
}