{
    "pagination": {
        "page": 141,
        "from": 2800,
        "to": 2820,
        "pageSize": 20,
        "lastPage": 358,
        "totalRecords": 7149
    },
    "list": [
        {
            "id": 5840,
            "name": "GF Team Santa Cruz",
            "federationAbbr": "CBJJ",
            "country": "Brasil",
            "countryAbbr": "BR",
            "city": "Rio de Janeiro",
            "responsible": "Ajail Neves Braga Júnior",
            "address": "Avenida Engenheiro Gastao Rangel N: 1080, Sobreloja - Bairro: Santa Cruz, Rio de Janeiro, Rio de Janeiro, Brasil",
            "website": null
        },
        {
            "id": 5096,
            "name": "GF Team Santo Antão - CTA",
            "federationAbbr": "CBJJ",
            "country": "Brasil",
            "countryAbbr": "BR",
            "city": "Vitoria de Santo Antão",
            "responsible": "Alexandre Carlos dos Santos",
            "address": "Travessa Antonio Felipe Camarão 09 , Jardim Ipiranga, Vitoria de Santo Antão, PE, Brasil",
            "website": ""
        },
        {
            "id": 6025,
            "name": "GF Team São Paulo",
            "federationAbbr": "CBJJ",
            "country": "Brasil",
            "countryAbbr": "BR",
            "city": "Limeira",
            "responsible": "Julio Cesar Pereira",
            "address": "Av. Fabricio Vampré n: 949, Academia - Jd. Nova Itália , Limeira, São Paulo, Brasil",
            "website": null
        },
        {
            "id": 6656,
            "name": "GF Team Sepetiba",
            "federationAbbr": "CBJJ",
            "country": "Brasil",
            "countryAbbr": "BR",
            "city": "Rio de Janeiro",
            "responsible": "Fagner Cardoso de Lima",
            "address": "Rua Augusto Assunção 17, Bairro: Sepetiba, Rio de Janeiro, Rio de Janeiro, Brasil",
            "website": null
        },
        {
            "id": 1088,
            "name": "GF Team Sergipe",
            "federationAbbr": "CBJJ",
            "country": "Brasil",
            "countryAbbr": "BR",
            "city": "Aracajú",
            "responsible": "Julio Cesar Pereira",
            "address": "Z Dois Nº 681  , Farolândia, Aracajú, SE, Brasil",
            "website": ""
        },
        {
            "id": 4605,
            "name": "GF Team Texas",
            "federationAbbr": "USBJJF",
            "country": "United States of America",
            "countryAbbr": "US",
            "city": "Houston",
            "responsible": "Marcus Vinícius de Souza Bello",
            "address": "5756 South Rice Ave  , Houston, TX, United States of America",
            "website": null
        },
        {
            "id": 4742,
            "name": "GF Team Três Corações",
            "federationAbbr": "CBJJ",
            "country": "Brasil",
            "countryAbbr": "BR",
            "city": "Três Corações",
            "responsible": "Jefferson Lemes Rosa",
            "address": "Rua Doutor Esperidião de Queiróz 26 , Santa Teresa, Três Corações, MG, Brasil",
            "website": ""
        },
        {
            "id": 6645,
            "name": "GF Team Ubá",
            "federationAbbr": "CBJJ",
            "country": "Brasil",
            "countryAbbr": "BR",
            "city": "Uba",
            "responsible": "Julio Cesar Pereira",
            "address": "Av. Comendador Jacinto Soares de Souza Lima n: 865, Loja 2 bairro: Centro, Uba, Minas Gerais, Brasil",
            "website": null
        },
        {
            "id": 4263,
            "name": "GF Team UK",
            "federationAbbr": "IBJJF",
            "country": "United Kingdom",
            "countryAbbr": "GB",
            "city": "London",
            "responsible": "Thiago Jorge Borges",
            "address": "48B Sheperds Bush Road  , , London, --, United Kingdom",
            "website": ""
        },
        {
            "id": 5375,
            "name": "GF Team Varginha",
            "federationAbbr": "CBJJ",
            "country": "Brasil",
            "countryAbbr": "BR",
            "city": "Varginha",
            "responsible": "Thiago Yasuhiro Kaneko",
            "address": "R. Alan Kardec n: 121, Bom Pastor, Varginha, MG, Brasil",
            "website": null
        },
        {
            "id": 9559,
            "name": "G-Force Mixed Martial Arts",
            "federationAbbr": "IBJJF",
            "country": "Australia",
            "countryAbbr": "AU",
            "city": "Fawkner",
            "responsible": "Jihad Bekai",
            "address": "18 Leo Street, Fawkner, Victoria, Australia",
            "website": "GFBJJ.com.au"
        },
        {
            "id": 10744,
            "name": "GFSchool",
            "federationAbbr": "CBJJ",
            "country": "Brasil",
            "countryAbbr": "BR",
            "city": "Serra",
            "responsible": "Guttierres Ferreira Farias",
            "address": "Rua Dos Eucaliptos, N° 08, José De Anchieta, Serra, Espírito Santo, Brasil",
            "website": null
        },
        {
            "id": 6738,
            "name": "GFT Ludwigshafen",
            "federationAbbr": "IBJJF",
            "country": "Germany",
            "countryAbbr": "DE",
            "city": "Ludwigshafen",
            "responsible": "Patrick Talmon",
            "address": "Behrensstraße 19, Ludwigshafen, Rheinland Pfalz , Germany",
            "website": "efa-ludwigshafen.de"
        },
        {
            "id": 5555,
            "name": "GFTeam / Orlando Jr",
            "federationAbbr": "CBJJ",
            "country": "Brasil",
            "countryAbbr": "BR",
            "city": "Macapá",
            "responsible": "Orlando Lourenço Moreira Junior",
            "address": "Rua Odilardo Silva, Nº 2247, Centro, Macapá, AP, Brasil",
            "website": null
        },
        {
            "id": 8997,
            "name": "Gfteam -187 Aicaua Land",
            "federationAbbr": "CBJJ",
            "country": "Brasil",
            "countryAbbr": "BR",
            "city": "Rio De Janeiro",
            "responsible": "Paulo André Ribeiro",
            "address": "Estrada Do Mato Alto,808 - 3° Andar, Rio De Janeiro, Rj, Brasil",
            "website": "Campo Grande"
        },
        {
            "id": 9174,
            "name": "GFTeam Anil",
            "federationAbbr": "CBJJ",
            "country": "Brasil",
            "countryAbbr": "BR",
            "city": "Rio De Janeiro",
            "responsible": "Jonatas Barbosa Dantas",
            "address": "Rua Araticum, Número 367, Jacarepaguá (anil), Rio De Janeiro, Rj, Brasil",
            "website": null
        },
        {
            "id": 3071,
            "name": "GFTeam Arkansas",
            "federationAbbr": "USBJJF",
            "country": "United States of America",
            "countryAbbr": "US",
            "city": "Little Rock",
            "responsible": "Denilson de Carvalho Pimenta",
            "address": "1021 Jessie Road Suite N, Little Rock, AR, United States of America",
            "website": "www.westsidemma.com"
        },
        {
            "id": 9500,
            "name": "Gfteam Asa",
            "federationAbbr": "FPJJB",
            "country": "Portugal",
            "countryAbbr": "PT",
            "city": "Porto",
            "responsible": "Alexsandro Silva de Almeida",
            "address": "Rua Nova Do Regado, 225., Porto, Porto, Portugal",
            "website": "www.asajiujitsu.com"
        },
        {
            "id": 9272,
            "name": "GFTeam Barreiras",
            "federationAbbr": "CBJJ",
            "country": "Brasil",
            "countryAbbr": "BR",
            "city": "Barreiras",
            "responsible": "Marcos Silva de Brito",
            "address": "Rua Dr. Augusto Riberto De Macêdo, 249, 1º Andar, Barreiras, Bahia, Brasil",
            "website": "https://pt-br.facebook.com/GFTeamBarreiras/"
        },
        {
            "id": 9228,
            "name": "GFTeam Belton",
            "federationAbbr": "USBJJF",
            "country": "United States of America",
            "countryAbbr": "US",
            "city": "Belton",
            "responsible": "Jaime Soares Canuto",
            "address": "2170 North Main Street, Suite F, Belton, Texas, United States of America",
            "website": "www.jcschoolofjiujitsu.com"
        }
    ]
}