{
    "pagination": {
        "page": 330,
        "from": 6580,
        "to": 6600,
        "pageSize": 20,
        "lastPage": 358,
        "totalRecords": 7149
    },
    "list": [
        {
            "id": 3465,
            "name": "Tim Burrill Brazilian Jiu-Jitsu",
            "federationAbbr": "USBJJF",
            "country": "United States of America",
            "countryAbbr": "US",
            "city": "North Providence",
            "responsible": "Jean Jacques D.  Machado",
            "address": "862 Charles Street Suite C  , , North Providence, RI, United States of America",
            "website": "www.timburrill.net"
        },
        {
            "id": 10222,
            "name": "Time Selva",
            "federationAbbr": "CBJJ",
            "country": "Brasil",
            "countryAbbr": "BR",
            "city": "Ananindeua",
            "responsible": "Marcio Alan de Carvalho Freitas Junior",
            "address": "Cidade Nova 6 W.e 76 Nº 492, Próximo Ao Corpo De Bombeiros, Ananindeua, Pará, Brasil",
            "website": null
        },
        {
            "id": 6741,
            "name": "Time Team Jiu-Jitsu",
            "federationAbbr": "CBJJ",
            "country": "Brasil",
            "countryAbbr": "BR",
            "city": "Brasilia",
            "responsible": "Gabriel Lucas Ribeiro dos Santos",
            "address": "Av. Paranoa Quadra 34 Conj. 26 n: 09, Terreo Bairro: Paranoa, Brasilia, DF, Brasil",
            "website": null
        },
        {
            "id": 2041,
            "name": "Tinguinha BJJ Academy",
            "federationAbbr": "USBJJF",
            "country": "United States of America",
            "countryAbbr": "US",
            "city": "Yorba Linda",
            "responsible": "Mauricio Mariano dos Santos",
            "address": "22349  E La Palma Ave #118  , Yorba Linda, CA, United States of America",
            "website": "www.bjjoc.com"
        },
        {
            "id": 8497,
            "name": "Tinguinha BJJ Halo",
            "federationAbbr": "USBJJF",
            "country": "United States of America",
            "countryAbbr": "US",
            "city": "Fresno",
            "responsible": "Angel Paul Lopez",
            "address": "3980 N Chestnut #107, Fresno, Ca, United States of America",
            "website": "halobjj.net"
        },
        {
            "id": 8112,
            "name": "Tinsley Family Martial Arts",
            "federationAbbr": "USBJJF",
            "country": "United States of America",
            "countryAbbr": "US",
            "city": "Elizabeth City",
            "responsible": "Donald Lee Tinsley",
            "address": "306 W Grice Street, Elizabeth City, Nc, United States of America",
            "website": "www.tinsleyfamilymartialarts.com"
        },
        {
            "id": 3459,
            "name": "Tirana MMA Center",
            "federationAbbr": "IBJJF",
            "country": "Albania",
            "countryAbbr": "AL",
            "city": "Tirana",
            "responsible": "Rezart Spahia",
            "address": "109 Qemal Stafa Street, , Tirana, --, Albania",
            "website": "http://www.tiranammacenter.com/"
        },
        {
            "id": 10667,
            "name": "Tiroteio Fight Team",
            "federationAbbr": "IBJJF",
            "country": "Germany",
            "countryAbbr": "DE",
            "city": "Oberhausen",
            "responsible": "Claudio Marcio Rosa",
            "address": "Ruhrorterstr. 9b, 2. Andar, Oberhausen, Nrw, Germany",
            "website": "www.kampfsport-academia .de"
        },
        {
            "id": 4758,
            "name": "Titan Academy BJJ",
            "federationAbbr": "IBJJF",
            "country": "Spain",
            "countryAbbr": "ES",
            "city": "Cadiz",
            "responsible": "Sean Ben Senyor",
            "address": "Calle Fondo 2 Sotogrande, San Roque, Cadiz, Spain",
            "website": "Www.titanacademy.eu"
        },
        {
            "id": 7661,
            "name": "Titan Academy Gibraltar",
            "federationAbbr": "IBJJF",
            "country": "Gibraltar",
            "countryAbbr": "GI",
            "city": "Gibraltar",
            "responsible": "Sean Ben Senyor",
            "address": "4/5 South Barrack Ramp, Gibraltar, Gibraltar, Gibraltar, Gibraltar",
            "website": "www.titanacademy.eu"
        },
        {
            "id": 5067,
            "name": "Titanes BJJ",
            "federationAbbr": "IBJJF",
            "country": "Spain",
            "countryAbbr": "ES",
            "city": "Irun",
            "responsible": "Andre Luis Silveira Crispin",
            "address": "Calle Lucas de Berroa N2, 2A, , Irun, Spain",
            "website": "www.titanesbjj.com"
        },
        {
            "id": 7464,
            "name": "Titanes BJJ Brasil",
            "federationAbbr": "CBJJ",
            "country": "Brasil",
            "countryAbbr": "BR",
            "city": "Rio de Janeiro",
            "responsible": "Andre Luis Silveira Crispin",
            "address": "Rua Adhemar Bebiano n: 4.040, Engenho da Rainha, Rio de Janeiro, Rio de Janeiro, Brasil",
            "website": null
        },
        {
            "id": 478,
            "name": "TJJ School",
            "federationAbbr": "CBJJ",
            "country": "Brasil",
            "countryAbbr": "BR",
            "city": "Florianópolis",
            "responsible": "Alexandre de Souza",
            "address": "Rua Servidão Tomás Serapião Vasques 1200, Loja 1 E 2, Florianópolis, SC, Brasil",
            "website": "www.asteam.com.br"
        },
        {
            "id": 10381,
            "name": "Tjjschool International",
            "federationAbbr": "FPJJB",
            "country": "Portugal",
            "countryAbbr": "PT",
            "city": "Caldas Da Rainha",
            "responsible": "Fernando Augusto da Silva",
            "address": "Rua Vitorino Frois, 62 Rc Esq, Caldas Da Rainha, Leiria, Portugal",
            "website": "www.tjjschool.com"
        },
        {
            "id": 3322,
            "name": "TK Jiu-Jitsu",
            "federationAbbr": "JBJJF",
            "country": "Japan",
            "countryAbbr": "JP",
            "city": "Tokyo",
            "responsible": "Tsuyoshi Kosaka",
            "address": "8-12-12-B1F Akasaka Minato-ku  , , Tokyo, --, Japan",
            "website": "www.alliance-square.jp"
        },
        {
            "id": 9337,
            "name": "TKT Jiu-Jitsu",
            "federationAbbr": "CBJJ",
            "country": "Brasil",
            "countryAbbr": "BR",
            "city": "Chapecó",
            "responsible": "Dreik André Menezes",
            "address": "Rua 14 De Agosto, 1891e, Chapecó, Santa Catarina, Brasil",
            "website": null
        },
        {
            "id": 4715,
            "name": "TM Team",
            "federationAbbr": "CBJJ",
            "country": "Brasil",
            "countryAbbr": "BR",
            "city": "Lages",
            "responsible": "Tarcisio Marques Moreira",
            "address": "Rua Lydia Monteiro da Silva 276 , Várzea, Lages, SC, Brasil",
            "website": null
        },
        {
            "id": 9851,
            "name": "TMC USA",
            "federationAbbr": "USBJJF",
            "country": "United States of America",
            "countryAbbr": "US",
            "city": "Norwalk",
            "responsible": "Denis Felipe Fumagali da Silva",
            "address": "17 Ferris Ave Apt 14, Norwalk, Connecticut, United States of America",
            "website": null
        },
        {
            "id": 5509,
            "name": "Toca do Guerreiro",
            "federationAbbr": "CBJJ",
            "country": "Brasil",
            "countryAbbr": "BR",
            "city": "Maceió",
            "responsible": "Augusto Teodosio do Nascimento",
            "address": "Conjunto Graciliano Ramos 161, Q. F2 ; Rua 17 - Cidade Universitaria, Maceió, AL, Brasil",
            "website": null
        },
        {
            "id": 4761,
            "name": "Toca do Urso Jiu-Jitsu",
            "federationAbbr": "CBJJ",
            "country": "Brasil",
            "countryAbbr": "BR",
            "city": "Ponta Porá",
            "responsible": "Vitor Luiz Boufleur Filho",
            "address": "Rua Felisberto Marques 88, Santa Izabel, Ponta Porá, MS, Brasil",
            "website": null
        }
    ]
}