{
    "pagination": {
        "page": 300,
        "from": 5980,
        "to": 6000,
        "pageSize": 20,
        "lastPage": 358,
        "totalRecords": 7149
    },
    "list": [
        {
            "id": 10733,
            "name": "Slomo",
            "federationAbbr": "USBJJF",
            "country": "United States of America",
            "countryAbbr": "US",
            "city": "Memphis",
            "responsible": "Randall Clanton McGill",
            "address": "4874 Willow Rd, Memphis, Tn, United States of America",
            "website": null
        },
        {
            "id": 5670,
            "name": "Sloth BJJ",
            "federationAbbr": "USBJJF",
            "country": "United States of America",
            "countryAbbr": "US",
            "city": "Euless",
            "responsible": "Nathan Bennett Hallford",
            "address": "501 N. Main St Suite 121, Euless, TX, United States of America",
            "website": "slothbjjtx.com"
        },
        {
            "id": 7751,
            "name": "SM BJJ",
            "federationAbbr": "CBJJ",
            "country": "Brasil",
            "countryAbbr": "BR",
            "city": "Rio de Janeiro",
            "responsible": "Sandro de Oliveira Moraes",
            "address": "Rua Miranda E Brito 20, Iraja, Rio de Janeiro, RJ, Brasil",
            "website": null
        },
        {
            "id": 3063,
            "name": "SMA Jiu-Jitsu",
            "federationAbbr": "USBJJF",
            "country": "United States of America",
            "countryAbbr": "US",
            "city": "Oakdale",
            "responsible": "Thomas Leroy Schmitz",
            "address": "680 Hale Ave North Suite #130  , , Oakdale, MN, United States of America",
            "website": "www.spartanmartialatrs.com"
        },
        {
            "id": 8084,
            "name": "Smalti Fight In Family",
            "federationAbbr": "CBJJ",
            "country": "Brasil",
            "countryAbbr": "BR",
            "city": "Garibaldi",
            "responsible": "Adriano Smalti",
            "address": "Avenida Rio Branco, 578, Subsolo, Garibaldi, Rs, Brasil",
            "website": "www.smalti.com.br"
        },
        {
            "id": 9322,
            "name": "Smartjits",
            "federationAbbr": "USBJJF",
            "country": "United States of America",
            "countryAbbr": "US",
            "city": "Albuquerque",
            "responsible": "Amber Rymarz-Freitas",
            "address": "8520 Pan American Fwy Ne, Suit A, Albuquerque, New Mexico, United States of America",
            "website": null
        },
        {
            "id": 3559,
            "name": "Smash Gyms",
            "federationAbbr": "USBJJF",
            "country": "United States of America",
            "countryAbbr": "US",
            "city": "Sunnyvale",
            "responsible": "Michael Chi-Wei Jen",
            "address": "1239 Reamwood Avenue  , , Sunnyvale, CA, United States of America",
            "website": "www.smashgyms.com"
        },
        {
            "id": 10061,
            "name": "Smegabjjmallorca",
            "federationAbbr": "IBJJF",
            "country": "Spain",
            "countryAbbr": "ES",
            "city": "Calviá",
            "responsible": "José Maria Martínez Sardon",
            "address": "Calle Gran Vía, 16 Bajo 01, Calviá, Mallorca, Spain",
            "website": "Mallorca"
        },
        {
            "id": 9202,
            "name": "Smile Brazilian Jiu Jitsu",
            "federationAbbr": "CBJJ",
            "country": "Brasil",
            "countryAbbr": "BR",
            "city": "Brasília",
            "responsible": "Clayton Campos dos Santos Oliveira",
            "address": "Qnn 27, Módulo C, Bloco: G Sala 01 Ceilândia - Df, Brasília, Distrito Federal, Brasil",
            "website": null
        },
        {
            "id": 2379,
            "name": "Smith BJJ - Checkmat",
            "federationAbbr": "USBJJF",
            "country": "United States of America",
            "countryAbbr": "US",
            "city": "McDonough",
            "responsible": "Phillip Andrew Smith",
            "address": "1461 Hwy 20, McDonough, GA, United States of America",
            "website": "www.smithbjj.com"
        },
        {
            "id": 10110,
            "name": "Snake Pit U.S.A. MMA/Machado Jiu-Jitsu",
            "federationAbbr": "USBJJF",
            "country": "United States of America",
            "countryAbbr": "US",
            "city": "Hammonton",
            "responsible": "Joel Michael Bane",
            "address": "900 12th St, Ste 3, Hammonton, New Jersey, United States of America",
            "website": "https://snakepitusamma.com"
        },
        {
            "id": 9787,
            "name": "Snakes",
            "federationAbbr": "CBJJ",
            "country": "Brasil",
            "countryAbbr": "BR",
            "city": "Fortaleza",
            "responsible": "Almir Dantas da Costa Junior",
            "address": "Rua Joaquim Felício 742 A, Fortaleza, Ceará, Brasil",
            "website": null
        },
        {
            "id": 8730,
            "name": "SNCA / Marlboro BJJ Team",
            "federationAbbr": "USBJJF",
            "country": "United States of America",
            "countryAbbr": "US",
            "city": "Marlboro",
            "responsible": "Everilton Paulino da Silva",
            "address": "60 Mechanic St, Marlboro, Ma, United States of America",
            "website": "sonecabjj.com"
        },
        {
            "id": 6965,
            "name": "Sniper Team",
            "federationAbbr": "CBJJ",
            "country": "Brasil",
            "countryAbbr": "BR",
            "city": "Igarapé",
            "responsible": "Evandro Albuquerque Lameira Junior",
            "address": "Av. Marechal Deodoro, Centro, N: 4698, Sap. Sol Nascente, Igarapé, Pará, Brasil",
            "website": null
        },
        {
            "id": 10348,
            "name": "Soares Brothers BJJ",
            "federationAbbr": "CBJJ",
            "country": "Brasil",
            "countryAbbr": "BR",
            "city": "Jatai",
            "responsible": "Amilton Soares da Silva",
            "address": "Rua Sebastião Maracá N93, Dom Abel, Jatai, Go, Brasil",
            "website": null
        },
        {
            "id": 6676,
            "name": "Sobrinho BJJ",
            "federationAbbr": "USBJJF",
            "country": "Brasil",
            "countryAbbr": "BR",
            "city": "Belo Horizonte",
            "responsible": "João Gabriel de Castro Sobrinho",
            "address": "Rua Dom Vital 60, Belo Horizonte, MG, Brasil",
            "website": "www.EvansBJJ.com"
        },
        {
            "id": 2095,
            "name": "Soca Brazilian Jiu-Jitsu",
            "federationAbbr": "USBJJF",
            "country": "United States of America",
            "countryAbbr": "US",
            "city": "Wantagh",
            "responsible": "Alexandre C. Freitas",
            "address": "1913 Wantagh Ave  , Wantagh, NY, United States of America",
            "website": "www.socabjj.com"
        },
        {
            "id": 4982,
            "name": "Soca Brazilian Jiu-Jitsu International",
            "federationAbbr": "IBJJF",
            "country": "Costa Rica",
            "countryAbbr": "CR",
            "city": "San Jose",
            "responsible": "Alexandre C. Freitas",
            "address": "Centro Cemercial Los Anonos / Segundo piso Escazu  , San Jose, Costa Rica",
            "website": "www.socabjj.com"
        },
        {
            "id": 10439,
            "name": "Soca Jiu-Jitsu",
            "federationAbbr": "CBJJ",
            "country": "Brasil",
            "countryAbbr": "BR",
            "city": "Rio De Janeiro",
            "responsible": "Alexandre C. Freitas",
            "address": "Av.embaixador Abelardo Bueno Número 3.000 Barra Da Tijuca, Rio De Janeiro, Rj, Brasil",
            "website": "www.socabjj.com"
        },
        {
            "id": 3022,
            "name": "Socal Fight Factory",
            "federationAbbr": "USBJJF",
            "country": "United States of America",
            "countryAbbr": "US",
            "city": "Palmdale",
            "responsible": "Friedrick Rodriguez",
            "address": "2027 Palmdale Blvd  , , Palmdale, CA, United States of America",
            "website": "www.socalfightfactory.com"
        }
    ]
}