{
    "pagination": {
        "page": 67,
        "from": 1320,
        "to": 1340,
        "pageSize": 20,
        "lastPage": 358,
        "totalRecords": 7149
    },
    "list": [
        {
            "id": 2036,
            "name": "Carmem Casca Grossa",
            "federationAbbr": "CBJJ",
            "country": "Brasil",
            "countryAbbr": "BR",
            "city": "Ananindeua",
            "responsible": null,
            "address": "Pass. Rosa Vermelha 07 , Guanabara, Ananindeua, PA, Brasil",
            "website": ""
        },
        {
            "id": 9486,
            "name": "Carnicella BJJ Korea Elite Factory",
            "federationAbbr": "IBJJF",
            "country": "Korea, South",
            "countryAbbr": "KR",
            "city": "Seobuk-gu, Cheonan-si",
            "responsible": "Paul Carnicella",
            "address": "Seonghwan 3-ro 6, 2nd Floor, Seonghwa-eup, Seobuk-gu, Cheonan-si, Chungcheonnam-do, Korea, South",
            "website": null
        },
        {
            "id": 3741,
            "name": "Carnicella MMA",
            "federationAbbr": "USBJJF",
            "country": "United States of America",
            "countryAbbr": "US",
            "city": "Clifton ",
            "responsible": "Paul Carnicella",
            "address": "308 Colfax Ave , , Clifton , NJ, United States of America",
            "website": "www.carnicellamma.com"
        },
        {
            "id": 3329,
            "name": "Carpe Diem",
            "federationAbbr": "JBJJF",
            "country": "Japan",
            "countryAbbr": "JP",
            "city": "Tokyo",
            "responsible": "Yuki Ishikawa",
            "address": "4-26-16-1F Minami-Aoyama  , Tokyo, --, Japan",
            "website": "carpediembjj.com"
        },
        {
            "id": 8328,
            "name": "Carpe Diem Ashiya",
            "federationAbbr": "JBJJF",
            "country": "Japan",
            "countryAbbr": "JP",
            "city": "Ashiya-shi",
            "responsible": "Masahiro Iwasaki",
            "address": "#001 Nlcashiya 4-22 Kawanshicho, Ashiya-shi, Hyogo, Japan",
            "website": "https://www.carpediembjjashiya.com"
        },
        {
            "id": 10609,
            "name": "Carpe Diem BJJ Manila",
            "federationAbbr": "IBJJF",
            "country": "Philippines",
            "countryAbbr": "PH",
            "city": "Makati",
            "responsible": "Jaguar Tang",
            "address": "Gf Casmer Building, 195 Salcedo Street, Legaspi Village, Makati, Philippines",
            "website": "www.cdbjjmanila.com"
        },
        {
            "id": 8186,
            "name": "Carpe Diem BJJ Seomyeon",
            "federationAbbr": "IBJJF",
            "country": "Korea, South",
            "countryAbbr": "KR",
            "city": "Busan",
            "responsible": "Yuki Ishikawa",
            "address": "Level 3, 19, Jeonpo-daero 176beon-gil, Busanjin-gu, Busan, Korea, South",
            "website": null
        },
        {
            "id": 7043,
            "name": "Carpe Diem BJJ Singapore",
            "federationAbbr": "IBJJF",
            "country": "Singapore",
            "countryAbbr": "SG",
            "city": "Singapore",
            "responsible": "Yuki Ishikawa",
            "address": "767 Upper  Serangoon Rd #01-05, Singapore, Singapore",
            "website": "www.carpediembjj.sg"
        },
        {
            "id": 8163,
            "name": "Carpe Diem BJJ Sydney",
            "federationAbbr": "IBJJF",
            "country": "Australia",
            "countryAbbr": "AU",
            "city": "Sydney",
            "responsible": "Yuki Ishikawa",
            "address": "Level 3, 19-21 Hunter Street, Sydney, New South Wales, Australia",
            "website": "https://monstarzenmartialarts.com.au/"
        },
        {
            "id": 10188,
            "name": "Carpe Diem Fukagawa",
            "federationAbbr": "JBJJF",
            "country": "Japan",
            "countryAbbr": "JP",
            "city": "Koto-ku",
            "responsible": "Tanno Robson Odilio",
            "address": "q¬ý_q:î\u000b4-12-13-2f, Koto-ku, Tokio, Japan",
            "website": "https://www.carpediem-fukagawa.com/"
        },
        {
            "id": 5516,
            "name": "Carpe Diem Fukuoka",
            "federationAbbr": "JBJJF",
            "country": "Japan",
            "countryAbbr": "JP",
            "city": "Fukuoka",
            "responsible": "Yukinari Tamura",
            "address": "10-26 Hakata-reisenmachi, Fukuoka, Japan",
            "website": "carpediemfukuoka.com"
        },
        {
            "id": 6367,
            "name": "Carpe Diem Hiroo",
            "federationAbbr": "JBJJF",
            "country": "Japan",
            "countryAbbr": "JP",
            "city": "Shibuya-ku",
            "responsible": "Tomoyuki Hashimoto",
            "address": "5-14-2 Hiroo , Shibuya-ku, Tokyo, Japan",
            "website": "https://www.carpediem-hiroo.com/"
        },
        {
            "id": 3463,
            "name": "Carpe Diem Hope",
            "federationAbbr": "JBJJF",
            "country": "Japan",
            "countryAbbr": "JP",
            "city": "Gifu",
            "responsible": "Daisuke Shiraki",
            "address": "7-101 Terada, Gifu, --, Japan",
            "website": "http://hope.dimanche.co.jp/"
        },
        {
            "id": 7000,
            "name": "Carpe Diem Jiyugaoka",
            "federationAbbr": "JBJJF",
            "country": "Japan",
            "countryAbbr": "JP",
            "city": "MEguro-ku",
            "responsible": "Thomas Mietz",
            "address": "B1F 1-4-6 Jiyugaoka, MEguro-ku, Tokyo, Japan",
            "website": "https://www.carpediem-jiyugaoka.com/"
        },
        {
            "id": 6544,
            "name": "Carpe Diem Kamakura",
            "federationAbbr": "JBJJF",
            "country": "Japan",
            "countryAbbr": "JP",
            "city": "--",
            "responsible": "Yuki Ishikawa",
            "address": "3-10 2F Kamakura Onarimachi, --, Kanagawa, Japan",
            "website": "www.bjjkamakura.com"
        },
        {
            "id": 6767,
            "name": "Carpe Diem Kimitsu",
            "federationAbbr": "JBJJF",
            "country": "Japan",
            "countryAbbr": "JP",
            "city": "Kimitsu",
            "responsible": "Hiroki Ohwa",
            "address": "1706-20 Hitomi, Kimitsu, Chiba, Japan",
            "website": "https://ocean-jiujitsu.themedia.jp/"
        },
        {
            "id": 6696,
            "name": "Carpe Diem Kurume",
            "federationAbbr": "JBJJF",
            "country": "Japan",
            "countryAbbr": "JP",
            "city": "Fukuoka",
            "responsible": "Yukinari Tamura",
            "address": "1179-1 Kammitsumachi Kurume, Fukuoka, Japan",
            "website": "http://www.carpediemkurume.com/"
        },
        {
            "id": 6403,
            "name": "Carpe Diem London",
            "federationAbbr": "IBJJF",
            "country": "United Kingdom",
            "countryAbbr": "GB",
            "city": "London",
            "responsible": "Tsuyoshi Tamaki",
            "address": "Unit A. 16-18 Marshalsea Rd, London, --, United Kingdom",
            "website": "www.carpediembjj.co.uk"
        },
        {
            "id": 9165,
            "name": "Carpe Diem Machida",
            "federationAbbr": "JBJJF",
            "country": "Japan",
            "countryAbbr": "JP",
            "city": "Machida-city",
            "responsible": "Yuki Ishikawa",
            "address": "4-1-11-b1 Haramachida, Machida-city, Tokyo, Japan",
            "website": "http://carpediem-machida.com/index.php"
        },
        {
            "id": 8342,
            "name": "Carpe Diem Mie",
            "federationAbbr": "JBJJF",
            "country": "Japan",
            "countryAbbr": "JP",
            "city": "Tsu",
            "responsible": "Gustavo Jovelho Takaki",
            "address": "Hisai Myojin 2374, Tsu, Mie, Japan",
            "website": "https://www.carpediembjj-mie.com"
        }
    ]
}