{
    "pagination": {
        "page": 26,
        "from": 500,
        "to": 520,
        "pageSize": 20,
        "lastPage": 358,
        "totalRecords": 7149
    },
    "list": [
        {
            "id": 8790,
            "name": "Anfibio Jiu-Jitsu Club",
            "federationAbbr": "IBJJF",
            "country": "Mexico",
            "countryAbbr": "MX",
            "city": "Cuauhtémoc",
            "responsible": "Julio Cordova Reyes",
            "address": "Avenida Mexico 157, Int. 8, Cuauhtémoc, Mexico",
            "website": null
        },
        {
            "id": 10005,
            "name": "Angel MMA",
            "federationAbbr": "IBJJF",
            "country": "Australia",
            "countryAbbr": "AU",
            "city": "Rockdale",
            "responsible": "Zlatko Zak Angelevski",
            "address": "9 Ador Ave,, Rockdale, Nsw, Australia",
            "website": null
        },
        {
            "id": 7053,
            "name": "Angelica Soneka Top Team-ASTT",
            "federationAbbr": "CBJJ",
            "country": "Brasil",
            "countryAbbr": "BR",
            "city": "Manaus",
            "responsible": "Angélica Gonçalves Lunguinho",
            "address": "Rua Manila n: 04 Quadra 516, Bairro: Nova Cidade, Manaus, AM, Brasil",
            "website": null
        },
        {
            "id": 8201,
            "name": "Angelo Rios Jiu-Jitsu",
            "federationAbbr": "CBJJ",
            "country": "Brasil",
            "countryAbbr": "BR",
            "city": "Ipatinga ",
            "responsible": "Angelo Vieira Rios",
            "address": "Rua João Monlevade , 207, Ipatinga , Minas Gerais , Brasil",
            "website": null
        },
        {
            "id": 1033,
            "name": "Anibal Jiu-Jitsu",
            "federationAbbr": "CBJJ",
            "country": "Brasil",
            "countryAbbr": "BR",
            "city": "Manaus",
            "responsible": "Fabio Anibal Freire Teixeira",
            "address": "Rua Jose Bonaparte, 196, Bl 4 Apto 402, Pq 10,, Bairro da Paz, Manaus, Am, Brasil",
            "website": null
        },
        {
            "id": 8899,
            "name": "Animals MMA Yonkers",
            "federationAbbr": "USBJJF",
            "country": "United States of America",
            "countryAbbr": "US",
            "city": "Yonkers",
            "responsible": "Charles Anzalone",
            "address": "16 Tuckahoe Rd, Yonkers, New York, United States of America",
            "website": "www,mmayonkers.com"
        },
        {
            "id": 6718,
            "name": "ANJJA",
            "federationAbbr": "CBJJ",
            "country": "Brasil",
            "countryAbbr": "BR",
            "city": "Rio De Janeiro",
            "responsible": "Alesandro de Oliveira Nascimento",
            "address": "Rua Gustavo Corção, 256/201, Bairro: Recreio Dos Bandeirantes, Rio De Janeiro, Rio De Janeiro, Brasil",
            "website": null
        },
        {
            "id": 10191,
            "name": "Annunziato Jiu-Jitsu",
            "federationAbbr": "USBJJF",
            "country": "United States of America",
            "countryAbbr": "US",
            "city": "Azle",
            "responsible": "Benjamin Thomas Annunziato",
            "address": "120 Park Place, Azle, Texas, United States of America",
            "website": "http://annunziatobjj.com/classes/Kids-Martial-Arts?gclid=CjwKCAiAioifBhAXEiwApzCztgobjMsPM0xmV31JPDdETJ8do_L9CWo966VezJo7KPCQkMSz2-xbmBoCIzgQAvD_BwE"
        },
        {
            "id": 4952,
            "name": "Anselmo Montenegro Brazilian Jiu-Jitsu Team",
            "federationAbbr": "CBJJ",
            "country": "Brasil",
            "countryAbbr": "BR",
            "city": "Manaus",
            "responsible": "Anselmo de Souza Montenegro",
            "address": "Av Constantino Nery 135, Copacabana, Manaus, Am, Brasil",
            "website": "www.anselmomontenegro.com"
        },
        {
            "id": 4096,
            "name": "Anthracite Combat Club",
            "federationAbbr": "USBJJF",
            "country": "United States of America",
            "countryAbbr": "US",
            "city": "Schuylkill Haven",
            "responsible": "Matthew Thomas Melusky",
            "address": "250 Parkway, Schuylkill Haven, PA, United States of America",
            "website": "http://www.anthracitecc.com/"
        },
        {
            "id": 8072,
            "name": "Antonino Jiu-Jitsu Team",
            "federationAbbr": "CBJJ",
            "country": "Brasil",
            "countryAbbr": "BR",
            "city": "Guarujá",
            "responsible": "Antonino Galdino Eduardo",
            "address": "Rua Santos Nº 287, Ap 162, Guarujá, São Paulo, Brasil",
            "website": null
        },
        {
            "id": 5623,
            "name": "Antônio Freitas BJJ",
            "federationAbbr": "CBJJ",
            "country": "Brasil",
            "countryAbbr": "BR",
            "city": "Teresina",
            "responsible": "Antonio Jose Nunes de Freitas",
            "address": "Rua Governador Joca Pires, 1571, Fatima, Teresina, PI, Brasil",
            "website": null
        },
        {
            "id": 10346,
            "name": "Ants Gym",
            "federationAbbr": "IBJJF",
            "country": "Taiwan",
            "countryAbbr": "TW",
            "city": "Zhubei City",
            "responsible": "Luisandro Rodrigues de Moura Junior",
            "address": "1f., No. 18, Zhuangjing S. Rd, Zhubei City, Hsinchu County, Taiwan",
            "website": null
        },
        {
            "id": 7869,
            "name": "Any Martial Arts  Fight Club",
            "federationAbbr": "IBJJF",
            "country": "China",
            "countryAbbr": "CN",
            "city": "Beijing",
            "responsible": "Flavio Rogerio Bueno",
            "address": "Lidu Huayuan Road, Oriental Financial Center, courtyard 5, B1-109, Beijing, Chaoyang Distric, China",
            "website": null
        },
        {
            "id": 9980,
            "name": "Anzen Lutas",
            "federationAbbr": "CBJJ",
            "country": "Brasil",
            "countryAbbr": "BR",
            "city": "São Paulo",
            "responsible": "Josué Gomes B. Junior",
            "address": "Rua Santa Lina, Altos, São Paulo, Sp, Brasil",
            "website": "@anzenlutas"
        },
        {
            "id": 7875,
            "name": "Anzû Iran Jiu-Jitsu Team",
            "federationAbbr": "IBJJF",
            "country": "Iran, Islamic Republic of",
            "countryAbbr": "IR",
            "city": "Tehran",
            "responsible": "AmirHossein Khademian",
            "address": "Darakeh - Shahid Seyed Hassan Mofidi Road \u0013 Alborz Alley Simorgh Complex Flat 203, Tehran, Iran, Islamic Republic of",
            "website": null
        },
        {
            "id": 7633,
            "name": "AOC Jiu-Jitsu",
            "federationAbbr": "IBJJF",
            "country": "Spain",
            "countryAbbr": "ES",
            "city": "Cornellá de Llobregat",
            "responsible": "Óscar Corrales Caceres",
            "address": "Carrer de Torras i Bages, 125, Bajo, Cornellá de Llobregat, Barcelona, Spain",
            "website": null
        },
        {
            "id": 5394,
            "name": "AOF Jiu-Jitsu",
            "federationAbbr": "CBJJ",
            "country": "Brasil",
            "countryAbbr": "BR",
            "city": "Caxias do Sul",
            "responsible": "Silas Robson de Oliveira",
            "address": "Rua Andrade Neves, 649 Shape Academia, Centro, Caxias do Sul, RS, Brasil",
            "website": "https://www.facebook.com/Artoffightingoficial/"
        },
        {
            "id": 9751,
            "name": "Aon Jiu-Jitsu",
            "federationAbbr": "USBJJF",
            "country": "United States of America",
            "countryAbbr": "US",
            "city": "Richmond",
            "responsible": "Thomas C Pless",
            "address": "9825 Mason Rd Ste 160, Richmond, Texas, United States of America",
            "website": "aonjiujitsu.com"
        },
        {
            "id": 6217,
            "name": "Aorta Team",
            "federationAbbr": "IBJJF",
            "country": "Belgium",
            "countryAbbr": "BE",
            "city": "Schaerbeek",
            "responsible": "Axel Michel Vankimmenade",
            "address": "Rue De La Luzerne 40, Schaerbeek, --, Belgium",
            "website": "www.aortatc.be"
        }
    ]
}