{
    "pagination": {
        "page": 98,
        "from": 1940,
        "to": 1960,
        "pageSize": 20,
        "lastPage": 358,
        "totalRecords": 7149
    },
    "list": [
        {
            "id": 10352,
            "name": "Denver Modern Jiu-Jitsu",
            "federationAbbr": "USBJJF",
            "country": "United States of America",
            "countryAbbr": "US",
            "city": "Denver",
            "responsible": "Donald Robert Joseph Westman",
            "address": "8270 Northfield Blvd, #1450, Denver, Co, United States of America",
            "website": "www.denvermodernjiujitsu.com"
        },
        {
            "id": 4554,
            "name": "Deo Jiu-Jitsu France",
            "federationAbbr": "IBJJF",
            "country": "France",
            "countryAbbr": "FR",
            "city": "Rueil-Malmaison",
            "responsible": "Deoclecio Paulo",
            "address": "161 Avenue du 18 Juin 1940  , , Rueil-Malmaison, France",
            "website": ""
        },
        {
            "id": 9908,
            "name": "Deo Paracatu - MG",
            "federationAbbr": "CBJJ",
            "country": "Brasil",
            "countryAbbr": "BR",
            "city": "Paracatu",
            "responsible": "Iron Souto Silva",
            "address": "Rua Idalina Lima Botelho, 107 Fundos, Paracatu, Mg, Brasil",
            "website": null
        },
        {
            "id": 9936,
            "name": "DEOliveira Team BJJ",
            "federationAbbr": "IBJJF",
            "country": "United Kingdom",
            "countryAbbr": "GB",
            "city": "London",
            "responsible": "Mairton Antonio De Oliveira",
            "address": "6 Sancroft Street, Power House Ground Floor, London, London, United Kingdom",
            "website": "Oliveira-team.co.uk"
        },
        {
            "id": 9451,
            "name": "Desert Warriors BJJ",
            "federationAbbr": "IBJJF",
            "country": "United Kingdom",
            "countryAbbr": "GB",
            "city": "Aylesbury",
            "responsible": "Mohamed Itoumaine",
            "address": "Unit 18, Duck Farm, Station Way W, Aylesbury, Buckingham, United Kingdom",
            "website": null
        },
        {
            "id": 8205,
            "name": "Destemido Brazilian Jiu-Jitsu",
            "federationAbbr": "CBJJ",
            "country": "Brasil",
            "countryAbbr": "BR",
            "city": "Belém",
            "responsible": "Patricky Emannuel Gomes Luz",
            "address": "Travessa Teófilo Condurú, N498, Entre Américo Santa Rosa E Silva Rosado / Canudos, Belém, Pará, Brasil",
            "website": null
        },
        {
            "id": 3182,
            "name": "Destiny Jiu-Jitsu",
            "federationAbbr": "JBJJF",
            "country": "Japan",
            "countryAbbr": "JP",
            "city": "--",
            "responsible": "Taiju Sasaki",
            "address": "1-10-27 Nakatuguti oosita bdg 4kai, Kitakyusyusi kokurakitaku naketuguti  , --, Fukuoka, Japan",
            "website": "www.flex-jiujitsu.com"
        },
        {
            "id": 3016,
            "name": "Dethrone Brazilian Jiu-Jitsu",
            "federationAbbr": "USBJJF",
            "country": "United States of America",
            "countryAbbr": "US",
            "city": "Fresno",
            "responsible": "Joshua D. Koscheck",
            "address": "3069 West Bullard Ave.  , , Fresno, CA, United States of America",
            "website": "www.dethronefresno.com"
        },
        {
            "id": 4162,
            "name": "Detroit Jiu-Jitsu Syndicate",
            "federationAbbr": "USBJJF",
            "country": "United States of America",
            "countryAbbr": "US",
            "city": "Dearborn",
            "responsible": "Danny Sam Agemy",
            "address": "13939 Michigan Ave, Dearborn, MI, United States of America",
            "website": "www.detroitjj.com"
        },
        {
            "id": 10579,
            "name": "Detroit Jiu-Jitsu Syndicate International",
            "federationAbbr": "IBJJF",
            "country": "Canada",
            "countryAbbr": "CA",
            "city": "Tecumseh",
            "responsible": "Danny Sam Agemy",
            "address": "12365 Tecumseh Road East, Tecumseh, Ontario, Canada",
            "website": null
        },
        {
            "id": 7460,
            "name": "Detus",
            "federationAbbr": "CBJJ",
            "country": "Brasil",
            "countryAbbr": "BR",
            "city": "Cuiabá",
            "responsible": "Francisco José P. Fernandes Júnior",
            "address": "Av. Dom Bosco n: 1733, bairro: Goiabeiras, Cuiabá, Mato Grosso, Brasil",
            "website": null
        },
        {
            "id": 7748,
            "name": "DF Brothers",
            "federationAbbr": "CBJJ",
            "country": "Brasil",
            "countryAbbr": "BR",
            "city": "Avare",
            "responsible": "Francisco Santana Souza Junior",
            "address": "Rua Voluntários de Avaré, 1145, Avare, são paulo, Brasil",
            "website": "www.dfbrothers.com.br"
        },
        {
            "id": 6045,
            "name": "DFC Jiu-Jitsu",
            "federationAbbr": "CBJJ",
            "country": "Brasil",
            "countryAbbr": "BR",
            "city": "Aracaju",
            "responsible": "Dymitry Danianny Gomes Mesquita Matos",
            "address": "Av, Carlos Gomes n: 423, Inácio Barbosa, Aracaju, Sergipe, Brasil",
            "website": null
        },
        {
            "id": 8107,
            "name": "DFT Jiu-Jitsu",
            "federationAbbr": "CBJJ",
            "country": "Brasil",
            "countryAbbr": "BR",
            "city": "Porto Alegre",
            "responsible": "Valdoni Daniel da Silva Figueiro",
            "address": "Av Teresopolis 2292, Fundos, Porto Alegre, Rs, Brasil",
            "website": null
        },
        {
            "id": 9723,
            "name": "Di Pelli BJJ",
            "federationAbbr": "CBJJ",
            "country": "Brasil",
            "countryAbbr": "BR",
            "city": "Maringá",
            "responsible": "Juliano Di Pelli Machado",
            "address": "Rua Faisão, 137 B, Maringá, Paraná, Brasil",
            "website": null
        },
        {
            "id": 10168,
            "name": "Diamond Jiu-Jitsu",
            "federationAbbr": "CBJJ",
            "country": "Brasil",
            "countryAbbr": "BR",
            "city": "Camboriú",
            "responsible": "Idelor Diego da Silva",
            "address": "Rua Piauí, Número 43, Camboriú, Sc, Brasil",
            "website": null
        },
        {
            "id": 10087,
            "name": "Diamondback Jiu-Jitsu",
            "federationAbbr": "USBJJF",
            "country": "United States of America",
            "countryAbbr": "US",
            "city": "Frisco",
            "responsible": "Matthew Michael Jones",
            "address": "8981 2nd St., 200, Frisco, Texas, United States of America",
            "website": "diamondbackbjj.com/"
        },
        {
            "id": 10027,
            "name": "Dichof System Sports Ltda",
            "federationAbbr": "CBJJ",
            "country": "Brasil",
            "countryAbbr": "BR",
            "city": "Contagem",
            "responsible": "José Fabiano dos Santos",
            "address": "Rua Professor Santiago, Nº 190, Inconfidentes, Contagem, Mg, Brasil",
            "website": "https://dichoffsystem.com/"
        },
        {
            "id": 4412,
            "name": "Diderot Team BJJ",
            "federationAbbr": "CBJJ",
            "country": "Brasil",
            "countryAbbr": "BR",
            "city": "Brasília",
            "responsible": "André Cesar Ramalho Gomes",
            "address": "Qnm 36 Conjunto O, 1, Brasília, Distrito Federal, Brasil",
            "website": null
        },
        {
            "id": 8020,
            "name": "Diego Dos Santos Brazilian Jiu-Jitsu",
            "federationAbbr": "CBJJ",
            "country": "Brasil",
            "countryAbbr": "BR",
            "city": "Belford Roxo",
            "responsible": "Diego Cesar Melo dos Santos",
            "address": "Rua Arassuai , Lote 11 , Quadra 1, Shangrila, Belford Roxo, Rio De Janeiro, Brasil",
            "website": null
        }
    ]
}