{
    "pagination": {
        "page": 59,
        "from": 1160,
        "to": 1180,
        "pageSize": 20,
        "lastPage": 358,
        "totalRecords": 7149
    },
    "list": [
        {
            "id": 9768,
            "name": "Bullpen Jiu-Jitsu - Taurus Australia",
            "federationAbbr": "IBJJF",
            "country": "Australia",
            "countryAbbr": "AU",
            "city": "Port Kennedy",
            "responsible": "Josh Stolton",
            "address": "21b, 397 Warnbro Sound Ave Port Kennedy Wa, Port Kennedy, Western Australia, Australia",
            "website": "www.taurusjiujitsu.com.au"
        },
        {
            "id": 8131,
            "name": "Bulls BJJ Colorado",
            "federationAbbr": "USBJJF",
            "country": "United States of America",
            "countryAbbr": "US",
            "city": "Englewood ",
            "responsible": "Marco Antonio Almeida da Silva",
            "address": "3900 S.mariposa Street, Englewood , Colorado , United States of America",
            "website": "Apexcombatacademy.com"
        },
        {
            "id": 7121,
            "name": "Burgess Academy of BJJ and MMA",
            "federationAbbr": "USBJJF",
            "country": "United States of America",
            "countryAbbr": "US",
            "city": "Manchester ",
            "responsible": "Nathan LaMotte",
            "address": "21 W. Auburn St. , Manchester , NH, United States of America",
            "website": "BurgessMMA.com"
        },
        {
            "id": 9530,
            "name": "Burien Brazilian Jiu-Jitsu",
            "federationAbbr": "USBJJF",
            "country": "United States of America",
            "countryAbbr": "US",
            "city": "Burien",
            "responsible": "Sonia Vaneeta Sillan",
            "address": "431 Sw 152nd St, Burien, Wa, United States of America",
            "website": "burienbjj.com"
        },
        {
            "id": 5919,
            "name": "Burlington BJJ",
            "federationAbbr": "IBJJF",
            "country": "Canada",
            "countryAbbr": "CA",
            "city": "Burlington",
            "responsible": "Ahmad Zahabi",
            "address": "1161 Pettit Road, Burlington, ON, Canada",
            "website": "burlingtonbjj.ca"
        },
        {
            "id": 7058,
            "name": "Burns BJJ",
            "federationAbbr": "CBJJ",
            "country": "Brasil",
            "countryAbbr": "BR",
            "city": "Rio de Janeiro",
            "responsible": "Herbert Mitchell Pontes Burns",
            "address": "Rua Evilasio Silva n: 121, bairro: Fonseca, Rio de Janeiro, Rio de Janeiro, Brasil",
            "website": null
        },
        {
            "id": 7429,
            "name": "Burns BJJ USA",
            "federationAbbr": "USBJJF",
            "country": "United States of America",
            "countryAbbr": "US",
            "city": "Lantana",
            "responsible": "Herbert Mitchell Pontes Burns",
            "address": "6240 South Congress Ave, Suite G1, Lantana, FL, United States of America",
            "website": null
        },
        {
            "id": 8747,
            "name": "Burst",
            "federationAbbr": "JBJJF",
            "country": "Japan",
            "countryAbbr": "JP",
            "city": "Higashiteshirocho",
            "responsible": "Megumi Fujii",
            "address": "3-35-10, Higashiteshirocho, Hiroshimaken, Japan",
            "website": "http://mmagymburst.com/"
        },
        {
            "id": 6900,
            "name": "Buschkampbros",
            "federationAbbr": "IBJJF",
            "country": "Germany",
            "countryAbbr": "DE",
            "city": "Tuttlingen",
            "responsible": "Martin Buschkamp",
            "address": "Mohringerstrasse 60 , Tuttlingen, BW, Germany",
            "website": "www.myelements.de"
        },
        {
            "id": 10458,
            "name": "Busy Brazilian Jiu-Jitsu",
            "federationAbbr": "USBJJF",
            "country": "United States of America",
            "countryAbbr": "US",
            "city": "Centennial",
            "responsible": "Mario Cesar da F. Corrêa",
            "address": "8200 S Quebec St, Unit A10, Centennial, CO, United States of America",
            "website": "www.busybjj.com"
        },
        {
            "id": 4621,
            "name": "Buzios Jiu-Jitsu",
            "federationAbbr": "CBJJ",
            "country": "Brasil",
            "countryAbbr": "BR",
            "city": "Armação dos Búzios ",
            "responsible": "Otoniel de Araujo Vieira",
            "address": "Rua do Clube S/N , Manguinhos, Armação dos Búzios , RJ, Brasil",
            "website": ""
        },
        {
            "id": 7750,
            "name": "BVH Jiu Jitsu",
            "federationAbbr": "CBJJ",
            "country": "Brasil",
            "countryAbbr": "BR",
            "city": "Nova Iguaçu ",
            "responsible": "Alex Sandro Gonçalves",
            "address": "Estrada João Venâncio dê Figueiredo n\" 691, Nova Iguaçu , Rio de Janeiro , Brasil",
            "website": null
        },
        {
            "id": 2682,
            "name": "BVJJ",
            "federationAbbr": "IBJJF",
            "country": "Canada",
            "countryAbbr": "CA",
            "city": "Burnaby",
            "responsible": "Eduardo Simões Lopes Cadena",
            "address": "3738 Canada Way, Burnaby, British Columbia, Canada",
            "website": "bvjj.ca"
        },
        {
            "id": 10102,
            "name": "BW Brazilian Jiu-Jitsu",
            "federationAbbr": "CBJJ",
            "country": "Brasil",
            "countryAbbr": "BR",
            "city": "Saquarema",
            "responsible": "Wedson Gedeao de Farias Junior",
            "address": "Rodovia Amaral Peixoto Km 69, Casa 2, Saquarema, Rj, Brasil",
            "website": null
        },
        {
            "id": 10203,
            "name": "C R T N Jiu-Jitsu",
            "federationAbbr": "CBJJ",
            "country": "Brasil",
            "countryAbbr": "BR",
            "city": "São Paulo",
            "responsible": "Guilherme Lanzana Carturan",
            "address": "Rua Francisco Coimbra, 123, São Paulo, São Paulo, Brasil",
            "website": null
        },
        {
            "id": 10720,
            "name": "C. T. Thomaz Abreu",
            "federationAbbr": "CBJJ",
            "country": "Brasil",
            "countryAbbr": "BR",
            "city": "Juiz De Fora",
            "responsible": "Thomaz Luis de Abreu Silveira",
            "address": "Rua Bady Geara 335, Ipiranga, Juiz De Fora, Minas Gerais, Brasil",
            "website": null
        },
        {
            "id": 7398,
            "name": "C. T. V. S.",
            "federationAbbr": "CBJJ",
            "country": "Brasil",
            "countryAbbr": "BR",
            "city": "Rio de Janeiro",
            "responsible": "Oswaldo Dias Jurema",
            "address": "Rua Cinco De Janeiro, 38 Casa 08, Itanhangá, Rio de Janeiro, Rj, Brasil",
            "website": "www.djbros.com.br"
        },
        {
            "id": 10721,
            "name": "C.T Clemilton Almeida De Artes Marciais",
            "federationAbbr": "CBJJ",
            "country": "Brasil",
            "countryAbbr": "BR",
            "city": "Xapuri",
            "responsible": "Clemilton Almeida de Lima",
            "address": "Rua Chico Mendes, 299 Bairro Siberia Xapuri Ac, Bairro Guiomard Santos, Xapuri, Ac, Brasil",
            "website": null
        },
        {
            "id": 7455,
            "name": "C.T Octávio Jiu-Jitsu - Nova Cidade",
            "federationAbbr": "CBJJ",
            "country": "Brasil",
            "countryAbbr": "BR",
            "city": "Manaus",
            "responsible": "Octavio Augusto de Almeida",
            "address": "Rua Kumasi n: 120 Quadra 43, Nova Cidade, Manaus, AM, Brasil",
            "website": null
        },
        {
            "id": 9531,
            "name": "CAA - Combat Arts Academy",
            "federationAbbr": "USBJJF",
            "country": "United States of America",
            "countryAbbr": "US",
            "city": "Seattle",
            "responsible": "Sonia Vaneeta Sillan",
            "address": "5050 Delridge Way Sw, Seattle, Wa, United States of America",
            "website": "www.caaseattle.com"
        }
    ]
}