{
    "pagination": {
        "page": 158,
        "from": 3140,
        "to": 3160,
        "pageSize": 20,
        "lastPage": 358,
        "totalRecords": 7149
    },
    "list": [
        {
            "id": 5627,
            "name": "Gracie Barra Fribourg",
            "federationAbbr": "IBJJF",
            "country": "Switzerland",
            "countryAbbr": "CH",
            "city": "Fribourg",
            "responsible": "Peter Peissard",
            "address": "Chemin des Rosiers 1, Fribourg, --, Switzerland",
            "website": "www.gbfribourg.ch"
        },
        {
            "id": 9018,
            "name": "Gracie Barra Frydek Mistek",
            "federationAbbr": "IBJJF",
            "country": "Czech Republic",
            "countryAbbr": "CZ",
            "city": "Frydek Mistek",
            "responsible": "Robin Javorek",
            "address": "Jiráskova 3320, Frydek Mistek, Moravskoslezský, Czech Republic",
            "website": null
        },
        {
            "id": 7117,
            "name": "Gracie Barra Fujinomiya",
            "federationAbbr": "JBJJF",
            "country": "Japan",
            "countryAbbr": "JP",
            "city": "Fujinomiya",
            "responsible": "Masami Sano",
            "address": "2777 Koizumi, Fujinomiya, Shizuoka, Japan",
            "website": "http://graciebarra-fujinomiya.com/"
        },
        {
            "id": 5985,
            "name": "Gracie Barra Fulham",
            "federationAbbr": "IBJJF",
            "country": "United Kingdom",
            "countryAbbr": "GB",
            "city": "London",
            "responsible": "Lucio Furtado Rodrigues",
            "address": "2 Fulham High St., London, --, United Kingdom",
            "website": "www.gbfulham.co.uk"
        },
        {
            "id": 2718,
            "name": "Gracie Barra Fullerton",
            "federationAbbr": "USBJJF",
            "country": "United States of America",
            "countryAbbr": "US",
            "city": "Fullerton ",
            "responsible": "Justin Workman",
            "address": "231 E Imperial Hwy Ste 101  , , Fullerton , CA, United States of America",
            "website": "www.gbfullerton.com"
        },
        {
            "id": 7368,
            "name": "Gracie Barra Fulshear",
            "federationAbbr": "USBJJF",
            "country": "United States of America",
            "countryAbbr": "US",
            "city": "Fulshear",
            "responsible": "Daniel Christofoletti Vitti",
            "address": "7609 Tiki Drive, Suite A, Fulshear, TX, United States of America",
            "website": "www.graciebarrafulshear.com"
        },
        {
            "id": 7105,
            "name": "Gracie Barra Gama Brasilia DF",
            "federationAbbr": "CBJJ",
            "country": "Brasil",
            "countryAbbr": "BR",
            "city": "Gama",
            "responsible": "Helton Nogueira Lima",
            "address": "Quadra 43 Lote 81 Setor Leste  Gama, Bairro: Setor Leste, Pistão Sul Do Gama Df, Gama, Brasilia, Brasil",
            "website": null
        },
        {
            "id": 4768,
            "name": "Gracie Barra Garden Grove",
            "federationAbbr": "USBJJF",
            "country": "United States of America",
            "countryAbbr": "US",
            "city": "Garden Grove",
            "responsible": "Alex Aemalemalo D'Hue",
            "address": "12062 Valley View St Ste 101 , , Garden Grove, CA, United States of America",
            "website": "www.gbgardengrove.com"
        },
        {
            "id": 5362,
            "name": "Gracie Barra Garopaba",
            "federationAbbr": "CBJJ",
            "country": "Brasil",
            "countryAbbr": "BR",
            "city": "Garopaba",
            "responsible": "Luiz Afonso  De Macedo Fraiz",
            "address": "Rodovia SC, 434, nº, 1511, Appel Training Center, Garopaba, SC, Brasil",
            "website": "https://www.instagram.com/gbgaropaba/"
        },
        {
            "id": 4838,
            "name": "Gracie Barra Garuva",
            "federationAbbr": "CBJJ",
            "country": "Brasil",
            "countryAbbr": "BR",
            "city": "Garuva",
            "responsible": "Bruno Henrique Meireles Rocha",
            "address": "Rua Rui Barbosa 550 Sala 04, Centro, Garuva, SC, Brasil",
            "website": ""
        },
        {
            "id": 2321,
            "name": "Gracie Barra Georgia",
            "federationAbbr": "USBJJF",
            "country": "United States of America",
            "countryAbbr": "US",
            "city": "Acworth",
            "responsible": "Fabio Ribeiro Costa Júnior",
            "address": "5505 Bells Ferry Rd. Suite 220  , , Acworth, GA, United States of America",
            "website": "www.graciebarrageorgia.com"
        },
        {
            "id": 4395,
            "name": "Gracie Barra Glasgow Scotland",
            "federationAbbr": "IBJJF",
            "country": "United Kingdom",
            "countryAbbr": "GB",
            "city": "Glasgow",
            "responsible": "Richard Gillon",
            "address": "40 Broomielaw  , , Glasgow, United Kingdom",
            "website": "www.graciebarrascotland.com"
        },
        {
            "id": 2409,
            "name": "Gracie Barra Glendale",
            "federationAbbr": "USBJJF",
            "country": "United States of America",
            "countryAbbr": "US",
            "city": "Glendale",
            "responsible": "Robert Hill II",
            "address": "325 North Brand Blvd, , Glendale, CA, United States of America",
            "website": "gbglendale.com"
        },
        {
            "id": 443,
            "name": "Gracie Barra Goiania - GO",
            "federationAbbr": "CBJJ",
            "country": "Brasil",
            "countryAbbr": "BR",
            "city": "Goiânia",
            "responsible": "Frederico Carneiro Leão de Barros Pimentel",
            "address": "Av. Leonardo da Vinci, S/N Q18 Lt 09/10, Jardim Luz, Goiânia, GO, Brasil",
            "website": ""
        },
        {
            "id": 7384,
            "name": "Gracie Barra Granadilla de Abona",
            "federationAbbr": "IBJJF",
            "country": "Spain",
            "countryAbbr": "ES",
            "city": "Santa Cruz de Tenerife",
            "responsible": "José Maria Nieto Guillén",
            "address": "Calle Hermano Pedro N 38 San Isidro, Santa Cruz de Tenerife, Spain",
            "website": "www.graciebarratenerife.com"
        },
        {
            "id": 5473,
            "name": "Gracie Barra Granja Viana",
            "federationAbbr": "CBJJ",
            "country": "Brasil",
            "countryAbbr": "BR",
            "city": "Granja Viana",
            "responsible": "Andre Diniz de Sena",
            "address": "Av. São Camilo 1.114, Granja Viana, Cotia, Brasil",
            "website": null
        },
        {
            "id": 8906,
            "name": "Gracie Barra Graz",
            "federationAbbr": "IBJJF",
            "country": "Austria",
            "countryAbbr": "AT",
            "city": "Graz",
            "responsible": "Alen Ramic",
            "address": "Kastellfeldgasse 31, Graz, Styria, Austria",
            "website": "www.graciebarragraz.com"
        },
        {
            "id": 6777,
            "name": "Gracie Barra Great Yarmouth",
            "federationAbbr": "IBJJF",
            "country": "United Kingdom",
            "countryAbbr": "GB",
            "city": "Great Yarmouth",
            "responsible": "Thiago  Paraiso",
            "address": "York Road 43 No. 3, Great Yarmouth, United Kingdom",
            "website": null
        },
        {
            "id": 2458,
            "name": "Gracie Barra Greece",
            "federationAbbr": "IBJJF",
            "country": "Greece",
            "countryAbbr": "GR",
            "city": "Athens",
            "responsible": "Vinicius Magalhães",
            "address": "Dimitras 13-15 Pallo Faliro  , , Athens, AT, Greece",
            "website": "www.brazilianjiujitsu.gr"
        },
        {
            "id": 9612,
            "name": "Gracie Barra Guaraqueçaba",
            "federationAbbr": "CBJJ",
            "country": "Brasil",
            "countryAbbr": "BR",
            "city": "Guaraqueçaba",
            "responsible": "Silvestre de Oliveira Lopes",
            "address": "Avenida Superagui, 200, Campo Novo, Antiga Apae, Guaraqueçaba, Parana, Brasil",
            "website": null
        }
    ]
}