{
    "pagination": {
        "page": 245,
        "from": 4880,
        "to": 4900,
        "pageSize": 20,
        "lastPage": 358,
        "totalRecords": 7149
    },
    "list": [
        {
            "id": 7647,
            "name": "Norfight Colombia",
            "federationAbbr": "IBJJF",
            "country": "Colombia",
            "countryAbbr": "CO",
            "city": "Zipaquira",
            "responsible": "Marcus Vinicius Barros Norat",
            "address": "calle 25 number 14-92 comuneros, Zipaquira, Cundinamarca, Colombia",
            "website": "https;//m.facebook.com/norfightcolombia/"
        },
        {
            "id": 4178,
            "name": "Norfight MG",
            "federationAbbr": "CBJJ",
            "country": "Brasil",
            "countryAbbr": "BR",
            "city": "Ubaporanga",
            "responsible": "Marcus Vinicius Barros Norat",
            "address": "Av. Padre Pino 172 , Santa Zita, Ubaporanga, MG, Brasil",
            "website": "www.norfight.com"
        },
        {
            "id": 7004,
            "name": "Noroeste Jiu-Jitsu",
            "federationAbbr": "CBJJ",
            "country": "Brasil",
            "countryAbbr": "BR",
            "city": "Santo Angelo",
            "responsible": "Fabio Alberto Simon",
            "address": "Travessa João Meller n: 1789, Extrema Força Academia, Santo Angelo, RS, Brasil",
            "website": null
        },
        {
            "id": 8467,
            "name": "Noronha's Brothers Jiu Jitsu",
            "federationAbbr": "CBJJ",
            "country": "Brasil",
            "countryAbbr": "BR",
            "city": "São Lourenço Do Sul",
            "responsible": "Ricardo Noronha Bueno",
            "address": "Marechal Deodoro,440, São Lourenço Do Sul, RS, Brasil",
            "website": null
        },
        {
            "id": 6429,
            "name": "Norte Brazilian Jiu-Jitsu",
            "federationAbbr": "CBJJ",
            "country": "Brasil",
            "countryAbbr": "BR",
            "city": "Maringá",
            "responsible": "Rui Pedro da Cruz Venâncio",
            "address": "Rua Agatha N: 1214b, Jardim Santa Helena, Maringá, Paraná, Brasil",
            "website": null
        },
        {
            "id": 4593,
            "name": "Norte Gold Team BJJ",
            "federationAbbr": "CBJJ",
            "country": "Brasil",
            "countryAbbr": "BR",
            "city": "Manaus",
            "responsible": "Eric Pereira Tinoco",
            "address": "Av 07 de Maio / Rua do Ouro 145, Ac Brother, Manaus, AM, Brasil",
            "website": null
        },
        {
            "id": 10344,
            "name": "Norte Warriors",
            "federationAbbr": "CBJJ",
            "country": "Brasil",
            "countryAbbr": "BR",
            "city": "Manaus",
            "responsible": "Airton Pereira dos Santos",
            "address": "Rua Jenipapo N 120, Próx Casa Da Carne Mimo, Manaus, Amazonas, Brasil",
            "website": null
        },
        {
            "id": 7239,
            "name": "North Academy Brazilian Jiu-Jitsu",
            "federationAbbr": "CBJJ",
            "country": "Brasil",
            "countryAbbr": "BR",
            "city": "Manaus",
            "responsible": "Edilberto dos Santos Silva Junior",
            "address": "Av Coronel Teixeira, 6225 - Ponta Negra, Reserva Inglesa - Liverpool - T 04 / Apartamento 305, Manaus, AM, Brasil",
            "website": null
        },
        {
            "id": 9554,
            "name": "North American Fight Club",
            "federationAbbr": "USBJJF",
            "country": "United States of America",
            "countryAbbr": "US",
            "city": "New Windsor",
            "responsible": "Brian Schutzer",
            "address": "374 Windsor Hwy, Ste 600, New Windsor, Ny, United States of America",
            "website": "https://orangecountyfightclub.com/"
        },
        {
            "id": 8959,
            "name": "North Broadway Jiu-Jitsu",
            "federationAbbr": "USBJJF",
            "country": "United States of America",
            "countryAbbr": "US",
            "city": "St. Louis",
            "responsible": "Bryan Guidry",
            "address": "2324 Marconi Ave., St. Louis, Mo, United States of America",
            "website": "www.nbroadwayjj.com"
        },
        {
            "id": 7519,
            "name": "North Coast Jiu-Jitsu",
            "federationAbbr": "USBJJF",
            "country": "United States of America",
            "countryAbbr": "US",
            "city": "Vista",
            "responsible": "Jake Matthew Mapes",
            "address": "131 Main St., Vista, CA, United States of America",
            "website": "www.northcoastjj.com"
        },
        {
            "id": 9257,
            "name": "North European BJJ Team",
            "federationAbbr": "IBJJF",
            "country": "Austria",
            "countryAbbr": "AT",
            "city": "Bruck An Der Mur",
            "responsible": "Ender Rodrigo Santos de Oliveira",
            "address": "Mittergasse 21 - Hall 4, Bruck An Der Mur, Styria, Austria",
            "website": null
        },
        {
            "id": 9571,
            "name": "North Fork Jiu-Jitsu",
            "federationAbbr": "USBJJF",
            "country": "United States of America",
            "countryAbbr": "US",
            "city": "Cutchogue",
            "responsible": "Randy K. Nieves",
            "address": "32845 Main Road, Suite E, Cutchogue, Ny, United States of America",
            "website": "www.northforkgrappling.com"
        },
        {
            "id": 3887,
            "name": "North Okanagan Brazilian Jiu-Jitsu (nos Bjj)",
            "federationAbbr": "IBJJF",
            "country": "Canada",
            "countryAbbr": "CA",
            "city": "Grindrod",
            "responsible": "Mario Joseph Paul Deveault",
            "address": "Box 8, , Grindrod, BC, Canada",
            "website": "www.NOSBJJ.com"
        },
        {
            "id": 5695,
            "name": "North Park Brazilian Jiu-Jitsu",
            "federationAbbr": "USBJJF",
            "country": "United States of America",
            "countryAbbr": "US",
            "city": "San Diego",
            "responsible": "Michael Estuart Cusi",
            "address": "3363 El Cajon Blvd Suite A, San Diego, CA, United States of America",
            "website": "www.northparkbjj.com"
        },
        {
            "id": 3142,
            "name": "North Shore Brazilian Jiu-Jitsu Academy",
            "federationAbbr": "USBJJF",
            "country": "United States of America",
            "countryAbbr": "US",
            "city": "Salem",
            "responsible": "Danny M Morera",
            "address": "10 Colonial Road Suite 18, Salem, MA, United States of America",
            "website": "www.northshorebjj.com"
        },
        {
            "id": 5735,
            "name": "North South Jiu-Jitsu",
            "federationAbbr": "USBJJF",
            "country": "United States of America",
            "countryAbbr": "US",
            "city": "Montclair",
            "responsible": "Karen Elizabeth Peterson",
            "address": "555 Bloofield Ave, Montclair, NJ, United States of America",
            "website": "northsouthbjj.com"
        },
        {
            "id": 9848,
            "name": "Northern Alliance Jiu-Jitsu",
            "federationAbbr": "IBJJF",
            "country": "United Kingdom",
            "countryAbbr": "GB",
            "city": "Nottingham",
            "responsible": "Neil Barnes Owen McEvoy",
            "address": "Unit G9, Roden House, Roden Street, Nottingham, Nottinghamshire, United Kingdom",
            "website": null
        },
        {
            "id": 5033,
            "name": "Northwest Fighting Arts",
            "federationAbbr": "USBJJF",
            "country": "United States of America",
            "countryAbbr": "US",
            "city": "Portland",
            "responsible": "Jeffrey Wayne Patterson",
            "address": "1200 SE Morrison St, , Portland, OR, United States of America",
            "website": "nwfighting.com"
        },
        {
            "id": 10358,
            "name": "Northwest Jiu-Jitsu Academy - MR",
            "federationAbbr": "IBJJF",
            "country": "Canada",
            "countryAbbr": "CA",
            "city": "Maple Ridge",
            "responsible": "Perry Ronald Bateson",
            "address": "11393 Kingston Street, Maple Ridge, Bc, Canada",
            "website": "Nwjja.ca"
        }
    ]
}