{
    "pagination": {
        "page": 189,
        "from": 3760,
        "to": 3780,
        "pageSize": 20,
        "lastPage": 358,
        "totalRecords": 7149
    },
    "list": [
        {
            "id": 1056,
            "name": "Icon Jiu-Jitsu Team - Santo Antônio de Pádua",
            "federationAbbr": "CBJJ",
            "country": "Brasil",
            "countryAbbr": "BR",
            "city": "Santo Antônio de Pádua",
            "responsible": "Marcello de Mello Cunha",
            "address": "Rua Maria Perlingeiro Lavaquial, 206, Parque das Águas, Santo Antônio de Pádua, RJ, Brasil",
            "website": null
        },
        {
            "id": 2740,
            "name": "Icon Jiu-Jitsu Team - USA",
            "federationAbbr": "USBJJF",
            "country": "United States of America",
            "countryAbbr": "US",
            "city": "Nashua",
            "responsible": null,
            "address": "130 - B Northeastern BLvd   , , Nashua, NH, United States of America",
            "website": ""
        },
        {
            "id": 10621,
            "name": "Icon Jiu-Jitsu Team Bulgaria",
            "federationAbbr": "IBJJF",
            "country": "Bulgaria",
            "countryAbbr": "BG",
            "city": "Pazardzhik",
            "responsible": "Flavio Maia dos Santos",
            "address": "Car Simeon 5, Pazardzhik, Bulgaria, Pazardzhik, Bulgaria",
            "website": "Http://www.bjjpz.site"
        },
        {
            "id": 6202,
            "name": "Icon Jiu-Jitsu Team France",
            "federationAbbr": "IBJJF",
            "country": "France",
            "countryAbbr": "FR",
            "city": "Lyon",
            "responsible": "José Marcello Figueira Rodrigues",
            "address": "7 Rue du Commandant PEGOUT, Lyon, --, France",
            "website": "www.grapplers69.com"
        },
        {
            "id": 8179,
            "name": "Icon Jiu-Jitsu Team Geneve",
            "federationAbbr": "IBJJF",
            "country": "Switzerland",
            "countryAbbr": "CH",
            "city": "Geneve ",
            "responsible": "Anderson Pereira da Silva Breder",
            "address": "Avenue Louis Casai 81, Geneve , Ge, Switzerland",
            "website": "www.iconjjbgeneve.ch"
        },
        {
            "id": 5717,
            "name": "Icon Jiu-Jitsu Team Pernambuco",
            "federationAbbr": "CBJJ",
            "country": "Brasil",
            "countryAbbr": "BR",
            "city": "Jaboatão dos Guararapes",
            "responsible": "Fabio Marinho Ancelmo",
            "address": "Rua Santo Elias número: 170 - 1 andar sala 06, Cajueiro Seco, Jaboatão dos Guararapes, Pernambuco, Brasil",
            "website": null
        },
        {
            "id": 6370,
            "name": "Icon Jiu-Jitsu Team Petrópolis",
            "federationAbbr": "CBJJ",
            "country": "Brasil",
            "countryAbbr": "BR",
            "city": "Petrópolis",
            "responsible": "Maurio Ferreira Martins",
            "address": "Rua Visconde de Taunay n:118 Castelo São Manuel, Correas, Petrópolis, Rio de Janeiro, Brasil",
            "website": null
        },
        {
            "id": 5330,
            "name": "Icon Jiu-Jitsu Team Reunion",
            "federationAbbr": "IBJJF",
            "country": "Reunion",
            "countryAbbr": "RE",
            "city": "Saint Paul",
            "responsible": "Fabrice Jean Louis Augustin Payet",
            "address": "10 Impasse Tino, Lot Goyavier , Bellemene, Saint Paul, FR, Reunion",
            "website": null
        },
        {
            "id": 6589,
            "name": "Icon Jiu-Jitsu Team Romania",
            "federationAbbr": "IBJJF",
            "country": "Romania",
            "countryAbbr": "RO",
            "city": "Bucharest ",
            "responsible": "Sergio Eduardo Vita de Morais",
            "address": "Busteni Street, N. 44A, First Floor , Bucharest , Bucharest, Romania",
            "website": "www.doos-combat.so"
        },
        {
            "id": 3901,
            "name": "Icon JJ Team - Capbreton",
            "federationAbbr": "IBJJF",
            "country": "France",
            "countryAbbr": "FR",
            "city": "Guethary",
            "responsible": "José Marcello Figueira Rodrigues",
            "address": "260 Chemin Laperia  , , Guethary, --, France",
            "website": "--"
        },
        {
            "id": 2447,
            "name": "Icon JJ Team - Cascais",
            "federationAbbr": "FPJJB",
            "country": "Portugal",
            "countryAbbr": "PT",
            "city": "Cascais",
            "responsible": null,
            "address": "Clube Sportivo Dramático de Cascais  , , Cascais, xx, Portugal",
            "website": "http://vitajiu-jitsu.blogspot.com"
        },
        {
            "id": 4033,
            "name": "Icon JJ Team - Ericeira",
            "federationAbbr": "FPJJB",
            "country": "Portugal",
            "countryAbbr": "PT",
            "city": "Ericeira",
            "responsible": null,
            "address": "Avenida São Sebastião. 36 A  , , Ericeira, 2655-319, Portugal",
            "website": "www.iconbjj-pt.com"
        },
        {
            "id": 7258,
            "name": "Icon Newcastle",
            "federationAbbr": "IBJJF",
            "country": "United Kingdom",
            "countryAbbr": "GB",
            "city": "North Shields",
            "responsible": "Marlon Frank Santos Queiroz",
            "address": "Meadow Well Connected, Waterville Rd. , North Shields, United Kingdom",
            "website": null
        },
        {
            "id": 9232,
            "name": "Idaho Jiu-Jitsu 100 Academy",
            "federationAbbr": "USBJJF",
            "country": "United States of America",
            "countryAbbr": "US",
            "city": "Hailey",
            "responsible": "Georges Joel Bouhey",
            "address": "111 S Main St, Hailey, Id, United States of America",
            "website": null
        },
        {
            "id": 10355,
            "name": "Idea",
            "federationAbbr": "IBJJF",
            "country": "Greece",
            "countryAbbr": "GR",
            "city": "Heraklion",
            "responsible": "Emmanouil Zouganelis",
            "address": "Konitsis 39, Heraklion, Crete Greece, Greece",
            "website": "https://www.instagram.com/idea_bjj/"
        },
        {
            "id": 7035,
            "name": "Ideal Jiu-Jitsu",
            "federationAbbr": "CBJJ",
            "country": "Brasil",
            "countryAbbr": "BR",
            "city": "Méier",
            "responsible": "Bruno Dias dos Santos",
            "address": "Rua Maranhão n: 191, Academia Proquality, Méier, Rio de Janeiro, Brasil",
            "website": null
        },
        {
            "id": 9105,
            "name": "Idô Jiu-Jitsu",
            "federationAbbr": "CBJJ",
            "country": "Brasil",
            "countryAbbr": "BR",
            "city": "Juiz De Fora",
            "responsible": "Leandro Luiz Nunes Boscato",
            "address": "Rua Jovino Ribeiro, 349/201, Bairu, Juiz De Fora, Minas Gerais, Brasil",
            "website": null
        },
        {
            "id": 9103,
            "name": "Iej Instituto Ensinar Jiu-Jitsu",
            "federationAbbr": "CBJJ",
            "country": "Brasil",
            "countryAbbr": "BR",
            "city": "Goiânia",
            "responsible": "Fernando Toshio Cabral Tsushima",
            "address": "Rua T41 Qd 11 Lt22, St Bueno, Goiânia, Goiás, Brasil",
            "website": null
        },
        {
            "id": 2684,
            "name": "IFC Life Brothers BJJ",
            "federationAbbr": "CBJJ",
            "country": "Brasil",
            "countryAbbr": "BR",
            "city": "São Paulo",
            "responsible": "Carlos Alberto Maiolino",
            "address": "Rua Espirito Santo Dourado, 138 Casa 2, Vila Clara, São Paulo, São Paulo, Brasil",
            "website": "www.ifclifebrothers.blogspot.com"
        },
        {
            "id": 7097,
            "name": "IFC Life Brothers International",
            "federationAbbr": "IBJJF",
            "country": "Turkey",
            "countryAbbr": "TR",
            "city": "Ankara",
            "responsible": "Carlos Alberto Maiolino",
            "address": "Ziya Gopkaip Caddesi, 9/19, Ankara, Turkey",
            "website": "ifcjiujitsu.com"
        }
    ]
}