{
    "pagination": {
        "page": 211,
        "from": 4200,
        "to": 4220,
        "pageSize": 20,
        "lastPage": 358,
        "totalRecords": 7149
    },
    "list": [
        {
            "id": 3986,
            "name": "Kronos BJJ HQ",
            "federationAbbr": "USBJJF",
            "country": "United States of America",
            "countryAbbr": "US",
            "city": "Springfield",
            "responsible": "Leonardo de Souza Ayres Peçanha",
            "address": "2314 E. Washita St, Springfield, MO, United States of America",
            "website": null
        },
        {
            "id": 6038,
            "name": "Kroyler Gracie Jiu-Jitsu",
            "federationAbbr": "USBJJF",
            "country": "United States of America",
            "countryAbbr": "US",
            "city": "Elkhart",
            "responsible": "Kroyler Gracie de Miranda Leao",
            "address": "53894 County Road 9, Elkhart, IN, United States of America",
            "website": "www.kroylergracie.com"
        },
        {
            "id": 5929,
            "name": "K-Team",
            "federationAbbr": "USBJJF",
            "country": "United States of America",
            "countryAbbr": "US",
            "city": "Kaneohe",
            "responsible": "Joseph Kimo Kreis",
            "address": "46-148 Kahuhipa, Kaneohe, HI, United States of America",
            "website": "www.K-team-martial-arts.com"
        },
        {
            "id": 10694,
            "name": "KTG Jiu-Jitsu",
            "federationAbbr": "CBJJ",
            "country": "Brasil",
            "countryAbbr": "BR",
            "city": "Belo Horizonte",
            "responsible": "Flávio Duarte Carvalho",
            "address": "Rua Araguari 746, Barro Preto, Belo Horizonte, Minas Gerais, Brasil",
            "website": null
        },
        {
            "id": 6509,
            "name": "KTM Ohana Jiu-Jitsu",
            "federationAbbr": "IBJJF",
            "country": "Italy",
            "countryAbbr": "IT",
            "city": "Rutigliano",
            "responsible": "Andrea Moresca",
            "address": "via M. Troiano 31, Via Noicattaro Km 1, Rutigliano, BA, Italy",
            "website": "www.accademiaohana.it"
        },
        {
            "id": 3355,
            "name": "Kullgam Competition",
            "federationAbbr": "CBJJ",
            "country": "Brasil",
            "countryAbbr": "BR",
            "city": "Florianópolis",
            "responsible": "Anderson Pereira da Silva",
            "address": "Rua André Maykot 347 , Estreito / Coloninha, Florianópolis, SC, Brasil",
            "website": null
        },
        {
            "id": 8678,
            "name": "Kulture Brazilian Jiu-Jitsu",
            "federationAbbr": "USBJJF",
            "country": "United States of America",
            "countryAbbr": "US",
            "city": "Corona",
            "responsible": "Richard Lopez",
            "address": "129 N Mckinley St Suite 109, Corona, Ca, United States of America",
            "website": null
        },
        {
            "id": 10620,
            "name": "Kumolipo Hawaiian Jiu-Jitsu",
            "federationAbbr": "USBJJF",
            "country": "United States of America",
            "countryAbbr": "US",
            "city": "Leander",
            "responsible": "William K Kalili Jr",
            "address": "2533 Granite Hill Rd, Leander, Tx, United States of America",
            "website": null
        },
        {
            "id": 8487,
            "name": "Kuro Hata BJJ Okinawa",
            "federationAbbr": "JBJJF",
            "country": "Japan",
            "countryAbbr": "JP",
            "city": "Uruma City",
            "responsible": "Micheal A. Cates",
            "address": "1250-8b Takaesu, Uruma City, Okinawa, Japan",
            "website": "Kurohataokinawa.com"
        },
        {
            "id": 3519,
            "name": "Kussano Team",
            "federationAbbr": "JBJJF",
            "country": "Japan",
            "countryAbbr": "JP",
            "city": "Aichi",
            "responsible": "Leandro de Souza Kussano",
            "address": "Chita Gun Higashuira Cho Fujie Otsubo 45  , , Aichi, --, Japan",
            "website": ""
        },
        {
            "id": 5377,
            "name": "Kuwait Jiu-Jitsu Academy",
            "federationAbbr": "IBJJF",
            "country": "Kuwait",
            "countryAbbr": "KW",
            "city": "Kuwait",
            "responsible": "Fouzan Alsabej",
            "address": "Kuwait Sport Club, Kuwait, Kuwait",
            "website": null
        },
        {
            "id": 8837,
            "name": "Kuzushi Grappling Team",
            "federationAbbr": "IBJJF",
            "country": "Canada",
            "countryAbbr": "CA",
            "city": "Vancouver",
            "responsible": "Benjamin Mark Dyson",
            "address": "150 W Hastings, 201, Vancouver, British Columbia, Canada",
            "website": "www.kuzushigrappling.com"
        },
        {
            "id": 9369,
            "name": "Kyobashi BJJ",
            "federationAbbr": "JBJJF",
            "country": "Japan",
            "countryAbbr": "JP",
            "city": "Osaka",
            "responsible": "Mikio Oga",
            "address": "Toa Building 3rd Floor,2-10-33 ,gamo,joto-ward, Osaka, Osaka, Japan",
            "website": "https://moriguchibjj.amebaownd.com/"
        },
        {
            "id": 9412,
            "name": "Kyodai Jiu-Jitsu",
            "federationAbbr": "CBJJ",
            "country": "Brasil",
            "countryAbbr": "BR",
            "city": "Balneário Camboriu",
            "responsible": "Edidene Pereira Areias",
            "address": "Rua 2870 N 168, Balneário Camboriu, Santa Catarina, Brasil",
            "website": null
        },
        {
            "id": 3220,
            "name": "Kyoto Newaza Club",
            "federationAbbr": "JBJJF",
            "country": "Japan",
            "countryAbbr": "JP",
            "city": "Kyoto-shi",
            "responsible": "Eiji Sano",
            "address": "39-2 Katsura-Inariyamacho Nishikyoku  , , Kyoto-shi, Kyoto, Japan",
            "website": ""
        },
        {
            "id": 4583,
            "name": "Kyoudaido",
            "federationAbbr": "IBJJF",
            "country": "Italy",
            "countryAbbr": "IT",
            "city": "Boffalora Sopra Ticino (MI)",
            "responsible": "Davide Garavaglia",
            "address": "Via don Luigi Sturzo  10/12 , Boffalora Sopra Ticino (MI), ., Italy",
            "website": "www.kyoudaido.com"
        },
        {
            "id": 6960,
            "name": "Kyoujin Jiu-Jitsu Belfast",
            "federationAbbr": "IBJJF",
            "country": "Ireland",
            "countryAbbr": "IE",
            "city": "Belfast",
            "responsible": "Peter Lavery",
            "address": "44 Corporation Street, Belfast, Ireland",
            "website": null
        },
        {
            "id": 3890,
            "name": "Kyrgyzstan Top Team",
            "federationAbbr": "IBJJF",
            "country": "Kyrgyzstan",
            "countryAbbr": "KG",
            "city": "Bishkek",
            "responsible": "Francisco Paulo Lima Junior",
            "address": "Lane Geologicheckyi 11  , , Bishkek, Chui, Kyrgyzstan",
            "website": ""
        },
        {
            "id": 6780,
            "name": "Kyuzo",
            "federationAbbr": "IBJJF",
            "country": "Ireland",
            "countryAbbr": "IE",
            "city": "Glasnevin",
            "responsible": "José Henrique Saraiva Nascimento",
            "address": "Unit 2A Bauyboggan Business Centre, Glasnevin, Dublin, Ireland",
            "website": "www.kyuzogym.com"
        },
        {
            "id": 9825,
            "name": "L P M A",
            "federationAbbr": "USBJJF",
            "country": "United States of America",
            "countryAbbr": "US",
            "city": "Lewisville",
            "responsible": "Chelsah Terran Lyons",
            "address": "1130 W. Main St., Suite C, Lewisville, Texas, United States of America",
            "website": "https://lpmartialarts.com/"
        }
    ]
}