{
    "pagination": {
        "page": 318,
        "from": 6340,
        "to": 6360,
        "pageSize": 20,
        "lastPage": 358,
        "totalRecords": 7149
    },
    "list": [
        {
            "id": 8059,
            "name": "Team Granola Jiu-Jitsu",
            "federationAbbr": "CBJJ",
            "country": "Brasil",
            "countryAbbr": "BR",
            "city": "Açailândia",
            "responsible": "Jefferson Costa Pinto",
            "address": "Rua Imperatriz N 194, Bairro Vila São Francisco, Açailândia, Maranhão, Brasil",
            "website": null
        },
        {
            "id": 9890,
            "name": "Team Granola Jiu-Jitsu China",
            "federationAbbr": "IBJJF",
            "country": "China",
            "countryAbbr": "CN",
            "city": "Fuzhou",
            "responsible": "Jefferson Costa Pinto",
            "address": "102-1, Building 6, Shaoyuanli Cultural Innovation Park, Baima North Road, Gulou District,, Fuzhou, Fujian Province, China",
            "website": null
        },
        {
            "id": 9094,
            "name": "Team Grube",
            "federationAbbr": "CBJJ",
            "country": "Brasil",
            "countryAbbr": "BR",
            "city": "Curitiba",
            "responsible": "Cesar Augusto da Silva Grube",
            "address": "Rua Vicente Geronasso 686, Curitiba, Parana, Brasil",
            "website": "www.teamgrube.com.br"
        },
        {
            "id": 4682,
            "name": "Team Hagui Jiu-Jitsu",
            "federationAbbr": "CBJJ",
            "country": "Brasil",
            "countryAbbr": "BR",
            "city": "Canoas",
            "responsible": "Fabiano Haguiwara",
            "address": "Rua Florianópolis  4246 , Mathias Velho , Canoas, RS, Brasil",
            "website": ""
        },
        {
            "id": 10183,
            "name": "Team Hanshi",
            "federationAbbr": "IBJJF",
            "country": "Kazakstan",
            "countryAbbr": "KZ",
            "city": "Karaganda",
            "responsible": "Ademir Pereira de Oliveira",
            "address": "Pavlov Street Building 2, Karaganda, Karaganda Oblast, Kazakstan",
            "website": null
        },
        {
            "id": 9961,
            "name": "Team Harmel Brazilian Jiu-Jitsu",
            "federationAbbr": "CBJJ",
            "country": "Brasil",
            "countryAbbr": "BR",
            "city": "Fazenda Rio Grande",
            "responsible": "Anderson Peri Harmel Moraes",
            "address": "Rua Santo Agostinho, 145b, Fazenda Rio Grande, Pr, Brasil",
            "website": null
        },
        {
            "id": 9657,
            "name": "Team Hazan",
            "federationAbbr": "IBJJF",
            "country": "Israel",
            "countryAbbr": "IL",
            "city": "Upper Galilee",
            "responsible": "Danny Hazan",
            "address": "Moshav Ramot Natali, Upper Galilee, North Israel, Israel",
            "website": null
        },
        {
            "id": 4827,
            "name": "Team Helsinki",
            "federationAbbr": "IBJJF",
            "country": "Finland",
            "countryAbbr": "FI",
            "city": "Helsinki",
            "responsible": "Sammy Allan Hämäläinen",
            "address": "Mekaanikonkatu 27  , , Helsinki, Finland",
            "website": "www.brasa.fi"
        },
        {
            "id": 8092,
            "name": "Team HJ",
            "federationAbbr": "IBJJF",
            "country": "Korea, South",
            "countryAbbr": "KR",
            "city": "Busan",
            "responsible": "Won Joon Bae",
            "address": "19, Sesil-ro 27beon-gil, Haeundae-gu, Busan, Korea, South",
            "website": null
        },
        {
            "id": 5920,
            "name": "Team Ilan Brazilian Jiu-Jitsu",
            "federationAbbr": "CBJJ",
            "country": "Brasil",
            "countryAbbr": "BR",
            "city": "Guarulhos",
            "responsible": "Emilio Carlos da Silva Junior",
            "address": "Avenida Brigadeiro Faria Lima n: 1122, 1 andar - Jd. Cocaia, Guarulhos, São Paulo, Brasil",
            "website": null
        },
        {
            "id": 9710,
            "name": "Team Irmãos Liro",
            "federationAbbr": "CBJJ",
            "country": "Brasil",
            "countryAbbr": "BR",
            "city": "Brasília",
            "responsible": "Moustakueo Pugas Maciel",
            "address": "Qnl 13 Conj  B Caso 18, Brasília, Distrito Federal, Brasil",
            "website": null
        },
        {
            "id": 9444,
            "name": "Team Israel Silva Jiu-Jitsu - Uberaba",
            "federationAbbr": "CBJJ",
            "country": "Brasil",
            "countryAbbr": "BR",
            "city": "Uberaba",
            "responsible": "Israel José Anicesio da Silva",
            "address": "Rua Moacir Paroneto,527, Uberaba, Mg, Brasil",
            "website": null
        },
        {
            "id": 5088,
            "name": "Team Ivan Leal T1",
            "federationAbbr": "CBJJ",
            "country": "Brasil",
            "countryAbbr": "BR",
            "city": "Belém",
            "responsible": "Ivan Martins Leal",
            "address": "Rua Domingos Marreiros 1157, Umarizal, Belém, PA, Brasil",
            "website": null
        },
        {
            "id": 3141,
            "name": "Team James Clingerman",
            "federationAbbr": "USBJJF",
            "country": "United States of America",
            "countryAbbr": "US",
            "city": "Greenwood",
            "responsible": "James H. Clingerman",
            "address": "1140 North State Road 135 Suite P, , Greenwood, IN, United States of America",
            "website": "www.ibjja.com"
        },
        {
            "id": 6275,
            "name": "Team JC Brazilian Jiu-Jitsu",
            "federationAbbr": "CBJJ",
            "country": "Brasil",
            "countryAbbr": "BR",
            "city": "Petrópolis",
            "responsible": "Jairo Alves",
            "address": "Rua Aldo Tamancoldi, Lote 116, Chácara Flora, Petrópolis, Rio de Janeiro, Brasil",
            "website": null
        },
        {
            "id": 6887,
            "name": "Team Joel Oliveira",
            "federationAbbr": "CBJJ",
            "country": "Brasil",
            "countryAbbr": "BR",
            "city": "Rio de Janeiro",
            "responsible": "Joel Oliveira de Lima",
            "address": "Av. Pastor Martin Luther King Jr. n: 12785, Bairro: Pavuna, Rio de Janeiro, Rio de Janeiro , Brasil",
            "website": null
        },
        {
            "id": 8705,
            "name": "Team Jonson Rodrigues",
            "federationAbbr": "CBJJ",
            "country": "Brasil",
            "countryAbbr": "BR",
            "city": "Parnamirim",
            "responsible": "Edjonson Rodrigues de Andrade",
            "address": "Avenida Abel Cabral, Número  6c, Parnamirim, Rio Grande Do Norte, Brasil",
            "website": "Ctjonsonrodrigues"
        },
        {
            "id": 2403,
            "name": "Team Jucão",
            "federationAbbr": "USBJJF",
            "country": "United States of America",
            "countryAbbr": "US",
            "city": "Garwood",
            "responsible": "Ailson Henrique Brites",
            "address": "55 third Ave 2h  , Garwood, NJ, United States of America",
            "website": "www.jucaobjj.com"
        },
        {
            "id": 9154,
            "name": "Team Jucao Portugal",
            "federationAbbr": "FPJJB",
            "country": "Portugal",
            "countryAbbr": "PT",
            "city": "Pontinha",
            "responsible": "Ailson Henrique Brites",
            "address": "R Prof Arnesio Nunes, 1600, Cac, Pontinha, Lisboa, Portugal",
            "website": "Www.jucaobjj.com"
        },
        {
            "id": 5317,
            "name": "Team Jucão Rio de Janeiro",
            "federationAbbr": "CBJJ",
            "country": "Brasil",
            "countryAbbr": "BR",
            "city": "Teresópolis",
            "responsible": "Sandro Fernandes",
            "address": "Rua Doutor Oliveira, 1133 - Apt 103 Bl 02, Barra do Imbui, Teresópolis, RJ, Brasil",
            "website": null
        }
    ]
}