{
    "pagination": {
        "page": 200,
        "from": 3980,
        "to": 4000,
        "pageSize": 20,
        "lastPage": 358,
        "totalRecords": 7149
    },
    "list": [
        {
            "id": 6789,
            "name": "Jiu-Jitsu For Life Canada",
            "federationAbbr": "IBJJF",
            "country": "Canada",
            "countryAbbr": "CA",
            "city": "Toronto",
            "responsible": "Jorge Britto Lima Filho",
            "address": "59 East Liberty Street Apt 1205, Toronto, Ontario, Canada",
            "website": "Jiujitsuforlife.team"
        },
        {
            "id": 5602,
            "name": "Jiu-Jitsu For Life Europe",
            "federationAbbr": "IBJJF",
            "country": "Greece",
            "countryAbbr": "GR",
            "city": "Athens",
            "responsible": "Jorge Britto Lima Filho",
            "address": "Arkadias 8 Gerakas, Athens, Greece",
            "website": null
        },
        {
            "id": 8606,
            "name": "Jiu-Jitsu For Life Team USA",
            "federationAbbr": "USBJJF",
            "country": "United States of America",
            "countryAbbr": "US",
            "city": "Niagara Falls",
            "responsible": "Jorge Britto Lima Filho",
            "address": "600 , 56th Street, Niagara Falls, New York, United States of America",
            "website": null
        },
        {
            "id": 2661,
            "name": "Jiu-Jitsu Foundation",
            "federationAbbr": "USBJJF",
            "country": "United States of America",
            "countryAbbr": "US",
            "city": "La Mesa",
            "responsible": "Carlos Eduardo Carone Francis",
            "address": "8674 La Mesa Blvd  , , La Mesa, CA, United States of America",
            "website": "www.jiujitsufoundation.com"
        },
        {
            "id": 10233,
            "name": "Jiu-Jitsu Foz",
            "federationAbbr": "CBJJ",
            "country": "Brasil",
            "countryAbbr": "BR",
            "city": "Foz Do Iguaçu",
            "responsible": "Marcos Aparecido de Souza",
            "address": "Av Jk, 1740, Jardim América., Clube Gresfi, Foz Do Iguaçu, Paraná, Brasil",
            "website": null
        },
        {
            "id": 4255,
            "name": "Jiu-Jitsu Gap",
            "federationAbbr": "IBJJF",
            "country": "France",
            "countryAbbr": "FR",
            "city": "Gap",
            "responsible": "David Joseph Pierre-Louis",
            "address": "21 Rue du Fournelos  , Pelleautier, Gap, --, France",
            "website": ""
        },
        {
            "id": 8329,
            "name": "Jiu-jitsu Gym Trinity Seto",
            "federationAbbr": "JBJJF",
            "country": "Japan",
            "countryAbbr": "JP",
            "city": "Seto",
            "responsible": "Lee Sangsu",
            "address": "Kamimizuno132-2f, Seto, Aichi, Japan",
            "website": null
        },
        {
            "id": 10032,
            "name": "Jiu-Jitsu Haus",
            "federationAbbr": "USBJJF",
            "country": "United States of America",
            "countryAbbr": "US",
            "city": "Brewster",
            "responsible": "Filipe Braga Costa",
            "address": "988 Route 22 Suite A, Brewster, Ny, United States of America",
            "website": "www.jiujitsuhaus.com"
        },
        {
            "id": 4095,
            "name": "Jiu-Jitsu Lab",
            "federationAbbr": "IBJJF",
            "country": "Korea, South",
            "countryAbbr": "KR",
            "city": "Pusan",
            "responsible": "Youngam Noh",
            "address": "421-3 5th floor, Jong Jun - Doeng, , Pusan, --, Korea, South",
            "website": "www.labjiujitsu.com"
        },
        {
            "id": 7670,
            "name": "Jiu-Jitsu Magenta",
            "federationAbbr": "IBJJF",
            "country": "Italy",
            "countryAbbr": "IT",
            "city": "Corbetta",
            "responsible": "Andrea  Grassi",
            "address": "Strada padana est 84, Corbetta, Italy",
            "website": "www.jiujitsumagenta.it"
        },
        {
            "id": 7726,
            "name": "Jiu-Jitsu Methods",
            "federationAbbr": "USBJJF",
            "country": "United States of America",
            "countryAbbr": "US",
            "city": "Las Vegas",
            "responsible": "Rene Eduardo Lopez",
            "address": "4135 Windsong Street, Las Vegas, Nv, United States of America",
            "website": null
        },
        {
            "id": 8746,
            "name": "Jiu-Jitsu MMA Academy G-face",
            "federationAbbr": "JBJJF",
            "country": "Japan",
            "countryAbbr": "JP",
            "city": "Miyawakasi",
            "responsible": "Tadahiro Harada",
            "address": "650 Nagaizuru, Miyawakasi, Japan",
            "website": null
        },
        {
            "id": 6527,
            "name": "Jiu-Jitsu Okoboji",
            "federationAbbr": "USBJJF",
            "country": "United States of America",
            "countryAbbr": "US",
            "city": "Spirit Lake",
            "responsible": "Kyle David Heberle",
            "address": "802 Lake Street, Spirit Lake, IA, United States of America",
            "website": "www.facebook.com/jiujitsuokoboji"
        },
        {
            "id": 8686,
            "name": "Jiu-jitsu Para Todos / BV8 Pacaraima",
            "federationAbbr": "CBJJ",
            "country": "Brasil",
            "countryAbbr": "BR",
            "city": "Pacaraima",
            "responsible": "Bruno Romão Peixoto",
            "address": "Rua Primavera, 49 - Conjunto Vitoria, Pacaraima, Roraima, Brasil",
            "website": null
        },
        {
            "id": 4129,
            "name": "Jiu-Jitsu Pedra Branca",
            "federationAbbr": "CBJJ",
            "country": "Brasil",
            "countryAbbr": "BR",
            "city": "Chapeco",
            "responsible": "Alessandro Soares",
            "address": "Rua Guaporé n: 72 E - Em anexo a academia de Musculação Fisico Academia, Bairro: Centro, Chapeco, SC, Brasil",
            "website": null
        },
        {
            "id": 10116,
            "name": "Jiu-Jitsu Propulsion Laboratory",
            "federationAbbr": "USBJJF",
            "country": "United States of America",
            "countryAbbr": "US",
            "city": "Downey",
            "responsible": "Hector Osvaldo Beltran",
            "address": "9220 Lakewood Blvd, Downey, Ca, United States of America",
            "website": "ACADEMYJJ.COM"
        },
        {
            "id": 10156,
            "name": "Jiu-Jitsu Rim",
            "federationAbbr": "IBJJF",
            "country": "Korea, South",
            "countryAbbr": "KR",
            "city": "Ansan-si",
            "responsible": "Sanghyun Lee",
            "address": "203ho, 51, Jungbo-ro, Sangnok-gu, Ansan-si, Gyeonggi-do, Korea, South",
            "website": null
        },
        {
            "id": 10251,
            "name": "Jiu-Jitsu Rodrigo Cabeção",
            "federationAbbr": "CBJJ",
            "country": "Brasil",
            "countryAbbr": "BR",
            "city": "Nova Odessa",
            "responsible": "Rodrigo dos Santos Gomes",
            "address": "Rua Cesarina Constâncio Bordon N 510 Bairro Santa Luiza 1, 510, Nova Odessa, Sao Paulo, Brasil",
            "website": null
        },
        {
            "id": 9796,
            "name": "Jiu-Jitsu Uzbekistan",
            "federationAbbr": "IBJJF",
            "country": "Uzbekistan",
            "countryAbbr": "UZ",
            "city": "Tashkent",
            "responsible": "Ruslan Yakubov",
            "address": "Sergeli 8a. 4. 8., Tashkent, Uzbekistan",
            "website": "Tashkent"
        },
        {
            "id": 7468,
            "name": "Jiu-Jitsu X",
            "federationAbbr": "IBJJF",
            "country": "Kuwait",
            "countryAbbr": "KW",
            "city": "Sabhan",
            "responsible": "Ahmad Alqadhmani",
            "address": "Murooj, Street 2, Avenue 1, Sabhan, Kuwait, Kuwait",
            "website": null
        }
    ]
}