{
    "pagination": {
        "page": 225,
        "from": 4480,
        "to": 4500,
        "pageSize": 20,
        "lastPage": 358,
        "totalRecords": 7149
    },
    "list": [
        {
            "id": 7209,
            "name": "Marc Union S.D.K.",
            "federationAbbr": "IBJJF",
            "country": "Korea, South",
            "countryAbbr": "KR",
            "city": "Seoul",
            "responsible": "Seung-Jae Lee",
            "address": "#402, kwangjin Bldg. Bongwujae-ro, 68 Jungnang-gu, Seoul, Seoul, Korea, South",
            "website": "-"
        },
        {
            "id": 9431,
            "name": "Marc Union Smg",
            "federationAbbr": "IBJJF",
            "country": "Korea, South",
            "countryAbbr": "KR",
            "city": "Suwon-si",
            "responsible": "Seung-Jae Lee",
            "address": "3f(#306), 11-7, Manseok-ro 19beon-gil, Jangan-gu, Suwon-si, Gyeonggi-do, Korea, South",
            "website": null
        },
        {
            "id": 7100,
            "name": "Marc Union Taebaek",
            "federationAbbr": "IBJJF",
            "country": "Korea, South",
            "countryAbbr": "KR",
            "city": "Taebaek-si ",
            "responsible": "Seung-Jae Lee",
            "address": "2F, Daesan APT 1710, Hwangjidong, Taebaek-si , Kangwon-do , Korea, South",
            "website": null
        },
        {
            "id": 7197,
            "name": "Marc Union Team Strike",
            "federationAbbr": "IBJJF",
            "country": "Korea, South",
            "countryAbbr": "KR",
            "city": "Pocheon-si",
            "responsible": "Seung-Jae Lee",
            "address": "4F, 997, Hoguk-ro, Pocheon-si, Gyeonggi-do, Korea, South",
            "website": "-"
        },
        {
            "id": 7185,
            "name": "Marc Union Team Tigers",
            "federationAbbr": "IBJJF",
            "country": "Korea, South",
            "countryAbbr": "KR",
            "city": "Uijeongbu-si",
            "responsible": "Seung-Jae Lee",
            "address": "3F, 227, Omok-ro, Uijeongbu-si, Gyeonggi-do, Korea, South",
            "website": null
        },
        {
            "id": 7184,
            "name": "Marc Union Team Winners",
            "federationAbbr": "IBJJF",
            "country": "Korea, South",
            "countryAbbr": "KR",
            "city": "Gwangju",
            "responsible": "Seung-Jae Lee",
            "address": "2F, 40, Woldong-ro, Buk-gu, Gwangju, Gwangju, Korea, South",
            "website": null
        },
        {
            "id": 2462,
            "name": "Marcao - Artsuave Jiu-Jitsu",
            "federationAbbr": "FPJJB",
            "country": "Portugal",
            "countryAbbr": "PT",
            "city": "Porto",
            "responsible": "Marco A. B. Carneiro",
            "address": "Praceta Maestro Resende Dias, 91, 5. 4, Porto, --, Portugal",
            "website": null
        },
        {
            "id": 8669,
            "name": "Marcão Gold Team",
            "federationAbbr": "CBJJ",
            "country": "Brasil",
            "countryAbbr": "BR",
            "city": "Itaborai",
            "responsible": "Marco Antonio Emerich de Melo",
            "address": "Rua Um Lote 80, Jardim Alvorada, Itaborai, Rio De Janeiro, Brasil",
            "website": null
        },
        {
            "id": 8794,
            "name": "Marcel Ferreira Jiu-Jitsu",
            "federationAbbr": "USBJJF",
            "country": "United States of America",
            "countryAbbr": "US",
            "city": "Pleseant Gap",
            "responsible": "Marcel Ferreira",
            "address": "147 Valor Court, Pleseant Gap, Pennsylvania, United States of America",
            "website": null
        },
        {
            "id": 6699,
            "name": "Marcelino Freitas BJJ",
            "federationAbbr": "IBJJF",
            "country": "Australia",
            "countryAbbr": "AU",
            "city": "Mordialloc",
            "responsible": "Marcelino Bernardo de Freitas",
            "address": "10 Fonceca St, Mordialloc, VIC, Australia",
            "website": null
        },
        {
            "id": 10279,
            "name": "Marcello Alcantar",
            "federationAbbr": "USBJJF",
            "country": "United States of America",
            "countryAbbr": "US",
            "city": "Pace",
            "responsible": "Marcello Alexis Alcantar",
            "address": "4412 Hwy 90, Pace, Fl, United States of America",
            "website": null
        },
        {
            "id": 10184,
            "name": "Marcello Jacintho TS BJJ",
            "federationAbbr": "CBJJ",
            "country": "Brasil",
            "countryAbbr": "BR",
            "city": "São Luís",
            "responsible": "Marcello Pinheiro dos Santos Jacintho",
            "address": "Rua Dos Juritis Com Ipês, São Luís, Maranhão, Brasil",
            "website": "Instagram: toca do samurai renascença"
        },
        {
            "id": 2566,
            "name": "Marcelo Alonso Brazilian Jiu-Jitsu",
            "federationAbbr": "USBJJF",
            "country": "United States of America",
            "countryAbbr": "US",
            "city": "Seatle",
            "responsible": null,
            "address": "357 N W 77th st  , , Seatle, wa, United States of America",
            "website": "mabjj.com"
        },
        {
            "id": 8447,
            "name": "Marcelo Briggs BJJ",
            "federationAbbr": "CBJJ",
            "country": "Brasil",
            "countryAbbr": "BR",
            "city": "Niteroi",
            "responsible": "João Marcelo Briggs da Cruz",
            "address": "Rua Arídio Martins 50, Blc 03 Apto 301, Niteroi, Rio De Janeiro, Brasil",
            "website": null
        },
        {
            "id": 4041,
            "name": "Marcelo Galo Jiu-Jitsu",
            "federationAbbr": "CBJJ",
            "country": "Brasil",
            "countryAbbr": "BR",
            "city": "Rio de Janeiro",
            "responsible": "Marcelo dos Santos Silva",
            "address": "Praça Desembargador Araújo Jorge 02 Casa 02, Barra da Tijuca, Rio de Janeiro, RJ, Brasil",
            "website": ""
        },
        {
            "id": 5828,
            "name": "Marcelo Lopes Team New Zealand",
            "federationAbbr": "IBJJF",
            "country": "New Zealand",
            "countryAbbr": "NZ",
            "city": "Blenheim",
            "responsible": "Julio Cesar Pereira",
            "address": "14 Stuart Street, Blenheim, New Zealand",
            "website": "www.bjjnz.co.nz"
        },
        {
            "id": 10012,
            "name": "Marcelo Pereira Brazilian Jiu-Jitsu",
            "federationAbbr": "USBJJF",
            "country": "United States of America",
            "countryAbbr": "US",
            "city": "Fort Myers",
            "responsible": "Marcelo da Silva Pereira",
            "address": "10994 Metro Pkwy Fort Myers, Fl 33966, Fort Myers, Florida, United States of America",
            "website": "https://www.bjjfortmyers.com/"
        },
        {
            "id": 8731,
            "name": "Marcelo Quirino Team Squared",
            "federationAbbr": "CBJJ",
            "country": "Brasil",
            "countryAbbr": "BR",
            "city": "Monte Carmelo",
            "responsible": "Roberto Marcelo de Q. Quirino",
            "address": "Av Heladio Simoes 163, Em Frente Ao Der (departamento De Estradas E Rodagem), Monte Carmelo, Minas Gerais, Brasil",
            "website": null
        },
        {
            "id": 8745,
            "name": "Marcelo Rocha Jiu-Jitsu e Defesa Pessoal",
            "federationAbbr": "CBJJ",
            "country": "Brasil",
            "countryAbbr": "BR",
            "city": "Brasília",
            "responsible": "Marcelo Rocha de Morais",
            "address": "Cond Alto Da Boa Vista, Quadra 200 Conjunto 02 Casa 09, Brasília, Distrito Federal, Brasil",
            "website": null
        },
        {
            "id": 879,
            "name": "Marcelo Saporito Jiu-Jitsu",
            "federationAbbr": "CBJJ",
            "country": "Brasil",
            "countryAbbr": "BR",
            "city": "Rio de Janeiro",
            "responsible": "Marcelo Rodrigues Saporito",
            "address": "Rua Figueiredo Magalhães  414 3 andar, Copacabana, Rio de Janeiro, RJ, Brasil",
            "website": "www.marcelosaporito.com.br"
        }
    ]
}