{
    "pagination": {
        "page": 144,
        "from": 2860,
        "to": 2880,
        "pageSize": 20,
        "lastPage": 358,
        "totalRecords": 7149
    },
    "list": [
        {
            "id": 9247,
            "name": "Gfteam Pro Combat",
            "federationAbbr": "CBJJ",
            "country": "Brasil",
            "countryAbbr": "BR",
            "city": "Rio De Janeiro",
            "responsible": "Gabriel Marinho Rodrigues",
            "address": "Rua Professor Gonçalves,77, Galpão, Rio De Janeiro, Rio De Janeiro, Brasil",
            "website": "www.procombatoficial.com.br"
        },
        {
            "id": 10206,
            "name": "GFTeam Recife",
            "federationAbbr": "CBJJ",
            "country": "Brasil",
            "countryAbbr": "BR",
            "city": "Recife",
            "responsible": "Hallison Rafael Gomes da Silva",
            "address": "Rua Capitão Cosmo Do Rego. 64, Recife, Pernambuco, Brasil",
            "website": null
        },
        {
            "id": 9718,
            "name": "GFTeam Rockingham",
            "federationAbbr": "IBJJF",
            "country": "Australia",
            "countryAbbr": "AU",
            "city": "Rockingham",
            "responsible": "Alvaro Rodrigo Santos Bobadilla",
            "address": "Grand Ocean Boulevard 274 - Port Kennedy, Rockingham, Western Australia, Australia",
            "website": null
        },
        {
            "id": 9125,
            "name": "GFTeam Roraima",
            "federationAbbr": "CBJJ",
            "country": "Brasil",
            "countryAbbr": "BR",
            "city": "Boa Vista",
            "responsible": "Alex Sandro Fernandes Prestes",
            "address": "Rua C 105 Airton Rocha, Boa Vista, Roraima, Brasil",
            "website": null
        },
        {
            "id": 10472,
            "name": "GFTeam São Gabriel- RS",
            "federationAbbr": "CBJJ",
            "country": "Brasil",
            "countryAbbr": "BR",
            "city": "São Gabriel",
            "responsible": "Kalígula Khayan Soares Lima",
            "address": "Rua Coronel Soares , Número 4, São Gabriel, Rio Grande Do Sul, Brasil",
            "website": "https://www.gfteamofficial.com/nossas-academias"
        },
        {
            "id": 10269,
            "name": "GFTeam Singapore",
            "federationAbbr": "IBJJF",
            "country": "Singapore",
            "countryAbbr": "SG",
            "city": "Singapore",
            "responsible": "Vinicius Wingerter de Lima",
            "address": "438b Joo Chiat Road, Singapore, Singapore, Singapore, Singapore",
            "website": "https://gfteam.sg/"
        },
        {
            "id": 9082,
            "name": "Gfteam Spain",
            "federationAbbr": "IBJJF",
            "country": "Spain",
            "countryAbbr": "ES",
            "city": "Girona",
            "responsible": "Thiago Carvalho Souza",
            "address": "Carrer De La Rutlla, 226, Girona, Girona, Spain",
            "website": "www.topgymgirona.net"
        },
        {
            "id": 9122,
            "name": "Gfteam Sunshine Coast",
            "federationAbbr": "IBJJF",
            "country": "Australia",
            "countryAbbr": "AU",
            "city": "Yandina",
            "responsible": "Dean Jon Liebenberg",
            "address": "11/24 Central Park Drive, Yandina, Queensland, Australia",
            "website": "www.vermelhobjj.com.au"
        },
        {
            "id": 8559,
            "name": "GFTeam Team Furtado",
            "federationAbbr": "CBJJ",
            "country": "Brasil",
            "countryAbbr": "BR",
            "city": "Rio De Janeiro",
            "responsible": "Juan Furtado",
            "address": "Rua Porto Camargo,10 - Guaratiba, 197, Rio De Janeiro, Rio De Janeiro, Brasil",
            "website": "https://instagram.com/ctteamfurtado?igshid=YmMyMTA2M2Y="
        },
        {
            "id": 10008,
            "name": "Gfteam Tomar",
            "federationAbbr": "FPJJB",
            "country": "Portugal",
            "countryAbbr": "PT",
            "city": "Tomar",
            "responsible": "Luis Gustavo Assunção",
            "address": "Rua José Raimundo Ribeiro 9 Cave Esquerdo, Tomar, Santarem, Portugal",
            "website": "albgrappling.com"
        },
        {
            "id": 9604,
            "name": "GFTeam Vila Valqueire",
            "federationAbbr": "CBJJ",
            "country": "Brasil",
            "countryAbbr": "BR",
            "city": "Rio De Janeiro",
            "responsible": "Rivaldo de Assis Oliveira",
            "address": "Rua Cairuçu, 713, Vila Valqueire, Academia Cnk, Rio De Janeiro, Rj, Brasil",
            "website": "https://www.instagram.com/gfteam_vilavalqueire/"
        },
        {
            "id": 3379,
            "name": "GHBJJ",
            "federationAbbr": "USBJJF",
            "country": "United States of America",
            "countryAbbr": "US",
            "city": "Bremerton",
            "responsible": "George Hissung Jr.",
            "address": "1939 Gregory Way  , , Bremerton, WA, United States of America",
            "website": "www.hybridgyms.com/"
        },
        {
            "id": 2449,
            "name": "Ghost Squad BJJ Team",
            "federationAbbr": "USBJJF",
            "country": "United States of America",
            "countryAbbr": "US",
            "city": "Miami",
            "responsible": "Michel Porfírio Pereira",
            "address": "4033 SW 152nd Avenue, #9, Miami, FL, United States of America",
            "website": "www.buiubjj.com"
        },
        {
            "id": 8016,
            "name": "Gianeis - The Lab Oteri BJJ",
            "federationAbbr": "USBJJF",
            "country": "United States of America",
            "countryAbbr": "US",
            "city": "Dedham",
            "responsible": "Charles Mateus Gianeis",
            "address": "619 High Street, Dedham, Massachusetts, United States of America",
            "website": null
        },
        {
            "id": 3055,
            "name": "Gilbert Durinho Association USA",
            "federationAbbr": "USBJJF",
            "country": "United States of America",
            "countryAbbr": "US",
            "city": "Las Vegas ",
            "responsible": "Gilbert Alexander Pontes Burns",
            "address": "9698 Ziegler Ave  , , Las Vegas , NV, United States of America",
            "website": ""
        },
        {
            "id": 7979,
            "name": "Gilberto Garcia Team",
            "federationAbbr": "IBJJF",
            "country": "Spain",
            "countryAbbr": "ES",
            "city": "Madrid",
            "responsible": "Gilberto Garcia Cerqueira",
            "address": "Pseo De Las Delicias N94, 2°b, Madrid, Madrid, Spain",
            "website": null
        },
        {
            "id": 7173,
            "name": "Gile Ribeiro Aeroporto",
            "federationAbbr": "CBJJ",
            "country": "Brasil",
            "countryAbbr": "BR",
            "city": "São José dos Pinhais",
            "responsible": "Celso Pereira Junior",
            "address": "Rua David Campista 1927, Bairro: Ina, São José dos Pinhais, PR, Brasil",
            "website": "@ctgr_portal"
        },
        {
            "id": 9005,
            "name": "Gile Ribeiro Araucária",
            "federationAbbr": "CBJJ",
            "country": "Brasil",
            "countryAbbr": "BR",
            "city": "Araucária",
            "responsible": "Sidnei de Paula Faria",
            "address": "Antonio Alves Pinto 235, Araucária, Paraná, Brasil",
            "website": null
        },
        {
            "id": 2014,
            "name": "Gile Ribeiro BJJ",
            "federationAbbr": "CBJJ",
            "country": "Brasil",
            "countryAbbr": "BR",
            "city": "Curitiba",
            "responsible": "Gilliano Antônio Ribeiro",
            "address": "Rua Dr. Faivre n: 832, Centro, Curitiba, PR, Brasil",
            "website": "www.gileribeiro.com"
        },
        {
            "id": 8265,
            "name": "Gile Ribeiro BJJ / Boa Vista",
            "federationAbbr": "CBJJ",
            "country": "Brasil",
            "countryAbbr": "BR",
            "city": "Curitiba",
            "responsible": "Julio Cesar Migliorini",
            "address": "Rua Canadá 1880, Rua Canadá 1880, Curitiba, Paraná, Brasil",
            "website": null
        }
    ]
}