{
    "pagination": {
        "page": 298,
        "from": 5940,
        "to": 5960,
        "pageSize": 20,
        "lastPage": 358,
        "totalRecords": 7149
    },
    "list": [
        {
            "id": 8036,
            "name": "Silemar Faria Jiu-Jitsu Team",
            "federationAbbr": "CBJJ",
            "country": "Brasil",
            "countryAbbr": "BR",
            "city": "Belo Horizonte",
            "responsible": "Silemar Cesar Faria Junior",
            "address": "Rua José Bartolomeu Rosa Número 20, Bairro Minas Caixa, Belo Horizonte, Minas Gerais, Brasil",
            "website": null
        },
        {
            "id": 4408,
            "name": "Silent Jiu-Jitsu",
            "federationAbbr": "JBJJF",
            "country": "Japan",
            "countryAbbr": "JP",
            "city": "Tokyo",
            "responsible": "Takeharu Watabiki",
            "address": "1-7-9, Narihira Sumidaku  , , Tokyo, Tokyo, Japan",
            "website": ""
        },
        {
            "id": 2965,
            "name": "Silva Jiu-Jitsu Academy",
            "federationAbbr": "USBJJF",
            "country": "United States of America",
            "countryAbbr": "US",
            "city": "El Cajon",
            "responsible": "Paulo Renato Silva",
            "address": "1043 Broadway, , El Cajon, Ca, United States of America",
            "website": "www.silvabjjacademy.com"
        },
        {
            "id": 5359,
            "name": "Silveira Team",
            "federationAbbr": "CBJJ",
            "country": "Brasil",
            "countryAbbr": "BR",
            "city": "Florianópolis",
            "responsible": "Fernando Silveira",
            "address": "Av. Luiz Boiteux Piazza, 2770 Fundos, Cachoeira do Bom Jesus, Florianópolis, SC, Brasil",
            "website": null
        },
        {
            "id": 5489,
            "name": "Silver Fox BJJ",
            "federationAbbr": "USBJJF",
            "country": "United States of America",
            "countryAbbr": "US",
            "city": "Saddle Brook",
            "responsible": "Karel Pravec Jr.",
            "address": "380 Market Street, Saddle Brook, NJ, United States of America",
            "website": "www.silverfoxbjj.com"
        },
        {
            "id": 7645,
            "name": "Silver Fox BJJ International",
            "federationAbbr": "IBJJF",
            "country": "Czech Republic",
            "countryAbbr": "CZ",
            "city": "Ceska Trebova",
            "responsible": "Karel Pravec Jr.",
            "address": "Jana Pernera, Ceska Trebova, Czech Republic",
            "website": null
        },
        {
            "id": 7355,
            "name": "Silverback Jiu-Jitsu Academy",
            "federationAbbr": "IBJJF",
            "country": "Ireland",
            "countryAbbr": "IE",
            "city": "Dublin",
            "responsible": "Mariusz Grzywinski",
            "address": "48, Block 503, Greenouge Business Park, Dublin, --, Ireland",
            "website": "www.BJJ.ie"
        },
        {
            "id": 8460,
            "name": "Silverio Fonseca  Jiu-Jitsu",
            "federationAbbr": "IBJJF",
            "country": "Spain",
            "countryAbbr": "ES",
            "city": "Las Palmas ",
            "responsible": "Silverio Trindade Fonseca",
            "address": "Avenida Parque Central Bloque 10 9a, Las Palmas , Gc, Spain",
            "website": null
        },
        {
            "id": 7898,
            "name": "Silvestre Team",
            "federationAbbr": "CBJJ",
            "country": "Brasil",
            "countryAbbr": "BR",
            "city": "Macae ",
            "responsible": "Julio Silvestre Ataide Duarte",
            "address": "Avenida Luiz Lírio Número 1225 Barra De Macae , Macae , Rio De Janeiro , Brasil",
            "website": null
        },
        {
            "id": 6127,
            "name": "Silvio Caldas Brazilian Jiu-Jitsu Tefé/AM",
            "federationAbbr": "CBJJ",
            "country": "Brasil",
            "countryAbbr": "BR",
            "city": "Tefé",
            "responsible": "Silvio Caldas da Silva",
            "address": "Rua Jericó, 129 - Jerusalém, Monte Castelo, Tefé, Amazonas, Brasil",
            "website": null
        },
        {
            "id": 9561,
            "name": "Sílvio Gaia Brazilian Jiu-jítsu",
            "federationAbbr": "CBJJ",
            "country": "Brasil",
            "countryAbbr": "BR",
            "city": "Manaus",
            "responsible": "Sílvio Celso Santiago Gaia Nina",
            "address": "Rua Berna  N\" 9, Conjunto Campos Elísios, Manaus, Amazonas, Brasil",
            "website": null
        },
        {
            "id": 2988,
            "name": "Sim Go Academy",
            "federationAbbr": "USBJJF",
            "country": "United States of America",
            "countryAbbr": "US",
            "city": "Las Vegas",
            "responsible": "Simpson Mella Go",
            "address": "7060 W. Sunset Road, , Las Vegas, NV, United States of America",
            "website": "www.simgojj.com"
        },
        {
            "id": 5310,
            "name": "Simetria Fight",
            "federationAbbr": "CBJJ",
            "country": "Brasil",
            "countryAbbr": "BR",
            "city": "Itabuna",
            "responsible": "Mikeias Bezerra de Brito",
            "address": "Rua São Sebastião, 317A, Nossa Senhora de Fátima, Itabuna, BA, Brasil",
            "website": "www.simetriafight.com.br"
        },
        {
            "id": 9549,
            "name": "Simões Team",
            "federationAbbr": "CBJJ",
            "country": "Brasil",
            "countryAbbr": "BR",
            "city": "Santa Barbara D Oeste",
            "responsible": "Bruno Simões dos Santos",
            "address": "345, Santa Barbara D Oeste, Sp, Brasil",
            "website": null
        },
        {
            "id": 6319,
            "name": "Simpatia Jiu-Jitsu",
            "federationAbbr": "CBJJ",
            "country": "Brasil",
            "countryAbbr": "BR",
            "city": "Salvador ",
            "responsible": "Ricardo Terso Ramos",
            "address": "Rua Padre Daniel 468 Ed. Karina apt 302, Bairro: Brotas , Salvador , Bahia, Brasil",
            "website": null
        },
        {
            "id": 10338,
            "name": "Simple Jiu-Jitsu",
            "federationAbbr": "CBJJ",
            "country": "Brasil",
            "countryAbbr": "BR",
            "city": "Uberlândia",
            "responsible": "Brunno Saygo Poolmerod Bastos",
            "address": "Av. Constelação, 255, Jardim Brasilia, Uberlândia, Brasil",
            "website": null
        },
        {
            "id": 3056,
            "name": "Sinho Jiu-Jitsu",
            "federationAbbr": "CBJJ",
            "country": "Brasil",
            "countryAbbr": "BR",
            "city": "Rio de Janeiro",
            "responsible": "Anderson Silverio da Silva",
            "address": "Rua Dr. Pereira dos Santos 35 L/A , Tijuca, Rio de Janeiro, RJ, Brasil",
            "website": ""
        },
        {
            "id": 5707,
            "name": "Siri Brazilian Jiu-Jitsu",
            "federationAbbr": "USBJJF",
            "country": "United States of America",
            "countryAbbr": "US",
            "city": "Kennewick",
            "responsible": "Gustavo dos Santos Pires",
            "address": "8 N. Washington St., Kennewick, WA, United States of America",
            "website": "www.gustavopiresbjj.com"
        },
        {
            "id": 9324,
            "name": "Sisu MMA \u0026 BJJ",
            "federationAbbr": "JBJJF",
            "country": "Japan",
            "countryAbbr": "JP",
            "city": "Minoh City",
            "responsible": "Yoshitomi Mishima",
            "address": "1\r10\r9 Senbahigashi, #203 Minoh Frere Bldg, Minoh City, Osaka, Japan",
            "website": "https://sisu-mma-bjj.com/"
        },
        {
            "id": 8849,
            "name": "Six Blades Bushido",
            "federationAbbr": "USBJJF",
            "country": "United States of America",
            "countryAbbr": "US",
            "city": "Dallas",
            "responsible": "Alexandre Couceiro Ribeiro",
            "address": "2318 Beatrice St, Dallas, Texas, United States of America",
            "website": null
        }
    ]
}