{
    "pagination": {
        "page": 239,
        "from": 4760,
        "to": 4780,
        "pageSize": 20,
        "lastPage": 358,
        "totalRecords": 7149
    },
    "list": [
        {
            "id": 10296,
            "name": "N.I.K NORTE DA ILHA KOMBAT JIU-JITSU",
            "federationAbbr": "CBJJ",
            "country": "Brasil",
            "countryAbbr": "BR",
            "city": "Florianopolis",
            "responsible": "Francisco José Barreto",
            "address": "Rodoviaria Armando Calil Bulos  Nº 5999, Complexo Marea Center, Florianopolis, Santa Catarina, Brasil",
            "website": null
        },
        {
            "id": 4920,
            "name": "N.W.  Jiu-Jitsu Academy - Maple Ridge",
            "federationAbbr": "IBJJF",
            "country": "Canada",
            "countryAbbr": "CA",
            "city": "Maple Ridge",
            "responsible": "Brian Joseph Johnson",
            "address": "11393 Kingston Street  , Maple Ridge, BC, Canada",
            "website": "www.nwjja.ca"
        },
        {
            "id": 3084,
            "name": "N1 Academia de Artes Marciais",
            "federationAbbr": "CBJJ",
            "country": "Brasil",
            "countryAbbr": "BR",
            "city": "Cascavel",
            "responsible": "Elson de Jesus Pinto",
            "address": "Rua Visconde do Rio Branco 3402 , Centro, Cascavel, PR, Brasil",
            "website": "www.n1team.com.br"
        },
        {
            "id": 4127,
            "name": "Nabil Jiu-Jitsu",
            "federationAbbr": "CBJJ",
            "country": "Brasil",
            "countryAbbr": "BR",
            "city": "Manaus",
            "responsible": "Nabil Lelis de O. Abdel Aziz",
            "address": "Rua M, Nº 41 Quadra 15 41 CJ Ribeiro Jr, Cidade Nova 1, Manaus, AM, Brasil",
            "website": "@nabil_jiujitsu"
        },
        {
            "id": 9721,
            "name": "Nabil Jiu-jitsu Ceará",
            "federationAbbr": "CBJJ",
            "country": "Brasil",
            "countryAbbr": "BR",
            "city": "Fortaleza- Ce",
            "responsible": "Emerson Marques  de Souza",
            "address": "Rua São João Del Rei,1615, Academia Newlife, Fortaleza- Ce, Ce, Brasil",
            "website": "@Emersonmarquesbjj"
        },
        {
            "id": 8033,
            "name": "Nacinal / Elite Mp Team",
            "federationAbbr": "CBJJ",
            "country": "Brasil",
            "countryAbbr": "BR",
            "city": "Belém",
            "responsible": "Mychel Pedro Silva do Carmo",
            "address": "Rua Principal Do Aura Passando O Final Da Linha, 03, Passando Ao Final Da Linha, Ao Lado Da Torre Da Eletronorte, Belém, Pará, Brasil",
            "website": null
        },
        {
            "id": 10656,
            "name": "Nadi Jiu-Jitsu",
            "federationAbbr": "USBJJF",
            "country": "United States of America",
            "countryAbbr": "US",
            "city": "Belmont",
            "responsible": "Itabora Ferreira",
            "address": "409 A. Old County Road, Belmont, Ca, United States of America",
            "website": "www.bayareacapoeirajiujitsu.com"
        },
        {
            "id": 9677,
            "name": "Nafa Jiu-Jitsu Club",
            "federationAbbr": "USBJJF",
            "country": "United States of America",
            "countryAbbr": "US",
            "city": "FPO",
            "responsible": "Kenneth Steven Thomas",
            "address": "PSC 477 BOX 3, FPO, AP, United States of America",
            "website": null
        },
        {
            "id": 3351,
            "name": "Nagoya Fight Club",
            "federationAbbr": "JBJJF",
            "country": "Japan",
            "countryAbbr": "JP",
            "city": "Aichi",
            "responsible": "Teruo Fujisawa",
            "address": "Technical Tower 3F, 1-13-12 Matsubara, Naka-ku, Nagoya-shi  , , Aichi, --, Japan",
            "website": "www.nfc-nagoya.com"
        },
        {
            "id": 7131,
            "name": "Nagoya stArt Japan",
            "federationAbbr": "JBJJF",
            "country": "Japan",
            "countryAbbr": "JP",
            "city": "Nagoya",
            "responsible": "Hatsu Hioki",
            "address": "2-4-3 Shinmichi, Nish, Nagoya, Aichi, Japan",
            "website": "https://www.startmma.com/"
        },
        {
            "id": 10376,
            "name": "Najjar BJJ",
            "federationAbbr": "IBJJF",
            "country": "Saudi Arabia",
            "countryAbbr": "SA",
            "city": "Jeddah",
            "responsible": "Mohammad Adil M. Najjar",
            "address": "Prince Sultan St,, Abdulmalik Bn Hisham St., Jeddah, Makkah, Saudi Arabia",
            "website": "jeddah"
        },
        {
            "id": 2912,
            "name": "Nakache Brazilian Jiu Jitsu Academy",
            "federationAbbr": "IBJJF",
            "country": "France",
            "countryAbbr": "FR",
            "city": "Bron",
            "responsible": "Thierry Nakache",
            "address": "22 Rue E. Branly  , , Bron, FR, France",
            "website": "nakachejiujitsu.com"
        },
        {
            "id": 9064,
            "name": "Nakahara BJJ",
            "federationAbbr": "CBJJ",
            "country": "Brasil",
            "countryAbbr": "BR",
            "city": "Fernandópolis",
            "responsible": "Andrews Massao Nakahara",
            "address": "Av Manoel Marques Rosa, 416 Santa Helena, Fernandópolis, São Paulo, Brasil",
            "website": "www.Nakahara.com.br"
        },
        {
            "id": 9855,
            "name": "Nakama BJJ",
            "federationAbbr": "IBJJF",
            "country": "Australia",
            "countryAbbr": "AU",
            "city": "Keilor East",
            "responsible": "Jess Smith",
            "address": "2/50 Commercial Pl, Keilor East, Victoria, Australia",
            "website": "www.NakamaBJJ.com.au"
        },
        {
            "id": 8766,
            "name": "Nambu-Ryu Jiu-Jitsu",
            "federationAbbr": "CBJJ",
            "country": "Brasil",
            "countryAbbr": "BR",
            "city": "Fortaleza",
            "responsible": "Carlos José Bezerra da Costa",
            "address": "Rua Dr. Zelito Pamplona 430, Fortaleza, Ceara, Brasil",
            "website": null
        },
        {
            "id": 9026,
            "name": "Naples Evolution MMA",
            "federationAbbr": "USBJJF",
            "country": "United States of America",
            "countryAbbr": "US",
            "city": "Naples",
            "responsible": "Kevin Thomas Dalton",
            "address": "2975 26th Ave Se, Naples, Fl, United States of America",
            "website": "http://www.evolutionmmanaples.com"
        },
        {
            "id": 7679,
            "name": "Narcisio Villaça BJJ",
            "federationAbbr": "IBJJF",
            "country": "Spain",
            "countryAbbr": "ES",
            "city": "Gijon",
            "responsible": "Narcisio Vilaça Ferraz de Abreu",
            "address": "Eleuterio Quintanilla 38, A1, Gijon, Asturias, Spain",
            "website": "www.narcisiovillacabjj.com"
        },
        {
            "id": 2177,
            "name": "Nardini Evolution",
            "federationAbbr": "CBJJ",
            "country": "Brasil",
            "countryAbbr": "BR",
            "city": "Goiânia",
            "responsible": "Angelo Nardini Borges Costa",
            "address": "Avenida Independência (Próximo ao SENAC) 1207, Vila Nova, Goiânia, GO, Brasil",
            "website": ""
        },
        {
            "id": 7798,
            "name": "Nardon Jiu Jitsu",
            "federationAbbr": "CBJJ",
            "country": "Brasil",
            "countryAbbr": "BR",
            "city": "Porto Alegre",
            "responsible": "Leonardo Pinto Nardon",
            "address": "Avenida Professor Oscar Pereira 2636, Porto Alegre, Rio Grande Do Sul, Brasil",
            "website": null
        },
        {
            "id": 7428,
            "name": "Narvaez Brazilian Jiu-Jitsu",
            "federationAbbr": "USBJJF",
            "country": "United States of America",
            "countryAbbr": "US",
            "city": "Corpus Christi",
            "responsible": "Rojelio Narvaez",
            "address": "9929 SPID, Corpus Christi, TX, United States of America",
            "website": "www.weaponsathandmma.com"
        }
    ]
}