{
    "pagination": {
        "page": 20,
        "from": 380,
        "to": 400,
        "pageSize": 20,
        "lastPage": 358,
        "totalRecords": 7149
    },
    "list": [
        {
            "id": 8637,
            "name": "Alliance Korea",
            "federationAbbr": "IBJJF",
            "country": "Korea, South",
            "countryAbbr": "KR",
            "city": "Changwon-si",
            "responsible": "Dong Woo KIM",
            "address": "Dongwon Building 901, 10 Yong-gi Ro 153, Uichang-gu, Changwon-si, Gyeongsangnam-do, Korea, South",
            "website": null
        },
        {
            "id": 2826,
            "name": "Alliance Los Angeles",
            "federationAbbr": "USBJJF",
            "country": "United States of America",
            "countryAbbr": "US",
            "city": "Los Angeles",
            "responsible": "Rubens Charles Maciel",
            "address": "4929 Wilshire Blvd #104  , , Los Angeles, CA, United States of America",
            "website": "www.cobrinhabjj.com"
        },
        {
            "id": 3953,
            "name": "Alliance Madison",
            "federationAbbr": "USBJJF",
            "country": "United States of America",
            "countryAbbr": "US",
            "city": "Madison",
            "responsible": "Mark Phillip Plavcan",
            "address": "711 Rethke Ave. , , Madison, WI, United States of America",
            "website": "http://www.alliancebjjmadison.com/"
        },
        {
            "id": 2282,
            "name": "Alliance Marcelo Garcia",
            "federationAbbr": "USBJJF",
            "country": "United States of America",
            "countryAbbr": "US",
            "city": "New York",
            "responsible": null,
            "address": "250W 26th St - 3rd floor  , , New York, NY, United States of America",
            "website": "www.marcelogarciabjj.com"
        },
        {
            "id": 4938,
            "name": "Alliance Marcelo Garcia International",
            "federationAbbr": "IBJJF",
            "country": "Ireland",
            "countryAbbr": "IE",
            "city": "New York",
            "responsible": "Marcelo Garcia Vespúcio",
            "address": "250 West 26th Street  , New York, NY, Ireland",
            "website": "marcelogarciajj.com"
        },
        {
            "id": 3590,
            "name": "Alliance Maryland",
            "federationAbbr": "USBJJF",
            "country": "United States of America",
            "countryAbbr": "US",
            "city": "Gaithersburg",
            "responsible": "Noelie Andrew Danforth",
            "address": "7 Metropolitan Court, Suite 3a, Gaithersburg, MD, United States of America",
            "website": "foundryDCbjj.com"
        },
        {
            "id": 986,
            "name": "Alliance MG",
            "federationAbbr": "CBJJ",
            "country": null,
            "countryAbbr": null,
            "city": null,
            "responsible": null,
            "address": "",
            "website": null
        },
        {
            "id": 3021,
            "name": "Alliance Miami",
            "federationAbbr": "USBJJF",
            "country": "United States of America",
            "countryAbbr": "US",
            "city": "Key Biscayne",
            "responsible": "Rodrigo Antunes Guimarães",
            "address": "660 Crandon Blvd, Key Biscayne, FL, United States of America",
            "website": "allianceKb.com"
        },
        {
            "id": 10204,
            "name": "Alliance Mooca",
            "federationAbbr": "CBJJ",
            "country": "Brasil",
            "countryAbbr": "BR",
            "city": "Sao Paulo",
            "responsible": "Luciano Nunes Nucci",
            "address": "Rua Tobias Barreto - 847 - Mooca, Sao Paulo, Soa Paulo, Brasil",
            "website": "www.alliancemooca.com.br"
        },
        {
            "id": 9522,
            "name": "Alliance Northwest Arkansas",
            "federationAbbr": "USBJJF",
            "country": "United States of America",
            "countryAbbr": "US",
            "city": "Cave Springs",
            "responsible": "Guilherme Augusto Soares Santos",
            "address": "1343 E Lowell Ave, Cave Springs, Arkansas, United States of America",
            "website": "www.alliancenwa.com"
        },
        {
            "id": 7756,
            "name": "Alliance Orlando",
            "federationAbbr": "USBJJF",
            "country": "United States of America",
            "countryAbbr": "US",
            "city": "Orlando ",
            "responsible": "Bruno da Silva Malfacine",
            "address": "3029 Edgewater Dr, Orlando , Florida , United States of America",
            "website": "Brunomalfacine.com"
        },
        {
            "id": 7409,
            "name": "Alliance Ottawa",
            "federationAbbr": "IBJJF",
            "country": "Canada",
            "countryAbbr": "CA",
            "city": "Ottawa",
            "responsible": "Rodrigo Ribeiro de Camargo Alves",
            "address": "2161 Thurston Drive, Ottawa, ON, Canada",
            "website": "allianceottawa.com"
        },
        {
            "id": 6532,
            "name": "Alliance Panamby",
            "federationAbbr": "CBJJ",
            "country": "Brasil",
            "countryAbbr": "BR",
            "city": "São Paulo",
            "responsible": "Oscar Vieira Lopes",
            "address": "Av. Giovanni Gronch n: 5930 2 piso, Sala Q16 b Bairro: Vila Andrade, São Paulo, SP, Brasil",
            "website": "www.alliancepanamby.com.br"
        },
        {
            "id": 5635,
            "name": "Alliance Parnaíba",
            "federationAbbr": "CBJJ",
            "country": "Brasil",
            "countryAbbr": "BR",
            "city": "Parnaíba",
            "responsible": "Daniel Jose Espirito Santo Correia",
            "address": "Av. Leonardo De Carvalho Castelo Branco, 4553, São Judas Tadeu, Parnaíba, PI, Brasil",
            "website": null
        },
        {
            "id": 2605,
            "name": "Alliance Pennsylvania",
            "federationAbbr": "USBJJF",
            "country": "United States of America",
            "countryAbbr": "US",
            "city": "West Chester",
            "responsible": "Christopher Downing",
            "address": "330 E. Gay Street, West Chester, PA, United States of America",
            "website": "www.alliancepa.com"
        },
        {
            "id": 10202,
            "name": "Alliance Perdizes",
            "federationAbbr": "CBJJ",
            "country": "Brasil",
            "countryAbbr": "BR",
            "city": "São Paulo",
            "responsible": "Francielio Fernandes da Costa",
            "address": "Rua Paraguaçu, 352 , Perdizes, São Paulo, SP, Brasil",
            "website": "www.allianceperdizes.com.br"
        },
        {
            "id": 9731,
            "name": "Alliance Piacenza",
            "federationAbbr": "IBJJF",
            "country": "Italy",
            "countryAbbr": "IT",
            "city": "Piacenza",
            "responsible": "Eduardo Henrique Galana",
            "address": "Strada Gragnana 9, Piacenza, Emiglia Romagna, Italy",
            "website": null
        },
        {
            "id": 7666,
            "name": "Alliance Piracicaba Centro",
            "federationAbbr": "CBJJ",
            "country": "Brasil",
            "countryAbbr": "BR",
            "city": "Piracicaba",
            "responsible": "Flávio Junqueira",
            "address": "Rua prudente de Moraes, 266, Piracicaba, São Paulo, Brasil",
            "website": "Academiaalliance.com.br"
        },
        {
            "id": 6841,
            "name": "Alliance Porto",
            "federationAbbr": "FPJJB",
            "country": "Portugal",
            "countryAbbr": "PT",
            "city": "Porto",
            "responsible": "Mauricio Monteiro de Carvalho Filho",
            "address": "Rua De São Paulo, 85, Porto, Porto, Portugal",
            "website": "www.allianceporto.com"
        },
        {
            "id": 1083,
            "name": "Alliance Porto Alegre",
            "federationAbbr": "CBJJ",
            "country": "Brasil",
            "countryAbbr": "BR",
            "city": "Porto Alegre",
            "responsible": "Mario Sergio Names Reis",
            "address": "Av. Benjamin Constant Nº 1228  , São João, Porto Alegre, RS, Brasil",
            "website": ""
        }
    ]
}