{
    "pagination": {
        "page": 85,
        "from": 1680,
        "to": 1700,
        "pageSize": 20,
        "lastPage": 358,
        "totalRecords": 7149
    },
    "list": [
        {
            "id": 2907,
            "name": "Combat Base UK",
            "federationAbbr": "IBJJF",
            "country": "United Kingdom",
            "countryAbbr": "GB",
            "city": "Pontefract",
            "responsible": "Christopher Bard Haueter",
            "address": "1 Harropwell lane   , , Pontefract, United Kingdom",
            "website": "www.combatsport.com.uk"
        },
        {
            "id": 7215,
            "name": "Combat Brothers",
            "federationAbbr": "IBJJF",
            "country": "Netherlands",
            "countryAbbr": "NL",
            "city": "Breda",
            "responsible": "Reinier de Ridder",
            "address": "Liniestraat 23, Breda, Netherlands",
            "website": "combatbrothers.nl"
        },
        {
            "id": 9687,
            "name": "Combat Evolution Jiu-Jitsu",
            "federationAbbr": "USBJJF",
            "country": "United States of America",
            "countryAbbr": "US",
            "city": "Spotsylvania",
            "responsible": "Adam M Sawyer",
            "address": "6812 Luce Lane, Spotsylvania, Va, United States of America",
            "website": "www.instagram.com/combatevolutionbjj"
        },
        {
            "id": 10492,
            "name": "Combat Society Jiu-Jitsu",
            "federationAbbr": "USBJJF",
            "country": "United States of America",
            "countryAbbr": "US",
            "city": "Tacoma",
            "responsible": "Mitchell Dean Mielke",
            "address": "3104 North 7th Street, Tacoma, Wa, United States of America",
            "website": null
        },
        {
            "id": 7055,
            "name": "Combat Time",
            "federationAbbr": "CBJJ",
            "country": "Brasil",
            "countryAbbr": "BR",
            "city": "Curitiba",
            "responsible": "Andrey Adam",
            "address": "Av. Presidente Kennedy n: 1225, Bairro: Água Verde, Curitiba, Paraná, Brasil",
            "website": "www.combattime.com.br"
        },
        {
            "id": 271,
            "name": "Combate Real",
            "federationAbbr": "CBJJ",
            "country": "Brasil",
            "countryAbbr": "BR",
            "city": "Natal",
            "responsible": "Alexandre Henrique A. Barbosa",
            "address": "Rua Presidente Jose Bento 731, Alecrim, Natal, RN, Brasil",
            "website": null
        },
        {
            "id": 6459,
            "name": "Comet MMA",
            "federationAbbr": "USBJJF",
            "country": "United States of America",
            "countryAbbr": "US",
            "city": "Fairfax",
            "responsible": "Travis Jefferson Mcilvenna",
            "address": "3937 - B University Dr, Fairfax, VA, United States of America",
            "website": "cometmma.com"
        },
        {
            "id": 9428,
            "name": "Commando Group",
            "federationAbbr": "IBJJF",
            "country": "United Arab Emirates",
            "countryAbbr": "AE",
            "city": "Abu Dhabi",
            "responsible": "Bruno Barreto  Marques",
            "address": "Al Rahah Street, Lamar Residence Block C Apartament 504, Abu Dhabi, Abu Dhabi, United Arab Emirates",
            "website": null
        },
        {
            "id": 8282,
            "name": "Common Ground Jiu-Jitsu",
            "federationAbbr": "USBJJF",
            "country": "United States of America",
            "countryAbbr": "US",
            "city": "Pasadena",
            "responsible": "Alexander Lynn Khine Aung",
            "address": "464 E Colorado Blvd., Pasadena, California, United States of America",
            "website": "https://www.commongroundbjj.com"
        },
        {
            "id": 6103,
            "name": "Companhia de Lutas e Desporto CLDJJ",
            "federationAbbr": "CBJJ",
            "country": "Brasil",
            "countryAbbr": "BR",
            "city": "São Paulo",
            "responsible": "Paulo Roberto da Silva",
            "address": "Rua José Abrantes 291, Jardim Dom Bosco, São Paulo, São Paulo, Brasil",
            "website": null
        },
        {
            "id": 4246,
            "name": "Companhia Jiu-Jitsu",
            "federationAbbr": "CBJJ",
            "country": "Brasil",
            "countryAbbr": "BR",
            "city": "Rio de Janeiro",
            "responsible": "José Honório da Silva Filho",
            "address": "Rua HW Lt 22 Qd 93  A Cobertura, Recreio dos Bandeirantes, Rio de Janeiro, RJ, Brasil",
            "website": null
        },
        {
            "id": 2185,
            "name": "Competition Team Giorsetti",
            "federationAbbr": "IBJJF",
            "country": "France",
            "countryAbbr": "FR",
            "city": "Montauroux",
            "responsible": "David Giorsetti",
            "address": "180 Chemin des Genêts, Lot 4, Montauroux, --, France",
            "website": null
        },
        {
            "id": 3766,
            "name": "Complete Martial Arts",
            "federationAbbr": "IBJJF",
            "country": "Canada",
            "countryAbbr": "CA",
            "city": "Regina",
            "responsible": "Anthony Lamar Scales",
            "address": "2124 Broad Street  , Regina, SK, Canada",
            "website": "www.completemma.ca"
        },
        {
            "id": 10297,
            "name": "Complexo Bem Estar Bjj / Fortaleza - CE",
            "federationAbbr": "CBJJ",
            "country": "Brasil",
            "countryAbbr": "BR",
            "city": "Fortaleza",
            "responsible": "Flávio de Sousa Batista",
            "address": "Rua A Do Loteamente Aracape, Mondubim, Fortaleza, Ceara, Brasil",
            "website": "@complexobemestar"
        },
        {
            "id": 9150,
            "name": "Complexo Unisports",
            "federationAbbr": "CBJJ",
            "country": "Brasil",
            "countryAbbr": "BR",
            "city": "Fortaleza",
            "responsible": "Almir Dantas da Costa Junior",
            "address": "Rua Professor Teodorico 520 - Montese, Fortaleza, Ceará, Brasil",
            "website": null
        },
        {
            "id": 8671,
            "name": "Compound / Team Gaia",
            "federationAbbr": "CBJJ",
            "country": "Brasil",
            "countryAbbr": "BR",
            "city": "Valença",
            "responsible": "Thiago G. T. de Oliveira Marques",
            "address": "Rua Dos Mascates 35 Centro  Valenca Rj  27600-000, Rua Dos Mascates 35 Centro, Valença, Rio De Janeiro, Brasil",
            "website": "Www.Thecompound.com"
        },
        {
            "id": 8153,
            "name": "Concept School Of BJJ",
            "federationAbbr": "CBJJ",
            "country": "Brasil",
            "countryAbbr": "BR",
            "city": "São Paulo",
            "responsible": "Francisco Santana Souza Junior",
            "address": "Av Do Cursino, 812, São Paulo, São Paulo, Brasil",
            "website": null
        },
        {
            "id": 4744,
            "name": "Conceptual Physical Arts Co.",
            "federationAbbr": "USBJJF",
            "country": "United States of America",
            "countryAbbr": "US",
            "city": "Dallas",
            "responsible": "Octavio Henrique Couto da Silva Jr.",
            "address": "10735 Villager Rd Apt B-V  , , Dallas, TX, United States of America",
            "website": ""
        },
        {
            "id": 3889,
            "name": "Concrete BJJ",
            "federationAbbr": "IBJJF",
            "country": "Sweden",
            "countryAbbr": "SE",
            "city": "Stockholm",
            "responsible": "Octavio Henrique Couto da Silva Jr.",
            "address": "Dalgrand 2  , , Stockholm, --, Sweden",
            "website": ""
        },
        {
            "id": 3916,
            "name": "Conde Koma BJJ",
            "federationAbbr": "USBJJF",
            "country": "United States of America",
            "countryAbbr": "US",
            "city": "Los Alamitos",
            "responsible": "Christopher Kenneth L Gutierrez",
            "address": "4340 Katella Ave., , Los Alamitos, CA, United States of America",
            "website": "www.condekomabjj.com"
        }
    ]
}