{
    "pagination": {
        "page": 179,
        "from": 3560,
        "to": 3580,
        "pageSize": 20,
        "lastPage": 358,
        "totalRecords": 7149
    },
    "list": [
        {
            "id": 3423,
            "name": "Grizzly Gym International",
            "federationAbbr": "IBJJF",
            "country": "Canada",
            "countryAbbr": "CA",
            "city": "Kingston",
            "responsible": "Michael Bernard Martelle",
            "address": "1085 Princess Street  , , Kingston, ON, Canada",
            "website": "www.grizzlygym.com"
        },
        {
            "id": 7517,
            "name": "Ground 23 BJJ",
            "federationAbbr": "IBJJF",
            "country": "Singapore",
            "countryAbbr": "SG",
            "city": "Singapore ",
            "responsible": "Vitor Pereira dos Santos Ribeiro",
            "address": "1 Larkhill Road, Block 43, #02-38/39, Amara Sanctuary Resort Sentosa , Singapore , Singapore",
            "website": "www.ground23.com"
        },
        {
            "id": 4571,
            "name": "Ground Control",
            "federationAbbr": "USBJJF",
            "country": "United States of America",
            "countryAbbr": "US",
            "city": "Columbia",
            "responsible": "John Joseph Rallo",
            "address": "9130 Red Branch Rd ste S , , Columbia, MD, United States of America",
            "website": "www.groundcontrolusa.com"
        },
        {
            "id": 3007,
            "name": "Ground Core",
            "federationAbbr": "JBJJF",
            "country": "Japan",
            "countryAbbr": "JP",
            "city": "Kyoto",
            "responsible": "Takeshi Morimoto",
            "address": "25-13 Daigo Kitahayama, Fushimiku  , , Kyoto, --, Japan",
            "website": "www.ground-core.com"
        },
        {
            "id": 6325,
            "name": "Ground Core Korea",
            "federationAbbr": "IBJJF",
            "country": "Korea, South",
            "countryAbbr": "KR",
            "city": "Gyeonggi-do",
            "responsible": "Takeshi Morimoto",
            "address": "473, Buil-ro, Bucheon-si, Gyeonggi-do, --, Korea, South",
            "website": null
        },
        {
            "id": 4342,
            "name": "Ground Dwellers",
            "federationAbbr": "USBJJF",
            "country": "United States of America",
            "countryAbbr": "US",
            "city": "Spring",
            "responsible": "Eduardo Guzman Avelar",
            "address": "9222 Louetta RD  , Spring, Tx, United States of America",
            "website": "grounddwellers.com"
        },
        {
            "id": 10082,
            "name": "Ground Game Theory",
            "federationAbbr": "USBJJF",
            "country": "United States of America",
            "countryAbbr": "US",
            "city": "Miami",
            "responsible": "Clara L Green",
            "address": "8354 Sw 40th St, Miami, Florida (fl), United States of America",
            "website": "www.groundgametheory.com"
        },
        {
            "id": 8831,
            "name": "Ground Level BJJ",
            "federationAbbr": "USBJJF",
            "country": "United States of America",
            "countryAbbr": "US",
            "city": "Murfreesboro",
            "responsible": "Kenny Wiley Cross",
            "address": "406 West Burton St, Murfreesboro, Tennessee, United States of America",
            "website": null
        },
        {
            "id": 9945,
            "name": "Ground Savage Brazilian Jiu-Jitsu",
            "federationAbbr": "USBJJF",
            "country": "United States of America",
            "countryAbbr": "US",
            "city": "Brownsville",
            "responsible": "Rafael Santos Garcia",
            "address": "1400 Palm Blvd, Ste 23a, Brownsville, Texas, United States of America",
            "website": null
        },
        {
            "id": 9652,
            "name": "Ground X Jiu-Jitsu",
            "federationAbbr": "IBJJF",
            "country": "Canada",
            "countryAbbr": "CA",
            "city": "Ottawa",
            "responsible": "Kayla Lynn Patterson",
            "address": "4325 Stranherd Dr Unit 3, Unit #3, Ottawa, Ontario, Canada",
            "website": "www.groundxjiujitsu.com"
        },
        {
            "id": 10265,
            "name": "Groundstrike Grappling",
            "federationAbbr": "CBJJ",
            "country": "Brasil",
            "countryAbbr": "BR",
            "city": "Recife",
            "responsible": "Elioenai de Abreu Campos",
            "address": "Rua João Luis, 64, Recife, Pernambuco, Brasil",
            "website": null
        },
        {
            "id": 8758,
            "name": "Group Fight Academy Bajo BJJ",
            "federationAbbr": "IBJJF",
            "country": "France",
            "countryAbbr": "FR",
            "city": "Bagnolet",
            "responsible": "Gregory Morel",
            "address": "3 Allée Des Grands Champs, Bagnolet, France",
            "website": "https://groupfightacademy93.wixsite.com/bajo-bjj"
        },
        {
            "id": 9546,
            "name": "Gruppe Escola De Jiu-jitsu",
            "federationAbbr": "CBJJ",
            "country": "Brasil",
            "countryAbbr": "BR",
            "city": "Maringá",
            "responsible": "Paulo Ricardo Benatto",
            "address": "Av. Gastão Vidigal, 3011, Maringá, Parana, Brasil",
            "website": "https://gruppemovimento.com.br/"
        },
        {
            "id": 9988,
            "name": "GS Escola de Jiu-Jitsu",
            "federationAbbr": "CBJJ",
            "country": "Brasil",
            "countryAbbr": "BR",
            "city": "Lages",
            "responsible": "Gil Eanes Oliveira Sousa",
            "address": "Rua Baependi, 50, Lages, Santa Catarina, Brasil",
            "website": "https://www.instagram.com/gsteam.jj/"
        },
        {
            "id": 10462,
            "name": "GSF Academy",
            "federationAbbr": "IBJJF",
            "country": "Hong Kong",
            "countryAbbr": "HK",
            "city": "Central",
            "responsible": "Henry Tat Ming Ng",
            "address": "Unit 1002-03, 10/f, Tung Chai Building, 86-90 Wellington Street, Central, Hong Kong",
            "website": null
        },
        {
            "id": 9282,
            "name": "Gt Rgw BJJ Europe",
            "federationAbbr": "IBJJF",
            "country": "Italy",
            "countryAbbr": "IT",
            "city": "Roma",
            "responsible": "Jeremias Cassemiro Alves Silva",
            "address": "Via Delle Gondole, 35 Int 3, Roma, Roma, Italy",
            "website": null
        },
        {
            "id": 8345,
            "name": "Gt Rgw Brazilian Jiu-Jitsu",
            "federationAbbr": "CBJJ",
            "country": "Brasil",
            "countryAbbr": "BR",
            "city": "São Paulo",
            "responsible": "Jeremias Cassemiro Alves Silva",
            "address": "Rua Maracanã, 74 C2, Vila Ipojuca, São Paulo, SP, Brasil",
            "website": null
        },
        {
            "id": 7489,
            "name": "GTA",
            "federationAbbr": "IBJJF",
            "country": "France",
            "countryAbbr": "FR",
            "city": "Troyes",
            "responsible": "Nicolas Philippe Serge Roussel",
            "address": "68 Avenue Pasteur, Troyes, France",
            "website": "www.gta-jjb.fr"
        },
        {
            "id": 9390,
            "name": "Gtjjteam",
            "federationAbbr": "USBJJF",
            "country": "United States of America",
            "countryAbbr": "US",
            "city": "East Brunswick",
            "responsible": "Joan DeAgro",
            "address": "16 Winchester Drive, East Brunswick, Nj, United States of America",
            "website": null
        },
        {
            "id": 3010,
            "name": "Guanabara Jiu Jitsu",
            "federationAbbr": "CBJJ",
            "country": "Brasil",
            "countryAbbr": "BR",
            "city": "Vila Velha",
            "responsible": "Herval Santos Carlos",
            "address": "Rua Trinta, 236, Santa Monica, Itapuã, Vila Velha, ES, Brasil",
            "website": "www.hervaltatu.com.br"
        }
    ]
}