{
    "pagination": {
        "page": 4,
        "from": 60,
        "to": 80,
        "pageSize": 20,
        "lastPage": 358,
        "totalRecords": 7149
    },
    "list": [
        {
            "id": 9511,
            "name": "77 Jiu-Jitsu",
            "federationAbbr": "CBJJ",
            "country": "Brasil",
            "countryAbbr": "BR",
            "city": "Londrina",
            "responsible": "Ismael de Pinho Nogueira",
            "address": "Avenida Guilherme De Almeida 1547, Londrina, Paraná, Brasil",
            "website": null
        },
        {
            "id": 8757,
            "name": "7th Generation Jiu-Jitsu",
            "federationAbbr": "USBJJF",
            "country": "United States of America",
            "countryAbbr": "US",
            "city": "Fresno",
            "responsible": "Bernard Michael Navarro",
            "address": "5757 E. Clinton Ave Unit 118, Unit 118, Fresno, Ca, United States of America",
            "website": null
        },
        {
            "id": 8599,
            "name": "85 Jiu-Jitsu Academy",
            "federationAbbr": "USBJJF",
            "country": "United States of America",
            "countryAbbr": "US",
            "city": "Houston",
            "responsible": "Jose A. Llanas-Campos",
            "address": "9881 Tanner Rd, Houston, Tx, United States of America",
            "website": null
        },
        {
            "id": 8814,
            "name": "8e20 Project",
            "federationAbbr": "IBJJF",
            "country": "Germany",
            "countryAbbr": "DE",
            "city": "Berlin",
            "responsible": "Moritz Sebastian Goll",
            "address": "Obentrautstrasse 41, Berlin, Berlin, Germany",
            "website": "www.jiujitsuproject.com"
        },
        {
            "id": 10273,
            "name": "9.8 Jiu-Jitsu",
            "federationAbbr": "IBJJF",
            "country": "United Kingdom",
            "countryAbbr": "GB",
            "city": "Hounslow",
            "responsible": "Jahmel Henry",
            "address": "52 Opossum Way, Hounslow, United Kingdom",
            "website": null
        },
        {
            "id": 10600,
            "name": "967 Black Sheep",
            "federationAbbr": "USBJJF",
            "country": "United States of America",
            "countryAbbr": "US",
            "city": "Fairfax",
            "responsible": "David Meyer",
            "address": "765 Center Blvd., Fairfax, Ca, United States of America",
            "website": null
        },
        {
            "id": 2476,
            "name": "99 Nine Nine JJ - International",
            "federationAbbr": "IBJJF",
            "country": "United Kingdom",
            "countryAbbr": "GB",
            "city": "--",
            "responsible": "Eduardo Telles Moreira",
            "address": "  , , --, --, United Kingdom",
            "website": ""
        },
        {
            "id": 9684,
            "name": "9th Isle BJJ",
            "federationAbbr": "USBJJF",
            "country": "United States of America",
            "countryAbbr": "US",
            "city": "Las Vegas",
            "responsible": "Gaspar Apolinar Agabin",
            "address": "2430 North Decatur Boulevard, Suite 125 And 130, Las Vegas, Nv, United States of America",
            "website": "www.9thislebjj.com"
        },
        {
            "id": 5441,
            "name": "A C Antonio Cordeiro BJJ",
            "federationAbbr": "CBJJ",
            "country": "Brasil",
            "countryAbbr": "BR",
            "city": "Santos",
            "responsible": "Antonio Alves Cordeiro Filho",
            "address": "Rua Jorge Tibiriçá, 16 Apto 111, Gonzaga, Santos, SP, Brasil",
            "website": null
        },
        {
            "id": 10434,
            "name": "A Essência Do Jiu-Jitsu",
            "federationAbbr": "CBJJ",
            "country": "Brasil",
            "countryAbbr": "BR",
            "city": "Pelotas",
            "responsible": "Paulo Roberto Lopes Caputo Júnior",
            "address": "Rua Doutor Frederico Bastos, Casa, Pelotas, Rs, Brasil",
            "website": "@a_essencia_do_jiujitsu"
        },
        {
            "id": 8821,
            "name": "A Lot Of Jiu Jitsu",
            "federationAbbr": "CBJJ",
            "country": "Brasil",
            "countryAbbr": "BR",
            "city": "Itapira",
            "responsible": "Alan Francisco Salgado",
            "address": "Avenida Paoletti Numero 12, Itapira, Sao Paulo, Brasil",
            "website": null
        },
        {
            "id": 8512,
            "name": "A R Jiu-Jitsu",
            "federationAbbr": "CBJJ",
            "country": "Brasil",
            "countryAbbr": "BR",
            "city": "Petrópolis",
            "responsible": "Alex Sandro Rosa Ribeiro",
            "address": "Rua Buenos Aires, Petrópolis, Rj, Brasil",
            "website": null
        },
        {
            "id": 8008,
            "name": "A. Kanela BJJ",
            "federationAbbr": "CBJJ",
            "country": "Brasil",
            "countryAbbr": "BR",
            "city": "Tubarão",
            "responsible": "Andre dos Santos Joaquim",
            "address": "Rua Manoel Brigido Costa, n° 1431, Revoredo, Tubarão, Sc, Brasil",
            "website": null
        },
        {
            "id": 6488,
            "name": "A. Linhares Jiu-Jitsu",
            "federationAbbr": "CBJJ",
            "country": "Brasil",
            "countryAbbr": "BR",
            "city": "Navegantes",
            "responsible": "Amilton José Linhares Filho",
            "address": "Rua Jose Francisco Laurindo n: 2235, Sala 02 - Bairro: São Domingos, Navegantes, SC, Brasil",
            "website": null
        },
        {
            "id": 8711,
            "name": "A.S. Grappling \u0026 BJJ",
            "federationAbbr": "JBJJF",
            "country": "Japan",
            "countryAbbr": "JP",
            "city": "Amagun Oharu Cho",
            "responsible": "Almir Rogerio Dos Santos",
            "address": "Nishijo Aza Miroku, 9-1, Amagun Oharu Cho, Aichi Ken, Japan",
            "website": null
        },
        {
            "id": 6953,
            "name": "A.S.D. F.C.F.A. (Fabio Carone Fighting Academy)",
            "federationAbbr": "IBJJF",
            "country": "Italy",
            "countryAbbr": "IT",
            "city": "Taranto",
            "responsible": "Rogério Olegário",
            "address": "via O. Argentina 43, Taranto, it, Italy",
            "website": "www.fabiocaroneteam.it"
        },
        {
            "id": 6798,
            "name": "A1 Jiu-Jitsu Academy",
            "federationAbbr": "IBJJF",
            "country": "Latvia",
            "countryAbbr": "LV",
            "city": "Riga",
            "responsible": "Algimants Kontauts",
            "address": "Rudens 3 - 58, Riga, Latvia",
            "website": null
        },
        {
            "id": 2391,
            "name": "A2 Jiu-Jitsu",
            "federationAbbr": "CBJJ",
            "country": "Brasil",
            "countryAbbr": "BR",
            "city": "Teresópolis",
            "responsible": "Leandro Cordeiro Azara",
            "address": "Rua Cel. Silvio Lisboa da Cunha 360, Alto, Teresópolis, RJ, Brasil",
            "website": null
        },
        {
            "id": 5410,
            "name": "AAG Jiu-Jitsu",
            "federationAbbr": "CBJJ",
            "country": "Brasil",
            "countryAbbr": "BR",
            "city": "Paragominas",
            "responsible": "Antonio Gustavo Silva da Silva",
            "address": "Rua Laranjeira, Casa 45 Qd. 59 / Lote 22, Parque Village Flamboyant, Paragominas, PA, Brasil",
            "website": null
        },
        {
            "id": 5979,
            "name": "Aalesund Brazilian Jiu-Jitsu",
            "federationAbbr": "IBJJF",
            "country": "Norway",
            "countryAbbr": "NO",
            "city": "Aalesund",
            "responsible": "Takayuki Hirose",
            "address": "Hundsvaergata 8, Aalesund, --, Norway",
            "website": "https://www.facebook.com/AlesundBrazilianJiuJitsu/"
        }
    ]
}