{
    "pagination": {
        "page": 302,
        "from": 6020,
        "to": 6040,
        "pageSize": 20,
        "lastPage": 358,
        "totalRecords": 7149
    },
    "list": [
        {
            "id": 10053,
            "name": "Sons Of Jiu-Jitsu",
            "federationAbbr": "CBJJ",
            "country": "Brasil",
            "countryAbbr": "BR",
            "city": "Rio De Janeiro",
            "responsible": "Leandro Thuler dos Santos",
            "address": "Rua Osvaldo De Carvalho 241, Casa, Rio De Janeiro, Rj, Brasil",
            "website": null
        },
        {
            "id": 6034,
            "name": "Sop Huh Brazilian Jiu-Jitsu",
            "federationAbbr": "USBJJF",
            "country": "United States of America",
            "countryAbbr": "US",
            "city": "Ozone Park",
            "responsible": "Sop Mu Huh",
            "address": "103-11 101st Ave, Ozone Park,  NY, United States of America",
            "website": "spiritbjj.com"
        },
        {
            "id": 6715,
            "name": "Soriano Jiu-Jitsu Academy",
            "federationAbbr": "USBJJF",
            "country": "United States of America",
            "countryAbbr": "US",
            "city": "San Pedro",
            "responsible": "Pedro Soriano",
            "address": "235 N Gaffey St., San Pedro, CA, United States of America",
            "website": "www.pedrosorianobjj.com"
        },
        {
            "id": 6664,
            "name": "Sorriso BJJ Club",
            "federationAbbr": "IBJJF",
            "country": "New Zealand",
            "countryAbbr": "NZ",
            "city": "Auckland",
            "responsible": "Paulo Rogerio Oliveira",
            "address": "213 Dominion Road, Auckland, New Zealand",
            "website": "www.sorrisobjj.co.nz"
        },
        {
            "id": 9409,
            "name": "Sotelo Jiu-Jitsu",
            "federationAbbr": "IBJJF",
            "country": "Mexico",
            "countryAbbr": "MX",
            "city": "Ecatepec De Morelos",
            "responsible": "Carlos Fernando S. Rodríguez",
            "address": "Granada 19, Ecatepec De Morelos, Estado De México, Mexico",
            "website": null
        },
        {
            "id": 3297,
            "name": "Soujiukai Iwate",
            "federationAbbr": "JBJJF",
            "country": "Japan",
            "countryAbbr": "JP",
            "city": "Iwate",
            "responsible": "Koji Abe",
            "address": "2-12-14 Nakanohashi-dori Morioka, Iwate, --, Japan",
            "website": "www.iwate-bjj.com"
        },
        {
            "id": 3298,
            "name": "Soujiukai Sendai",
            "federationAbbr": "JBJJF",
            "country": "Japan",
            "countryAbbr": "JP",
            "city": "Miyagi",
            "responsible": "Takashi Iwabuchi",
            "address": "14-10 Futsukamachi  , Miyagi, --, Japan",
            "website": "https://soujiukai.jimdo.com"
        },
        {
            "id": 2611,
            "name": "Soul Fighter BJJ Connecticut",
            "federationAbbr": "USBJJF",
            "country": "United States of America",
            "countryAbbr": "US",
            "city": "Danbury",
            "responsible": "Alvaro Mansor Guarçoni",
            "address": "2 Mountainview Terrace, Unit 7104  , , Danbury, CT, United States of America",
            "website": ""
        },
        {
            "id": 5373,
            "name": "Soul Fighters - Tallahassee - PBG",
            "federationAbbr": "USBJJF",
            "country": "United States of America",
            "countryAbbr": "US",
            "city": "Tallahassee",
            "responsible": "James Whyte IV",
            "address": "903 Barrie Ave, Tallahassee, FL, United States of America",
            "website": null
        },
        {
            "id": 7995,
            "name": "Soul Fighters / Clara Team BJJ",
            "federationAbbr": "CBJJ",
            "country": "Brasil",
            "countryAbbr": "BR",
            "city": "Americana",
            "responsible": "Jefferson Clara",
            "address": "Rua São Vito 1395, Americana, São Paulo, Brasil",
            "website": null
        },
        {
            "id": 5472,
            "name": "Soul Fighters / Delta Gold Team CE",
            "federationAbbr": "CBJJ",
            "country": "Brasil",
            "countryAbbr": "BR",
            "city": "Fortaleza",
            "responsible": "Alvaro Mansor Guarçoni",
            "address": "Rua Desembargador João Firmino 231, CT Almir Jr, Fortaleza, CE, Brasil",
            "website": null
        },
        {
            "id": 7987,
            "name": "Soul Fighters / RS",
            "federationAbbr": "CBJJ",
            "country": "Brasil",
            "countryAbbr": "BR",
            "city": "Porto Alegre",
            "responsible": "Rogerio de Mello e Silva",
            "address": "Cavalhada 4611, Sala 107, Porto Alegre, Rio Grande Do Sul, Brasil",
            "website": "vovogarottogym.com.br"
        },
        {
            "id": 4951,
            "name": "Soul Fighters Asja SC",
            "federationAbbr": "CBJJ",
            "country": "Brasil",
            "countryAbbr": "BR",
            "city": "Jaguaruna",
            "responsible": "Paulo Henrique Duarte",
            "address": "Rua Bertolino José Da Silva N° 47 - Sala 01, Centro, Jaguaruna, SC, Brasil",
            "website": null
        },
        {
            "id": 3485,
            "name": "Soul Fighters BJJ Arizona",
            "federationAbbr": "USBJJF",
            "country": "United States of America",
            "countryAbbr": "US",
            "city": "Glendale",
            "responsible": "Augusto Lopes Mendes",
            "address": "1805 E Elliot Rd, Suite 114, Glendale, AZ, United States of America",
            "website": ""
        },
        {
            "id": 2018,
            "name": "Soul Fighters BJJ Barra da Tijuca",
            "federationAbbr": "CBJJ",
            "country": "Brasil",
            "countryAbbr": "BR",
            "city": "Rio de Janeiro",
            "responsible": "Alvaro Mansor Guarçoni",
            "address": "Av das Américas 489, Barra da Tijuca, Rio de Janeiro, RJ, Brasil",
            "website": null
        },
        {
            "id": 6640,
            "name": "Soul Fighters Boca Raton",
            "federationAbbr": "USBJJF",
            "country": "United States of America",
            "countryAbbr": "US",
            "city": "Boca Raton",
            "responsible": "Denys Darzi",
            "address": "9144 Glades Road, Boca Raton, FL, United States of America",
            "website": "www.SoulFightersFL.com"
        },
        {
            "id": 7505,
            "name": "Soul Fighters Brasilia",
            "federationAbbr": "CBJJ",
            "country": "Brasil",
            "countryAbbr": "BR",
            "city": "Brasilia",
            "responsible": "Alvaro Mansor Guarçoni",
            "address": "QNO 09 Conjunto F casa 06 Setor O, Ceilandia, Brasilia, DF, Brasil",
            "website": null
        },
        {
            "id": 5134,
            "name": "Soul Fighters California",
            "federationAbbr": "USBJJF",
            "country": "United States of America",
            "countryAbbr": "US",
            "city": "Castro Valley",
            "responsible": "Rafael Monteiro Barbosa",
            "address": "21120 Redwood Road, Castro Valley, CA, United States of America",
            "website": "zmatacademy.com"
        },
        {
            "id": 2374,
            "name": "Soul Fighters International",
            "federationAbbr": "IBJJF",
            "country": "Korea, Democratic People's Republic of",
            "countryAbbr": "KP",
            "city": "International",
            "responsible": null,
            "address": "  , International, IBJJF, Korea, Democratic People's Republic of",
            "website": null
        },
        {
            "id": 4917,
            "name": "Soul Fighter's Israel",
            "federationAbbr": "IBJJF",
            "country": "Israel",
            "countryAbbr": "IL",
            "city": "Netanya",
            "responsible": "Bruno Lopes Mendes",
            "address": "Shderot Binyamin 56/57  , , Netanya, Israel",
            "website": "www.mmaisrael.co.il"
        }
    ]
}