{
    "pagination": {
        "page": 182,
        "from": 3620,
        "to": 3640,
        "pageSize": 20,
        "lastPage": 358,
        "totalRecords": 7149
    },
    "list": [
        {
            "id": 3872,
            "name": "Hagakuré 83",
            "federationAbbr": "IBJJF",
            "country": "France",
            "countryAbbr": "FR",
            "city": "Saint-Raphael",
            "responsible": "Frederic Jean-Baptiste Michelangeli",
            "address": "340 Chemin Aurelian Bat. Les Glycines  , , Saint-Raphael, --, France",
            "website": "www.hagakure-jjb.com"
        },
        {
            "id": 9270,
            "name": "Hakischool",
            "federationAbbr": "CBJJ",
            "country": "Brasil",
            "countryAbbr": "BR",
            "city": "Rio De Janeiro",
            "responsible": "Anderson Silva Gonçalves",
            "address": "Rua Ricardo Machado 904, Escola De Lutas, Rio De Janeiro, Rj, Brasil",
            "website": "https://instagram.com/hakischool?utm_medium=copy_link"
        },
        {
            "id": 4389,
            "name": "Halavanca BJJ Brasil",
            "federationAbbr": "CBJJ",
            "country": "Brasil",
            "countryAbbr": "BR",
            "city": "Joao Pessoa - Paraiba",
            "responsible": "Helder Medeiros da Silva",
            "address": "Avenida Esperança , 117, Bairro: Manaíra, Joao Pessoa - Paraiba, PB, Brasil",
            "website": "www.halavancabjj.com"
        },
        {
            "id": 4324,
            "name": "Halavanca BJJ International",
            "federationAbbr": "IBJJF",
            "country": "Sweden",
            "countryAbbr": "SE",
            "city": "Stockholm",
            "responsible": "Helder Medeiros da Silva",
            "address": "Lidingovagen 1, Stockholm, --, Sweden",
            "website": "--"
        },
        {
            "id": 5597,
            "name": "Half \u0026 Half BJJ",
            "federationAbbr": "CBJJ",
            "country": "Brasil",
            "countryAbbr": "BR",
            "city": "São Paulo",
            "responsible": "Carlos Eduardo Marques e Castro",
            "address": "Rua Henrique Dumont, 350, Vila Gomes Cardim, São Paulo, SP, Brasil",
            "website": null
        },
        {
            "id": 10284,
            "name": "Half Shell BJJ",
            "federationAbbr": "USBJJF",
            "country": "United States of America",
            "countryAbbr": "US",
            "city": "Portland",
            "responsible": "Roger Anthony Torres",
            "address": "1103 Railroad Ave, Portland, Tx, United States of America",
            "website": "Halfshellbjj.com"
        },
        {
            "id": 8122,
            "name": "Halfão Martins Brazilian Jiu-Jitsu",
            "federationAbbr": "CBJJ",
            "country": "Brasil",
            "countryAbbr": "BR",
            "city": "Colatina",
            "responsible": "Halffman Silva Martins",
            "address": "Avenida Silvio Avidos 215, Colatina, Espírito Santo, Brasil",
            "website": null
        },
        {
            "id": 10023,
            "name": "Halifax BJJ",
            "federationAbbr": "IBJJF",
            "country": "Canada",
            "countryAbbr": "CA",
            "city": "Halifax",
            "responsible": "Joel Travis Jacquard",
            "address": "3600 Kempt Road, Suite 100, Halifax, Nova Scotia, Canada",
            "website": "www.halifaxbjj.ca"
        },
        {
            "id": 7050,
            "name": "Hamptons Jiu-Jitsu",
            "federationAbbr": "USBJJF",
            "country": "United States of America",
            "countryAbbr": "US",
            "city": "Southampton",
            "responsible": "Gregory M. Melita",
            "address": "801 County Rd 39 #14, Southampton, NY, United States of America",
            "website": "hamptonsjiujitsu.com"
        },
        {
            "id": 9671,
            "name": "Hamsayeh Iran BJJ Jiu-Jitsu Association",
            "federationAbbr": "IBJJF",
            "country": "Iran, Islamic Republic of",
            "countryAbbr": "IR",
            "city": "Tehran",
            "responsible": "Jari Pere",
            "address": "St Sport, Phase 1, Ekbatan Town, Tehran, Iran, Islamic Republic of",
            "website": null
        },
        {
            "id": 4267,
            "name": "Hangon Hyrskyt",
            "federationAbbr": "IBJJF",
            "country": "Finland",
            "countryAbbr": "FI",
            "city": "Hanko",
            "responsible": "Tony Erik Backman",
            "address": "Lahteentie 4  , , Hanko, --, Finland",
            "website": "www.hahy.fi/kamppailu"
        },
        {
            "id": 7070,
            "name": "Harimau Jiu-Jitsu",
            "federationAbbr": "IBJJF",
            "country": "Philippines",
            "countryAbbr": "PH",
            "city": "Puerto Princesa",
            "responsible": "Dimitri Alecsandro Pilalis",
            "address": "Bonifacio Street, Cayapas Bldg, 3rd Floor,, Puerto Princesa, Palawan, Philippines",
            "website": "www.faddabjj.com"
        },
        {
            "id": 9195,
            "name": "Harmonia Jiu-jitsu Gfjj",
            "federationAbbr": "CBJJ",
            "country": "Brasil",
            "countryAbbr": "BR",
            "city": "Manaus",
            "responsible": "Alessandro Narciso da Silva Guimarães",
            "address": "386 Comendador Jose Cruz, Manaus, Amazonas, Brasil",
            "website": "Alessandro Guimarães jj"
        },
        {
            "id": 9262,
            "name": "Harpiya",
            "federationAbbr": "IBJJF",
            "country": "Qatar",
            "countryAbbr": "QA",
            "city": "Al Wakrah",
            "responsible": "Bruno Ferreira Cuppari",
            "address": "Block 4, 1st Floor Office 7,  Building 29, St 295, Zone 91, Al Wakrah, Qatar",
            "website": null
        },
        {
            "id": 3850,
            "name": "Harris International Team",
            "federationAbbr": "IBJJF",
            "country": "Mexico",
            "countryAbbr": "MX",
            "city": "Mexicali",
            "responsible": "Roy Christopher Harris",
            "address": "Calle Ebanistas Sur 968-6  , , Mexicali, BC, Mexico",
            "website": "www.bajabjj.com"
        },
        {
            "id": 7718,
            "name": "Hart Jiu-Jitsu",
            "federationAbbr": "USBJJF",
            "country": "United States of America",
            "countryAbbr": "US",
            "city": "Woodstock",
            "responsible": "Daniel Theodore Hart",
            "address": "222 N Benton St, Woodstock, Illinois, United States of America",
            "website": "www.alphajiujitsu.com"
        },
        {
            "id": 7988,
            "name": "Hattori Jiu-Jitsu",
            "federationAbbr": "CBJJ",
            "country": "Brasil",
            "countryAbbr": "BR",
            "city": "Descanso",
            "responsible": "Ricardo Dutra de Campos",
            "address": "Avenida Martim Piaseski, Sala, Descanso, Santa Catarina, Brasil",
            "website": null
        },
        {
            "id": 4954,
            "name": "Haubert Team",
            "federationAbbr": "CBJJ",
            "country": "Brasil",
            "countryAbbr": "BR",
            "city": "Estrela",
            "responsible": "Miguel Anka",
            "address": "Av Rio Branco, 327, Oriental, Estrela, RS, Brasil",
            "website": null
        },
        {
            "id": 10303,
            "name": "Hauly Combat Team",
            "federationAbbr": "CBJJ",
            "country": "Brasil",
            "countryAbbr": "BR",
            "city": "Cambé",
            "responsible": "Fabio Jorge Hauly",
            "address": "Rua Genésio Geraldo Dos Santos Nº 100, Cambé, Paraná, Brasil",
            "website": null
        },
        {
            "id": 9782,
            "name": "Havanti BJJ",
            "federationAbbr": "CBJJ",
            "country": "Brasil",
            "countryAbbr": "BR",
            "city": "Marabá",
            "responsible": "Reginaldo  Borcem Coelho",
            "address": "Folha 27 Quadra 18 Lote 03, A, Marabá, Pará, Brasil",
            "website": null
        }
    ]
}